{
  "arch": "x86_64", 
  "build": "py27_0", 
  "build_number": 0, 
  "depends": [
    "python 2.7*"
  ], 
  "license": "MIT", 
  "name": "sqlalchemy", 
  "platform": "linux", 
  "subdir": "linux-64", 
  "version": "1.1.2"
}