{
  "arch": "x86_64", 
  "build": "py27_1", 
  "build_number": 1, 
  "channel": "https://repo.continuum.io/pkgs/free/linux-64/", 
  "date": "2015-10-22", 
  "depends": [
    "python 2.7*"
  ], 
  "files": [
    "lib/python2.7/site-packages/_license.so"
  ], 
  "license": "proprietary - Continuum Analytics, Inc.", 
  "license_family": "Proprietary", 
  "link": {
    "source": "/home/fdavilakurban/.conda/envs/.pkgs/_license-1.1-py27_1", 
    "type": "hard-link"
  }, 
  "md5": "dda038d00d891fc1b747471b2d248595", 
  "name": "_license", 
  "platform": "linux", 
  "requires": [], 
  "size": 277974, 
  "subdir": "linux-64", 
  "ucs": 4, 
  "url": "https://repo.continuum.io/pkgs/free/linux-64/_license-1.1-py27_1.tar.bz2", 
  "version": "1.1"
}