{
  "arch": "x86_64", 
  "build": "py27_0", 
  "build_number": 0, 
  "channel": "https://repo.continuum.io/pkgs/free/linux-64", 
  "date": "2016-09-22", 
  "depends": [
    "_license", 
    "anaconda-client >=1.4.0", 
    "pillow", 
    "pyqt >=5.0", 
    "python 2.7*", 
    "pyyaml", 
    "qtpy >=1.0"
  ], 
  "files": [
    "bin/anaconda-navigator", 
    "lib/python2.7/site-packages/anaconda_navigator-1.3.1-py2.7.egg-info/PKG-INFO", 
    "lib/python2.7/site-packages/anaconda_navigator-1.3.1-py2.7.egg-info/SOURCES.txt", 
    "lib/python2.7/site-packages/anaconda_navigator-1.3.1-py2.7.egg-info/dependency_links.txt", 
    "lib/python2.7/site-packages/anaconda_navigator-1.3.1-py2.7.egg-info/entry_points.txt", 
    "lib/python2.7/site-packages/anaconda_navigator-1.3.1-py2.7.egg-info/top_level.txt", 
    "lib/python2.7/site-packages/anaconda_navigator/__init__.py", 
    "lib/python2.7/site-packages/anaconda_navigator/__init__.pyc", 
    "lib/python2.7/site-packages/anaconda_navigator/api/__init__.py", 
    "lib/python2.7/site-packages/anaconda_navigator/api/__init__.pyc", 
    "lib/python2.7/site-packages/anaconda_navigator/api/anaconda_api.py", 
    "lib/python2.7/site-packages/anaconda_navigator/api/anaconda_api.pyc", 
    "lib/python2.7/site-packages/anaconda_navigator/api/client_api.py", 
    "lib/python2.7/site-packages/anaconda_navigator/api/client_api.pyc", 
    "lib/python2.7/site-packages/anaconda_navigator/api/conda_api.py", 
    "lib/python2.7/site-packages/anaconda_navigator/api/conda_api.pyc", 
    "lib/python2.7/site-packages/anaconda_navigator/api/download_api.py", 
    "lib/python2.7/site-packages/anaconda_navigator/api/download_api.pyc", 
    "lib/python2.7/site-packages/anaconda_navigator/app/__init__.py", 
    "lib/python2.7/site-packages/anaconda_navigator/app/__init__.pyc", 
    "lib/python2.7/site-packages/anaconda_navigator/app/icons/Icon1024.png", 
    "lib/python2.7/site-packages/anaconda_navigator/app/icons/MyIcon.icns", 
    "lib/python2.7/site-packages/anaconda_navigator/app/icons/__init__.py", 
    "lib/python2.7/site-packages/anaconda_navigator/app/icons/__init__.pyc", 
    "lib/python2.7/site-packages/anaconda_navigator/app/main.py", 
    "lib/python2.7/site-packages/anaconda_navigator/app/main.pyc", 
    "lib/python2.7/site-packages/anaconda_navigator/config/__init__.py", 
    "lib/python2.7/site-packages/anaconda_navigator/config/__init__.pyc", 
    "lib/python2.7/site-packages/anaconda_navigator/config/base.py", 
    "lib/python2.7/site-packages/anaconda_navigator/config/base.pyc", 
    "lib/python2.7/site-packages/anaconda_navigator/config/main.py", 
    "lib/python2.7/site-packages/anaconda_navigator/config/main.pyc", 
    "lib/python2.7/site-packages/anaconda_navigator/config/user.py", 
    "lib/python2.7/site-packages/anaconda_navigator/config/user.pyc", 
    "lib/python2.7/site-packages/anaconda_navigator/external/UniversalAnalytics/HTTPLog.py", 
    "lib/python2.7/site-packages/anaconda_navigator/external/UniversalAnalytics/HTTPLog.pyc", 
    "lib/python2.7/site-packages/anaconda_navigator/external/UniversalAnalytics/Tracker.py", 
    "lib/python2.7/site-packages/anaconda_navigator/external/UniversalAnalytics/Tracker.pyc", 
    "lib/python2.7/site-packages/anaconda_navigator/external/UniversalAnalytics/__init__.py", 
    "lib/python2.7/site-packages/anaconda_navigator/external/UniversalAnalytics/__init__.pyc", 
    "lib/python2.7/site-packages/anaconda_navigator/external/UniversalAnalytics/tests/__init__.py", 
    "lib/python2.7/site-packages/anaconda_navigator/external/UniversalAnalytics/tests/__init__.pyc", 
    "lib/python2.7/site-packages/anaconda_navigator/external/__init__.py", 
    "lib/python2.7/site-packages/anaconda_navigator/external/__init__.pyc", 
    "lib/python2.7/site-packages/anaconda_navigator/static/__init__.py", 
    "lib/python2.7/site-packages/anaconda_navigator/static/__init__.pyc", 
    "lib/python2.7/site-packages/anaconda_navigator/static/content/__init__.py", 
    "lib/python2.7/site-packages/anaconda_navigator/static/content/__init__.pyc", 
    "lib/python2.7/site-packages/anaconda_navigator/static/content/links.json", 
    "lib/python2.7/site-packages/anaconda_navigator/static/css/__init__.py", 
    "lib/python2.7/site-packages/anaconda_navigator/static/css/__init__.pyc", 
    "lib/python2.7/site-packages/anaconda_navigator/static/css/styles.css", 
    "lib/python2.7/site-packages/anaconda_navigator/static/css/styles.scss", 
    "lib/python2.7/site-packages/anaconda_navigator/static/fonts/Ubuntu-B.ttf", 
    "lib/python2.7/site-packages/anaconda_navigator/static/fonts/Ubuntu-BI.ttf", 
    "lib/python2.7/site-packages/anaconda_navigator/static/fonts/Ubuntu-C.ttf", 
    "lib/python2.7/site-packages/anaconda_navigator/static/fonts/Ubuntu-L.ttf", 
    "lib/python2.7/site-packages/anaconda_navigator/static/fonts/Ubuntu-LI.ttf", 
    "lib/python2.7/site-packages/anaconda_navigator/static/fonts/Ubuntu-M.ttf", 
    "lib/python2.7/site-packages/anaconda_navigator/static/fonts/Ubuntu-MI.ttf", 
    "lib/python2.7/site-packages/anaconda_navigator/static/fonts/Ubuntu-R.ttf", 
    "lib/python2.7/site-packages/anaconda_navigator/static/fonts/Ubuntu-RI.ttf", 
    "lib/python2.7/site-packages/anaconda_navigator/static/fonts/UbuntuMono-B.ttf", 
    "lib/python2.7/site-packages/anaconda_navigator/static/fonts/UbuntuMono-BI.ttf", 
    "lib/python2.7/site-packages/anaconda_navigator/static/fonts/UbuntuMono-R.ttf", 
    "lib/python2.7/site-packages/anaconda_navigator/static/fonts/UbuntuMono-RI.ttf", 
    "lib/python2.7/site-packages/anaconda_navigator/static/fonts/__init__.py", 
    "lib/python2.7/site-packages/anaconda_navigator/static/fonts/__init__.pyc", 
    "lib/python2.7/site-packages/anaconda_navigator/static/images/__init__.py", 
    "lib/python2.7/site-packages/anaconda_navigator/static/images/__init__.pyc", 
    "lib/python2.7/site-packages/anaconda_navigator/static/images/anaconda-icon-1024x1024.png", 
    "lib/python2.7/site-packages/anaconda_navigator/static/images/anaconda-icon-128x128.png", 
    "lib/python2.7/site-packages/anaconda_navigator/static/images/anaconda-icon-16x16.png", 
    "lib/python2.7/site-packages/anaconda_navigator/static/images/anaconda-icon-24x24.png", 
    "lib/python2.7/site-packages/anaconda_navigator/static/images/anaconda-icon-256x256.png", 
    "lib/python2.7/site-packages/anaconda_navigator/static/images/anaconda-icon-32x32.png", 
    "lib/python2.7/site-packages/anaconda_navigator/static/images/anaconda-icon-48x48.png", 
    "lib/python2.7/site-packages/anaconda_navigator/static/images/anaconda-icon-512x512.png", 
    "lib/python2.7/site-packages/anaconda_navigator/static/images/anaconda-icon-64x64.png", 
    "lib/python2.7/site-packages/anaconda_navigator/static/images/anaconda-icon-75x75.png", 
    "lib/python2.7/site-packages/anaconda_navigator/static/images/anaconda-icon-large-1.png", 
    "lib/python2.7/site-packages/anaconda_navigator/static/images/anaconda-navigator-logo.png", 
    "lib/python2.7/site-packages/anaconda_navigator/static/images/anaconda-navigator-logo.svg", 
    "lib/python2.7/site-packages/anaconda_navigator/static/images/anaconda.png", 
    "lib/python2.7/site-packages/anaconda_navigator/static/images/conda-manager-spacer.svg", 
    "lib/python2.7/site-packages/anaconda_navigator/static/images/default-content.png", 
    "lib/python2.7/site-packages/anaconda_navigator/static/images/glueviz-icon-1024x1024.png", 
    "lib/python2.7/site-packages/anaconda_navigator/static/images/icon-import.svg", 
    "lib/python2.7/site-packages/anaconda_navigator/static/images/icons/arrow-left.svg", 
    "lib/python2.7/site-packages/anaconda_navigator/static/images/icons/arrow-right.svg", 
    "lib/python2.7/site-packages/anaconda_navigator/static/images/icons/check-active.svg", 
    "lib/python2.7/site-packages/anaconda_navigator/static/images/icons/check-box-active.svg", 
    "lib/python2.7/site-packages/anaconda_navigator/static/images/icons/check-box-blank.svg", 
    "lib/python2.7/site-packages/anaconda_navigator/static/images/icons/check-box-checked-active.svg", 
    "lib/python2.7/site-packages/anaconda_navigator/static/images/icons/check-box-checked-disabled.svg", 
    "lib/python2.7/site-packages/anaconda_navigator/static/images/icons/check-box-checked.svg", 
    "lib/python2.7/site-packages/anaconda_navigator/static/images/icons/check-box-disabled.svg", 
    "lib/python2.7/site-packages/anaconda_navigator/static/images/icons/check-box.svg", 
    "lib/python2.7/site-packages/anaconda_navigator/static/images/icons/check.svg", 
    "lib/python2.7/site-packages/anaconda_navigator/static/images/icons/close-active.svg", 
    "lib/python2.7/site-packages/anaconda_navigator/static/images/icons/close.svg", 
    "lib/python2.7/site-packages/anaconda_navigator/static/images/icons/community-active.svg", 
    "lib/python2.7/site-packages/anaconda_navigator/static/images/icons/community.svg", 
    "lib/python2.7/site-packages/anaconda_navigator/static/images/icons/delete-active.svg", 
    "lib/python2.7/site-packages/anaconda_navigator/static/images/icons/delete-forever-active.svg", 
    "lib/python2.7/site-packages/anaconda_navigator/static/images/icons/delete-forever.svg", 
    "lib/python2.7/site-packages/anaconda_navigator/static/images/icons/delete.svg", 
    "lib/python2.7/site-packages/anaconda_navigator/static/images/icons/env-active.svg", 
    "lib/python2.7/site-packages/anaconda_navigator/static/images/icons/env-add-active.svg", 
    "lib/python2.7/site-packages/anaconda_navigator/static/images/icons/env-add.svg", 
    "lib/python2.7/site-packages/anaconda_navigator/static/images/icons/env-clone-active.svg", 
    "lib/python2.7/site-packages/anaconda_navigator/static/images/icons/env-clone.svg", 
    "lib/python2.7/site-packages/anaconda_navigator/static/images/icons/env-import-active.svg", 
    "lib/python2.7/site-packages/anaconda_navigator/static/images/icons/env-import.svg", 
    "lib/python2.7/site-packages/anaconda_navigator/static/images/icons/env.svg", 
    "lib/python2.7/site-packages/anaconda_navigator/static/images/icons/facebook.svg", 
    "lib/python2.7/site-packages/anaconda_navigator/static/images/icons/github-active.svg", 
    "lib/python2.7/site-packages/anaconda_navigator/static/images/icons/github.svg", 
    "lib/python2.7/site-packages/anaconda_navigator/static/images/icons/home-active.svg", 
    "lib/python2.7/site-packages/anaconda_navigator/static/images/icons/home.svg", 
    "lib/python2.7/site-packages/anaconda_navigator/static/images/icons/info-active.svg", 
    "lib/python2.7/site-packages/anaconda_navigator/static/images/icons/info-green-active.svg", 
    "lib/python2.7/site-packages/anaconda_navigator/static/images/icons/info-green.svg", 
    "lib/python2.7/site-packages/anaconda_navigator/static/images/icons/info-outline.svg", 
    "lib/python2.7/site-packages/anaconda_navigator/static/images/icons/info.svg", 
    "lib/python2.7/site-packages/anaconda_navigator/static/images/icons/install-app.svg", 
    "lib/python2.7/site-packages/anaconda_navigator/static/images/icons/launch-app.svg", 
    "lib/python2.7/site-packages/anaconda_navigator/static/images/icons/learning-active.svg", 
    "lib/python2.7/site-packages/anaconda_navigator/static/images/icons/learning.svg", 
    "lib/python2.7/site-packages/anaconda_navigator/static/images/icons/mark-downgrade.svg", 
    "lib/python2.7/site-packages/anaconda_navigator/static/images/icons/mark-install.svg", 
    "lib/python2.7/site-packages/anaconda_navigator/static/images/icons/mark-remove.svg", 
    "lib/python2.7/site-packages/anaconda_navigator/static/images/icons/mark-upgrade.svg", 
    "lib/python2.7/site-packages/anaconda_navigator/static/images/icons/open-active.svg", 
    "lib/python2.7/site-packages/anaconda_navigator/static/images/icons/open.svg", 
    "lib/python2.7/site-packages/anaconda_navigator/static/images/icons/play-arrow-active.svg", 
    "lib/python2.7/site-packages/anaconda_navigator/static/images/icons/play-arrow.svg", 
    "lib/python2.7/site-packages/anaconda_navigator/static/images/icons/play-circle-filled-active.svg", 
    "lib/python2.7/site-packages/anaconda_navigator/static/images/icons/play-circle-filled.svg", 
    "lib/python2.7/site-packages/anaconda_navigator/static/images/icons/remove.svg", 
    "lib/python2.7/site-packages/anaconda_navigator/static/images/icons/report.svg", 
    "lib/python2.7/site-packages/anaconda_navigator/static/images/icons/search.svg", 
    "lib/python2.7/site-packages/anaconda_navigator/static/images/icons/settings.svg", 
    "lib/python2.7/site-packages/anaconda_navigator/static/images/icons/sort-asc.svg", 
    "lib/python2.7/site-packages/anaconda_navigator/static/images/icons/sort-desc.svg", 
    "lib/python2.7/site-packages/anaconda_navigator/static/images/icons/twitter-active.svg", 
    "lib/python2.7/site-packages/anaconda_navigator/static/images/icons/twitter.svg", 
    "lib/python2.7/site-packages/anaconda_navigator/static/images/icons/update-app-active.svg", 
    "lib/python2.7/site-packages/anaconda_navigator/static/images/icons/update-app.svg", 
    "lib/python2.7/site-packages/anaconda_navigator/static/images/icons/update_app.svg", 
    "lib/python2.7/site-packages/anaconda_navigator/static/images/icons/warning-active.svg", 
    "lib/python2.7/site-packages/anaconda_navigator/static/images/icons/youtube-active.svg", 
    "lib/python2.7/site-packages/anaconda_navigator/static/images/icons/youtube.svg", 
    "lib/python2.7/site-packages/anaconda_navigator/static/images/ipython-notebook-icon-1024x1024.png", 
    "lib/python2.7/site-packages/anaconda_navigator/static/images/ipython-qtconsole-icon-1024x1024.png", 
    "lib/python2.7/site-packages/anaconda_navigator/static/images/jupyter-icon-1024x1024.png", 
    "lib/python2.7/site-packages/anaconda_navigator/static/images/orange-icon-1024x1024.png", 
    "lib/python2.7/site-packages/anaconda_navigator/static/images/python.png", 
    "lib/python2.7/site-packages/anaconda_navigator/static/images/rodeo-icon-1024x1024.png", 
    "lib/python2.7/site-packages/anaconda_navigator/static/images/rodeo-icon-1024x1024.svg", 
    "lib/python2.7/site-packages/anaconda_navigator/static/images/spacer.png", 
    "lib/python2.7/site-packages/anaconda_navigator/static/images/spinner-16x16.gif", 
    "lib/python2.7/site-packages/anaconda_navigator/static/images/spinner-32x32.gif", 
    "lib/python2.7/site-packages/anaconda_navigator/static/images/spinner-green-16x16.gif", 
    "lib/python2.7/site-packages/anaconda_navigator/static/images/spinner-white-16x16.gif", 
    "lib/python2.7/site-packages/anaconda_navigator/static/images/spyder-icon-1024x1024.png", 
    "lib/python2.7/site-packages/anaconda_navigator/static/images/veusz-icon-1024x1024.png", 
    "lib/python2.7/site-packages/anaconda_navigator/static/images/veusz-icon-1024x1024.svg", 
    "lib/python2.7/site-packages/anaconda_navigator/utils/__init__.py", 
    "lib/python2.7/site-packages/anaconda_navigator/utils/__init__.pyc", 
    "lib/python2.7/site-packages/anaconda_navigator/utils/analytics.py", 
    "lib/python2.7/site-packages/anaconda_navigator/utils/analytics.pyc", 
    "lib/python2.7/site-packages/anaconda_navigator/utils/constants.py", 
    "lib/python2.7/site-packages/anaconda_navigator/utils/constants.pyc", 
    "lib/python2.7/site-packages/anaconda_navigator/utils/encoding.py", 
    "lib/python2.7/site-packages/anaconda_navigator/utils/encoding.pyc", 
    "lib/python2.7/site-packages/anaconda_navigator/utils/findpip.py", 
    "lib/python2.7/site-packages/anaconda_navigator/utils/findpip.pyc", 
    "lib/python2.7/site-packages/anaconda_navigator/utils/fixtures.py", 
    "lib/python2.7/site-packages/anaconda_navigator/utils/fixtures.pyc", 
    "lib/python2.7/site-packages/anaconda_navigator/utils/launch.py", 
    "lib/python2.7/site-packages/anaconda_navigator/utils/launch.pyc", 
    "lib/python2.7/site-packages/anaconda_navigator/utils/logs.py", 
    "lib/python2.7/site-packages/anaconda_navigator/utils/logs.pyc", 
    "lib/python2.7/site-packages/anaconda_navigator/utils/pretty_json.py", 
    "lib/python2.7/site-packages/anaconda_navigator/utils/pretty_json.pyc", 
    "lib/python2.7/site-packages/anaconda_navigator/utils/py3compat.py", 
    "lib/python2.7/site-packages/anaconda_navigator/utils/py3compat.pyc", 
    "lib/python2.7/site-packages/anaconda_navigator/utils/qthelpers.py", 
    "lib/python2.7/site-packages/anaconda_navigator/utils/qthelpers.pyc", 
    "lib/python2.7/site-packages/anaconda_navigator/utils/styles.py", 
    "lib/python2.7/site-packages/anaconda_navigator/utils/styles.pyc", 
    "lib/python2.7/site-packages/anaconda_navigator/widgets/__init__.py", 
    "lib/python2.7/site-packages/anaconda_navigator/widgets/__init__.pyc", 
    "lib/python2.7/site-packages/anaconda_navigator/widgets/dialogs/__init__.py", 
    "lib/python2.7/site-packages/anaconda_navigator/widgets/dialogs/__init__.pyc", 
    "lib/python2.7/site-packages/anaconda_navigator/widgets/dialogs/about.py", 
    "lib/python2.7/site-packages/anaconda_navigator/widgets/dialogs/about.pyc", 
    "lib/python2.7/site-packages/anaconda_navigator/widgets/dialogs/channels.py", 
    "lib/python2.7/site-packages/anaconda_navigator/widgets/dialogs/channels.pyc", 
    "lib/python2.7/site-packages/anaconda_navigator/widgets/dialogs/environment.py", 
    "lib/python2.7/site-packages/anaconda_navigator/widgets/dialogs/environment.pyc", 
    "lib/python2.7/site-packages/anaconda_navigator/widgets/dialogs/license.py", 
    "lib/python2.7/site-packages/anaconda_navigator/widgets/dialogs/license.pyc", 
    "lib/python2.7/site-packages/anaconda_navigator/widgets/dialogs/logger.py", 
    "lib/python2.7/site-packages/anaconda_navigator/widgets/dialogs/logger.pyc", 
    "lib/python2.7/site-packages/anaconda_navigator/widgets/dialogs/login.py", 
    "lib/python2.7/site-packages/anaconda_navigator/widgets/dialogs/login.pyc", 
    "lib/python2.7/site-packages/anaconda_navigator/widgets/dialogs/preferences.py", 
    "lib/python2.7/site-packages/anaconda_navigator/widgets/dialogs/preferences.pyc", 
    "lib/python2.7/site-packages/anaconda_navigator/widgets/dialogs/quit.py", 
    "lib/python2.7/site-packages/anaconda_navigator/widgets/dialogs/quit.pyc", 
    "lib/python2.7/site-packages/anaconda_navigator/widgets/dialogs/splash.py", 
    "lib/python2.7/site-packages/anaconda_navigator/widgets/dialogs/splash.pyc", 
    "lib/python2.7/site-packages/anaconda_navigator/widgets/dialogs/tests/__init__.py", 
    "lib/python2.7/site-packages/anaconda_navigator/widgets/dialogs/tests/__init__.pyc", 
    "lib/python2.7/site-packages/anaconda_navigator/widgets/dialogs/tests/test_about_dialog.py", 
    "lib/python2.7/site-packages/anaconda_navigator/widgets/dialogs/tests/test_about_dialog.pyc", 
    "lib/python2.7/site-packages/anaconda_navigator/widgets/dialogs/tests/test_channels.py", 
    "lib/python2.7/site-packages/anaconda_navigator/widgets/dialogs/tests/test_channels.pyc", 
    "lib/python2.7/site-packages/anaconda_navigator/widgets/dialogs/tests/test_environment_dialogs.py", 
    "lib/python2.7/site-packages/anaconda_navigator/widgets/dialogs/tests/test_environment_dialogs.pyc", 
    "lib/python2.7/site-packages/anaconda_navigator/widgets/dialogs/tests/test_license_manager.py", 
    "lib/python2.7/site-packages/anaconda_navigator/widgets/dialogs/tests/test_license_manager.pyc", 
    "lib/python2.7/site-packages/anaconda_navigator/widgets/dialogs/tests/test_logger.py", 
    "lib/python2.7/site-packages/anaconda_navigator/widgets/dialogs/tests/test_logger.pyc", 
    "lib/python2.7/site-packages/anaconda_navigator/widgets/dialogs/tests/test_login_dialog.py", 
    "lib/python2.7/site-packages/anaconda_navigator/widgets/dialogs/tests/test_login_dialog.pyc", 
    "lib/python2.7/site-packages/anaconda_navigator/widgets/dialogs/tests/test_preferences.py", 
    "lib/python2.7/site-packages/anaconda_navigator/widgets/dialogs/tests/test_preferences.pyc", 
    "lib/python2.7/site-packages/anaconda_navigator/widgets/dialogs/tests/test_quit_dialog.py", 
    "lib/python2.7/site-packages/anaconda_navigator/widgets/dialogs/tests/test_quit_dialog.pyc", 
    "lib/python2.7/site-packages/anaconda_navigator/widgets/dialogs/tests/test_splash.py", 
    "lib/python2.7/site-packages/anaconda_navigator/widgets/dialogs/tests/test_splash.pyc", 
    "lib/python2.7/site-packages/anaconda_navigator/widgets/dialogs/tests/test_update_dialog.py", 
    "lib/python2.7/site-packages/anaconda_navigator/widgets/dialogs/tests/test_update_dialog.pyc", 
    "lib/python2.7/site-packages/anaconda_navigator/widgets/dialogs/update.py", 
    "lib/python2.7/site-packages/anaconda_navigator/widgets/dialogs/update.pyc", 
    "lib/python2.7/site-packages/anaconda_navigator/widgets/helperwidgets.py", 
    "lib/python2.7/site-packages/anaconda_navigator/widgets/helperwidgets.pyc", 
    "lib/python2.7/site-packages/anaconda_navigator/widgets/lists/__init__.py", 
    "lib/python2.7/site-packages/anaconda_navigator/widgets/lists/__init__.pyc", 
    "lib/python2.7/site-packages/anaconda_navigator/widgets/lists/apps.py", 
    "lib/python2.7/site-packages/anaconda_navigator/widgets/lists/apps.pyc", 
    "lib/python2.7/site-packages/anaconda_navigator/widgets/lists/content.py", 
    "lib/python2.7/site-packages/anaconda_navigator/widgets/lists/content.pyc", 
    "lib/python2.7/site-packages/anaconda_navigator/widgets/lists/environments.py", 
    "lib/python2.7/site-packages/anaconda_navigator/widgets/lists/environments.pyc", 
    "lib/python2.7/site-packages/anaconda_navigator/widgets/main_window.py", 
    "lib/python2.7/site-packages/anaconda_navigator/widgets/main_window.pyc", 
    "lib/python2.7/site-packages/anaconda_navigator/widgets/manager/__init__.py", 
    "lib/python2.7/site-packages/anaconda_navigator/widgets/manager/__init__.pyc", 
    "lib/python2.7/site-packages/anaconda_navigator/widgets/manager/filter.py", 
    "lib/python2.7/site-packages/anaconda_navigator/widgets/manager/filter.pyc", 
    "lib/python2.7/site-packages/anaconda_navigator/widgets/manager/model.py", 
    "lib/python2.7/site-packages/anaconda_navigator/widgets/manager/model.pyc", 
    "lib/python2.7/site-packages/anaconda_navigator/widgets/manager/packages.py", 
    "lib/python2.7/site-packages/anaconda_navigator/widgets/manager/packages.pyc", 
    "lib/python2.7/site-packages/anaconda_navigator/widgets/manager/table.py", 
    "lib/python2.7/site-packages/anaconda_navigator/widgets/manager/table.pyc", 
    "lib/python2.7/site-packages/anaconda_navigator/widgets/tabs/__init__.py", 
    "lib/python2.7/site-packages/anaconda_navigator/widgets/tabs/__init__.pyc", 
    "lib/python2.7/site-packages/anaconda_navigator/widgets/tabs/community.py", 
    "lib/python2.7/site-packages/anaconda_navigator/widgets/tabs/community.pyc", 
    "lib/python2.7/site-packages/anaconda_navigator/widgets/tabs/environments.py", 
    "lib/python2.7/site-packages/anaconda_navigator/widgets/tabs/environments.pyc", 
    "lib/python2.7/site-packages/anaconda_navigator/widgets/tabs/home.py", 
    "lib/python2.7/site-packages/anaconda_navigator/widgets/tabs/home.pyc", 
    "lib/python2.7/site-packages/anaconda_navigator/widgets/tabs/tabwidget.py", 
    "lib/python2.7/site-packages/anaconda_navigator/widgets/tabs/tabwidget.pyc", 
    "lib/python2.7/site-packages/anaconda_navigator/widgets/tabs/tests/__init__.py", 
    "lib/python2.7/site-packages/anaconda_navigator/widgets/tabs/tests/__init__.pyc", 
    "lib/python2.7/site-packages/anaconda_navigator/widgets/tabs/tests/test_community_tab.py", 
    "lib/python2.7/site-packages/anaconda_navigator/widgets/tabs/tests/test_community_tab.pyc", 
    "lib/python2.7/site-packages/anaconda_navigator/widgets/tabs/tests/test_environments_tab.py", 
    "lib/python2.7/site-packages/anaconda_navigator/widgets/tabs/tests/test_environments_tab.pyc", 
    "lib/python2.7/site-packages/anaconda_navigator/widgets/tests/__init__.py", 
    "lib/python2.7/site-packages/anaconda_navigator/widgets/tests/__init__.pyc", 
    "lib/python2.7/site-packages/anaconda_navigator/widgets/tests/test_main_window.py", 
    "lib/python2.7/site-packages/anaconda_navigator/widgets/tests/test_main_window.pyc"
  ], 
  "fn": "anaconda-navigator-1.3.1-py27_0.tar.bz2", 
  "license": "proprietary - Continuum Analytics, Inc.", 
  "license_family": "Proprietary", 
  "link": {
    "source": "/home/fdavilakurban/.conda/envs/.pkgs/anaconda-navigator-1.3.1-py27_0", 
    "type": "hard-link"
  }, 
  "md5": "9bf405bb533d47f805ab26499887254c", 
  "name": "anaconda-navigator", 
  "platform": "linux", 
  "priority": 0, 
  "requires": [], 
  "schannel": "defaults", 
  "size": 3211525, 
  "subdir": "linux-64", 
  "url": "https://repo.continuum.io/pkgs/free/linux-64/anaconda-navigator-1.3.1-py27_0.tar.bz2", 
  "version": "1.3.1"
}