{
  "arch": "x86_64", 
  "build": "py27_0", 
  "build_number": 0, 
  "channel": "https://repo.continuum.io/pkgs/free/linux-64/", 
  "date": "2016-03-24", 
  "depends": [
    "python 2.7*"
  ], 
  "files": [
    "lib/python2.7/site-packages/colorama-0.3.7-py2.7.egg-info", 
    "lib/python2.7/site-packages/colorama/__init__.py", 
    "lib/python2.7/site-packages/colorama/__init__.pyc", 
    "lib/python2.7/site-packages/colorama/ansi.py", 
    "lib/python2.7/site-packages/colorama/ansi.pyc", 
    "lib/python2.7/site-packages/colorama/ansitowin32.py", 
    "lib/python2.7/site-packages/colorama/ansitowin32.pyc", 
    "lib/python2.7/site-packages/colorama/initialise.py", 
    "lib/python2.7/site-packages/colorama/initialise.pyc", 
    "lib/python2.7/site-packages/colorama/win32.py", 
    "lib/python2.7/site-packages/colorama/win32.pyc", 
    "lib/python2.7/site-packages/colorama/winterm.py", 
    "lib/python2.7/site-packages/colorama/winterm.pyc"
  ], 
  "license": "BSD", 
  "link": {
    "source": "/opt/anaconda/2/4.0.0/pkgs/colorama-0.3.7-py27_0", 
    "type": "soft-link"
  }, 
  "md5": "0e664c202b9f776cb5b94321eaeddfb8", 
  "name": "colorama", 
  "platform": "linux", 
  "requires": [], 
  "size": 19609, 
  "subdir": "linux-64", 
  "url": "https://repo.continuum.io/pkgs/free/linux-64/colorama-0.3.7-py27_0.tar.bz2", 
  "version": "0.3.7"
}