{
  "arch": "x86_64", 
  "build": "py27_0", 
  "build_number": 0, 
  "channel": "https://repo.continuum.io/pkgs/free/linux-64/", 
  "date": "2016-07-13", 
  "depends": [
    "backports", 
    "python 2.7*"
  ], 
  "files": [
    "lib/python2.7/site-packages/backports/configparser/__init__.py", 
    "lib/python2.7/site-packages/backports/configparser/__init__.pyc", 
    "lib/python2.7/site-packages/backports/configparser/helpers.py", 
    "lib/python2.7/site-packages/backports/configparser/helpers.pyc", 
    "lib/python2.7/site-packages/configparser-3.5.0-py2.7.egg-info/PKG-INFO", 
    "lib/python2.7/site-packages/configparser-3.5.0-py2.7.egg-info/SOURCES.txt", 
    "lib/python2.7/site-packages/configparser-3.5.0-py2.7.egg-info/dependency_links.txt", 
    "lib/python2.7/site-packages/configparser-3.5.0-py2.7.egg-info/namespace_packages.txt", 
    "lib/python2.7/site-packages/configparser-3.5.0-py2.7.egg-info/not-zip-safe", 
    "lib/python2.7/site-packages/configparser-3.5.0-py2.7.egg-info/top_level.txt", 
    "lib/python2.7/site-packages/configparser.py", 
    "lib/python2.7/site-packages/configparser.pyc"
  ], 
  "license": "MIT", 
  "link": {
    "source": "/home/fdavilakurban/.conda/envs/.pkgs/configparser-3.5.0-py27_0", 
    "type": "hard-link"
  }, 
  "md5": "2ee94cf0f0fee3e7bf1c78368d79873a", 
  "name": "configparser", 
  "platform": "linux", 
  "requires": [], 
  "size": 31804, 
  "subdir": "linux-64", 
  "url": "https://repo.continuum.io/pkgs/free/linux-64/configparser-3.5.0-py27_0.tar.bz2", 
  "version": "3.5.0"
}