{
  "arch": "x86_64", 
  "build": "py27_0", 
  "build_number": 0, 
  "channel": "https://repo.continuum.io/pkgs/free/linux-64", 
  "date": "2016-08-30", 
  "depends": [
    "cffi >=1.4.1", 
    "enum34", 
    "idna >=2.0", 
    "ipaddress", 
    "openssl 1.0.2*", 
    "pyasn1 >=0.1.8", 
    "python 2.7*", 
    "setuptools", 
    "six >=1.4.1"
  ], 
  "files": [
    "lib/python2.7/site-packages/cryptography-1.5-py2.7.egg-info/PKG-INFO", 
    "lib/python2.7/site-packages/cryptography-1.5-py2.7.egg-info/SOURCES.txt", 
    "lib/python2.7/site-packages/cryptography-1.5-py2.7.egg-info/dependency_links.txt", 
    "lib/python2.7/site-packages/cryptography-1.5-py2.7.egg-info/entry_points.txt", 
    "lib/python2.7/site-packages/cryptography-1.5-py2.7.egg-info/not-zip-safe", 
    "lib/python2.7/site-packages/cryptography-1.5-py2.7.egg-info/requires.txt", 
    "lib/python2.7/site-packages/cryptography-1.5-py2.7.egg-info/top_level.txt", 
    "lib/python2.7/site-packages/cryptography/__about__.py", 
    "lib/python2.7/site-packages/cryptography/__about__.pyc", 
    "lib/python2.7/site-packages/cryptography/__init__.py", 
    "lib/python2.7/site-packages/cryptography/__init__.pyc", 
    "lib/python2.7/site-packages/cryptography/exceptions.py", 
    "lib/python2.7/site-packages/cryptography/exceptions.pyc", 
    "lib/python2.7/site-packages/cryptography/fernet.py", 
    "lib/python2.7/site-packages/cryptography/fernet.pyc", 
    "lib/python2.7/site-packages/cryptography/hazmat/__init__.py", 
    "lib/python2.7/site-packages/cryptography/hazmat/__init__.pyc", 
    "lib/python2.7/site-packages/cryptography/hazmat/backends/__init__.py", 
    "lib/python2.7/site-packages/cryptography/hazmat/backends/__init__.pyc", 
    "lib/python2.7/site-packages/cryptography/hazmat/backends/commoncrypto/__init__.py", 
    "lib/python2.7/site-packages/cryptography/hazmat/backends/commoncrypto/__init__.pyc", 
    "lib/python2.7/site-packages/cryptography/hazmat/backends/commoncrypto/backend.py", 
    "lib/python2.7/site-packages/cryptography/hazmat/backends/commoncrypto/backend.pyc", 
    "lib/python2.7/site-packages/cryptography/hazmat/backends/commoncrypto/ciphers.py", 
    "lib/python2.7/site-packages/cryptography/hazmat/backends/commoncrypto/ciphers.pyc", 
    "lib/python2.7/site-packages/cryptography/hazmat/backends/commoncrypto/hashes.py", 
    "lib/python2.7/site-packages/cryptography/hazmat/backends/commoncrypto/hashes.pyc", 
    "lib/python2.7/site-packages/cryptography/hazmat/backends/commoncrypto/hmac.py", 
    "lib/python2.7/site-packages/cryptography/hazmat/backends/commoncrypto/hmac.pyc", 
    "lib/python2.7/site-packages/cryptography/hazmat/backends/interfaces.py", 
    "lib/python2.7/site-packages/cryptography/hazmat/backends/interfaces.pyc", 
    "lib/python2.7/site-packages/cryptography/hazmat/backends/multibackend.py", 
    "lib/python2.7/site-packages/cryptography/hazmat/backends/multibackend.pyc", 
    "lib/python2.7/site-packages/cryptography/hazmat/backends/openssl/__init__.py", 
    "lib/python2.7/site-packages/cryptography/hazmat/backends/openssl/__init__.pyc", 
    "lib/python2.7/site-packages/cryptography/hazmat/backends/openssl/backend.py", 
    "lib/python2.7/site-packages/cryptography/hazmat/backends/openssl/backend.pyc", 
    "lib/python2.7/site-packages/cryptography/hazmat/backends/openssl/ciphers.py", 
    "lib/python2.7/site-packages/cryptography/hazmat/backends/openssl/ciphers.pyc", 
    "lib/python2.7/site-packages/cryptography/hazmat/backends/openssl/cmac.py", 
    "lib/python2.7/site-packages/cryptography/hazmat/backends/openssl/cmac.pyc", 
    "lib/python2.7/site-packages/cryptography/hazmat/backends/openssl/decode_asn1.py", 
    "lib/python2.7/site-packages/cryptography/hazmat/backends/openssl/decode_asn1.pyc", 
    "lib/python2.7/site-packages/cryptography/hazmat/backends/openssl/dsa.py", 
    "lib/python2.7/site-packages/cryptography/hazmat/backends/openssl/dsa.pyc", 
    "lib/python2.7/site-packages/cryptography/hazmat/backends/openssl/ec.py", 
    "lib/python2.7/site-packages/cryptography/hazmat/backends/openssl/ec.pyc", 
    "lib/python2.7/site-packages/cryptography/hazmat/backends/openssl/encode_asn1.py", 
    "lib/python2.7/site-packages/cryptography/hazmat/backends/openssl/encode_asn1.pyc", 
    "lib/python2.7/site-packages/cryptography/hazmat/backends/openssl/hashes.py", 
    "lib/python2.7/site-packages/cryptography/hazmat/backends/openssl/hashes.pyc", 
    "lib/python2.7/site-packages/cryptography/hazmat/backends/openssl/hmac.py", 
    "lib/python2.7/site-packages/cryptography/hazmat/backends/openssl/hmac.pyc", 
    "lib/python2.7/site-packages/cryptography/hazmat/backends/openssl/rsa.py", 
    "lib/python2.7/site-packages/cryptography/hazmat/backends/openssl/rsa.pyc", 
    "lib/python2.7/site-packages/cryptography/hazmat/backends/openssl/utils.py", 
    "lib/python2.7/site-packages/cryptography/hazmat/backends/openssl/utils.pyc", 
    "lib/python2.7/site-packages/cryptography/hazmat/backends/openssl/x509.py", 
    "lib/python2.7/site-packages/cryptography/hazmat/backends/openssl/x509.pyc", 
    "lib/python2.7/site-packages/cryptography/hazmat/bindings/__init__.py", 
    "lib/python2.7/site-packages/cryptography/hazmat/bindings/__init__.pyc", 
    "lib/python2.7/site-packages/cryptography/hazmat/bindings/_constant_time.so", 
    "lib/python2.7/site-packages/cryptography/hazmat/bindings/_openssl.so", 
    "lib/python2.7/site-packages/cryptography/hazmat/bindings/_padding.so", 
    "lib/python2.7/site-packages/cryptography/hazmat/bindings/commoncrypto/__init__.py", 
    "lib/python2.7/site-packages/cryptography/hazmat/bindings/commoncrypto/__init__.pyc", 
    "lib/python2.7/site-packages/cryptography/hazmat/bindings/commoncrypto/binding.py", 
    "lib/python2.7/site-packages/cryptography/hazmat/bindings/commoncrypto/binding.pyc", 
    "lib/python2.7/site-packages/cryptography/hazmat/bindings/openssl/__init__.py", 
    "lib/python2.7/site-packages/cryptography/hazmat/bindings/openssl/__init__.pyc", 
    "lib/python2.7/site-packages/cryptography/hazmat/bindings/openssl/_conditional.py", 
    "lib/python2.7/site-packages/cryptography/hazmat/bindings/openssl/_conditional.pyc", 
    "lib/python2.7/site-packages/cryptography/hazmat/bindings/openssl/binding.py", 
    "lib/python2.7/site-packages/cryptography/hazmat/bindings/openssl/binding.pyc", 
    "lib/python2.7/site-packages/cryptography/hazmat/primitives/__init__.py", 
    "lib/python2.7/site-packages/cryptography/hazmat/primitives/__init__.pyc", 
    "lib/python2.7/site-packages/cryptography/hazmat/primitives/asymmetric/__init__.py", 
    "lib/python2.7/site-packages/cryptography/hazmat/primitives/asymmetric/__init__.pyc", 
    "lib/python2.7/site-packages/cryptography/hazmat/primitives/asymmetric/dh.py", 
    "lib/python2.7/site-packages/cryptography/hazmat/primitives/asymmetric/dh.pyc", 
    "lib/python2.7/site-packages/cryptography/hazmat/primitives/asymmetric/dsa.py", 
    "lib/python2.7/site-packages/cryptography/hazmat/primitives/asymmetric/dsa.pyc", 
    "lib/python2.7/site-packages/cryptography/hazmat/primitives/asymmetric/ec.py", 
    "lib/python2.7/site-packages/cryptography/hazmat/primitives/asymmetric/ec.pyc", 
    "lib/python2.7/site-packages/cryptography/hazmat/primitives/asymmetric/padding.py", 
    "lib/python2.7/site-packages/cryptography/hazmat/primitives/asymmetric/padding.pyc", 
    "lib/python2.7/site-packages/cryptography/hazmat/primitives/asymmetric/rsa.py", 
    "lib/python2.7/site-packages/cryptography/hazmat/primitives/asymmetric/rsa.pyc", 
    "lib/python2.7/site-packages/cryptography/hazmat/primitives/asymmetric/utils.py", 
    "lib/python2.7/site-packages/cryptography/hazmat/primitives/asymmetric/utils.pyc", 
    "lib/python2.7/site-packages/cryptography/hazmat/primitives/ciphers/__init__.py", 
    "lib/python2.7/site-packages/cryptography/hazmat/primitives/ciphers/__init__.pyc", 
    "lib/python2.7/site-packages/cryptography/hazmat/primitives/ciphers/algorithms.py", 
    "lib/python2.7/site-packages/cryptography/hazmat/primitives/ciphers/algorithms.pyc", 
    "lib/python2.7/site-packages/cryptography/hazmat/primitives/ciphers/base.py", 
    "lib/python2.7/site-packages/cryptography/hazmat/primitives/ciphers/base.pyc", 
    "lib/python2.7/site-packages/cryptography/hazmat/primitives/ciphers/modes.py", 
    "lib/python2.7/site-packages/cryptography/hazmat/primitives/ciphers/modes.pyc", 
    "lib/python2.7/site-packages/cryptography/hazmat/primitives/cmac.py", 
    "lib/python2.7/site-packages/cryptography/hazmat/primitives/cmac.pyc", 
    "lib/python2.7/site-packages/cryptography/hazmat/primitives/constant_time.py", 
    "lib/python2.7/site-packages/cryptography/hazmat/primitives/constant_time.pyc", 
    "lib/python2.7/site-packages/cryptography/hazmat/primitives/hashes.py", 
    "lib/python2.7/site-packages/cryptography/hazmat/primitives/hashes.pyc", 
    "lib/python2.7/site-packages/cryptography/hazmat/primitives/hmac.py", 
    "lib/python2.7/site-packages/cryptography/hazmat/primitives/hmac.pyc", 
    "lib/python2.7/site-packages/cryptography/hazmat/primitives/interfaces/__init__.py", 
    "lib/python2.7/site-packages/cryptography/hazmat/primitives/interfaces/__init__.pyc", 
    "lib/python2.7/site-packages/cryptography/hazmat/primitives/kdf/__init__.py", 
    "lib/python2.7/site-packages/cryptography/hazmat/primitives/kdf/__init__.pyc", 
    "lib/python2.7/site-packages/cryptography/hazmat/primitives/kdf/concatkdf.py", 
    "lib/python2.7/site-packages/cryptography/hazmat/primitives/kdf/concatkdf.pyc", 
    "lib/python2.7/site-packages/cryptography/hazmat/primitives/kdf/hkdf.py", 
    "lib/python2.7/site-packages/cryptography/hazmat/primitives/kdf/hkdf.pyc", 
    "lib/python2.7/site-packages/cryptography/hazmat/primitives/kdf/kbkdf.py", 
    "lib/python2.7/site-packages/cryptography/hazmat/primitives/kdf/kbkdf.pyc", 
    "lib/python2.7/site-packages/cryptography/hazmat/primitives/kdf/pbkdf2.py", 
    "lib/python2.7/site-packages/cryptography/hazmat/primitives/kdf/pbkdf2.pyc", 
    "lib/python2.7/site-packages/cryptography/hazmat/primitives/kdf/x963kdf.py", 
    "lib/python2.7/site-packages/cryptography/hazmat/primitives/kdf/x963kdf.pyc", 
    "lib/python2.7/site-packages/cryptography/hazmat/primitives/keywrap.py", 
    "lib/python2.7/site-packages/cryptography/hazmat/primitives/keywrap.pyc", 
    "lib/python2.7/site-packages/cryptography/hazmat/primitives/padding.py", 
    "lib/python2.7/site-packages/cryptography/hazmat/primitives/padding.pyc", 
    "lib/python2.7/site-packages/cryptography/hazmat/primitives/serialization.py", 
    "lib/python2.7/site-packages/cryptography/hazmat/primitives/serialization.pyc", 
    "lib/python2.7/site-packages/cryptography/hazmat/primitives/twofactor/__init__.py", 
    "lib/python2.7/site-packages/cryptography/hazmat/primitives/twofactor/__init__.pyc", 
    "lib/python2.7/site-packages/cryptography/hazmat/primitives/twofactor/hotp.py", 
    "lib/python2.7/site-packages/cryptography/hazmat/primitives/twofactor/hotp.pyc", 
    "lib/python2.7/site-packages/cryptography/hazmat/primitives/twofactor/totp.py", 
    "lib/python2.7/site-packages/cryptography/hazmat/primitives/twofactor/totp.pyc", 
    "lib/python2.7/site-packages/cryptography/hazmat/primitives/twofactor/utils.py", 
    "lib/python2.7/site-packages/cryptography/hazmat/primitives/twofactor/utils.pyc", 
    "lib/python2.7/site-packages/cryptography/utils.py", 
    "lib/python2.7/site-packages/cryptography/utils.pyc", 
    "lib/python2.7/site-packages/cryptography/x509/__init__.py", 
    "lib/python2.7/site-packages/cryptography/x509/__init__.pyc", 
    "lib/python2.7/site-packages/cryptography/x509/base.py", 
    "lib/python2.7/site-packages/cryptography/x509/base.pyc", 
    "lib/python2.7/site-packages/cryptography/x509/extensions.py", 
    "lib/python2.7/site-packages/cryptography/x509/extensions.pyc", 
    "lib/python2.7/site-packages/cryptography/x509/general_name.py", 
    "lib/python2.7/site-packages/cryptography/x509/general_name.pyc", 
    "lib/python2.7/site-packages/cryptography/x509/name.py", 
    "lib/python2.7/site-packages/cryptography/x509/name.pyc", 
    "lib/python2.7/site-packages/cryptography/x509/oid.py", 
    "lib/python2.7/site-packages/cryptography/x509/oid.pyc"
  ], 
  "fn": "cryptography-1.5-py27_0.tar.bz2", 
  "license": "Apache", 
  "link": {
    "source": "/home/fdavilakurban/.conda/envs/.pkgs/cryptography-1.5-py27_0", 
    "type": "hard-link"
  }, 
  "md5": "3e84f44595ea5f5f6fbf2f7b31fb5800", 
  "name": "cryptography", 
  "platform": "linux", 
  "priority": 0, 
  "requires": [], 
  "schannel": "defaults", 
  "size": 910316, 
  "subdir": "linux-64", 
  "url": "https://repo.continuum.io/pkgs/free/linux-64/cryptography-1.5-py27_0.tar.bz2", 
  "version": "1.5"
}