{
  "arch": "x86_64", 
  "build": "0", 
  "build_number": 0, 
  "channel": "https://repo.continuum.io/pkgs/free/linux-64/", 
  "date": "2016-06-30", 
  "depends": [
    "gstreamer"
  ], 
  "files": [
    "bin/gst-device-monitor-1.0", 
    "bin/gst-discoverer-1.0", 
    "bin/gst-play-1.0", 
    "include/gstreamer-1.0/gst/allocators/allocators.h", 
    "include/gstreamer-1.0/gst/allocators/gstdmabuf.h", 
    "include/gstreamer-1.0/gst/allocators/gstfdmemory.h", 
    "include/gstreamer-1.0/gst/app/app.h", 
    "include/gstreamer-1.0/gst/app/gstappsink.h", 
    "include/gstreamer-1.0/gst/app/gstappsrc.h", 
    "include/gstreamer-1.0/gst/audio/audio-channel-mixer.h", 
    "include/gstreamer-1.0/gst/audio/audio-channels.h", 
    "include/gstreamer-1.0/gst/audio/audio-converter.h", 
    "include/gstreamer-1.0/gst/audio/audio-enumtypes.h", 
    "include/gstreamer-1.0/gst/audio/audio-format.h", 
    "include/gstreamer-1.0/gst/audio/audio-info.h", 
    "include/gstreamer-1.0/gst/audio/audio-quantize.h", 
    "include/gstreamer-1.0/gst/audio/audio.h", 
    "include/gstreamer-1.0/gst/audio/gstaudiobasesink.h", 
    "include/gstreamer-1.0/gst/audio/gstaudiobasesrc.h", 
    "include/gstreamer-1.0/gst/audio/gstaudiocdsrc.h", 
    "include/gstreamer-1.0/gst/audio/gstaudioclock.h", 
    "include/gstreamer-1.0/gst/audio/gstaudiodecoder.h", 
    "include/gstreamer-1.0/gst/audio/gstaudioencoder.h", 
    "include/gstreamer-1.0/gst/audio/gstaudiofilter.h", 
    "include/gstreamer-1.0/gst/audio/gstaudioiec61937.h", 
    "include/gstreamer-1.0/gst/audio/gstaudiometa.h", 
    "include/gstreamer-1.0/gst/audio/gstaudioringbuffer.h", 
    "include/gstreamer-1.0/gst/audio/gstaudiosink.h", 
    "include/gstreamer-1.0/gst/audio/gstaudiosrc.h", 
    "include/gstreamer-1.0/gst/audio/streamvolume.h", 
    "include/gstreamer-1.0/gst/fft/fft.h", 
    "include/gstreamer-1.0/gst/fft/gstfft.h", 
    "include/gstreamer-1.0/gst/fft/gstfftf32.h", 
    "include/gstreamer-1.0/gst/fft/gstfftf64.h", 
    "include/gstreamer-1.0/gst/fft/gstffts16.h", 
    "include/gstreamer-1.0/gst/fft/gstffts32.h", 
    "include/gstreamer-1.0/gst/pbutils/codec-utils.h", 
    "include/gstreamer-1.0/gst/pbutils/descriptions.h", 
    "include/gstreamer-1.0/gst/pbutils/encoding-profile.h", 
    "include/gstreamer-1.0/gst/pbutils/encoding-target.h", 
    "include/gstreamer-1.0/gst/pbutils/gstaudiovisualizer.h", 
    "include/gstreamer-1.0/gst/pbutils/gstdiscoverer.h", 
    "include/gstreamer-1.0/gst/pbutils/gstpluginsbaseversion.h", 
    "include/gstreamer-1.0/gst/pbutils/install-plugins.h", 
    "include/gstreamer-1.0/gst/pbutils/missing-plugins.h", 
    "include/gstreamer-1.0/gst/pbutils/pbutils-enumtypes.h", 
    "include/gstreamer-1.0/gst/pbutils/pbutils.h", 
    "include/gstreamer-1.0/gst/riff/riff-ids.h", 
    "include/gstreamer-1.0/gst/riff/riff-media.h", 
    "include/gstreamer-1.0/gst/riff/riff-read.h", 
    "include/gstreamer-1.0/gst/riff/riff.h", 
    "include/gstreamer-1.0/gst/rtp/gstrtcpbuffer.h", 
    "include/gstreamer-1.0/gst/rtp/gstrtp-enumtypes.h", 
    "include/gstreamer-1.0/gst/rtp/gstrtpbaseaudiopayload.h", 
    "include/gstreamer-1.0/gst/rtp/gstrtpbasedepayload.h", 
    "include/gstreamer-1.0/gst/rtp/gstrtpbasepayload.h", 
    "include/gstreamer-1.0/gst/rtp/gstrtpbuffer.h", 
    "include/gstreamer-1.0/gst/rtp/gstrtpdefs.h", 
    "include/gstreamer-1.0/gst/rtp/gstrtphdrext.h", 
    "include/gstreamer-1.0/gst/rtp/gstrtppayloads.h", 
    "include/gstreamer-1.0/gst/rtp/rtp.h", 
    "include/gstreamer-1.0/gst/rtsp/gstrtsp-enumtypes.h", 
    "include/gstreamer-1.0/gst/rtsp/gstrtsp.h", 
    "include/gstreamer-1.0/gst/rtsp/gstrtspconnection.h", 
    "include/gstreamer-1.0/gst/rtsp/gstrtspdefs.h", 
    "include/gstreamer-1.0/gst/rtsp/gstrtspextension.h", 
    "include/gstreamer-1.0/gst/rtsp/gstrtspmessage.h", 
    "include/gstreamer-1.0/gst/rtsp/gstrtsprange.h", 
    "include/gstreamer-1.0/gst/rtsp/gstrtsptransport.h", 
    "include/gstreamer-1.0/gst/rtsp/gstrtspurl.h", 
    "include/gstreamer-1.0/gst/rtsp/rtsp.h", 
    "include/gstreamer-1.0/gst/sdp/gstmikey.h", 
    "include/gstreamer-1.0/gst/sdp/gstsdp.h", 
    "include/gstreamer-1.0/gst/sdp/gstsdpmessage.h", 
    "include/gstreamer-1.0/gst/sdp/sdp.h", 
    "include/gstreamer-1.0/gst/tag/gsttagdemux.h", 
    "include/gstreamer-1.0/gst/tag/gsttagmux.h", 
    "include/gstreamer-1.0/gst/tag/tag.h", 
    "include/gstreamer-1.0/gst/tag/xmpwriter.h", 
    "include/gstreamer-1.0/gst/video/colorbalance.h", 
    "include/gstreamer-1.0/gst/video/colorbalancechannel.h", 
    "include/gstreamer-1.0/gst/video/gstvideoaffinetransformationmeta.h", 
    "include/gstreamer-1.0/gst/video/gstvideodecoder.h", 
    "include/gstreamer-1.0/gst/video/gstvideoencoder.h", 
    "include/gstreamer-1.0/gst/video/gstvideofilter.h", 
    "include/gstreamer-1.0/gst/video/gstvideometa.h", 
    "include/gstreamer-1.0/gst/video/gstvideopool.h", 
    "include/gstreamer-1.0/gst/video/gstvideosink.h", 
    "include/gstreamer-1.0/gst/video/gstvideoutils.h", 
    "include/gstreamer-1.0/gst/video/navigation.h", 
    "include/gstreamer-1.0/gst/video/video-blend.h", 
    "include/gstreamer-1.0/gst/video/video-chroma.h", 
    "include/gstreamer-1.0/gst/video/video-color.h", 
    "include/gstreamer-1.0/gst/video/video-converter.h", 
    "include/gstreamer-1.0/gst/video/video-dither.h", 
    "include/gstreamer-1.0/gst/video/video-enumtypes.h", 
    "include/gstreamer-1.0/gst/video/video-event.h", 
    "include/gstreamer-1.0/gst/video/video-format.h", 
    "include/gstreamer-1.0/gst/video/video-frame.h", 
    "include/gstreamer-1.0/gst/video/video-info.h", 
    "include/gstreamer-1.0/gst/video/video-multiview.h", 
    "include/gstreamer-1.0/gst/video/video-overlay-composition.h", 
    "include/gstreamer-1.0/gst/video/video-resampler.h", 
    "include/gstreamer-1.0/gst/video/video-scaler.h", 
    "include/gstreamer-1.0/gst/video/video-tile.h", 
    "include/gstreamer-1.0/gst/video/video.h", 
    "include/gstreamer-1.0/gst/video/videoorientation.h", 
    "include/gstreamer-1.0/gst/video/videooverlay.h", 
    "lib/gstreamer-1.0/libgstadder.la", 
    "lib/gstreamer-1.0/libgstadder.so", 
    "lib/gstreamer-1.0/libgstapp.la", 
    "lib/gstreamer-1.0/libgstapp.so", 
    "lib/gstreamer-1.0/libgstaudioconvert.la", 
    "lib/gstreamer-1.0/libgstaudioconvert.so", 
    "lib/gstreamer-1.0/libgstaudiorate.la", 
    "lib/gstreamer-1.0/libgstaudiorate.so", 
    "lib/gstreamer-1.0/libgstaudioresample.la", 
    "lib/gstreamer-1.0/libgstaudioresample.so", 
    "lib/gstreamer-1.0/libgstaudiotestsrc.la", 
    "lib/gstreamer-1.0/libgstaudiotestsrc.so", 
    "lib/gstreamer-1.0/libgstencodebin.la", 
    "lib/gstreamer-1.0/libgstencodebin.so", 
    "lib/gstreamer-1.0/libgstgio.la", 
    "lib/gstreamer-1.0/libgstgio.so", 
    "lib/gstreamer-1.0/libgstplayback.la", 
    "lib/gstreamer-1.0/libgstplayback.so", 
    "lib/gstreamer-1.0/libgstsubparse.la", 
    "lib/gstreamer-1.0/libgstsubparse.so", 
    "lib/gstreamer-1.0/libgsttcp.la", 
    "lib/gstreamer-1.0/libgsttcp.so", 
    "lib/gstreamer-1.0/libgsttypefindfunctions.la", 
    "lib/gstreamer-1.0/libgsttypefindfunctions.so", 
    "lib/gstreamer-1.0/libgstvideoconvert.la", 
    "lib/gstreamer-1.0/libgstvideoconvert.so", 
    "lib/gstreamer-1.0/libgstvideorate.la", 
    "lib/gstreamer-1.0/libgstvideorate.so", 
    "lib/gstreamer-1.0/libgstvideoscale.la", 
    "lib/gstreamer-1.0/libgstvideoscale.so", 
    "lib/gstreamer-1.0/libgstvideotestsrc.la", 
    "lib/gstreamer-1.0/libgstvideotestsrc.so", 
    "lib/gstreamer-1.0/libgstvolume.la", 
    "lib/gstreamer-1.0/libgstvolume.so", 
    "lib/gstreamer-1.0/libgstximagesink.la", 
    "lib/gstreamer-1.0/libgstximagesink.so", 
    "lib/libgstallocators-1.0.la", 
    "lib/libgstallocators-1.0.so", 
    "lib/libgstallocators-1.0.so.0", 
    "lib/libgstallocators-1.0.so.0.800.0", 
    "lib/libgstapp-1.0.la", 
    "lib/libgstapp-1.0.so", 
    "lib/libgstapp-1.0.so.0", 
    "lib/libgstapp-1.0.so.0.800.0", 
    "lib/libgstaudio-1.0.la", 
    "lib/libgstaudio-1.0.so", 
    "lib/libgstaudio-1.0.so.0", 
    "lib/libgstaudio-1.0.so.0.800.0", 
    "lib/libgstfft-1.0.la", 
    "lib/libgstfft-1.0.so", 
    "lib/libgstfft-1.0.so.0", 
    "lib/libgstfft-1.0.so.0.800.0", 
    "lib/libgstpbutils-1.0.la", 
    "lib/libgstpbutils-1.0.so", 
    "lib/libgstpbutils-1.0.so.0", 
    "lib/libgstpbutils-1.0.so.0.800.0", 
    "lib/libgstriff-1.0.la", 
    "lib/libgstriff-1.0.so", 
    "lib/libgstriff-1.0.so.0", 
    "lib/libgstriff-1.0.so.0.800.0", 
    "lib/libgstrtp-1.0.la", 
    "lib/libgstrtp-1.0.so", 
    "lib/libgstrtp-1.0.so.0", 
    "lib/libgstrtp-1.0.so.0.800.0", 
    "lib/libgstrtsp-1.0.la", 
    "lib/libgstrtsp-1.0.so", 
    "lib/libgstrtsp-1.0.so.0", 
    "lib/libgstrtsp-1.0.so.0.800.0", 
    "lib/libgstsdp-1.0.la", 
    "lib/libgstsdp-1.0.so", 
    "lib/libgstsdp-1.0.so.0", 
    "lib/libgstsdp-1.0.so.0.800.0", 
    "lib/libgsttag-1.0.la", 
    "lib/libgsttag-1.0.so", 
    "lib/libgsttag-1.0.so.0", 
    "lib/libgsttag-1.0.so.0.800.0", 
    "lib/libgstvideo-1.0.la", 
    "lib/libgstvideo-1.0.so", 
    "lib/libgstvideo-1.0.so.0", 
    "lib/libgstvideo-1.0.so.0.800.0", 
    "lib/pkgconfig/gstreamer-allocators-1.0.pc", 
    "lib/pkgconfig/gstreamer-app-1.0.pc", 
    "lib/pkgconfig/gstreamer-audio-1.0.pc", 
    "lib/pkgconfig/gstreamer-fft-1.0.pc", 
    "lib/pkgconfig/gstreamer-pbutils-1.0.pc", 
    "lib/pkgconfig/gstreamer-plugins-base-1.0.pc", 
    "lib/pkgconfig/gstreamer-riff-1.0.pc", 
    "lib/pkgconfig/gstreamer-rtp-1.0.pc", 
    "lib/pkgconfig/gstreamer-rtsp-1.0.pc", 
    "lib/pkgconfig/gstreamer-sdp-1.0.pc", 
    "lib/pkgconfig/gstreamer-tag-1.0.pc", 
    "lib/pkgconfig/gstreamer-video-1.0.pc"
  ], 
  "license": "GPL2", 
  "link": {
    "source": "/home/fdavilakurban/.conda/envs/.pkgs/gst-plugins-base-1.8.0-0", 
    "type": "hard-link"
  }, 
  "md5": "9c19173e0e6b8eaeadfb604000169f78", 
  "name": "gst-plugins-base", 
  "platform": "linux", 
  "requires": [], 
  "size": 3294969, 
  "subdir": "linux-64", 
  "url": "https://repo.continuum.io/pkgs/free/linux-64/gst-plugins-base-1.8.0-0.tar.bz2", 
  "version": "1.8.0"
}