{
  "arch": "x86_64", 
  "build": "py27_0", 
  "build_number": 0, 
  "channel": "https://repo.continuum.io/pkgs/free/linux-64/", 
  "date": "2016-09-07", 
  "depends": [
    "jupyter_core", 
    "python 2.7*", 
    "pyzmq", 
    "traitlets"
  ], 
  "files": [
    "bin/jupyter-kernelspec", 
    "lib/python2.7/site-packages/jupyter_client-4.4.0-py2.7.egg-info", 
    "lib/python2.7/site-packages/jupyter_client/__init__.py", 
    "lib/python2.7/site-packages/jupyter_client/__init__.pyc", 
    "lib/python2.7/site-packages/jupyter_client/_version.py", 
    "lib/python2.7/site-packages/jupyter_client/_version.pyc", 
    "lib/python2.7/site-packages/jupyter_client/adapter.py", 
    "lib/python2.7/site-packages/jupyter_client/adapter.pyc", 
    "lib/python2.7/site-packages/jupyter_client/blocking/__init__.py", 
    "lib/python2.7/site-packages/jupyter_client/blocking/__init__.pyc", 
    "lib/python2.7/site-packages/jupyter_client/blocking/channels.py", 
    "lib/python2.7/site-packages/jupyter_client/blocking/channels.pyc", 
    "lib/python2.7/site-packages/jupyter_client/blocking/client.py", 
    "lib/python2.7/site-packages/jupyter_client/blocking/client.pyc", 
    "lib/python2.7/site-packages/jupyter_client/channels.py", 
    "lib/python2.7/site-packages/jupyter_client/channels.pyc", 
    "lib/python2.7/site-packages/jupyter_client/channelsabc.py", 
    "lib/python2.7/site-packages/jupyter_client/channelsabc.pyc", 
    "lib/python2.7/site-packages/jupyter_client/client.py", 
    "lib/python2.7/site-packages/jupyter_client/client.pyc", 
    "lib/python2.7/site-packages/jupyter_client/clientabc.py", 
    "lib/python2.7/site-packages/jupyter_client/clientabc.pyc", 
    "lib/python2.7/site-packages/jupyter_client/connect.py", 
    "lib/python2.7/site-packages/jupyter_client/connect.pyc", 
    "lib/python2.7/site-packages/jupyter_client/consoleapp.py", 
    "lib/python2.7/site-packages/jupyter_client/consoleapp.pyc", 
    "lib/python2.7/site-packages/jupyter_client/ioloop/__init__.py", 
    "lib/python2.7/site-packages/jupyter_client/ioloop/__init__.pyc", 
    "lib/python2.7/site-packages/jupyter_client/ioloop/manager.py", 
    "lib/python2.7/site-packages/jupyter_client/ioloop/manager.pyc", 
    "lib/python2.7/site-packages/jupyter_client/ioloop/restarter.py", 
    "lib/python2.7/site-packages/jupyter_client/ioloop/restarter.pyc", 
    "lib/python2.7/site-packages/jupyter_client/jsonutil.py", 
    "lib/python2.7/site-packages/jupyter_client/jsonutil.pyc", 
    "lib/python2.7/site-packages/jupyter_client/kernelspec.py", 
    "lib/python2.7/site-packages/jupyter_client/kernelspec.pyc", 
    "lib/python2.7/site-packages/jupyter_client/kernelspecapp.py", 
    "lib/python2.7/site-packages/jupyter_client/kernelspecapp.pyc", 
    "lib/python2.7/site-packages/jupyter_client/launcher.py", 
    "lib/python2.7/site-packages/jupyter_client/launcher.pyc", 
    "lib/python2.7/site-packages/jupyter_client/localinterfaces.py", 
    "lib/python2.7/site-packages/jupyter_client/localinterfaces.pyc", 
    "lib/python2.7/site-packages/jupyter_client/manager.py", 
    "lib/python2.7/site-packages/jupyter_client/manager.pyc", 
    "lib/python2.7/site-packages/jupyter_client/managerabc.py", 
    "lib/python2.7/site-packages/jupyter_client/managerabc.pyc", 
    "lib/python2.7/site-packages/jupyter_client/multikernelmanager.py", 
    "lib/python2.7/site-packages/jupyter_client/multikernelmanager.pyc", 
    "lib/python2.7/site-packages/jupyter_client/restarter.py", 
    "lib/python2.7/site-packages/jupyter_client/restarter.pyc", 
    "lib/python2.7/site-packages/jupyter_client/session.py", 
    "lib/python2.7/site-packages/jupyter_client/session.pyc", 
    "lib/python2.7/site-packages/jupyter_client/tests/__init__.py", 
    "lib/python2.7/site-packages/jupyter_client/tests/__init__.pyc", 
    "lib/python2.7/site-packages/jupyter_client/tests/signalkernel.py", 
    "lib/python2.7/site-packages/jupyter_client/tests/signalkernel.pyc", 
    "lib/python2.7/site-packages/jupyter_client/tests/test_adapter.py", 
    "lib/python2.7/site-packages/jupyter_client/tests/test_adapter.pyc", 
    "lib/python2.7/site-packages/jupyter_client/tests/test_connect.py", 
    "lib/python2.7/site-packages/jupyter_client/tests/test_connect.pyc", 
    "lib/python2.7/site-packages/jupyter_client/tests/test_jsonutil.py", 
    "lib/python2.7/site-packages/jupyter_client/tests/test_jsonutil.pyc", 
    "lib/python2.7/site-packages/jupyter_client/tests/test_kernelmanager.py", 
    "lib/python2.7/site-packages/jupyter_client/tests/test_kernelmanager.pyc", 
    "lib/python2.7/site-packages/jupyter_client/tests/test_kernelspec.py", 
    "lib/python2.7/site-packages/jupyter_client/tests/test_kernelspec.pyc", 
    "lib/python2.7/site-packages/jupyter_client/tests/test_localinterfaces.py", 
    "lib/python2.7/site-packages/jupyter_client/tests/test_localinterfaces.pyc", 
    "lib/python2.7/site-packages/jupyter_client/tests/test_multikernelmanager.py", 
    "lib/python2.7/site-packages/jupyter_client/tests/test_multikernelmanager.pyc", 
    "lib/python2.7/site-packages/jupyter_client/tests/test_public_api.py", 
    "lib/python2.7/site-packages/jupyter_client/tests/test_public_api.pyc", 
    "lib/python2.7/site-packages/jupyter_client/tests/test_session.py", 
    "lib/python2.7/site-packages/jupyter_client/tests/test_session.pyc", 
    "lib/python2.7/site-packages/jupyter_client/tests/utils.py", 
    "lib/python2.7/site-packages/jupyter_client/tests/utils.pyc", 
    "lib/python2.7/site-packages/jupyter_client/threaded.py", 
    "lib/python2.7/site-packages/jupyter_client/threaded.pyc", 
    "lib/python2.7/site-packages/jupyter_client/win_interrupt.py", 
    "lib/python2.7/site-packages/jupyter_client/win_interrupt.pyc"
  ], 
  "license": "BSD", 
  "link": {
    "source": "/home/fdavilakurban/.conda/envs/.pkgs/jupyter_client-4.4.0-py27_0", 
    "type": "hard-link"
  }, 
  "md5": "d4a8c6194ea81f29f2d9165d03da6417", 
  "name": "jupyter_client", 
  "platform": "linux", 
  "requires": [], 
  "size": 99008, 
  "subdir": "linux-64", 
  "url": "https://repo.continuum.io/pkgs/free/linux-64/jupyter_client-4.4.0-py27_0.tar.bz2", 
  "version": "4.4.0"
}