{
  "arch": "x86_64", 
  "build": "py27_3", 
  "build_number": 3, 
  "channel": "https://repo.continuum.io/pkgs/free/linux-64/", 
  "date": "2016-06-03", 
  "depends": [
    "ipykernel", 
    "ipywidgets", 
    "jupyter_console", 
    "nbconvert", 
    "notebook", 
    "python 2.7*", 
    "qtconsole"
  ], 
  "files": [
    "lib/python2.7/site-packages/jupyter-1.0.0-py2.7.egg-info"
  ], 
  "license": "BSD", 
  "link": {
    "source": "/home/fdavilakurban/.conda/envs/.pkgs/jupyter-1.0.0-py27_3", 
    "type": "hard-link"
  }, 
  "md5": "5aa301ad67ff8d6bef6a94015f769c77", 
  "name": "jupyter", 
  "platform": "linux", 
  "requires": [], 
  "size": 2700, 
  "subdir": "linux-64", 
  "url": "https://repo.continuum.io/pkgs/free/linux-64/jupyter-1.0.0-py27_3.tar.bz2", 
  "version": "1.0.0"
}