{
  "arch": "x86_64", 
  "build": "py27_0", 
  "build_number": 0, 
  "channel": "https://repo.continuum.io/pkgs/free/linux-64/", 
  "date": "2016-09-16", 
  "depends": [
    "python 2.7*"
  ], 
  "files": [
    "lib/python2.7/site-packages/mistune-0.7.3-py2.7.egg-info/PKG-INFO", 
    "lib/python2.7/site-packages/mistune-0.7.3-py2.7.egg-info/SOURCES.txt", 
    "lib/python2.7/site-packages/mistune-0.7.3-py2.7.egg-info/dependency_links.txt", 
    "lib/python2.7/site-packages/mistune-0.7.3-py2.7.egg-info/not-zip-safe", 
    "lib/python2.7/site-packages/mistune-0.7.3-py2.7.egg-info/top_level.txt", 
    "lib/python2.7/site-packages/mistune.so"
  ], 
  "license": "BSD", 
  "link": {
    "source": "/home/fdavilakurban/.conda/envs/.pkgs/mistune-0.7.3-py27_0", 
    "type": "hard-link"
  }, 
  "md5": "922ed441ee473ff94555b1ed1d35cedd", 
  "name": "mistune", 
  "platform": "linux", 
  "requires": [], 
  "size": 573131, 
  "subdir": "linux-64", 
  "url": "https://repo.continuum.io/pkgs/free/linux-64/mistune-0.7.3-py27_0.tar.bz2", 
  "version": "0.7.3"
}