{
  "arch": "x86_64", 
  "build": "0", 
  "build_number": 0, 
  "channel": "https://repo.continuum.io/pkgs/free/linux-64/", 
  "date": "2016-05-13", 
  "depends": [], 
  "files": [
    "lib/libiomp5.so", 
    "lib/libmkl_avx.so", 
    "lib/libmkl_avx2.so", 
    "lib/libmkl_avx512.so", 
    "lib/libmkl_avx512_mic.so", 
    "lib/libmkl_core.so", 
    "lib/libmkl_def.so", 
    "lib/libmkl_intel_ilp64.so", 
    "lib/libmkl_intel_lp64.so", 
    "lib/libmkl_intel_thread.so", 
    "lib/libmkl_mc.so", 
    "lib/libmkl_mc3.so", 
    "lib/libmkl_rt.so", 
    "lib/libmkl_sequential.so", 
    "lib/libmkl_vml_avx.so", 
    "lib/libmkl_vml_avx2.so", 
    "lib/libmkl_vml_avx512.so", 
    "lib/libmkl_vml_avx512_mic.so", 
    "lib/libmkl_vml_cmpt.so", 
    "lib/libmkl_vml_def.so", 
    "lib/libmkl_vml_mc.so", 
    "lib/libmkl_vml_mc2.so", 
    "lib/libmkl_vml_mc3.so"
  ], 
  "license": "proprietary - Intel", 
  "license_family": "Proprietary", 
  "link": {
    "source": "/home/fdavilakurban/.conda/envs/.pkgs/mkl-11.3.3-0", 
    "type": "hard-link"
  }, 
  "md5": "8eb22d7fda5328b19631ce2b969c4018", 
  "name": "mkl", 
  "platform": "linux", 
  "requires": [], 
  "size": 127985988, 
  "subdir": "linux-64", 
  "url": "https://repo.continuum.io/pkgs/free/linux-64/mkl-11.3.3-0.tar.bz2", 
  "version": "11.3.3"
}