{
  "arch": "x86_64", 
  "build": "py27_0", 
  "build_number": 0, 
  "channel": "https://repo.continuum.io/pkgs/free/linux-64/", 
  "date": "2016-07-29", 
  "depends": [
    "anaconda-client", 
    "notebook >=4.2.0", 
    "python 2.7*", 
    "_nb_ext_conf"
  ], 
  "files": [
    "lib/python2.7/site-packages/nb_anacondacloud-1.2.0-py2.7.egg-info/PKG-INFO", 
    "lib/python2.7/site-packages/nb_anacondacloud-1.2.0-py2.7.egg-info/SOURCES.txt", 
    "lib/python2.7/site-packages/nb_anacondacloud-1.2.0-py2.7.egg-info/dependency_links.txt", 
    "lib/python2.7/site-packages/nb_anacondacloud-1.2.0-py2.7.egg-info/not-zip-safe", 
    "lib/python2.7/site-packages/nb_anacondacloud-1.2.0-py2.7.egg-info/requires.txt", 
    "lib/python2.7/site-packages/nb_anacondacloud-1.2.0-py2.7.egg-info/top_level.txt", 
    "lib/python2.7/site-packages/nb_anacondacloud/__init__.py", 
    "lib/python2.7/site-packages/nb_anacondacloud/__init__.pyc", 
    "lib/python2.7/site-packages/nb_anacondacloud/_version.py", 
    "lib/python2.7/site-packages/nb_anacondacloud/_version.pyc", 
    "lib/python2.7/site-packages/nb_anacondacloud/handlers.py", 
    "lib/python2.7/site-packages/nb_anacondacloud/handlers.pyc", 
    "lib/python2.7/site-packages/nb_anacondacloud/static/main.js", 
    "lib/python2.7/site-packages/nb_anacondacloud/tests/__init__.py", 
    "lib/python2.7/site-packages/nb_anacondacloud/tests/__init__.pyc", 
    "lib/python2.7/site-packages/nb_anacondacloud/tests/fixtures/package.json", 
    "lib/python2.7/site-packages/nb_anacondacloud/tests/fixtures/release.json", 
    "lib/python2.7/site-packages/nb_anacondacloud/tests/fixtures/upload.json", 
    "lib/python2.7/site-packages/nb_anacondacloud/tests/fixtures/user.json", 
    "lib/python2.7/site-packages/nb_anacondacloud/tests/fixtures/user_orgs.json", 
    "lib/python2.7/site-packages/nb_anacondacloud/tests/js/_utils.js", 
    "lib/python2.7/site-packages/nb_anacondacloud/tests/js/auth/test_00_basics.js", 
    "lib/python2.7/site-packages/nb_anacondacloud/tests/js/auth/test_01_auth.js", 
    "lib/python2.7/site-packages/nb_anacondacloud/tests/js/noauth/test_50_noauth.js", 
    "lib/python2.7/site-packages/nb_anacondacloud/tests/patched.py", 
    "lib/python2.7/site-packages/nb_anacondacloud/tests/patched.pyc", 
    "lib/python2.7/site-packages/nb_anacondacloud/tests/test_notebook.py", 
    "lib/python2.7/site-packages/nb_anacondacloud/tests/test_notebook.pyc", 
    "lib/python2.7/site-packages/nb_anacondacloud/uploader.py", 
    "lib/python2.7/site-packages/nb_anacondacloud/uploader.pyc", 
    "share/jupyter/nbextensions/nb_anacondacloud/main.js"
  ], 
  "license": "BSD", 
  "link": {
    "source": "/home/fdavilakurban/.conda/envs/.pkgs/nb_anacondacloud-1.2.0-py27_0", 
    "type": "hard-link"
  }, 
  "md5": "55817c6e5425a721c921e92c3bad864a", 
  "name": "nb_anacondacloud", 
  "platform": "linux", 
  "requires": [], 
  "size": 23175, 
  "subdir": "linux-64", 
  "url": "https://repo.continuum.io/pkgs/free/linux-64/nb_anacondacloud-1.2.0-py27_0.tar.bz2", 
  "version": "1.2.0"
}