{
  "arch": "x86_64", 
  "build": "py27_0", 
  "build_number": 0, 
  "channel": "https://repo.continuum.io/pkgs/free/linux-64/", 
  "date": "2016-06-21", 
  "depends": [
    "notebook >=4.2.0", 
    "python 2.7*", 
    "_nb_ext_conf"
  ], 
  "files": [
    "bin/nbpresent", 
    "lib/python2.7/site-packages/nbpresent-3.0.2-py2.7.egg-info/PKG-INFO", 
    "lib/python2.7/site-packages/nbpresent-3.0.2-py2.7.egg-info/SOURCES.txt", 
    "lib/python2.7/site-packages/nbpresent-3.0.2-py2.7.egg-info/dependency_links.txt", 
    "lib/python2.7/site-packages/nbpresent-3.0.2-py2.7.egg-info/entry_points.txt", 
    "lib/python2.7/site-packages/nbpresent-3.0.2-py2.7.egg-info/top_level.txt", 
    "lib/python2.7/site-packages/nbpresent/__init__.py", 
    "lib/python2.7/site-packages/nbpresent/__init__.pyc", 
    "lib/python2.7/site-packages/nbpresent/_version.py", 
    "lib/python2.7/site-packages/nbpresent/_version.pyc", 
    "lib/python2.7/site-packages/nbpresent/export.py", 
    "lib/python2.7/site-packages/nbpresent/export.pyc", 
    "lib/python2.7/site-packages/nbpresent/exporters/__init__.py", 
    "lib/python2.7/site-packages/nbpresent/exporters/__init__.pyc", 
    "lib/python2.7/site-packages/nbpresent/exporters/base.py", 
    "lib/python2.7/site-packages/nbpresent/exporters/base.pyc", 
    "lib/python2.7/site-packages/nbpresent/exporters/html.py", 
    "lib/python2.7/site-packages/nbpresent/exporters/html.pyc", 
    "lib/python2.7/site-packages/nbpresent/exporters/pdf.py", 
    "lib/python2.7/site-packages/nbpresent/exporters/pdf.pyc", 
    "lib/python2.7/site-packages/nbpresent/exporters/pdf_capture.py", 
    "lib/python2.7/site-packages/nbpresent/exporters/pdf_capture.pyc", 
    "lib/python2.7/site-packages/nbpresent/exporters/pdf_ghost.py", 
    "lib/python2.7/site-packages/nbpresent/exporters/pdf_ghost.pyc", 
    "lib/python2.7/site-packages/nbpresent/static/nbpresent/css/nbpresent.min.css", 
    "lib/python2.7/site-packages/nbpresent/static/nbpresent/js/nbpresent.deps.min.js", 
    "lib/python2.7/site-packages/nbpresent/static/nbpresent/js/nbpresent.min.js", 
    "lib/python2.7/site-packages/nbpresent/static/nbpresent/js/nbpresent.notebook.min.js", 
    "lib/python2.7/site-packages/nbpresent/static/nbpresent/js/nbpresent.standalone.min.js", 
    "lib/python2.7/site-packages/nbpresent/static/nbpresent/js/nbpresent.static.min.js", 
    "lib/python2.7/site-packages/nbpresent/tasks/__init__.py", 
    "lib/python2.7/site-packages/nbpresent/tasks/__init__.pyc", 
    "lib/python2.7/site-packages/nbpresent/tasks/_env.py", 
    "lib/python2.7/site-packages/nbpresent/tasks/_env.pyc", 
    "lib/python2.7/site-packages/nbpresent/tasks/build.py", 
    "lib/python2.7/site-packages/nbpresent/tasks/build.pyc", 
    "lib/python2.7/site-packages/nbpresent/tasks/clean.py", 
    "lib/python2.7/site-packages/nbpresent/tasks/clean.pyc", 
    "lib/python2.7/site-packages/nbpresent/tasks/deps.py", 
    "lib/python2.7/site-packages/nbpresent/tasks/deps.pyc", 
    "lib/python2.7/site-packages/nbpresent/tasks/index.py", 
    "lib/python2.7/site-packages/nbpresent/tasks/index.pyc", 
    "lib/python2.7/site-packages/nbpresent/tasks/less.py", 
    "lib/python2.7/site-packages/nbpresent/tasks/less.pyc", 
    "lib/python2.7/site-packages/nbpresent/tasks/notebook.py", 
    "lib/python2.7/site-packages/nbpresent/tasks/notebook.pyc", 
    "lib/python2.7/site-packages/nbpresent/tasks/requirejs.py", 
    "lib/python2.7/site-packages/nbpresent/tasks/requirejs.pyc", 
    "lib/python2.7/site-packages/nbpresent/tasks/standalone.py", 
    "lib/python2.7/site-packages/nbpresent/tasks/standalone.pyc", 
    "lib/python2.7/site-packages/nbpresent/templates/nbpresent.tpl", 
    "lib/python2.7/site-packages/nbpresent/tests/__init__.py", 
    "lib/python2.7/site-packages/nbpresent/tests/__init__.pyc", 
    "lib/python2.7/site-packages/nbpresent/tests/js/_utils.js", 
    "lib/python2.7/site-packages/nbpresent/tests/js/test_export_html.js", 
    "lib/python2.7/site-packages/nbpresent/tests/js/test_notebook_basic.js", 
    "lib/python2.7/site-packages/nbpresent/tests/js/test_notebook_create.js", 
    "lib/python2.7/site-packages/nbpresent/tests/js/test_notebook_no_regions.js", 
    "lib/python2.7/site-packages/nbpresent/tests/notebooks/Basics.ipynb", 
    "lib/python2.7/site-packages/nbpresent/tests/test_export.py", 
    "lib/python2.7/site-packages/nbpresent/tests/test_export.pyc", 
    "lib/python2.7/site-packages/nbpresent/tests/test_notebook.py", 
    "lib/python2.7/site-packages/nbpresent/tests/test_notebook.pyc", 
    "share/jupyter/nbextensions/nbpresent/css/nbpresent.min.css", 
    "share/jupyter/nbextensions/nbpresent/js/nbpresent.deps.min.js", 
    "share/jupyter/nbextensions/nbpresent/js/nbpresent.min.js", 
    "share/jupyter/nbextensions/nbpresent/js/nbpresent.notebook.min.js", 
    "share/jupyter/nbextensions/nbpresent/js/nbpresent.standalone.min.js", 
    "share/jupyter/nbextensions/nbpresent/js/nbpresent.static.min.js"
  ], 
  "license": "BSD", 
  "link": {
    "source": "/home/fdavilakurban/.conda/envs/.pkgs/nbpresent-3.0.2-py27_0", 
    "type": "hard-link"
  }, 
  "md5": "a3d018343452a6a881c714c1f9e98e2d", 
  "name": "nbpresent", 
  "platform": "linux", 
  "requires": [], 
  "size": 473918, 
  "subdir": "linux-64", 
  "url": "https://repo.continuum.io/pkgs/free/linux-64/nbpresent-3.0.2-py27_0.tar.bz2", 
  "version": "3.0.2"
}