{
  "arch": "x86_64", 
  "build": "np111py27_0", 
  "build_number": 0, 
  "channel": "https://repo.continuum.io/pkgs/free/linux-64", 
  "date": "2016-08-30", 
  "depends": [
    "funcsigs", 
    "llvmlite 0.13.*", 
    "numpy 1.11*", 
    "python 2.7*", 
    "singledispatch"
  ], 
  "files": [
    "bin/numba", 
    "bin/pycc", 
    "lib/python2.7/site-packages/numba-0.28.1+0.gfe99fbc.dirty-py2.7-linux-x86_64.egg-info/PKG-INFO", 
    "lib/python2.7/site-packages/numba-0.28.1+0.gfe99fbc.dirty-py2.7-linux-x86_64.egg-info/SOURCES.txt", 
    "lib/python2.7/site-packages/numba-0.28.1+0.gfe99fbc.dirty-py2.7-linux-x86_64.egg-info/dependency_links.txt", 
    "lib/python2.7/site-packages/numba-0.28.1+0.gfe99fbc.dirty-py2.7-linux-x86_64.egg-info/native_libs.txt", 
    "lib/python2.7/site-packages/numba-0.28.1+0.gfe99fbc.dirty-py2.7-linux-x86_64.egg-info/not-zip-safe", 
    "lib/python2.7/site-packages/numba-0.28.1+0.gfe99fbc.dirty-py2.7-linux-x86_64.egg-info/requires.txt", 
    "lib/python2.7/site-packages/numba-0.28.1+0.gfe99fbc.dirty-py2.7-linux-x86_64.egg-info/scripts/numba", 
    "lib/python2.7/site-packages/numba-0.28.1+0.gfe99fbc.dirty-py2.7-linux-x86_64.egg-info/scripts/pycc", 
    "lib/python2.7/site-packages/numba-0.28.1+0.gfe99fbc.dirty-py2.7-linux-x86_64.egg-info/top_level.txt", 
    "lib/python2.7/site-packages/numba/__init__.py", 
    "lib/python2.7/site-packages/numba/__init__.pyc", 
    "lib/python2.7/site-packages/numba/_arraystruct.h", 
    "lib/python2.7/site-packages/numba/_dispatcher.c", 
    "lib/python2.7/site-packages/numba/_dispatcher.h", 
    "lib/python2.7/site-packages/numba/_dispatcher.so", 
    "lib/python2.7/site-packages/numba/_dynfunc.c", 
    "lib/python2.7/site-packages/numba/_dynfunc.so", 
    "lib/python2.7/site-packages/numba/_dynfuncmod.c", 
    "lib/python2.7/site-packages/numba/_hashtable.c", 
    "lib/python2.7/site-packages/numba/_hashtable.h", 
    "lib/python2.7/site-packages/numba/_helperlib.c", 
    "lib/python2.7/site-packages/numba/_helperlib.so", 
    "lib/python2.7/site-packages/numba/_helpermod.c", 
    "lib/python2.7/site-packages/numba/_lapack.c", 
    "lib/python2.7/site-packages/numba/_math_c99.c", 
    "lib/python2.7/site-packages/numba/_math_c99.h", 
    "lib/python2.7/site-packages/numba/_npymath_exports.c", 
    "lib/python2.7/site-packages/numba/_numba_common.h", 
    "lib/python2.7/site-packages/numba/_pymodule.h", 
    "lib/python2.7/site-packages/numba/_random.c", 
    "lib/python2.7/site-packages/numba/_typeof.c", 
    "lib/python2.7/site-packages/numba/_typeof.h", 
    "lib/python2.7/site-packages/numba/_version.py", 
    "lib/python2.7/site-packages/numba/_version.pyc", 
    "lib/python2.7/site-packages/numba/analysis.py", 
    "lib/python2.7/site-packages/numba/analysis.pyc", 
    "lib/python2.7/site-packages/numba/annotations/__init__.py", 
    "lib/python2.7/site-packages/numba/annotations/__init__.pyc", 
    "lib/python2.7/site-packages/numba/annotations/template.html", 
    "lib/python2.7/site-packages/numba/annotations/type_annotations.py", 
    "lib/python2.7/site-packages/numba/annotations/type_annotations.pyc", 
    "lib/python2.7/site-packages/numba/appdirs.py", 
    "lib/python2.7/site-packages/numba/appdirs.pyc", 
    "lib/python2.7/site-packages/numba/bytecode.py", 
    "lib/python2.7/site-packages/numba/bytecode.pyc", 
    "lib/python2.7/site-packages/numba/caching.py", 
    "lib/python2.7/site-packages/numba/caching.pyc", 
    "lib/python2.7/site-packages/numba/callwrapper.py", 
    "lib/python2.7/site-packages/numba/callwrapper.pyc", 
    "lib/python2.7/site-packages/numba/capsulethunk.h", 
    "lib/python2.7/site-packages/numba/ccallback.py", 
    "lib/python2.7/site-packages/numba/ccallback.pyc", 
    "lib/python2.7/site-packages/numba/cffi_support.py", 
    "lib/python2.7/site-packages/numba/cffi_support.pyc", 
    "lib/python2.7/site-packages/numba/cgutils.py", 
    "lib/python2.7/site-packages/numba/cgutils.pyc", 
    "lib/python2.7/site-packages/numba/compiler.py", 
    "lib/python2.7/site-packages/numba/compiler.pyc", 
    "lib/python2.7/site-packages/numba/config.py", 
    "lib/python2.7/site-packages/numba/config.pyc", 
    "lib/python2.7/site-packages/numba/consts.py", 
    "lib/python2.7/site-packages/numba/consts.pyc", 
    "lib/python2.7/site-packages/numba/controlflow.py", 
    "lib/python2.7/site-packages/numba/controlflow.pyc", 
    "lib/python2.7/site-packages/numba/ctypes_support.py", 
    "lib/python2.7/site-packages/numba/ctypes_support.pyc", 
    "lib/python2.7/site-packages/numba/cuda/__init__.py", 
    "lib/python2.7/site-packages/numba/cuda/__init__.pyc", 
    "lib/python2.7/site-packages/numba/cuda/api.py", 
    "lib/python2.7/site-packages/numba/cuda/api.pyc", 
    "lib/python2.7/site-packages/numba/cuda/codegen.py", 
    "lib/python2.7/site-packages/numba/cuda/codegen.pyc", 
    "lib/python2.7/site-packages/numba/cuda/compiler.py", 
    "lib/python2.7/site-packages/numba/cuda/compiler.pyc", 
    "lib/python2.7/site-packages/numba/cuda/cudadecl.py", 
    "lib/python2.7/site-packages/numba/cuda/cudadecl.pyc", 
    "lib/python2.7/site-packages/numba/cuda/cudadrv/__init__.py", 
    "lib/python2.7/site-packages/numba/cuda/cudadrv/__init__.pyc", 
    "lib/python2.7/site-packages/numba/cuda/cudadrv/autotune.py", 
    "lib/python2.7/site-packages/numba/cuda/cudadrv/autotune.pyc", 
    "lib/python2.7/site-packages/numba/cuda/cudadrv/devicearray.py", 
    "lib/python2.7/site-packages/numba/cuda/cudadrv/devicearray.pyc", 
    "lib/python2.7/site-packages/numba/cuda/cudadrv/devices.py", 
    "lib/python2.7/site-packages/numba/cuda/cudadrv/devices.pyc", 
    "lib/python2.7/site-packages/numba/cuda/cudadrv/driver.py", 
    "lib/python2.7/site-packages/numba/cuda/cudadrv/driver.pyc", 
    "lib/python2.7/site-packages/numba/cuda/cudadrv/drvapi.py", 
    "lib/python2.7/site-packages/numba/cuda/cudadrv/drvapi.pyc", 
    "lib/python2.7/site-packages/numba/cuda/cudadrv/enums.py", 
    "lib/python2.7/site-packages/numba/cuda/cudadrv/enums.pyc", 
    "lib/python2.7/site-packages/numba/cuda/cudadrv/error.py", 
    "lib/python2.7/site-packages/numba/cuda/cudadrv/error.pyc", 
    "lib/python2.7/site-packages/numba/cuda/cudadrv/libs.py", 
    "lib/python2.7/site-packages/numba/cuda/cudadrv/libs.pyc", 
    "lib/python2.7/site-packages/numba/cuda/cudadrv/ndarray.py", 
    "lib/python2.7/site-packages/numba/cuda/cudadrv/ndarray.pyc", 
    "lib/python2.7/site-packages/numba/cuda/cudadrv/nvvm.py", 
    "lib/python2.7/site-packages/numba/cuda/cudadrv/nvvm.pyc", 
    "lib/python2.7/site-packages/numba/cuda/cudaimpl.py", 
    "lib/python2.7/site-packages/numba/cuda/cudaimpl.pyc", 
    "lib/python2.7/site-packages/numba/cuda/cudamath.py", 
    "lib/python2.7/site-packages/numba/cuda/cudamath.pyc", 
    "lib/python2.7/site-packages/numba/cuda/decorators.py", 
    "lib/python2.7/site-packages/numba/cuda/decorators.pyc", 
    "lib/python2.7/site-packages/numba/cuda/descriptor.py", 
    "lib/python2.7/site-packages/numba/cuda/descriptor.pyc", 
    "lib/python2.7/site-packages/numba/cuda/device_init.py", 
    "lib/python2.7/site-packages/numba/cuda/device_init.pyc", 
    "lib/python2.7/site-packages/numba/cuda/dispatcher.py", 
    "lib/python2.7/site-packages/numba/cuda/dispatcher.pyc", 
    "lib/python2.7/site-packages/numba/cuda/errors.py", 
    "lib/python2.7/site-packages/numba/cuda/errors.pyc", 
    "lib/python2.7/site-packages/numba/cuda/initialize.py", 
    "lib/python2.7/site-packages/numba/cuda/initialize.pyc", 
    "lib/python2.7/site-packages/numba/cuda/kernels/__init__.py", 
    "lib/python2.7/site-packages/numba/cuda/kernels/__init__.pyc", 
    "lib/python2.7/site-packages/numba/cuda/kernels/reduction.py", 
    "lib/python2.7/site-packages/numba/cuda/kernels/reduction.pyc", 
    "lib/python2.7/site-packages/numba/cuda/kernels/transpose.py", 
    "lib/python2.7/site-packages/numba/cuda/kernels/transpose.pyc", 
    "lib/python2.7/site-packages/numba/cuda/libdevice.py", 
    "lib/python2.7/site-packages/numba/cuda/libdevice.pyc", 
    "lib/python2.7/site-packages/numba/cuda/nvvmutils.py", 
    "lib/python2.7/site-packages/numba/cuda/nvvmutils.pyc", 
    "lib/python2.7/site-packages/numba/cuda/printimpl.py", 
    "lib/python2.7/site-packages/numba/cuda/printimpl.pyc", 
    "lib/python2.7/site-packages/numba/cuda/simulator/__init__.py", 
    "lib/python2.7/site-packages/numba/cuda/simulator/__init__.pyc", 
    "lib/python2.7/site-packages/numba/cuda/simulator/api.py", 
    "lib/python2.7/site-packages/numba/cuda/simulator/api.pyc", 
    "lib/python2.7/site-packages/numba/cuda/simulator/array.py", 
    "lib/python2.7/site-packages/numba/cuda/simulator/array.pyc", 
    "lib/python2.7/site-packages/numba/cuda/simulator/compiler.py", 
    "lib/python2.7/site-packages/numba/cuda/simulator/compiler.pyc", 
    "lib/python2.7/site-packages/numba/cuda/simulator/cudadrv/__init__.py", 
    "lib/python2.7/site-packages/numba/cuda/simulator/cudadrv/__init__.pyc", 
    "lib/python2.7/site-packages/numba/cuda/simulator/cudadrv/devicearray.py", 
    "lib/python2.7/site-packages/numba/cuda/simulator/cudadrv/devicearray.pyc", 
    "lib/python2.7/site-packages/numba/cuda/simulator/cudadrv/devices.py", 
    "lib/python2.7/site-packages/numba/cuda/simulator/cudadrv/devices.pyc", 
    "lib/python2.7/site-packages/numba/cuda/simulator/cudadrv/driver.py", 
    "lib/python2.7/site-packages/numba/cuda/simulator/cudadrv/driver.pyc", 
    "lib/python2.7/site-packages/numba/cuda/simulator/cudadrv/drvapi.py", 
    "lib/python2.7/site-packages/numba/cuda/simulator/cudadrv/drvapi.pyc", 
    "lib/python2.7/site-packages/numba/cuda/simulator/cudadrv/nvvm.py", 
    "lib/python2.7/site-packages/numba/cuda/simulator/cudadrv/nvvm.pyc", 
    "lib/python2.7/site-packages/numba/cuda/simulator/kernel.py", 
    "lib/python2.7/site-packages/numba/cuda/simulator/kernel.pyc", 
    "lib/python2.7/site-packages/numba/cuda/simulator/kernelapi.py", 
    "lib/python2.7/site-packages/numba/cuda/simulator/kernelapi.pyc", 
    "lib/python2.7/site-packages/numba/cuda/simulator/reduction.py", 
    "lib/python2.7/site-packages/numba/cuda/simulator/reduction.pyc", 
    "lib/python2.7/site-packages/numba/cuda/simulator_init.py", 
    "lib/python2.7/site-packages/numba/cuda/simulator_init.pyc", 
    "lib/python2.7/site-packages/numba/cuda/stubs.py", 
    "lib/python2.7/site-packages/numba/cuda/stubs.pyc", 
    "lib/python2.7/site-packages/numba/cuda/target.py", 
    "lib/python2.7/site-packages/numba/cuda/target.pyc", 
    "lib/python2.7/site-packages/numba/cuda/testing.py", 
    "lib/python2.7/site-packages/numba/cuda/testing.pyc", 
    "lib/python2.7/site-packages/numba/cuda/tests/__init__.py", 
    "lib/python2.7/site-packages/numba/cuda/tests/__init__.pyc", 
    "lib/python2.7/site-packages/numba/cuda/tests/cudadrv/__init__.py", 
    "lib/python2.7/site-packages/numba/cuda/tests/cudadrv/__init__.pyc", 
    "lib/python2.7/site-packages/numba/cuda/tests/cudadrv/data/__init__.py", 
    "lib/python2.7/site-packages/numba/cuda/tests/cudadrv/data/__init__.pyc", 
    "lib/python2.7/site-packages/numba/cuda/tests/cudadrv/data/jitlink.ptx", 
    "lib/python2.7/site-packages/numba/cuda/tests/cudadrv/test_array_attr.py", 
    "lib/python2.7/site-packages/numba/cuda/tests/cudadrv/test_array_attr.pyc", 
    "lib/python2.7/site-packages/numba/cuda/tests/cudadrv/test_context_stack.py", 
    "lib/python2.7/site-packages/numba/cuda/tests/cudadrv/test_context_stack.pyc", 
    "lib/python2.7/site-packages/numba/cuda/tests/cudadrv/test_cuda_array_slicing.py", 
    "lib/python2.7/site-packages/numba/cuda/tests/cudadrv/test_cuda_array_slicing.pyc", 
    "lib/python2.7/site-packages/numba/cuda/tests/cudadrv/test_cuda_auto_context.py", 
    "lib/python2.7/site-packages/numba/cuda/tests/cudadrv/test_cuda_auto_context.pyc", 
    "lib/python2.7/site-packages/numba/cuda/tests/cudadrv/test_cuda_devicerecord.py", 
    "lib/python2.7/site-packages/numba/cuda/tests/cudadrv/test_cuda_devicerecord.pyc", 
    "lib/python2.7/site-packages/numba/cuda/tests/cudadrv/test_cuda_driver.py", 
    "lib/python2.7/site-packages/numba/cuda/tests/cudadrv/test_cuda_driver.pyc", 
    "lib/python2.7/site-packages/numba/cuda/tests/cudadrv/test_cuda_memory.py", 
    "lib/python2.7/site-packages/numba/cuda/tests/cudadrv/test_cuda_memory.pyc", 
    "lib/python2.7/site-packages/numba/cuda/tests/cudadrv/test_cuda_ndarray.py", 
    "lib/python2.7/site-packages/numba/cuda/tests/cudadrv/test_cuda_ndarray.pyc", 
    "lib/python2.7/site-packages/numba/cuda/tests/cudadrv/test_deallocations.py", 
    "lib/python2.7/site-packages/numba/cuda/tests/cudadrv/test_deallocations.pyc", 
    "lib/python2.7/site-packages/numba/cuda/tests/cudadrv/test_detect.py", 
    "lib/python2.7/site-packages/numba/cuda/tests/cudadrv/test_detect.pyc", 
    "lib/python2.7/site-packages/numba/cuda/tests/cudadrv/test_events.py", 
    "lib/python2.7/site-packages/numba/cuda/tests/cudadrv/test_events.pyc", 
    "lib/python2.7/site-packages/numba/cuda/tests/cudadrv/test_host_alloc.py", 
    "lib/python2.7/site-packages/numba/cuda/tests/cudadrv/test_host_alloc.pyc", 
    "lib/python2.7/site-packages/numba/cuda/tests/cudadrv/test_inline_ptx.py", 
    "lib/python2.7/site-packages/numba/cuda/tests/cudadrv/test_inline_ptx.pyc", 
    "lib/python2.7/site-packages/numba/cuda/tests/cudadrv/test_linker.py", 
    "lib/python2.7/site-packages/numba/cuda/tests/cudadrv/test_linker.pyc", 
    "lib/python2.7/site-packages/numba/cuda/tests/cudadrv/test_nvvm_driver.py", 
    "lib/python2.7/site-packages/numba/cuda/tests/cudadrv/test_nvvm_driver.pyc", 
    "lib/python2.7/site-packages/numba/cuda/tests/cudadrv/test_pinned.py", 
    "lib/python2.7/site-packages/numba/cuda/tests/cudadrv/test_pinned.pyc", 
    "lib/python2.7/site-packages/numba/cuda/tests/cudadrv/test_profiler.py", 
    "lib/python2.7/site-packages/numba/cuda/tests/cudadrv/test_profiler.pyc", 
    "lib/python2.7/site-packages/numba/cuda/tests/cudadrv/test_reset_device.py", 
    "lib/python2.7/site-packages/numba/cuda/tests/cudadrv/test_reset_device.pyc", 
    "lib/python2.7/site-packages/numba/cuda/tests/cudadrv/test_select_device.py", 
    "lib/python2.7/site-packages/numba/cuda/tests/cudadrv/test_select_device.pyc", 
    "lib/python2.7/site-packages/numba/cuda/tests/cudapy/__init__.py", 
    "lib/python2.7/site-packages/numba/cuda/tests/cudapy/__init__.pyc", 
    "lib/python2.7/site-packages/numba/cuda/tests/cudapy/test_alignment.py", 
    "lib/python2.7/site-packages/numba/cuda/tests/cudapy/test_alignment.pyc", 
    "lib/python2.7/site-packages/numba/cuda/tests/cudapy/test_array.py", 
    "lib/python2.7/site-packages/numba/cuda/tests/cudapy/test_array.pyc", 
    "lib/python2.7/site-packages/numba/cuda/tests/cudapy/test_array_args.py", 
    "lib/python2.7/site-packages/numba/cuda/tests/cudapy/test_array_args.pyc", 
    "lib/python2.7/site-packages/numba/cuda/tests/cudapy/test_array_methods.py", 
    "lib/python2.7/site-packages/numba/cuda/tests/cudapy/test_array_methods.pyc", 
    "lib/python2.7/site-packages/numba/cuda/tests/cudapy/test_atomics.py", 
    "lib/python2.7/site-packages/numba/cuda/tests/cudapy/test_atomics.pyc", 
    "lib/python2.7/site-packages/numba/cuda/tests/cudapy/test_autojit.py", 
    "lib/python2.7/site-packages/numba/cuda/tests/cudapy/test_autojit.pyc", 
    "lib/python2.7/site-packages/numba/cuda/tests/cudapy/test_blackscholes.py", 
    "lib/python2.7/site-packages/numba/cuda/tests/cudapy/test_blackscholes.pyc", 
    "lib/python2.7/site-packages/numba/cuda/tests/cudapy/test_boolean.py", 
    "lib/python2.7/site-packages/numba/cuda/tests/cudapy/test_boolean.pyc", 
    "lib/python2.7/site-packages/numba/cuda/tests/cudapy/test_casting.py", 
    "lib/python2.7/site-packages/numba/cuda/tests/cudapy/test_casting.pyc", 
    "lib/python2.7/site-packages/numba/cuda/tests/cudapy/test_complex.py", 
    "lib/python2.7/site-packages/numba/cuda/tests/cudapy/test_complex.pyc", 
    "lib/python2.7/site-packages/numba/cuda/tests/cudapy/test_complex_kernel.py", 
    "lib/python2.7/site-packages/numba/cuda/tests/cudapy/test_complex_kernel.pyc", 
    "lib/python2.7/site-packages/numba/cuda/tests/cudapy/test_const_string.py", 
    "lib/python2.7/site-packages/numba/cuda/tests/cudapy/test_const_string.pyc", 
    "lib/python2.7/site-packages/numba/cuda/tests/cudapy/test_constmem.py", 
    "lib/python2.7/site-packages/numba/cuda/tests/cudapy/test_constmem.pyc", 
    "lib/python2.7/site-packages/numba/cuda/tests/cudapy/test_cuda_autojit.py", 
    "lib/python2.7/site-packages/numba/cuda/tests/cudapy/test_cuda_autojit.pyc", 
    "lib/python2.7/site-packages/numba/cuda/tests/cudapy/test_debug.py", 
    "lib/python2.7/site-packages/numba/cuda/tests/cudapy/test_debug.pyc", 
    "lib/python2.7/site-packages/numba/cuda/tests/cudapy/test_device_func.py", 
    "lib/python2.7/site-packages/numba/cuda/tests/cudapy/test_device_func.pyc", 
    "lib/python2.7/site-packages/numba/cuda/tests/cudapy/test_errors.py", 
    "lib/python2.7/site-packages/numba/cuda/tests/cudapy/test_errors.pyc", 
    "lib/python2.7/site-packages/numba/cuda/tests/cudapy/test_exception.py", 
    "lib/python2.7/site-packages/numba/cuda/tests/cudapy/test_exception.pyc", 
    "lib/python2.7/site-packages/numba/cuda/tests/cudapy/test_fastmath.py", 
    "lib/python2.7/site-packages/numba/cuda/tests/cudapy/test_fastmath.pyc", 
    "lib/python2.7/site-packages/numba/cuda/tests/cudapy/test_forall.py", 
    "lib/python2.7/site-packages/numba/cuda/tests/cudapy/test_forall.pyc", 
    "lib/python2.7/site-packages/numba/cuda/tests/cudapy/test_freevar.py", 
    "lib/python2.7/site-packages/numba/cuda/tests/cudapy/test_freevar.pyc", 
    "lib/python2.7/site-packages/numba/cuda/tests/cudapy/test_globals.py", 
    "lib/python2.7/site-packages/numba/cuda/tests/cudapy/test_globals.pyc", 
    "lib/python2.7/site-packages/numba/cuda/tests/cudapy/test_gufunc.py", 
    "lib/python2.7/site-packages/numba/cuda/tests/cudapy/test_gufunc.pyc", 
    "lib/python2.7/site-packages/numba/cuda/tests/cudapy/test_gufunc_scalar.py", 
    "lib/python2.7/site-packages/numba/cuda/tests/cudapy/test_gufunc_scalar.pyc", 
    "lib/python2.7/site-packages/numba/cuda/tests/cudapy/test_gufunc_scheduling.py", 
    "lib/python2.7/site-packages/numba/cuda/tests/cudapy/test_gufunc_scheduling.pyc", 
    "lib/python2.7/site-packages/numba/cuda/tests/cudapy/test_idiv.py", 
    "lib/python2.7/site-packages/numba/cuda/tests/cudapy/test_idiv.pyc", 
    "lib/python2.7/site-packages/numba/cuda/tests/cudapy/test_inspect.py", 
    "lib/python2.7/site-packages/numba/cuda/tests/cudapy/test_inspect.pyc", 
    "lib/python2.7/site-packages/numba/cuda/tests/cudapy/test_intrinsics.py", 
    "lib/python2.7/site-packages/numba/cuda/tests/cudapy/test_intrinsics.pyc", 
    "lib/python2.7/site-packages/numba/cuda/tests/cudapy/test_lang.py", 
    "lib/python2.7/site-packages/numba/cuda/tests/cudapy/test_lang.pyc", 
    "lib/python2.7/site-packages/numba/cuda/tests/cudapy/test_laplace.py", 
    "lib/python2.7/site-packages/numba/cuda/tests/cudapy/test_laplace.pyc", 
    "lib/python2.7/site-packages/numba/cuda/tests/cudapy/test_localmem.py", 
    "lib/python2.7/site-packages/numba/cuda/tests/cudapy/test_localmem.pyc", 
    "lib/python2.7/site-packages/numba/cuda/tests/cudapy/test_macro.py", 
    "lib/python2.7/site-packages/numba/cuda/tests/cudapy/test_macro.pyc", 
    "lib/python2.7/site-packages/numba/cuda/tests/cudapy/test_mandel.py", 
    "lib/python2.7/site-packages/numba/cuda/tests/cudapy/test_mandel.pyc", 
    "lib/python2.7/site-packages/numba/cuda/tests/cudapy/test_math.py", 
    "lib/python2.7/site-packages/numba/cuda/tests/cudapy/test_math.pyc", 
    "lib/python2.7/site-packages/numba/cuda/tests/cudapy/test_matmul.py", 
    "lib/python2.7/site-packages/numba/cuda/tests/cudapy/test_matmul.pyc", 
    "lib/python2.7/site-packages/numba/cuda/tests/cudapy/test_montecarlo.py", 
    "lib/python2.7/site-packages/numba/cuda/tests/cudapy/test_montecarlo.pyc", 
    "lib/python2.7/site-packages/numba/cuda/tests/cudapy/test_multigpu.py", 
    "lib/python2.7/site-packages/numba/cuda/tests/cudapy/test_multigpu.pyc", 
    "lib/python2.7/site-packages/numba/cuda/tests/cudapy/test_multiprocessing.py", 
    "lib/python2.7/site-packages/numba/cuda/tests/cudapy/test_multiprocessing.pyc", 
    "lib/python2.7/site-packages/numba/cuda/tests/cudapy/test_multithreads.py", 
    "lib/python2.7/site-packages/numba/cuda/tests/cudapy/test_multithreads.pyc", 
    "lib/python2.7/site-packages/numba/cuda/tests/cudapy/test_nondet.py", 
    "lib/python2.7/site-packages/numba/cuda/tests/cudapy/test_nondet.pyc", 
    "lib/python2.7/site-packages/numba/cuda/tests/cudapy/test_operator.py", 
    "lib/python2.7/site-packages/numba/cuda/tests/cudapy/test_operator.pyc", 
    "lib/python2.7/site-packages/numba/cuda/tests/cudapy/test_powi.py", 
    "lib/python2.7/site-packages/numba/cuda/tests/cudapy/test_powi.pyc", 
    "lib/python2.7/site-packages/numba/cuda/tests/cudapy/test_print.py", 
    "lib/python2.7/site-packages/numba/cuda/tests/cudapy/test_print.pyc", 
    "lib/python2.7/site-packages/numba/cuda/tests/cudapy/test_py2_div_issue.py", 
    "lib/python2.7/site-packages/numba/cuda/tests/cudapy/test_py2_div_issue.pyc", 
    "lib/python2.7/site-packages/numba/cuda/tests/cudapy/test_record_dtype.py", 
    "lib/python2.7/site-packages/numba/cuda/tests/cudapy/test_record_dtype.pyc", 
    "lib/python2.7/site-packages/numba/cuda/tests/cudapy/test_reduction.py", 
    "lib/python2.7/site-packages/numba/cuda/tests/cudapy/test_reduction.pyc", 
    "lib/python2.7/site-packages/numba/cuda/tests/cudapy/test_serialize.py", 
    "lib/python2.7/site-packages/numba/cuda/tests/cudapy/test_serialize.pyc", 
    "lib/python2.7/site-packages/numba/cuda/tests/cudapy/test_slicing.py", 
    "lib/python2.7/site-packages/numba/cuda/tests/cudapy/test_slicing.pyc", 
    "lib/python2.7/site-packages/numba/cuda/tests/cudapy/test_sm.py", 
    "lib/python2.7/site-packages/numba/cuda/tests/cudapy/test_sm.pyc", 
    "lib/python2.7/site-packages/numba/cuda/tests/cudapy/test_smart_array.py", 
    "lib/python2.7/site-packages/numba/cuda/tests/cudapy/test_smart_array.pyc", 
    "lib/python2.7/site-packages/numba/cuda/tests/cudapy/test_sync.py", 
    "lib/python2.7/site-packages/numba/cuda/tests/cudapy/test_sync.pyc", 
    "lib/python2.7/site-packages/numba/cuda/tests/cudapy/test_transpose.py", 
    "lib/python2.7/site-packages/numba/cuda/tests/cudapy/test_transpose.pyc", 
    "lib/python2.7/site-packages/numba/cuda/tests/cudapy/test_userexc.py", 
    "lib/python2.7/site-packages/numba/cuda/tests/cudapy/test_userexc.pyc", 
    "lib/python2.7/site-packages/numba/cuda/tests/cudapy/test_vectorize.py", 
    "lib/python2.7/site-packages/numba/cuda/tests/cudapy/test_vectorize.pyc", 
    "lib/python2.7/site-packages/numba/cuda/tests/cudapy/test_vectorize_complex.py", 
    "lib/python2.7/site-packages/numba/cuda/tests/cudapy/test_vectorize_complex.pyc", 
    "lib/python2.7/site-packages/numba/cuda/tests/cudapy/test_vectorize_decor.py", 
    "lib/python2.7/site-packages/numba/cuda/tests/cudapy/test_vectorize_decor.pyc", 
    "lib/python2.7/site-packages/numba/cuda/tests/cudapy/test_vectorize_device.py", 
    "lib/python2.7/site-packages/numba/cuda/tests/cudapy/test_vectorize_device.pyc", 
    "lib/python2.7/site-packages/numba/cuda/tests/cudapy/test_vectorize_scalar_arg.py", 
    "lib/python2.7/site-packages/numba/cuda/tests/cudapy/test_vectorize_scalar_arg.pyc", 
    "lib/python2.7/site-packages/numba/cuda/tests/cudasim/__init__.py", 
    "lib/python2.7/site-packages/numba/cuda/tests/cudasim/__init__.pyc", 
    "lib/python2.7/site-packages/numba/cuda/tests/cudasim/support.py", 
    "lib/python2.7/site-packages/numba/cuda/tests/cudasim/support.pyc", 
    "lib/python2.7/site-packages/numba/cuda/tests/cudasim/test_cudasim_issues.py", 
    "lib/python2.7/site-packages/numba/cuda/tests/cudasim/test_cudasim_issues.pyc", 
    "lib/python2.7/site-packages/numba/cuda/tests/nocuda/__init__.py", 
    "lib/python2.7/site-packages/numba/cuda/tests/nocuda/__init__.pyc", 
    "lib/python2.7/site-packages/numba/cuda/tests/nocuda/test_nvvm.py", 
    "lib/python2.7/site-packages/numba/cuda/tests/nocuda/test_nvvm.pyc", 
    "lib/python2.7/site-packages/numba/cuda/vectorizers.py", 
    "lib/python2.7/site-packages/numba/cuda/vectorizers.pyc", 
    "lib/python2.7/site-packages/numba/dataflow.py", 
    "lib/python2.7/site-packages/numba/dataflow.pyc", 
    "lib/python2.7/site-packages/numba/datamodel/__init__.py", 
    "lib/python2.7/site-packages/numba/datamodel/__init__.pyc", 
    "lib/python2.7/site-packages/numba/datamodel/manager.py", 
    "lib/python2.7/site-packages/numba/datamodel/manager.pyc", 
    "lib/python2.7/site-packages/numba/datamodel/models.py", 
    "lib/python2.7/site-packages/numba/datamodel/models.pyc", 
    "lib/python2.7/site-packages/numba/datamodel/packer.py", 
    "lib/python2.7/site-packages/numba/datamodel/packer.pyc", 
    "lib/python2.7/site-packages/numba/datamodel/registry.py", 
    "lib/python2.7/site-packages/numba/datamodel/registry.pyc", 
    "lib/python2.7/site-packages/numba/datamodel/testing.py", 
    "lib/python2.7/site-packages/numba/datamodel/testing.pyc", 
    "lib/python2.7/site-packages/numba/decorators.py", 
    "lib/python2.7/site-packages/numba/decorators.pyc", 
    "lib/python2.7/site-packages/numba/dispatcher.py", 
    "lib/python2.7/site-packages/numba/dispatcher.pyc", 
    "lib/python2.7/site-packages/numba/dummyarray.py", 
    "lib/python2.7/site-packages/numba/dummyarray.pyc", 
    "lib/python2.7/site-packages/numba/errors.py", 
    "lib/python2.7/site-packages/numba/errors.pyc", 
    "lib/python2.7/site-packages/numba/extending.py", 
    "lib/python2.7/site-packages/numba/extending.pyc", 
    "lib/python2.7/site-packages/numba/findlib.py", 
    "lib/python2.7/site-packages/numba/findlib.pyc", 
    "lib/python2.7/site-packages/numba/funcdesc.py", 
    "lib/python2.7/site-packages/numba/funcdesc.pyc", 
    "lib/python2.7/site-packages/numba/generators.py", 
    "lib/python2.7/site-packages/numba/generators.pyc", 
    "lib/python2.7/site-packages/numba/hsa/__init__.py", 
    "lib/python2.7/site-packages/numba/hsa/__init__.pyc", 
    "lib/python2.7/site-packages/numba/hsa/api.py", 
    "lib/python2.7/site-packages/numba/hsa/api.pyc", 
    "lib/python2.7/site-packages/numba/hsa/codegen.py", 
    "lib/python2.7/site-packages/numba/hsa/codegen.pyc", 
    "lib/python2.7/site-packages/numba/hsa/compiler.py", 
    "lib/python2.7/site-packages/numba/hsa/compiler.pyc", 
    "lib/python2.7/site-packages/numba/hsa/decorators.py", 
    "lib/python2.7/site-packages/numba/hsa/decorators.pyc", 
    "lib/python2.7/site-packages/numba/hsa/descriptor.py", 
    "lib/python2.7/site-packages/numba/hsa/descriptor.pyc", 
    "lib/python2.7/site-packages/numba/hsa/dispatch.py", 
    "lib/python2.7/site-packages/numba/hsa/dispatch.pyc", 
    "lib/python2.7/site-packages/numba/hsa/enums.py", 
    "lib/python2.7/site-packages/numba/hsa/enums.pyc", 
    "lib/python2.7/site-packages/numba/hsa/hlc/__init__.py", 
    "lib/python2.7/site-packages/numba/hsa/hlc/__init__.pyc", 
    "lib/python2.7/site-packages/numba/hsa/hlc/config.py", 
    "lib/python2.7/site-packages/numba/hsa/hlc/config.pyc", 
    "lib/python2.7/site-packages/numba/hsa/hlc/hlc.py", 
    "lib/python2.7/site-packages/numba/hsa/hlc/hlc.pyc", 
    "lib/python2.7/site-packages/numba/hsa/hlc/libhlc.py", 
    "lib/python2.7/site-packages/numba/hsa/hlc/libhlc.pyc", 
    "lib/python2.7/site-packages/numba/hsa/hlc/utils.py", 
    "lib/python2.7/site-packages/numba/hsa/hlc/utils.pyc", 
    "lib/python2.7/site-packages/numba/hsa/hsadecl.py", 
    "lib/python2.7/site-packages/numba/hsa/hsadecl.pyc", 
    "lib/python2.7/site-packages/numba/hsa/hsadrv/__init__.py", 
    "lib/python2.7/site-packages/numba/hsa/hsadrv/__init__.pyc", 
    "lib/python2.7/site-packages/numba/hsa/hsadrv/devices.py", 
    "lib/python2.7/site-packages/numba/hsa/hsadrv/devices.pyc", 
    "lib/python2.7/site-packages/numba/hsa/hsadrv/driver.py", 
    "lib/python2.7/site-packages/numba/hsa/hsadrv/driver.pyc", 
    "lib/python2.7/site-packages/numba/hsa/hsadrv/drvapi.py", 
    "lib/python2.7/site-packages/numba/hsa/hsadrv/drvapi.pyc", 
    "lib/python2.7/site-packages/numba/hsa/hsadrv/enums.py", 
    "lib/python2.7/site-packages/numba/hsa/hsadrv/enums.pyc", 
    "lib/python2.7/site-packages/numba/hsa/hsadrv/error.py", 
    "lib/python2.7/site-packages/numba/hsa/hsadrv/error.pyc", 
    "lib/python2.7/site-packages/numba/hsa/hsaimpl.py", 
    "lib/python2.7/site-packages/numba/hsa/hsaimpl.pyc", 
    "lib/python2.7/site-packages/numba/hsa/initialize.py", 
    "lib/python2.7/site-packages/numba/hsa/initialize.pyc", 
    "lib/python2.7/site-packages/numba/hsa/mathdecl.py", 
    "lib/python2.7/site-packages/numba/hsa/mathdecl.pyc", 
    "lib/python2.7/site-packages/numba/hsa/mathimpl.py", 
    "lib/python2.7/site-packages/numba/hsa/mathimpl.pyc", 
    "lib/python2.7/site-packages/numba/hsa/stubs.py", 
    "lib/python2.7/site-packages/numba/hsa/stubs.pyc", 
    "lib/python2.7/site-packages/numba/hsa/target.py", 
    "lib/python2.7/site-packages/numba/hsa/target.pyc", 
    "lib/python2.7/site-packages/numba/hsa/tests/__init__.py", 
    "lib/python2.7/site-packages/numba/hsa/tests/__init__.pyc", 
    "lib/python2.7/site-packages/numba/hsa/tests/hsadrv/__init__.py", 
    "lib/python2.7/site-packages/numba/hsa/tests/hsadrv/__init__.pyc", 
    "lib/python2.7/site-packages/numba/hsa/tests/hsadrv/test_driver.py", 
    "lib/python2.7/site-packages/numba/hsa/tests/hsadrv/test_driver.pyc", 
    "lib/python2.7/site-packages/numba/hsa/tests/hsadrv/test_hlc.py", 
    "lib/python2.7/site-packages/numba/hsa/tests/hsadrv/test_hlc.pyc", 
    "lib/python2.7/site-packages/numba/hsa/tests/hsadrv/vector_copy.brig", 
    "lib/python2.7/site-packages/numba/hsa/tests/hsapy/__init__.py", 
    "lib/python2.7/site-packages/numba/hsa/tests/hsapy/__init__.pyc", 
    "lib/python2.7/site-packages/numba/hsa/tests/hsapy/test_atomics.py", 
    "lib/python2.7/site-packages/numba/hsa/tests/hsapy/test_atomics.pyc", 
    "lib/python2.7/site-packages/numba/hsa/tests/hsapy/test_autojit.py", 
    "lib/python2.7/site-packages/numba/hsa/tests/hsapy/test_autojit.pyc", 
    "lib/python2.7/site-packages/numba/hsa/tests/hsapy/test_barrier.py", 
    "lib/python2.7/site-packages/numba/hsa/tests/hsapy/test_barrier.pyc", 
    "lib/python2.7/site-packages/numba/hsa/tests/hsapy/test_compiler.py", 
    "lib/python2.7/site-packages/numba/hsa/tests/hsapy/test_compiler.pyc", 
    "lib/python2.7/site-packages/numba/hsa/tests/hsapy/test_decorator.py", 
    "lib/python2.7/site-packages/numba/hsa/tests/hsapy/test_decorator.pyc", 
    "lib/python2.7/site-packages/numba/hsa/tests/hsapy/test_gufuncbuilding.py", 
    "lib/python2.7/site-packages/numba/hsa/tests/hsapy/test_gufuncbuilding.pyc", 
    "lib/python2.7/site-packages/numba/hsa/tests/hsapy/test_linkage.py", 
    "lib/python2.7/site-packages/numba/hsa/tests/hsapy/test_linkage.pyc", 
    "lib/python2.7/site-packages/numba/hsa/tests/hsapy/test_math.py", 
    "lib/python2.7/site-packages/numba/hsa/tests/hsapy/test_math.pyc", 
    "lib/python2.7/site-packages/numba/hsa/tests/hsapy/test_matmul.py", 
    "lib/python2.7/site-packages/numba/hsa/tests/hsapy/test_matmul.pyc", 
    "lib/python2.7/site-packages/numba/hsa/tests/hsapy/test_positioning.py", 
    "lib/python2.7/site-packages/numba/hsa/tests/hsapy/test_positioning.pyc", 
    "lib/python2.7/site-packages/numba/hsa/tests/hsapy/test_reduction.py", 
    "lib/python2.7/site-packages/numba/hsa/tests/hsapy/test_reduction.pyc", 
    "lib/python2.7/site-packages/numba/hsa/tests/hsapy/test_scan.py", 
    "lib/python2.7/site-packages/numba/hsa/tests/hsapy/test_scan.pyc", 
    "lib/python2.7/site-packages/numba/hsa/tests/hsapy/test_simple.py", 
    "lib/python2.7/site-packages/numba/hsa/tests/hsapy/test_simple.pyc", 
    "lib/python2.7/site-packages/numba/hsa/tests/hsapy/test_ufuncbuilding.py", 
    "lib/python2.7/site-packages/numba/hsa/tests/hsapy/test_ufuncbuilding.pyc", 
    "lib/python2.7/site-packages/numba/hsa/vectorizers.py", 
    "lib/python2.7/site-packages/numba/hsa/vectorizers.pyc", 
    "lib/python2.7/site-packages/numba/interpreter.py", 
    "lib/python2.7/site-packages/numba/interpreter.pyc", 
    "lib/python2.7/site-packages/numba/io_support.py", 
    "lib/python2.7/site-packages/numba/io_support.pyc", 
    "lib/python2.7/site-packages/numba/ir.py", 
    "lib/python2.7/site-packages/numba/ir.pyc", 
    "lib/python2.7/site-packages/numba/itanium_mangler.py", 
    "lib/python2.7/site-packages/numba/itanium_mangler.pyc", 
    "lib/python2.7/site-packages/numba/jitclass/__init__.py", 
    "lib/python2.7/site-packages/numba/jitclass/__init__.pyc", 
    "lib/python2.7/site-packages/numba/jitclass/_box.so", 
    "lib/python2.7/site-packages/numba/jitclass/base.py", 
    "lib/python2.7/site-packages/numba/jitclass/base.pyc", 
    "lib/python2.7/site-packages/numba/jitclass/boxing.py", 
    "lib/python2.7/site-packages/numba/jitclass/boxing.pyc", 
    "lib/python2.7/site-packages/numba/jitclass/decorators.py", 
    "lib/python2.7/site-packages/numba/jitclass/decorators.pyc", 
    "lib/python2.7/site-packages/numba/lowering.py", 
    "lib/python2.7/site-packages/numba/lowering.pyc", 
    "lib/python2.7/site-packages/numba/macro.py", 
    "lib/python2.7/site-packages/numba/macro.pyc", 
    "lib/python2.7/site-packages/numba/mathnames.h", 
    "lib/python2.7/site-packages/numba/mviewbuf.c", 
    "lib/python2.7/site-packages/numba/mviewbuf.so", 
    "lib/python2.7/site-packages/numba/npdatetime.py", 
    "lib/python2.7/site-packages/numba/npdatetime.pyc", 
    "lib/python2.7/site-packages/numba/npyufunc/__init__.py", 
    "lib/python2.7/site-packages/numba/npyufunc/__init__.pyc", 
    "lib/python2.7/site-packages/numba/npyufunc/_internal.so", 
    "lib/python2.7/site-packages/numba/npyufunc/array_exprs.py", 
    "lib/python2.7/site-packages/numba/npyufunc/array_exprs.pyc", 
    "lib/python2.7/site-packages/numba/npyufunc/decorators.py", 
    "lib/python2.7/site-packages/numba/npyufunc/decorators.pyc", 
    "lib/python2.7/site-packages/numba/npyufunc/deviceufunc.py", 
    "lib/python2.7/site-packages/numba/npyufunc/deviceufunc.pyc", 
    "lib/python2.7/site-packages/numba/npyufunc/dufunc.py", 
    "lib/python2.7/site-packages/numba/npyufunc/dufunc.pyc", 
    "lib/python2.7/site-packages/numba/npyufunc/parallel.py", 
    "lib/python2.7/site-packages/numba/npyufunc/parallel.pyc", 
    "lib/python2.7/site-packages/numba/npyufunc/sigparse.py", 
    "lib/python2.7/site-packages/numba/npyufunc/sigparse.pyc", 
    "lib/python2.7/site-packages/numba/npyufunc/ufuncbuilder.py", 
    "lib/python2.7/site-packages/numba/npyufunc/ufuncbuilder.pyc", 
    "lib/python2.7/site-packages/numba/npyufunc/workqueue.so", 
    "lib/python2.7/site-packages/numba/npyufunc/wrappers.py", 
    "lib/python2.7/site-packages/numba/npyufunc/wrappers.pyc", 
    "lib/python2.7/site-packages/numba/numba_entry.py", 
    "lib/python2.7/site-packages/numba/numba_entry.pyc", 
    "lib/python2.7/site-packages/numba/numpy_support.py", 
    "lib/python2.7/site-packages/numba/numpy_support.pyc", 
    "lib/python2.7/site-packages/numba/objmode.py", 
    "lib/python2.7/site-packages/numba/objmode.pyc", 
    "lib/python2.7/site-packages/numba/pycc/__init__.py", 
    "lib/python2.7/site-packages/numba/pycc/__init__.pyc", 
    "lib/python2.7/site-packages/numba/pycc/cc.py", 
    "lib/python2.7/site-packages/numba/pycc/cc.pyc", 
    "lib/python2.7/site-packages/numba/pycc/compiler.py", 
    "lib/python2.7/site-packages/numba/pycc/compiler.pyc", 
    "lib/python2.7/site-packages/numba/pycc/decorators.py", 
    "lib/python2.7/site-packages/numba/pycc/decorators.pyc", 
    "lib/python2.7/site-packages/numba/pycc/llvm_types.py", 
    "lib/python2.7/site-packages/numba/pycc/llvm_types.pyc", 
    "lib/python2.7/site-packages/numba/pycc/modulemixin.c", 
    "lib/python2.7/site-packages/numba/pycc/platform.py", 
    "lib/python2.7/site-packages/numba/pycc/platform.pyc", 
    "lib/python2.7/site-packages/numba/pythonapi.py", 
    "lib/python2.7/site-packages/numba/pythonapi.pyc", 
    "lib/python2.7/site-packages/numba/rewrites/__init__.py", 
    "lib/python2.7/site-packages/numba/rewrites/__init__.pyc", 
    "lib/python2.7/site-packages/numba/rewrites/ir_print.py", 
    "lib/python2.7/site-packages/numba/rewrites/ir_print.pyc", 
    "lib/python2.7/site-packages/numba/rewrites/macros.py", 
    "lib/python2.7/site-packages/numba/rewrites/macros.pyc", 
    "lib/python2.7/site-packages/numba/rewrites/registry.py", 
    "lib/python2.7/site-packages/numba/rewrites/registry.pyc", 
    "lib/python2.7/site-packages/numba/rewrites/static_binop.py", 
    "lib/python2.7/site-packages/numba/rewrites/static_binop.pyc", 
    "lib/python2.7/site-packages/numba/rewrites/static_getitem.py", 
    "lib/python2.7/site-packages/numba/rewrites/static_getitem.pyc", 
    "lib/python2.7/site-packages/numba/rewrites/static_raise.py", 
    "lib/python2.7/site-packages/numba/rewrites/static_raise.pyc", 
    "lib/python2.7/site-packages/numba/runtests.py", 
    "lib/python2.7/site-packages/numba/runtests.pyc", 
    "lib/python2.7/site-packages/numba/runtime/__init__.py", 
    "lib/python2.7/site-packages/numba/runtime/__init__.pyc", 
    "lib/python2.7/site-packages/numba/runtime/_nrt_python.c", 
    "lib/python2.7/site-packages/numba/runtime/_nrt_python.so", 
    "lib/python2.7/site-packages/numba/runtime/_nrt_pythonmod.c", 
    "lib/python2.7/site-packages/numba/runtime/atomicops.py", 
    "lib/python2.7/site-packages/numba/runtime/atomicops.pyc", 
    "lib/python2.7/site-packages/numba/runtime/context.py", 
    "lib/python2.7/site-packages/numba/runtime/context.pyc", 
    "lib/python2.7/site-packages/numba/runtime/nrt.c", 
    "lib/python2.7/site-packages/numba/runtime/nrt.h", 
    "lib/python2.7/site-packages/numba/runtime/nrt.py", 
    "lib/python2.7/site-packages/numba/runtime/nrt.pyc", 
    "lib/python2.7/site-packages/numba/scripts/__init__.py", 
    "lib/python2.7/site-packages/numba/scripts/__init__.pyc", 
    "lib/python2.7/site-packages/numba/scripts/generate_lower_listing.py", 
    "lib/python2.7/site-packages/numba/scripts/generate_lower_listing.pyc", 
    "lib/python2.7/site-packages/numba/serialize.py", 
    "lib/python2.7/site-packages/numba/serialize.pyc", 
    "lib/python2.7/site-packages/numba/servicelib/__init__.py", 
    "lib/python2.7/site-packages/numba/servicelib/__init__.pyc", 
    "lib/python2.7/site-packages/numba/servicelib/service.py", 
    "lib/python2.7/site-packages/numba/servicelib/service.pyc", 
    "lib/python2.7/site-packages/numba/servicelib/threadlocal.py", 
    "lib/python2.7/site-packages/numba/servicelib/threadlocal.pyc", 
    "lib/python2.7/site-packages/numba/sigutils.py", 
    "lib/python2.7/site-packages/numba/sigutils.pyc", 
    "lib/python2.7/site-packages/numba/six.py", 
    "lib/python2.7/site-packages/numba/six.pyc", 
    "lib/python2.7/site-packages/numba/smartarray.py", 
    "lib/python2.7/site-packages/numba/smartarray.pyc", 
    "lib/python2.7/site-packages/numba/special.py", 
    "lib/python2.7/site-packages/numba/special.pyc", 
    "lib/python2.7/site-packages/numba/targets/__init__.py", 
    "lib/python2.7/site-packages/numba/targets/__init__.pyc", 
    "lib/python2.7/site-packages/numba/targets/arraymath.py", 
    "lib/python2.7/site-packages/numba/targets/arraymath.pyc", 
    "lib/python2.7/site-packages/numba/targets/arrayobj.py", 
    "lib/python2.7/site-packages/numba/targets/arrayobj.pyc", 
    "lib/python2.7/site-packages/numba/targets/base.py", 
    "lib/python2.7/site-packages/numba/targets/base.pyc", 
    "lib/python2.7/site-packages/numba/targets/boxing.py", 
    "lib/python2.7/site-packages/numba/targets/boxing.pyc", 
    "lib/python2.7/site-packages/numba/targets/builtins.py", 
    "lib/python2.7/site-packages/numba/targets/builtins.pyc", 
    "lib/python2.7/site-packages/numba/targets/callconv.py", 
    "lib/python2.7/site-packages/numba/targets/callconv.pyc", 
    "lib/python2.7/site-packages/numba/targets/cffiimpl.py", 
    "lib/python2.7/site-packages/numba/targets/cffiimpl.pyc", 
    "lib/python2.7/site-packages/numba/targets/cmathimpl.py", 
    "lib/python2.7/site-packages/numba/targets/cmathimpl.pyc", 
    "lib/python2.7/site-packages/numba/targets/codegen.py", 
    "lib/python2.7/site-packages/numba/targets/codegen.pyc", 
    "lib/python2.7/site-packages/numba/targets/cpu.py", 
    "lib/python2.7/site-packages/numba/targets/cpu.pyc", 
    "lib/python2.7/site-packages/numba/targets/descriptors.py", 
    "lib/python2.7/site-packages/numba/targets/descriptors.pyc", 
    "lib/python2.7/site-packages/numba/targets/enumimpl.py", 
    "lib/python2.7/site-packages/numba/targets/enumimpl.pyc", 
    "lib/python2.7/site-packages/numba/targets/externals.py", 
    "lib/python2.7/site-packages/numba/targets/externals.pyc", 
    "lib/python2.7/site-packages/numba/targets/imputils.py", 
    "lib/python2.7/site-packages/numba/targets/imputils.pyc", 
    "lib/python2.7/site-packages/numba/targets/intrinsics.py", 
    "lib/python2.7/site-packages/numba/targets/intrinsics.pyc", 
    "lib/python2.7/site-packages/numba/targets/iterators.py", 
    "lib/python2.7/site-packages/numba/targets/iterators.pyc", 
    "lib/python2.7/site-packages/numba/targets/linalg.py", 
    "lib/python2.7/site-packages/numba/targets/linalg.pyc", 
    "lib/python2.7/site-packages/numba/targets/listobj.py", 
    "lib/python2.7/site-packages/numba/targets/listobj.pyc", 
    "lib/python2.7/site-packages/numba/targets/mathimpl.py", 
    "lib/python2.7/site-packages/numba/targets/mathimpl.pyc", 
    "lib/python2.7/site-packages/numba/targets/npdatetime.py", 
    "lib/python2.7/site-packages/numba/targets/npdatetime.pyc", 
    "lib/python2.7/site-packages/numba/targets/npyfuncs.py", 
    "lib/python2.7/site-packages/numba/targets/npyfuncs.pyc", 
    "lib/python2.7/site-packages/numba/targets/npyimpl.py", 
    "lib/python2.7/site-packages/numba/targets/npyimpl.pyc", 
    "lib/python2.7/site-packages/numba/targets/numbers.py", 
    "lib/python2.7/site-packages/numba/targets/numbers.pyc", 
    "lib/python2.7/site-packages/numba/targets/operatorimpl.py", 
    "lib/python2.7/site-packages/numba/targets/operatorimpl.pyc", 
    "lib/python2.7/site-packages/numba/targets/optional.py", 
    "lib/python2.7/site-packages/numba/targets/optional.pyc", 
    "lib/python2.7/site-packages/numba/targets/options.py", 
    "lib/python2.7/site-packages/numba/targets/options.pyc", 
    "lib/python2.7/site-packages/numba/targets/printimpl.py", 
    "lib/python2.7/site-packages/numba/targets/printimpl.pyc", 
    "lib/python2.7/site-packages/numba/targets/quicksort.py", 
    "lib/python2.7/site-packages/numba/targets/quicksort.pyc", 
    "lib/python2.7/site-packages/numba/targets/randomimpl.py", 
    "lib/python2.7/site-packages/numba/targets/randomimpl.pyc", 
    "lib/python2.7/site-packages/numba/targets/rangeobj.py", 
    "lib/python2.7/site-packages/numba/targets/rangeobj.pyc", 
    "lib/python2.7/site-packages/numba/targets/registry.py", 
    "lib/python2.7/site-packages/numba/targets/registry.pyc", 
    "lib/python2.7/site-packages/numba/targets/setobj.py", 
    "lib/python2.7/site-packages/numba/targets/setobj.pyc", 
    "lib/python2.7/site-packages/numba/targets/slicing.py", 
    "lib/python2.7/site-packages/numba/targets/slicing.pyc", 
    "lib/python2.7/site-packages/numba/targets/smartarray.py", 
    "lib/python2.7/site-packages/numba/targets/smartarray.pyc", 
    "lib/python2.7/site-packages/numba/targets/tupleobj.py", 
    "lib/python2.7/site-packages/numba/targets/tupleobj.pyc", 
    "lib/python2.7/site-packages/numba/targets/ufunc_db.py", 
    "lib/python2.7/site-packages/numba/targets/ufunc_db.pyc", 
    "lib/python2.7/site-packages/numba/testing/__init__.py", 
    "lib/python2.7/site-packages/numba/testing/__init__.pyc", 
    "lib/python2.7/site-packages/numba/testing/__main__.py", 
    "lib/python2.7/site-packages/numba/testing/__main__.pyc", 
    "lib/python2.7/site-packages/numba/testing/ddt.py", 
    "lib/python2.7/site-packages/numba/testing/ddt.pyc", 
    "lib/python2.7/site-packages/numba/testing/loader.py", 
    "lib/python2.7/site-packages/numba/testing/loader.pyc", 
    "lib/python2.7/site-packages/numba/testing/main.py", 
    "lib/python2.7/site-packages/numba/testing/main.pyc", 
    "lib/python2.7/site-packages/numba/testing/notebook.py", 
    "lib/python2.7/site-packages/numba/testing/notebook.pyc", 
    "lib/python2.7/site-packages/numba/tests/__init__.py", 
    "lib/python2.7/site-packages/numba/tests/__init__.pyc", 
    "lib/python2.7/site-packages/numba/tests/cache_usecases.py", 
    "lib/python2.7/site-packages/numba/tests/cache_usecases.pyc", 
    "lib/python2.7/site-packages/numba/tests/cffi_usecases.py", 
    "lib/python2.7/site-packages/numba/tests/cffi_usecases.pyc", 
    "lib/python2.7/site-packages/numba/tests/cfunc_cache_usecases.py", 
    "lib/python2.7/site-packages/numba/tests/cfunc_cache_usecases.pyc", 
    "lib/python2.7/site-packages/numba/tests/compile_with_pycc.py", 
    "lib/python2.7/site-packages/numba/tests/compile_with_pycc.pyc", 
    "lib/python2.7/site-packages/numba/tests/complex_usecases.py", 
    "lib/python2.7/site-packages/numba/tests/complex_usecases.pyc", 
    "lib/python2.7/site-packages/numba/tests/ctypes_usecases.py", 
    "lib/python2.7/site-packages/numba/tests/ctypes_usecases.pyc", 
    "lib/python2.7/site-packages/numba/tests/enum_usecases.py", 
    "lib/python2.7/site-packages/numba/tests/enum_usecases.pyc", 
    "lib/python2.7/site-packages/numba/tests/matmul_usecase.py", 
    "lib/python2.7/site-packages/numba/tests/matmul_usecase.pyc", 
    "lib/python2.7/site-packages/numba/tests/npyufunc/__init__.py", 
    "lib/python2.7/site-packages/numba/tests/npyufunc/__init__.pyc", 
    "lib/python2.7/site-packages/numba/tests/npyufunc/test_dufunc.py", 
    "lib/python2.7/site-packages/numba/tests/npyufunc/test_dufunc.pyc", 
    "lib/python2.7/site-packages/numba/tests/npyufunc/test_errors.py", 
    "lib/python2.7/site-packages/numba/tests/npyufunc/test_errors.pyc", 
    "lib/python2.7/site-packages/numba/tests/npyufunc/test_gufunc.py", 
    "lib/python2.7/site-packages/numba/tests/npyufunc/test_gufunc.pyc", 
    "lib/python2.7/site-packages/numba/tests/npyufunc/test_parallel_env_variable.py", 
    "lib/python2.7/site-packages/numba/tests/npyufunc/test_parallel_env_variable.pyc", 
    "lib/python2.7/site-packages/numba/tests/npyufunc/test_parallel_low_work.py", 
    "lib/python2.7/site-packages/numba/tests/npyufunc/test_parallel_low_work.pyc", 
    "lib/python2.7/site-packages/numba/tests/npyufunc/test_parallel_ufunc_issues.py", 
    "lib/python2.7/site-packages/numba/tests/npyufunc/test_parallel_ufunc_issues.pyc", 
    "lib/python2.7/site-packages/numba/tests/npyufunc/test_ufunc.py", 
    "lib/python2.7/site-packages/numba/tests/npyufunc/test_ufunc.pyc", 
    "lib/python2.7/site-packages/numba/tests/npyufunc/test_ufuncbuilding.py", 
    "lib/python2.7/site-packages/numba/tests/npyufunc/test_ufuncbuilding.pyc", 
    "lib/python2.7/site-packages/numba/tests/npyufunc/test_vectorize_decor.py", 
    "lib/python2.7/site-packages/numba/tests/npyufunc/test_vectorize_decor.pyc", 
    "lib/python2.7/site-packages/numba/tests/pdlike_usecase.py", 
    "lib/python2.7/site-packages/numba/tests/pdlike_usecase.pyc", 
    "lib/python2.7/site-packages/numba/tests/pycc_distutils_usecase/setup_distutils.py", 
    "lib/python2.7/site-packages/numba/tests/pycc_distutils_usecase/setup_distutils.pyc", 
    "lib/python2.7/site-packages/numba/tests/pycc_distutils_usecase/setup_setuptools.py", 
    "lib/python2.7/site-packages/numba/tests/pycc_distutils_usecase/setup_setuptools.pyc", 
    "lib/python2.7/site-packages/numba/tests/pycc_distutils_usecase/source_module.py", 
    "lib/python2.7/site-packages/numba/tests/pycc_distutils_usecase/source_module.pyc", 
    "lib/python2.7/site-packages/numba/tests/recursion_usecases.py", 
    "lib/python2.7/site-packages/numba/tests/recursion_usecases.pyc", 
    "lib/python2.7/site-packages/numba/tests/serialize_usecases.py", 
    "lib/python2.7/site-packages/numba/tests/serialize_usecases.pyc", 
    "lib/python2.7/site-packages/numba/tests/support.py", 
    "lib/python2.7/site-packages/numba/tests/support.pyc", 
    "lib/python2.7/site-packages/numba/tests/test_alignment.py", 
    "lib/python2.7/site-packages/numba/tests/test_alignment.pyc", 
    "lib/python2.7/site-packages/numba/tests/test_annotations.py", 
    "lib/python2.7/site-packages/numba/tests/test_annotations.pyc", 
    "lib/python2.7/site-packages/numba/tests/test_api.py", 
    "lib/python2.7/site-packages/numba/tests/test_api.pyc", 
    "lib/python2.7/site-packages/numba/tests/test_array_attr.py", 
    "lib/python2.7/site-packages/numba/tests/test_array_attr.pyc", 
    "lib/python2.7/site-packages/numba/tests/test_array_constants.py", 
    "lib/python2.7/site-packages/numba/tests/test_array_constants.pyc", 
    "lib/python2.7/site-packages/numba/tests/test_array_exprs.py", 
    "lib/python2.7/site-packages/numba/tests/test_array_exprs.pyc", 
    "lib/python2.7/site-packages/numba/tests/test_array_iterators.py", 
    "lib/python2.7/site-packages/numba/tests/test_array_iterators.pyc", 
    "lib/python2.7/site-packages/numba/tests/test_array_manipulation.py", 
    "lib/python2.7/site-packages/numba/tests/test_array_manipulation.pyc", 
    "lib/python2.7/site-packages/numba/tests/test_array_methods.py", 
    "lib/python2.7/site-packages/numba/tests/test_array_methods.pyc", 
    "lib/python2.7/site-packages/numba/tests/test_array_reductions.py", 
    "lib/python2.7/site-packages/numba/tests/test_array_reductions.pyc", 
    "lib/python2.7/site-packages/numba/tests/test_array_return.py", 
    "lib/python2.7/site-packages/numba/tests/test_array_return.pyc", 
    "lib/python2.7/site-packages/numba/tests/test_auto_constants.py", 
    "lib/python2.7/site-packages/numba/tests/test_auto_constants.pyc", 
    "lib/python2.7/site-packages/numba/tests/test_blackscholes.py", 
    "lib/python2.7/site-packages/numba/tests/test_blackscholes.pyc", 
    "lib/python2.7/site-packages/numba/tests/test_buffer_protocol.py", 
    "lib/python2.7/site-packages/numba/tests/test_buffer_protocol.pyc", 
    "lib/python2.7/site-packages/numba/tests/test_builtins.py", 
    "lib/python2.7/site-packages/numba/tests/test_builtins.pyc", 
    "lib/python2.7/site-packages/numba/tests/test_casting.py", 
    "lib/python2.7/site-packages/numba/tests/test_casting.pyc", 
    "lib/python2.7/site-packages/numba/tests/test_cffi.py", 
    "lib/python2.7/site-packages/numba/tests/test_cffi.pyc", 
    "lib/python2.7/site-packages/numba/tests/test_cfunc.py", 
    "lib/python2.7/site-packages/numba/tests/test_cfunc.pyc", 
    "lib/python2.7/site-packages/numba/tests/test_cgutils.py", 
    "lib/python2.7/site-packages/numba/tests/test_cgutils.pyc", 
    "lib/python2.7/site-packages/numba/tests/test_chained_assign.py", 
    "lib/python2.7/site-packages/numba/tests/test_chained_assign.pyc", 
    "lib/python2.7/site-packages/numba/tests/test_closure.py", 
    "lib/python2.7/site-packages/numba/tests/test_closure.pyc", 
    "lib/python2.7/site-packages/numba/tests/test_codegen.py", 
    "lib/python2.7/site-packages/numba/tests/test_codegen.pyc", 
    "lib/python2.7/site-packages/numba/tests/test_compile_cache.py", 
    "lib/python2.7/site-packages/numba/tests/test_compile_cache.pyc", 
    "lib/python2.7/site-packages/numba/tests/test_complex.py", 
    "lib/python2.7/site-packages/numba/tests/test_complex.pyc", 
    "lib/python2.7/site-packages/numba/tests/test_conversion.py", 
    "lib/python2.7/site-packages/numba/tests/test_conversion.pyc", 
    "lib/python2.7/site-packages/numba/tests/test_ctypes.py", 
    "lib/python2.7/site-packages/numba/tests/test_ctypes.pyc", 
    "lib/python2.7/site-packages/numba/tests/test_dataflow.py", 
    "lib/python2.7/site-packages/numba/tests/test_dataflow.pyc", 
    "lib/python2.7/site-packages/numba/tests/test_datamodel.py", 
    "lib/python2.7/site-packages/numba/tests/test_datamodel.pyc", 
    "lib/python2.7/site-packages/numba/tests/test_debug.py", 
    "lib/python2.7/site-packages/numba/tests/test_debug.pyc", 
    "lib/python2.7/site-packages/numba/tests/test_del.py", 
    "lib/python2.7/site-packages/numba/tests/test_del.pyc", 
    "lib/python2.7/site-packages/numba/tests/test_deprecations.py", 
    "lib/python2.7/site-packages/numba/tests/test_deprecations.pyc", 
    "lib/python2.7/site-packages/numba/tests/test_dicts.py", 
    "lib/python2.7/site-packages/numba/tests/test_dicts.pyc", 
    "lib/python2.7/site-packages/numba/tests/test_dispatcher.py", 
    "lib/python2.7/site-packages/numba/tests/test_dispatcher.pyc", 
    "lib/python2.7/site-packages/numba/tests/test_dummyarray.py", 
    "lib/python2.7/site-packages/numba/tests/test_dummyarray.pyc", 
    "lib/python2.7/site-packages/numba/tests/test_dyn_array.py", 
    "lib/python2.7/site-packages/numba/tests/test_dyn_array.pyc", 
    "lib/python2.7/site-packages/numba/tests/test_dyn_func.py", 
    "lib/python2.7/site-packages/numba/tests/test_dyn_func.pyc", 
    "lib/python2.7/site-packages/numba/tests/test_enums.py", 
    "lib/python2.7/site-packages/numba/tests/test_enums.pyc", 
    "lib/python2.7/site-packages/numba/tests/test_exceptions.py", 
    "lib/python2.7/site-packages/numba/tests/test_exceptions.pyc", 
    "lib/python2.7/site-packages/numba/tests/test_extended_arg.py", 
    "lib/python2.7/site-packages/numba/tests/test_extended_arg.pyc", 
    "lib/python2.7/site-packages/numba/tests/test_extending.py", 
    "lib/python2.7/site-packages/numba/tests/test_extending.pyc", 
    "lib/python2.7/site-packages/numba/tests/test_fancy_indexing.py", 
    "lib/python2.7/site-packages/numba/tests/test_fancy_indexing.pyc", 
    "lib/python2.7/site-packages/numba/tests/test_flow_control.py", 
    "lib/python2.7/site-packages/numba/tests/test_flow_control.pyc", 
    "lib/python2.7/site-packages/numba/tests/test_func_interface.py", 
    "lib/python2.7/site-packages/numba/tests/test_func_interface.pyc", 
    "lib/python2.7/site-packages/numba/tests/test_func_lifetime.py", 
    "lib/python2.7/site-packages/numba/tests/test_func_lifetime.pyc", 
    "lib/python2.7/site-packages/numba/tests/test_generators.py", 
    "lib/python2.7/site-packages/numba/tests/test_generators.pyc", 
    "lib/python2.7/site-packages/numba/tests/test_gil.py", 
    "lib/python2.7/site-packages/numba/tests/test_gil.pyc", 
    "lib/python2.7/site-packages/numba/tests/test_globals.py", 
    "lib/python2.7/site-packages/numba/tests/test_globals.pyc", 
    "lib/python2.7/site-packages/numba/tests/test_hashing.py", 
    "lib/python2.7/site-packages/numba/tests/test_hashing.pyc", 
    "lib/python2.7/site-packages/numba/tests/test_import.py", 
    "lib/python2.7/site-packages/numba/tests/test_import.pyc", 
    "lib/python2.7/site-packages/numba/tests/test_indexing.py", 
    "lib/python2.7/site-packages/numba/tests/test_indexing.pyc", 
    "lib/python2.7/site-packages/numba/tests/test_inlining.py", 
    "lib/python2.7/site-packages/numba/tests/test_inlining.pyc", 
    "lib/python2.7/site-packages/numba/tests/test_interproc.py", 
    "lib/python2.7/site-packages/numba/tests/test_interproc.pyc", 
    "lib/python2.7/site-packages/numba/tests/test_intwidth.py", 
    "lib/python2.7/site-packages/numba/tests/test_intwidth.pyc", 
    "lib/python2.7/site-packages/numba/tests/test_ir.py", 
    "lib/python2.7/site-packages/numba/tests/test_ir.pyc", 
    "lib/python2.7/site-packages/numba/tests/test_itanium_mangler.py", 
    "lib/python2.7/site-packages/numba/tests/test_itanium_mangler.pyc", 
    "lib/python2.7/site-packages/numba/tests/test_iteration.py", 
    "lib/python2.7/site-packages/numba/tests/test_iteration.pyc", 
    "lib/python2.7/site-packages/numba/tests/test_jitclasses.py", 
    "lib/python2.7/site-packages/numba/tests/test_jitclasses.pyc", 
    "lib/python2.7/site-packages/numba/tests/test_jitmethod.py", 
    "lib/python2.7/site-packages/numba/tests/test_jitmethod.pyc", 
    "lib/python2.7/site-packages/numba/tests/test_linalg.py", 
    "lib/python2.7/site-packages/numba/tests/test_linalg.pyc", 
    "lib/python2.7/site-packages/numba/tests/test_lists.py", 
    "lib/python2.7/site-packages/numba/tests/test_lists.pyc", 
    "lib/python2.7/site-packages/numba/tests/test_llvm_version_check.py", 
    "lib/python2.7/site-packages/numba/tests/test_llvm_version_check.pyc", 
    "lib/python2.7/site-packages/numba/tests/test_locals.py", 
    "lib/python2.7/site-packages/numba/tests/test_locals.pyc", 
    "lib/python2.7/site-packages/numba/tests/test_loopdetection.py", 
    "lib/python2.7/site-packages/numba/tests/test_loopdetection.pyc", 
    "lib/python2.7/site-packages/numba/tests/test_looplifting.py", 
    "lib/python2.7/site-packages/numba/tests/test_looplifting.pyc", 
    "lib/python2.7/site-packages/numba/tests/test_mandelbrot.py", 
    "lib/python2.7/site-packages/numba/tests/test_mandelbrot.pyc", 
    "lib/python2.7/site-packages/numba/tests/test_mangling.py", 
    "lib/python2.7/site-packages/numba/tests/test_mangling.pyc", 
    "lib/python2.7/site-packages/numba/tests/test_mathlib.py", 
    "lib/python2.7/site-packages/numba/tests/test_mathlib.pyc", 
    "lib/python2.7/site-packages/numba/tests/test_maxmin.py", 
    "lib/python2.7/site-packages/numba/tests/test_maxmin.pyc", 
    "lib/python2.7/site-packages/numba/tests/test_multi3.py", 
    "lib/python2.7/site-packages/numba/tests/test_multi3.pyc", 
    "lib/python2.7/site-packages/numba/tests/test_nan.py", 
    "lib/python2.7/site-packages/numba/tests/test_nan.pyc", 
    "lib/python2.7/site-packages/numba/tests/test_nested_calls.py", 
    "lib/python2.7/site-packages/numba/tests/test_nested_calls.pyc", 
    "lib/python2.7/site-packages/numba/tests/test_np_functions.py", 
    "lib/python2.7/site-packages/numba/tests/test_np_functions.pyc", 
    "lib/python2.7/site-packages/numba/tests/test_npdatetime.py", 
    "lib/python2.7/site-packages/numba/tests/test_npdatetime.pyc", 
    "lib/python2.7/site-packages/numba/tests/test_nrt.py", 
    "lib/python2.7/site-packages/numba/tests/test_nrt.pyc", 
    "lib/python2.7/site-packages/numba/tests/test_nrt_refct.py", 
    "lib/python2.7/site-packages/numba/tests/test_nrt_refct.pyc", 
    "lib/python2.7/site-packages/numba/tests/test_numberctor.py", 
    "lib/python2.7/site-packages/numba/tests/test_numberctor.pyc", 
    "lib/python2.7/site-packages/numba/tests/test_numconv.py", 
    "lib/python2.7/site-packages/numba/tests/test_numconv.pyc", 
    "lib/python2.7/site-packages/numba/tests/test_numpy_support.py", 
    "lib/python2.7/site-packages/numba/tests/test_numpy_support.pyc", 
    "lib/python2.7/site-packages/numba/tests/test_numpyadapt.py", 
    "lib/python2.7/site-packages/numba/tests/test_numpyadapt.pyc", 
    "lib/python2.7/site-packages/numba/tests/test_obj_lifetime.py", 
    "lib/python2.7/site-packages/numba/tests/test_obj_lifetime.pyc", 
    "lib/python2.7/site-packages/numba/tests/test_object_mode.py", 
    "lib/python2.7/site-packages/numba/tests/test_object_mode.pyc", 
    "lib/python2.7/site-packages/numba/tests/test_objects.py", 
    "lib/python2.7/site-packages/numba/tests/test_objects.pyc", 
    "lib/python2.7/site-packages/numba/tests/test_operators.py", 
    "lib/python2.7/site-packages/numba/tests/test_operators.pyc", 
    "lib/python2.7/site-packages/numba/tests/test_optional.py", 
    "lib/python2.7/site-packages/numba/tests/test_optional.pyc", 
    "lib/python2.7/site-packages/numba/tests/test_overlap.py", 
    "lib/python2.7/site-packages/numba/tests/test_overlap.pyc", 
    "lib/python2.7/site-packages/numba/tests/test_print.py", 
    "lib/python2.7/site-packages/numba/tests/test_print.pyc", 
    "lib/python2.7/site-packages/numba/tests/test_profiler.py", 
    "lib/python2.7/site-packages/numba/tests/test_profiler.pyc", 
    "lib/python2.7/site-packages/numba/tests/test_pycc.py", 
    "lib/python2.7/site-packages/numba/tests/test_pycc.pyc", 
    "lib/python2.7/site-packages/numba/tests/test_python_int.py", 
    "lib/python2.7/site-packages/numba/tests/test_python_int.pyc", 
    "lib/python2.7/site-packages/numba/tests/test_random.py", 
    "lib/python2.7/site-packages/numba/tests/test_random.pyc", 
    "lib/python2.7/site-packages/numba/tests/test_range.py", 
    "lib/python2.7/site-packages/numba/tests/test_range.pyc", 
    "lib/python2.7/site-packages/numba/tests/test_recarray_usecases.py", 
    "lib/python2.7/site-packages/numba/tests/test_recarray_usecases.pyc", 
    "lib/python2.7/site-packages/numba/tests/test_record_dtype.py", 
    "lib/python2.7/site-packages/numba/tests/test_record_dtype.pyc", 
    "lib/python2.7/site-packages/numba/tests/test_recursion.py", 
    "lib/python2.7/site-packages/numba/tests/test_recursion.pyc", 
    "lib/python2.7/site-packages/numba/tests/test_return_values.py", 
    "lib/python2.7/site-packages/numba/tests/test_return_values.pyc", 
    "lib/python2.7/site-packages/numba/tests/test_runtests.py", 
    "lib/python2.7/site-packages/numba/tests/test_runtests.pyc", 
    "lib/python2.7/site-packages/numba/tests/test_serialize.py", 
    "lib/python2.7/site-packages/numba/tests/test_serialize.pyc", 
    "lib/python2.7/site-packages/numba/tests/test_sets.py", 
    "lib/python2.7/site-packages/numba/tests/test_sets.pyc", 
    "lib/python2.7/site-packages/numba/tests/test_slices.py", 
    "lib/python2.7/site-packages/numba/tests/test_slices.pyc", 
    "lib/python2.7/site-packages/numba/tests/test_smart_array.py", 
    "lib/python2.7/site-packages/numba/tests/test_smart_array.pyc", 
    "lib/python2.7/site-packages/numba/tests/test_sort.py", 
    "lib/python2.7/site-packages/numba/tests/test_sort.pyc", 
    "lib/python2.7/site-packages/numba/tests/test_storeslice.py", 
    "lib/python2.7/site-packages/numba/tests/test_storeslice.pyc", 
    "lib/python2.7/site-packages/numba/tests/test_support.py", 
    "lib/python2.7/site-packages/numba/tests/test_support.pyc", 
    "lib/python2.7/site-packages/numba/tests/test_target_overloadselector.py", 
    "lib/python2.7/site-packages/numba/tests/test_target_overloadselector.pyc", 
    "lib/python2.7/site-packages/numba/tests/test_tracing.py", 
    "lib/python2.7/site-packages/numba/tests/test_tracing.pyc", 
    "lib/python2.7/site-packages/numba/tests/test_tuples.py", 
    "lib/python2.7/site-packages/numba/tests/test_tuples.pyc", 
    "lib/python2.7/site-packages/numba/tests/test_typeconv.py", 
    "lib/python2.7/site-packages/numba/tests/test_typeconv.pyc", 
    "lib/python2.7/site-packages/numba/tests/test_typeinfer.py", 
    "lib/python2.7/site-packages/numba/tests/test_typeinfer.pyc", 
    "lib/python2.7/site-packages/numba/tests/test_typenames.py", 
    "lib/python2.7/site-packages/numba/tests/test_typenames.pyc", 
    "lib/python2.7/site-packages/numba/tests/test_typeof.py", 
    "lib/python2.7/site-packages/numba/tests/test_typeof.pyc", 
    "lib/python2.7/site-packages/numba/tests/test_types.py", 
    "lib/python2.7/site-packages/numba/tests/test_types.pyc", 
    "lib/python2.7/site-packages/numba/tests/test_typingerror.py", 
    "lib/python2.7/site-packages/numba/tests/test_typingerror.pyc", 
    "lib/python2.7/site-packages/numba/tests/test_ufuncs.py", 
    "lib/python2.7/site-packages/numba/tests/test_ufuncs.pyc", 
    "lib/python2.7/site-packages/numba/tests/test_unicode_literals.py", 
    "lib/python2.7/site-packages/numba/tests/test_unicode_literals.pyc", 
    "lib/python2.7/site-packages/numba/tests/test_unicode_names.py", 
    "lib/python2.7/site-packages/numba/tests/test_unicode_names.pyc", 
    "lib/python2.7/site-packages/numba/tests/test_unpack_sequence.py", 
    "lib/python2.7/site-packages/numba/tests/test_unpack_sequence.pyc", 
    "lib/python2.7/site-packages/numba/tests/test_usecases.py", 
    "lib/python2.7/site-packages/numba/tests/test_usecases.pyc", 
    "lib/python2.7/site-packages/numba/tests/test_utils.py", 
    "lib/python2.7/site-packages/numba/tests/test_utils.pyc", 
    "lib/python2.7/site-packages/numba/tests/test_vectorization_type_inference.py", 
    "lib/python2.7/site-packages/numba/tests/test_vectorization_type_inference.pyc", 
    "lib/python2.7/site-packages/numba/tests/test_warnings.py", 
    "lib/python2.7/site-packages/numba/tests/test_warnings.pyc", 
    "lib/python2.7/site-packages/numba/tests/test_wrapper.py", 
    "lib/python2.7/site-packages/numba/tests/test_wrapper.pyc", 
    "lib/python2.7/site-packages/numba/tests/timsort.py", 
    "lib/python2.7/site-packages/numba/tests/timsort.pyc", 
    "lib/python2.7/site-packages/numba/tests/true_div_usecase.py", 
    "lib/python2.7/site-packages/numba/tests/true_div_usecase.pyc", 
    "lib/python2.7/site-packages/numba/tests/usecases.py", 
    "lib/python2.7/site-packages/numba/tests/usecases.pyc", 
    "lib/python2.7/site-packages/numba/tracing.py", 
    "lib/python2.7/site-packages/numba/tracing.pyc", 
    "lib/python2.7/site-packages/numba/transforms.py", 
    "lib/python2.7/site-packages/numba/transforms.pyc", 
    "lib/python2.7/site-packages/numba/typeconv/__init__.py", 
    "lib/python2.7/site-packages/numba/typeconv/__init__.pyc", 
    "lib/python2.7/site-packages/numba/typeconv/_typeconv.so", 
    "lib/python2.7/site-packages/numba/typeconv/castgraph.py", 
    "lib/python2.7/site-packages/numba/typeconv/castgraph.pyc", 
    "lib/python2.7/site-packages/numba/typeconv/rules.py", 
    "lib/python2.7/site-packages/numba/typeconv/rules.pyc", 
    "lib/python2.7/site-packages/numba/typeconv/typeconv.py", 
    "lib/python2.7/site-packages/numba/typeconv/typeconv.pyc", 
    "lib/python2.7/site-packages/numba/typeinfer.py", 
    "lib/python2.7/site-packages/numba/typeinfer.pyc", 
    "lib/python2.7/site-packages/numba/types/__init__.py", 
    "lib/python2.7/site-packages/numba/types/__init__.pyc", 
    "lib/python2.7/site-packages/numba/types/abstract.py", 
    "lib/python2.7/site-packages/numba/types/abstract.pyc", 
    "lib/python2.7/site-packages/numba/types/common.py", 
    "lib/python2.7/site-packages/numba/types/common.pyc", 
    "lib/python2.7/site-packages/numba/types/containers.py", 
    "lib/python2.7/site-packages/numba/types/containers.pyc", 
    "lib/python2.7/site-packages/numba/types/functions.py", 
    "lib/python2.7/site-packages/numba/types/functions.pyc", 
    "lib/python2.7/site-packages/numba/types/iterators.py", 
    "lib/python2.7/site-packages/numba/types/iterators.pyc", 
    "lib/python2.7/site-packages/numba/types/misc.py", 
    "lib/python2.7/site-packages/numba/types/misc.pyc", 
    "lib/python2.7/site-packages/numba/types/npytypes.py", 
    "lib/python2.7/site-packages/numba/types/npytypes.pyc", 
    "lib/python2.7/site-packages/numba/types/scalars.py", 
    "lib/python2.7/site-packages/numba/types/scalars.pyc", 
    "lib/python2.7/site-packages/numba/typing/__init__.py", 
    "lib/python2.7/site-packages/numba/typing/__init__.pyc", 
    "lib/python2.7/site-packages/numba/typing/arraydecl.py", 
    "lib/python2.7/site-packages/numba/typing/arraydecl.pyc", 
    "lib/python2.7/site-packages/numba/typing/bufproto.py", 
    "lib/python2.7/site-packages/numba/typing/bufproto.pyc", 
    "lib/python2.7/site-packages/numba/typing/builtins.py", 
    "lib/python2.7/site-packages/numba/typing/builtins.pyc", 
    "lib/python2.7/site-packages/numba/typing/cffi_utils.py", 
    "lib/python2.7/site-packages/numba/typing/cffi_utils.pyc", 
    "lib/python2.7/site-packages/numba/typing/cmathdecl.py", 
    "lib/python2.7/site-packages/numba/typing/cmathdecl.pyc", 
    "lib/python2.7/site-packages/numba/typing/collections.py", 
    "lib/python2.7/site-packages/numba/typing/collections.pyc", 
    "lib/python2.7/site-packages/numba/typing/context.py", 
    "lib/python2.7/site-packages/numba/typing/context.pyc", 
    "lib/python2.7/site-packages/numba/typing/ctypes_utils.py", 
    "lib/python2.7/site-packages/numba/typing/ctypes_utils.pyc", 
    "lib/python2.7/site-packages/numba/typing/enumdecl.py", 
    "lib/python2.7/site-packages/numba/typing/enumdecl.pyc", 
    "lib/python2.7/site-packages/numba/typing/listdecl.py", 
    "lib/python2.7/site-packages/numba/typing/listdecl.pyc", 
    "lib/python2.7/site-packages/numba/typing/mathdecl.py", 
    "lib/python2.7/site-packages/numba/typing/mathdecl.pyc", 
    "lib/python2.7/site-packages/numba/typing/npdatetime.py", 
    "lib/python2.7/site-packages/numba/typing/npdatetime.pyc", 
    "lib/python2.7/site-packages/numba/typing/npydecl.py", 
    "lib/python2.7/site-packages/numba/typing/npydecl.pyc", 
    "lib/python2.7/site-packages/numba/typing/operatordecl.py", 
    "lib/python2.7/site-packages/numba/typing/operatordecl.pyc", 
    "lib/python2.7/site-packages/numba/typing/randomdecl.py", 
    "lib/python2.7/site-packages/numba/typing/randomdecl.pyc", 
    "lib/python2.7/site-packages/numba/typing/setdecl.py", 
    "lib/python2.7/site-packages/numba/typing/setdecl.pyc", 
    "lib/python2.7/site-packages/numba/typing/templates.py", 
    "lib/python2.7/site-packages/numba/typing/templates.pyc", 
    "lib/python2.7/site-packages/numba/typing/typeof.py", 
    "lib/python2.7/site-packages/numba/typing/typeof.pyc", 
    "lib/python2.7/site-packages/numba/unittest_support.py", 
    "lib/python2.7/site-packages/numba/unittest_support.pyc", 
    "lib/python2.7/site-packages/numba/utils.py", 
    "lib/python2.7/site-packages/numba/utils.pyc"
  ], 
  "fn": "numba-0.28.1-np111py27_0.tar.bz2", 
  "license": "BSD", 
  "link": {
    "source": "/home/fdavilakurban/.conda/envs/.pkgs/numba-0.28.1-np111py27_0", 
    "type": "hard-link"
  }, 
  "md5": "3810c834d93c5283bec85c90c9a676c3", 
  "name": "numba", 
  "platform": "linux", 
  "priority": 0, 
  "requires": [], 
  "schannel": "defaults", 
  "size": 2163773, 
  "subdir": "linux-64", 
  "url": "https://repo.continuum.io/pkgs/free/linux-64/numba-0.28.1-np111py27_0.tar.bz2", 
  "version": "0.28.1"
}