{
  "arch": "x86_64", 
  "build": "py27_0", 
  "build_number": 0, 
  "channel": "https://repo.continuum.io/pkgs/free/linux-64/", 
  "date": "2016-06-06", 
  "depends": [
    "python 2.7*", 
    "redis"
  ], 
  "files": [
    "lib/python2.7/site-packages/redis-2.10.5-py2.7.egg-info", 
    "lib/python2.7/site-packages/redis/__init__.py", 
    "lib/python2.7/site-packages/redis/__init__.pyc", 
    "lib/python2.7/site-packages/redis/_compat.py", 
    "lib/python2.7/site-packages/redis/_compat.pyc", 
    "lib/python2.7/site-packages/redis/client.py", 
    "lib/python2.7/site-packages/redis/client.pyc", 
    "lib/python2.7/site-packages/redis/connection.py", 
    "lib/python2.7/site-packages/redis/connection.pyc", 
    "lib/python2.7/site-packages/redis/exceptions.py", 
    "lib/python2.7/site-packages/redis/exceptions.pyc", 
    "lib/python2.7/site-packages/redis/lock.py", 
    "lib/python2.7/site-packages/redis/lock.pyc", 
    "lib/python2.7/site-packages/redis/sentinel.py", 
    "lib/python2.7/site-packages/redis/sentinel.pyc", 
    "lib/python2.7/site-packages/redis/utils.py", 
    "lib/python2.7/site-packages/redis/utils.pyc"
  ], 
  "license": "MIT", 
  "license_family": "MIT", 
  "link": {
    "source": "/home/fdavilakurban/.conda/envs/.pkgs/redis-py-2.10.5-py27_0", 
    "type": "hard-link"
  }, 
  "md5": "353ff8eecad2172d1f798236f0ef33e7", 
  "name": "redis-py", 
  "platform": "linux", 
  "requires": [], 
  "size": 73069, 
  "subdir": "linux-64", 
  "url": "https://repo.continuum.io/pkgs/free/linux-64/redis-py-2.10.5-py27_0.tar.bz2", 
  "version": "2.10.5"
}