{
  "arch": "x86_64", 
  "binstar": {
    "channel": "main", 
    "owner_id": "55fc8527d3234d09d4951c71", 
    "package_id": "5638071b9c73330b8ae84c38"
  }, 
  "build": "py27_0", 
  "build_number": 0, 
  "channel": "https://conda.anaconda.org/anaconda/linux-64/", 
  "date": "2016-08-08", 
  "depends": [
    "matplotlib", 
    "numpy", 
    "pandas", 
    "python 2.7*", 
    "scipy"
  ], 
  "files": [
    "lib/python2.7/site-packages/seaborn-0.7.1-py2.7.egg-info", 
    "lib/python2.7/site-packages/seaborn/__init__.py", 
    "lib/python2.7/site-packages/seaborn/__init__.pyc", 
    "lib/python2.7/site-packages/seaborn/algorithms.py", 
    "lib/python2.7/site-packages/seaborn/algorithms.pyc", 
    "lib/python2.7/site-packages/seaborn/apionly.py", 
    "lib/python2.7/site-packages/seaborn/apionly.pyc", 
    "lib/python2.7/site-packages/seaborn/axisgrid.py", 
    "lib/python2.7/site-packages/seaborn/axisgrid.pyc", 
    "lib/python2.7/site-packages/seaborn/categorical.py", 
    "lib/python2.7/site-packages/seaborn/categorical.pyc", 
    "lib/python2.7/site-packages/seaborn/crayons.py", 
    "lib/python2.7/site-packages/seaborn/crayons.pyc", 
    "lib/python2.7/site-packages/seaborn/distributions.py", 
    "lib/python2.7/site-packages/seaborn/distributions.pyc", 
    "lib/python2.7/site-packages/seaborn/external/__init__.py", 
    "lib/python2.7/site-packages/seaborn/external/__init__.pyc", 
    "lib/python2.7/site-packages/seaborn/external/husl.py", 
    "lib/python2.7/site-packages/seaborn/external/husl.pyc", 
    "lib/python2.7/site-packages/seaborn/external/six.py", 
    "lib/python2.7/site-packages/seaborn/external/six.pyc", 
    "lib/python2.7/site-packages/seaborn/linearmodels.py", 
    "lib/python2.7/site-packages/seaborn/linearmodels.pyc", 
    "lib/python2.7/site-packages/seaborn/matrix.py", 
    "lib/python2.7/site-packages/seaborn/matrix.pyc", 
    "lib/python2.7/site-packages/seaborn/miscplot.py", 
    "lib/python2.7/site-packages/seaborn/miscplot.pyc", 
    "lib/python2.7/site-packages/seaborn/palettes.py", 
    "lib/python2.7/site-packages/seaborn/palettes.pyc", 
    "lib/python2.7/site-packages/seaborn/rcmod.py", 
    "lib/python2.7/site-packages/seaborn/rcmod.pyc", 
    "lib/python2.7/site-packages/seaborn/tests/__init__.py", 
    "lib/python2.7/site-packages/seaborn/tests/__init__.pyc", 
    "lib/python2.7/site-packages/seaborn/tests/test_algorithms.py", 
    "lib/python2.7/site-packages/seaborn/tests/test_algorithms.pyc", 
    "lib/python2.7/site-packages/seaborn/tests/test_axisgrid.py", 
    "lib/python2.7/site-packages/seaborn/tests/test_axisgrid.pyc", 
    "lib/python2.7/site-packages/seaborn/tests/test_categorical.py", 
    "lib/python2.7/site-packages/seaborn/tests/test_categorical.pyc", 
    "lib/python2.7/site-packages/seaborn/tests/test_distributions.py", 
    "lib/python2.7/site-packages/seaborn/tests/test_distributions.pyc", 
    "lib/python2.7/site-packages/seaborn/tests/test_linearmodels.py", 
    "lib/python2.7/site-packages/seaborn/tests/test_linearmodels.pyc", 
    "lib/python2.7/site-packages/seaborn/tests/test_matrix.py", 
    "lib/python2.7/site-packages/seaborn/tests/test_matrix.pyc", 
    "lib/python2.7/site-packages/seaborn/tests/test_miscplot.py", 
    "lib/python2.7/site-packages/seaborn/tests/test_miscplot.pyc", 
    "lib/python2.7/site-packages/seaborn/tests/test_palettes.py", 
    "lib/python2.7/site-packages/seaborn/tests/test_palettes.pyc", 
    "lib/python2.7/site-packages/seaborn/tests/test_rcmod.py", 
    "lib/python2.7/site-packages/seaborn/tests/test_rcmod.pyc", 
    "lib/python2.7/site-packages/seaborn/tests/test_utils.py", 
    "lib/python2.7/site-packages/seaborn/tests/test_utils.pyc", 
    "lib/python2.7/site-packages/seaborn/timeseries.py", 
    "lib/python2.7/site-packages/seaborn/timeseries.pyc", 
    "lib/python2.7/site-packages/seaborn/utils.py", 
    "lib/python2.7/site-packages/seaborn/utils.pyc", 
    "lib/python2.7/site-packages/seaborn/widgets.py", 
    "lib/python2.7/site-packages/seaborn/widgets.pyc", 
    "lib/python2.7/site-packages/seaborn/xkcd_rgb.py", 
    "lib/python2.7/site-packages/seaborn/xkcd_rgb.pyc"
  ], 
  "license": "BSD", 
  "link": {
    "source": "/home/fdavilakurban/.conda/envs/.pkgs/seaborn-0.7.1-py27_0", 
    "type": "hard-link"
  }, 
  "md5": "977652a76370bc94e42293dc53e78e59", 
  "name": "seaborn", 
  "platform": "linux", 
  "requires": [], 
  "size": 278061, 
  "subdir": "linux-64", 
  "url": "https://conda.anaconda.org/anaconda/linux-64/seaborn-0.7.1-py27_0.tar.bz2", 
  "version": "0.7.1"
}