{
  "arch": "x86_64", 
  "build": "py27_0", 
  "build_number": 0, 
  "channel": "https://repo.continuum.io/pkgs/free/linux-64", 
  "date": "2016-09-17", 
  "depends": [
    "alabaster >=0.7,<0.8", 
    "babel >=1.3,!=2.0", 
    "docutils >=0.11", 
    "imagesize", 
    "jinja2", 
    "pygments >=2.0", 
    "python 2.7*", 
    "six", 
    "snowballstemmer >=1.1"
  ], 
  "files": [
    "bin/sphinx-apidoc", 
    "bin/sphinx-autogen", 
    "bin/sphinx-build", 
    "bin/sphinx-quickstart", 
    "lib/python2.7/site-packages/Sphinx-1.4.6-py2.7.egg/EGG-INFO/PKG-INFO", 
    "lib/python2.7/site-packages/Sphinx-1.4.6-py2.7.egg/EGG-INFO/SOURCES.txt", 
    "lib/python2.7/site-packages/Sphinx-1.4.6-py2.7.egg/EGG-INFO/dependency_links.txt", 
    "lib/python2.7/site-packages/Sphinx-1.4.6-py2.7.egg/EGG-INFO/entry_points.txt", 
    "lib/python2.7/site-packages/Sphinx-1.4.6-py2.7.egg/EGG-INFO/not-zip-safe", 
    "lib/python2.7/site-packages/Sphinx-1.4.6-py2.7.egg/EGG-INFO/requires.txt", 
    "lib/python2.7/site-packages/Sphinx-1.4.6-py2.7.egg/EGG-INFO/top_level.txt", 
    "lib/python2.7/site-packages/Sphinx-1.4.6-py2.7.egg/sphinx/__init__.py", 
    "lib/python2.7/site-packages/Sphinx-1.4.6-py2.7.egg/sphinx/__init__.pyc", 
    "lib/python2.7/site-packages/Sphinx-1.4.6-py2.7.egg/sphinx/__main__.py", 
    "lib/python2.7/site-packages/Sphinx-1.4.6-py2.7.egg/sphinx/__main__.pyc", 
    "lib/python2.7/site-packages/Sphinx-1.4.6-py2.7.egg/sphinx/addnodes.py", 
    "lib/python2.7/site-packages/Sphinx-1.4.6-py2.7.egg/sphinx/addnodes.pyc", 
    "lib/python2.7/site-packages/Sphinx-1.4.6-py2.7.egg/sphinx/apidoc.py", 
    "lib/python2.7/site-packages/Sphinx-1.4.6-py2.7.egg/sphinx/apidoc.pyc", 
    "lib/python2.7/site-packages/Sphinx-1.4.6-py2.7.egg/sphinx/application.py", 
    "lib/python2.7/site-packages/Sphinx-1.4.6-py2.7.egg/sphinx/application.pyc", 
    "lib/python2.7/site-packages/Sphinx-1.4.6-py2.7.egg/sphinx/builders/__init__.py", 
    "lib/python2.7/site-packages/Sphinx-1.4.6-py2.7.egg/sphinx/builders/__init__.pyc", 
    "lib/python2.7/site-packages/Sphinx-1.4.6-py2.7.egg/sphinx/builders/applehelp.py", 
    "lib/python2.7/site-packages/Sphinx-1.4.6-py2.7.egg/sphinx/builders/applehelp.pyc", 
    "lib/python2.7/site-packages/Sphinx-1.4.6-py2.7.egg/sphinx/builders/changes.py", 
    "lib/python2.7/site-packages/Sphinx-1.4.6-py2.7.egg/sphinx/builders/changes.pyc", 
    "lib/python2.7/site-packages/Sphinx-1.4.6-py2.7.egg/sphinx/builders/devhelp.py", 
    "lib/python2.7/site-packages/Sphinx-1.4.6-py2.7.egg/sphinx/builders/devhelp.pyc", 
    "lib/python2.7/site-packages/Sphinx-1.4.6-py2.7.egg/sphinx/builders/dummy.py", 
    "lib/python2.7/site-packages/Sphinx-1.4.6-py2.7.egg/sphinx/builders/dummy.pyc", 
    "lib/python2.7/site-packages/Sphinx-1.4.6-py2.7.egg/sphinx/builders/epub.py", 
    "lib/python2.7/site-packages/Sphinx-1.4.6-py2.7.egg/sphinx/builders/epub.pyc", 
    "lib/python2.7/site-packages/Sphinx-1.4.6-py2.7.egg/sphinx/builders/epub3.py", 
    "lib/python2.7/site-packages/Sphinx-1.4.6-py2.7.egg/sphinx/builders/epub3.pyc", 
    "lib/python2.7/site-packages/Sphinx-1.4.6-py2.7.egg/sphinx/builders/gettext.py", 
    "lib/python2.7/site-packages/Sphinx-1.4.6-py2.7.egg/sphinx/builders/gettext.pyc", 
    "lib/python2.7/site-packages/Sphinx-1.4.6-py2.7.egg/sphinx/builders/html.py", 
    "lib/python2.7/site-packages/Sphinx-1.4.6-py2.7.egg/sphinx/builders/html.pyc", 
    "lib/python2.7/site-packages/Sphinx-1.4.6-py2.7.egg/sphinx/builders/htmlhelp.py", 
    "lib/python2.7/site-packages/Sphinx-1.4.6-py2.7.egg/sphinx/builders/htmlhelp.pyc", 
    "lib/python2.7/site-packages/Sphinx-1.4.6-py2.7.egg/sphinx/builders/latex.py", 
    "lib/python2.7/site-packages/Sphinx-1.4.6-py2.7.egg/sphinx/builders/latex.pyc", 
    "lib/python2.7/site-packages/Sphinx-1.4.6-py2.7.egg/sphinx/builders/linkcheck.py", 
    "lib/python2.7/site-packages/Sphinx-1.4.6-py2.7.egg/sphinx/builders/linkcheck.pyc", 
    "lib/python2.7/site-packages/Sphinx-1.4.6-py2.7.egg/sphinx/builders/manpage.py", 
    "lib/python2.7/site-packages/Sphinx-1.4.6-py2.7.egg/sphinx/builders/manpage.pyc", 
    "lib/python2.7/site-packages/Sphinx-1.4.6-py2.7.egg/sphinx/builders/qthelp.py", 
    "lib/python2.7/site-packages/Sphinx-1.4.6-py2.7.egg/sphinx/builders/qthelp.pyc", 
    "lib/python2.7/site-packages/Sphinx-1.4.6-py2.7.egg/sphinx/builders/texinfo.py", 
    "lib/python2.7/site-packages/Sphinx-1.4.6-py2.7.egg/sphinx/builders/texinfo.pyc", 
    "lib/python2.7/site-packages/Sphinx-1.4.6-py2.7.egg/sphinx/builders/text.py", 
    "lib/python2.7/site-packages/Sphinx-1.4.6-py2.7.egg/sphinx/builders/text.pyc", 
    "lib/python2.7/site-packages/Sphinx-1.4.6-py2.7.egg/sphinx/builders/websupport.py", 
    "lib/python2.7/site-packages/Sphinx-1.4.6-py2.7.egg/sphinx/builders/websupport.pyc", 
    "lib/python2.7/site-packages/Sphinx-1.4.6-py2.7.egg/sphinx/builders/xml.py", 
    "lib/python2.7/site-packages/Sphinx-1.4.6-py2.7.egg/sphinx/builders/xml.pyc", 
    "lib/python2.7/site-packages/Sphinx-1.4.6-py2.7.egg/sphinx/cmdline.py", 
    "lib/python2.7/site-packages/Sphinx-1.4.6-py2.7.egg/sphinx/cmdline.pyc", 
    "lib/python2.7/site-packages/Sphinx-1.4.6-py2.7.egg/sphinx/config.py", 
    "lib/python2.7/site-packages/Sphinx-1.4.6-py2.7.egg/sphinx/config.pyc", 
    "lib/python2.7/site-packages/Sphinx-1.4.6-py2.7.egg/sphinx/directives/__init__.py", 
    "lib/python2.7/site-packages/Sphinx-1.4.6-py2.7.egg/sphinx/directives/__init__.pyc", 
    "lib/python2.7/site-packages/Sphinx-1.4.6-py2.7.egg/sphinx/directives/code.py", 
    "lib/python2.7/site-packages/Sphinx-1.4.6-py2.7.egg/sphinx/directives/code.pyc", 
    "lib/python2.7/site-packages/Sphinx-1.4.6-py2.7.egg/sphinx/directives/other.py", 
    "lib/python2.7/site-packages/Sphinx-1.4.6-py2.7.egg/sphinx/directives/other.pyc", 
    "lib/python2.7/site-packages/Sphinx-1.4.6-py2.7.egg/sphinx/directives/patches.py", 
    "lib/python2.7/site-packages/Sphinx-1.4.6-py2.7.egg/sphinx/directives/patches.pyc", 
    "lib/python2.7/site-packages/Sphinx-1.4.6-py2.7.egg/sphinx/domains/__init__.py", 
    "lib/python2.7/site-packages/Sphinx-1.4.6-py2.7.egg/sphinx/domains/__init__.pyc", 
    "lib/python2.7/site-packages/Sphinx-1.4.6-py2.7.egg/sphinx/domains/c.py", 
    "lib/python2.7/site-packages/Sphinx-1.4.6-py2.7.egg/sphinx/domains/c.pyc", 
    "lib/python2.7/site-packages/Sphinx-1.4.6-py2.7.egg/sphinx/domains/cpp.py", 
    "lib/python2.7/site-packages/Sphinx-1.4.6-py2.7.egg/sphinx/domains/cpp.pyc", 
    "lib/python2.7/site-packages/Sphinx-1.4.6-py2.7.egg/sphinx/domains/javascript.py", 
    "lib/python2.7/site-packages/Sphinx-1.4.6-py2.7.egg/sphinx/domains/javascript.pyc", 
    "lib/python2.7/site-packages/Sphinx-1.4.6-py2.7.egg/sphinx/domains/python.py", 
    "lib/python2.7/site-packages/Sphinx-1.4.6-py2.7.egg/sphinx/domains/python.pyc", 
    "lib/python2.7/site-packages/Sphinx-1.4.6-py2.7.egg/sphinx/domains/rst.py", 
    "lib/python2.7/site-packages/Sphinx-1.4.6-py2.7.egg/sphinx/domains/rst.pyc", 
    "lib/python2.7/site-packages/Sphinx-1.4.6-py2.7.egg/sphinx/domains/std.py", 
    "lib/python2.7/site-packages/Sphinx-1.4.6-py2.7.egg/sphinx/domains/std.pyc", 
    "lib/python2.7/site-packages/Sphinx-1.4.6-py2.7.egg/sphinx/environment.py", 
    "lib/python2.7/site-packages/Sphinx-1.4.6-py2.7.egg/sphinx/environment.pyc", 
    "lib/python2.7/site-packages/Sphinx-1.4.6-py2.7.egg/sphinx/errors.py", 
    "lib/python2.7/site-packages/Sphinx-1.4.6-py2.7.egg/sphinx/errors.pyc", 
    "lib/python2.7/site-packages/Sphinx-1.4.6-py2.7.egg/sphinx/ext/__init__.py", 
    "lib/python2.7/site-packages/Sphinx-1.4.6-py2.7.egg/sphinx/ext/__init__.pyc", 
    "lib/python2.7/site-packages/Sphinx-1.4.6-py2.7.egg/sphinx/ext/autodoc.py", 
    "lib/python2.7/site-packages/Sphinx-1.4.6-py2.7.egg/sphinx/ext/autodoc.pyc", 
    "lib/python2.7/site-packages/Sphinx-1.4.6-py2.7.egg/sphinx/ext/autosectionlabel.py", 
    "lib/python2.7/site-packages/Sphinx-1.4.6-py2.7.egg/sphinx/ext/autosectionlabel.pyc", 
    "lib/python2.7/site-packages/Sphinx-1.4.6-py2.7.egg/sphinx/ext/autosummary/__init__.py", 
    "lib/python2.7/site-packages/Sphinx-1.4.6-py2.7.egg/sphinx/ext/autosummary/__init__.pyc", 
    "lib/python2.7/site-packages/Sphinx-1.4.6-py2.7.egg/sphinx/ext/autosummary/generate.py", 
    "lib/python2.7/site-packages/Sphinx-1.4.6-py2.7.egg/sphinx/ext/autosummary/generate.pyc", 
    "lib/python2.7/site-packages/Sphinx-1.4.6-py2.7.egg/sphinx/ext/autosummary/templates/autosummary/base.rst", 
    "lib/python2.7/site-packages/Sphinx-1.4.6-py2.7.egg/sphinx/ext/autosummary/templates/autosummary/class.rst", 
    "lib/python2.7/site-packages/Sphinx-1.4.6-py2.7.egg/sphinx/ext/autosummary/templates/autosummary/module.rst", 
    "lib/python2.7/site-packages/Sphinx-1.4.6-py2.7.egg/sphinx/ext/coverage.py", 
    "lib/python2.7/site-packages/Sphinx-1.4.6-py2.7.egg/sphinx/ext/coverage.pyc", 
    "lib/python2.7/site-packages/Sphinx-1.4.6-py2.7.egg/sphinx/ext/doctest.py", 
    "lib/python2.7/site-packages/Sphinx-1.4.6-py2.7.egg/sphinx/ext/doctest.pyc", 
    "lib/python2.7/site-packages/Sphinx-1.4.6-py2.7.egg/sphinx/ext/extlinks.py", 
    "lib/python2.7/site-packages/Sphinx-1.4.6-py2.7.egg/sphinx/ext/extlinks.pyc", 
    "lib/python2.7/site-packages/Sphinx-1.4.6-py2.7.egg/sphinx/ext/githubpages.py", 
    "lib/python2.7/site-packages/Sphinx-1.4.6-py2.7.egg/sphinx/ext/githubpages.pyc", 
    "lib/python2.7/site-packages/Sphinx-1.4.6-py2.7.egg/sphinx/ext/graphviz.py", 
    "lib/python2.7/site-packages/Sphinx-1.4.6-py2.7.egg/sphinx/ext/graphviz.pyc", 
    "lib/python2.7/site-packages/Sphinx-1.4.6-py2.7.egg/sphinx/ext/ifconfig.py", 
    "lib/python2.7/site-packages/Sphinx-1.4.6-py2.7.egg/sphinx/ext/ifconfig.pyc", 
    "lib/python2.7/site-packages/Sphinx-1.4.6-py2.7.egg/sphinx/ext/imgmath.py", 
    "lib/python2.7/site-packages/Sphinx-1.4.6-py2.7.egg/sphinx/ext/imgmath.pyc", 
    "lib/python2.7/site-packages/Sphinx-1.4.6-py2.7.egg/sphinx/ext/inheritance_diagram.py", 
    "lib/python2.7/site-packages/Sphinx-1.4.6-py2.7.egg/sphinx/ext/inheritance_diagram.pyc", 
    "lib/python2.7/site-packages/Sphinx-1.4.6-py2.7.egg/sphinx/ext/intersphinx.py", 
    "lib/python2.7/site-packages/Sphinx-1.4.6-py2.7.egg/sphinx/ext/intersphinx.pyc", 
    "lib/python2.7/site-packages/Sphinx-1.4.6-py2.7.egg/sphinx/ext/jsmath.py", 
    "lib/python2.7/site-packages/Sphinx-1.4.6-py2.7.egg/sphinx/ext/jsmath.pyc", 
    "lib/python2.7/site-packages/Sphinx-1.4.6-py2.7.egg/sphinx/ext/linkcode.py", 
    "lib/python2.7/site-packages/Sphinx-1.4.6-py2.7.egg/sphinx/ext/linkcode.pyc", 
    "lib/python2.7/site-packages/Sphinx-1.4.6-py2.7.egg/sphinx/ext/mathbase.py", 
    "lib/python2.7/site-packages/Sphinx-1.4.6-py2.7.egg/sphinx/ext/mathbase.pyc", 
    "lib/python2.7/site-packages/Sphinx-1.4.6-py2.7.egg/sphinx/ext/mathjax.py", 
    "lib/python2.7/site-packages/Sphinx-1.4.6-py2.7.egg/sphinx/ext/mathjax.pyc", 
    "lib/python2.7/site-packages/Sphinx-1.4.6-py2.7.egg/sphinx/ext/napoleon/__init__.py", 
    "lib/python2.7/site-packages/Sphinx-1.4.6-py2.7.egg/sphinx/ext/napoleon/__init__.pyc", 
    "lib/python2.7/site-packages/Sphinx-1.4.6-py2.7.egg/sphinx/ext/napoleon/docstring.py", 
    "lib/python2.7/site-packages/Sphinx-1.4.6-py2.7.egg/sphinx/ext/napoleon/docstring.pyc", 
    "lib/python2.7/site-packages/Sphinx-1.4.6-py2.7.egg/sphinx/ext/napoleon/iterators.py", 
    "lib/python2.7/site-packages/Sphinx-1.4.6-py2.7.egg/sphinx/ext/napoleon/iterators.pyc", 
    "lib/python2.7/site-packages/Sphinx-1.4.6-py2.7.egg/sphinx/ext/pngmath.py", 
    "lib/python2.7/site-packages/Sphinx-1.4.6-py2.7.egg/sphinx/ext/pngmath.pyc", 
    "lib/python2.7/site-packages/Sphinx-1.4.6-py2.7.egg/sphinx/ext/todo.py", 
    "lib/python2.7/site-packages/Sphinx-1.4.6-py2.7.egg/sphinx/ext/todo.pyc", 
    "lib/python2.7/site-packages/Sphinx-1.4.6-py2.7.egg/sphinx/ext/viewcode.py", 
    "lib/python2.7/site-packages/Sphinx-1.4.6-py2.7.egg/sphinx/ext/viewcode.pyc", 
    "lib/python2.7/site-packages/Sphinx-1.4.6-py2.7.egg/sphinx/highlighting.py", 
    "lib/python2.7/site-packages/Sphinx-1.4.6-py2.7.egg/sphinx/highlighting.pyc", 
    "lib/python2.7/site-packages/Sphinx-1.4.6-py2.7.egg/sphinx/io.py", 
    "lib/python2.7/site-packages/Sphinx-1.4.6-py2.7.egg/sphinx/io.pyc", 
    "lib/python2.7/site-packages/Sphinx-1.4.6-py2.7.egg/sphinx/jinja2glue.py", 
    "lib/python2.7/site-packages/Sphinx-1.4.6-py2.7.egg/sphinx/jinja2glue.pyc", 
    "lib/python2.7/site-packages/Sphinx-1.4.6-py2.7.egg/sphinx/locale/.tx/config", 
    "lib/python2.7/site-packages/Sphinx-1.4.6-py2.7.egg/sphinx/locale/__init__.py", 
    "lib/python2.7/site-packages/Sphinx-1.4.6-py2.7.egg/sphinx/locale/__init__.pyc", 
    "lib/python2.7/site-packages/Sphinx-1.4.6-py2.7.egg/sphinx/locale/bn/LC_MESSAGES/sphinx.js", 
    "lib/python2.7/site-packages/Sphinx-1.4.6-py2.7.egg/sphinx/locale/bn/LC_MESSAGES/sphinx.mo", 
    "lib/python2.7/site-packages/Sphinx-1.4.6-py2.7.egg/sphinx/locale/bn/LC_MESSAGES/sphinx.po", 
    "lib/python2.7/site-packages/Sphinx-1.4.6-py2.7.egg/sphinx/locale/ca/LC_MESSAGES/sphinx.js", 
    "lib/python2.7/site-packages/Sphinx-1.4.6-py2.7.egg/sphinx/locale/ca/LC_MESSAGES/sphinx.mo", 
    "lib/python2.7/site-packages/Sphinx-1.4.6-py2.7.egg/sphinx/locale/ca/LC_MESSAGES/sphinx.po", 
    "lib/python2.7/site-packages/Sphinx-1.4.6-py2.7.egg/sphinx/locale/cs/LC_MESSAGES/sphinx.js", 
    "lib/python2.7/site-packages/Sphinx-1.4.6-py2.7.egg/sphinx/locale/cs/LC_MESSAGES/sphinx.mo", 
    "lib/python2.7/site-packages/Sphinx-1.4.6-py2.7.egg/sphinx/locale/cs/LC_MESSAGES/sphinx.po", 
    "lib/python2.7/site-packages/Sphinx-1.4.6-py2.7.egg/sphinx/locale/cy/LC_MESSAGES/sphinx.js", 
    "lib/python2.7/site-packages/Sphinx-1.4.6-py2.7.egg/sphinx/locale/cy/LC_MESSAGES/sphinx.mo", 
    "lib/python2.7/site-packages/Sphinx-1.4.6-py2.7.egg/sphinx/locale/cy/LC_MESSAGES/sphinx.po", 
    "lib/python2.7/site-packages/Sphinx-1.4.6-py2.7.egg/sphinx/locale/da/LC_MESSAGES/sphinx.js", 
    "lib/python2.7/site-packages/Sphinx-1.4.6-py2.7.egg/sphinx/locale/da/LC_MESSAGES/sphinx.mo", 
    "lib/python2.7/site-packages/Sphinx-1.4.6-py2.7.egg/sphinx/locale/da/LC_MESSAGES/sphinx.po", 
    "lib/python2.7/site-packages/Sphinx-1.4.6-py2.7.egg/sphinx/locale/de/LC_MESSAGES/sphinx.js", 
    "lib/python2.7/site-packages/Sphinx-1.4.6-py2.7.egg/sphinx/locale/de/LC_MESSAGES/sphinx.mo", 
    "lib/python2.7/site-packages/Sphinx-1.4.6-py2.7.egg/sphinx/locale/de/LC_MESSAGES/sphinx.po", 
    "lib/python2.7/site-packages/Sphinx-1.4.6-py2.7.egg/sphinx/locale/el/LC_MESSAGES/sphinx.js", 
    "lib/python2.7/site-packages/Sphinx-1.4.6-py2.7.egg/sphinx/locale/el/LC_MESSAGES/sphinx.mo", 
    "lib/python2.7/site-packages/Sphinx-1.4.6-py2.7.egg/sphinx/locale/el/LC_MESSAGES/sphinx.po", 
    "lib/python2.7/site-packages/Sphinx-1.4.6-py2.7.egg/sphinx/locale/eo/LC_MESSAGES/sphinx.js", 
    "lib/python2.7/site-packages/Sphinx-1.4.6-py2.7.egg/sphinx/locale/eo/LC_MESSAGES/sphinx.mo", 
    "lib/python2.7/site-packages/Sphinx-1.4.6-py2.7.egg/sphinx/locale/eo/LC_MESSAGES/sphinx.po", 
    "lib/python2.7/site-packages/Sphinx-1.4.6-py2.7.egg/sphinx/locale/es/LC_MESSAGES/sphinx.js", 
    "lib/python2.7/site-packages/Sphinx-1.4.6-py2.7.egg/sphinx/locale/es/LC_MESSAGES/sphinx.mo", 
    "lib/python2.7/site-packages/Sphinx-1.4.6-py2.7.egg/sphinx/locale/es/LC_MESSAGES/sphinx.po", 
    "lib/python2.7/site-packages/Sphinx-1.4.6-py2.7.egg/sphinx/locale/et/LC_MESSAGES/sphinx.js", 
    "lib/python2.7/site-packages/Sphinx-1.4.6-py2.7.egg/sphinx/locale/et/LC_MESSAGES/sphinx.mo", 
    "lib/python2.7/site-packages/Sphinx-1.4.6-py2.7.egg/sphinx/locale/et/LC_MESSAGES/sphinx.po", 
    "lib/python2.7/site-packages/Sphinx-1.4.6-py2.7.egg/sphinx/locale/eu/LC_MESSAGES/sphinx.js", 
    "lib/python2.7/site-packages/Sphinx-1.4.6-py2.7.egg/sphinx/locale/eu/LC_MESSAGES/sphinx.mo", 
    "lib/python2.7/site-packages/Sphinx-1.4.6-py2.7.egg/sphinx/locale/eu/LC_MESSAGES/sphinx.po", 
    "lib/python2.7/site-packages/Sphinx-1.4.6-py2.7.egg/sphinx/locale/fa/LC_MESSAGES/sphinx.js", 
    "lib/python2.7/site-packages/Sphinx-1.4.6-py2.7.egg/sphinx/locale/fa/LC_MESSAGES/sphinx.mo", 
    "lib/python2.7/site-packages/Sphinx-1.4.6-py2.7.egg/sphinx/locale/fa/LC_MESSAGES/sphinx.po", 
    "lib/python2.7/site-packages/Sphinx-1.4.6-py2.7.egg/sphinx/locale/fi/LC_MESSAGES/sphinx.js", 
    "lib/python2.7/site-packages/Sphinx-1.4.6-py2.7.egg/sphinx/locale/fi/LC_MESSAGES/sphinx.mo", 
    "lib/python2.7/site-packages/Sphinx-1.4.6-py2.7.egg/sphinx/locale/fi/LC_MESSAGES/sphinx.po", 
    "lib/python2.7/site-packages/Sphinx-1.4.6-py2.7.egg/sphinx/locale/fr/LC_MESSAGES/sphinx.js", 
    "lib/python2.7/site-packages/Sphinx-1.4.6-py2.7.egg/sphinx/locale/fr/LC_MESSAGES/sphinx.mo", 
    "lib/python2.7/site-packages/Sphinx-1.4.6-py2.7.egg/sphinx/locale/fr/LC_MESSAGES/sphinx.po", 
    "lib/python2.7/site-packages/Sphinx-1.4.6-py2.7.egg/sphinx/locale/he/LC_MESSAGES/sphinx.js", 
    "lib/python2.7/site-packages/Sphinx-1.4.6-py2.7.egg/sphinx/locale/he/LC_MESSAGES/sphinx.mo", 
    "lib/python2.7/site-packages/Sphinx-1.4.6-py2.7.egg/sphinx/locale/he/LC_MESSAGES/sphinx.po", 
    "lib/python2.7/site-packages/Sphinx-1.4.6-py2.7.egg/sphinx/locale/hi/LC_MESSAGES/sphinx.js", 
    "lib/python2.7/site-packages/Sphinx-1.4.6-py2.7.egg/sphinx/locale/hi/LC_MESSAGES/sphinx.mo", 
    "lib/python2.7/site-packages/Sphinx-1.4.6-py2.7.egg/sphinx/locale/hi/LC_MESSAGES/sphinx.po", 
    "lib/python2.7/site-packages/Sphinx-1.4.6-py2.7.egg/sphinx/locale/hr/LC_MESSAGES/sphinx.js", 
    "lib/python2.7/site-packages/Sphinx-1.4.6-py2.7.egg/sphinx/locale/hr/LC_MESSAGES/sphinx.mo", 
    "lib/python2.7/site-packages/Sphinx-1.4.6-py2.7.egg/sphinx/locale/hr/LC_MESSAGES/sphinx.po", 
    "lib/python2.7/site-packages/Sphinx-1.4.6-py2.7.egg/sphinx/locale/hu/LC_MESSAGES/sphinx.js", 
    "lib/python2.7/site-packages/Sphinx-1.4.6-py2.7.egg/sphinx/locale/hu/LC_MESSAGES/sphinx.mo", 
    "lib/python2.7/site-packages/Sphinx-1.4.6-py2.7.egg/sphinx/locale/hu/LC_MESSAGES/sphinx.po", 
    "lib/python2.7/site-packages/Sphinx-1.4.6-py2.7.egg/sphinx/locale/id/LC_MESSAGES/sphinx.js", 
    "lib/python2.7/site-packages/Sphinx-1.4.6-py2.7.egg/sphinx/locale/id/LC_MESSAGES/sphinx.mo", 
    "lib/python2.7/site-packages/Sphinx-1.4.6-py2.7.egg/sphinx/locale/id/LC_MESSAGES/sphinx.po", 
    "lib/python2.7/site-packages/Sphinx-1.4.6-py2.7.egg/sphinx/locale/it/LC_MESSAGES/sphinx.js", 
    "lib/python2.7/site-packages/Sphinx-1.4.6-py2.7.egg/sphinx/locale/it/LC_MESSAGES/sphinx.mo", 
    "lib/python2.7/site-packages/Sphinx-1.4.6-py2.7.egg/sphinx/locale/it/LC_MESSAGES/sphinx.po", 
    "lib/python2.7/site-packages/Sphinx-1.4.6-py2.7.egg/sphinx/locale/ja/LC_MESSAGES/sphinx.js", 
    "lib/python2.7/site-packages/Sphinx-1.4.6-py2.7.egg/sphinx/locale/ja/LC_MESSAGES/sphinx.mo", 
    "lib/python2.7/site-packages/Sphinx-1.4.6-py2.7.egg/sphinx/locale/ja/LC_MESSAGES/sphinx.po", 
    "lib/python2.7/site-packages/Sphinx-1.4.6-py2.7.egg/sphinx/locale/ko/LC_MESSAGES/sphinx.js", 
    "lib/python2.7/site-packages/Sphinx-1.4.6-py2.7.egg/sphinx/locale/ko/LC_MESSAGES/sphinx.mo", 
    "lib/python2.7/site-packages/Sphinx-1.4.6-py2.7.egg/sphinx/locale/ko/LC_MESSAGES/sphinx.po", 
    "lib/python2.7/site-packages/Sphinx-1.4.6-py2.7.egg/sphinx/locale/lt/LC_MESSAGES/sphinx.js", 
    "lib/python2.7/site-packages/Sphinx-1.4.6-py2.7.egg/sphinx/locale/lt/LC_MESSAGES/sphinx.mo", 
    "lib/python2.7/site-packages/Sphinx-1.4.6-py2.7.egg/sphinx/locale/lt/LC_MESSAGES/sphinx.po", 
    "lib/python2.7/site-packages/Sphinx-1.4.6-py2.7.egg/sphinx/locale/lv/LC_MESSAGES/sphinx.js", 
    "lib/python2.7/site-packages/Sphinx-1.4.6-py2.7.egg/sphinx/locale/lv/LC_MESSAGES/sphinx.mo", 
    "lib/python2.7/site-packages/Sphinx-1.4.6-py2.7.egg/sphinx/locale/lv/LC_MESSAGES/sphinx.po", 
    "lib/python2.7/site-packages/Sphinx-1.4.6-py2.7.egg/sphinx/locale/mk/LC_MESSAGES/sphinx.js", 
    "lib/python2.7/site-packages/Sphinx-1.4.6-py2.7.egg/sphinx/locale/mk/LC_MESSAGES/sphinx.mo", 
    "lib/python2.7/site-packages/Sphinx-1.4.6-py2.7.egg/sphinx/locale/mk/LC_MESSAGES/sphinx.po", 
    "lib/python2.7/site-packages/Sphinx-1.4.6-py2.7.egg/sphinx/locale/nb_NO/LC_MESSAGES/sphinx.js", 
    "lib/python2.7/site-packages/Sphinx-1.4.6-py2.7.egg/sphinx/locale/nb_NO/LC_MESSAGES/sphinx.mo", 
    "lib/python2.7/site-packages/Sphinx-1.4.6-py2.7.egg/sphinx/locale/nb_NO/LC_MESSAGES/sphinx.po", 
    "lib/python2.7/site-packages/Sphinx-1.4.6-py2.7.egg/sphinx/locale/ne/LC_MESSAGES/sphinx.js", 
    "lib/python2.7/site-packages/Sphinx-1.4.6-py2.7.egg/sphinx/locale/ne/LC_MESSAGES/sphinx.mo", 
    "lib/python2.7/site-packages/Sphinx-1.4.6-py2.7.egg/sphinx/locale/ne/LC_MESSAGES/sphinx.po", 
    "lib/python2.7/site-packages/Sphinx-1.4.6-py2.7.egg/sphinx/locale/nl/LC_MESSAGES/sphinx.js", 
    "lib/python2.7/site-packages/Sphinx-1.4.6-py2.7.egg/sphinx/locale/nl/LC_MESSAGES/sphinx.mo", 
    "lib/python2.7/site-packages/Sphinx-1.4.6-py2.7.egg/sphinx/locale/nl/LC_MESSAGES/sphinx.po", 
    "lib/python2.7/site-packages/Sphinx-1.4.6-py2.7.egg/sphinx/locale/pl/LC_MESSAGES/sphinx.js", 
    "lib/python2.7/site-packages/Sphinx-1.4.6-py2.7.egg/sphinx/locale/pl/LC_MESSAGES/sphinx.mo", 
    "lib/python2.7/site-packages/Sphinx-1.4.6-py2.7.egg/sphinx/locale/pl/LC_MESSAGES/sphinx.po", 
    "lib/python2.7/site-packages/Sphinx-1.4.6-py2.7.egg/sphinx/locale/pt_BR/LC_MESSAGES/sphinx.js", 
    "lib/python2.7/site-packages/Sphinx-1.4.6-py2.7.egg/sphinx/locale/pt_BR/LC_MESSAGES/sphinx.mo", 
    "lib/python2.7/site-packages/Sphinx-1.4.6-py2.7.egg/sphinx/locale/pt_BR/LC_MESSAGES/sphinx.po", 
    "lib/python2.7/site-packages/Sphinx-1.4.6-py2.7.egg/sphinx/locale/pt_PT/LC_MESSAGES/sphinx.js", 
    "lib/python2.7/site-packages/Sphinx-1.4.6-py2.7.egg/sphinx/locale/pt_PT/LC_MESSAGES/sphinx.mo", 
    "lib/python2.7/site-packages/Sphinx-1.4.6-py2.7.egg/sphinx/locale/pt_PT/LC_MESSAGES/sphinx.po", 
    "lib/python2.7/site-packages/Sphinx-1.4.6-py2.7.egg/sphinx/locale/ro/LC_MESSAGES/sphinx.js", 
    "lib/python2.7/site-packages/Sphinx-1.4.6-py2.7.egg/sphinx/locale/ro/LC_MESSAGES/sphinx.mo", 
    "lib/python2.7/site-packages/Sphinx-1.4.6-py2.7.egg/sphinx/locale/ro/LC_MESSAGES/sphinx.po", 
    "lib/python2.7/site-packages/Sphinx-1.4.6-py2.7.egg/sphinx/locale/ru/LC_MESSAGES/sphinx.js", 
    "lib/python2.7/site-packages/Sphinx-1.4.6-py2.7.egg/sphinx/locale/ru/LC_MESSAGES/sphinx.mo", 
    "lib/python2.7/site-packages/Sphinx-1.4.6-py2.7.egg/sphinx/locale/ru/LC_MESSAGES/sphinx.po", 
    "lib/python2.7/site-packages/Sphinx-1.4.6-py2.7.egg/sphinx/locale/si/LC_MESSAGES/sphinx.js", 
    "lib/python2.7/site-packages/Sphinx-1.4.6-py2.7.egg/sphinx/locale/si/LC_MESSAGES/sphinx.mo", 
    "lib/python2.7/site-packages/Sphinx-1.4.6-py2.7.egg/sphinx/locale/si/LC_MESSAGES/sphinx.po", 
    "lib/python2.7/site-packages/Sphinx-1.4.6-py2.7.egg/sphinx/locale/sk/LC_MESSAGES/sphinx.js", 
    "lib/python2.7/site-packages/Sphinx-1.4.6-py2.7.egg/sphinx/locale/sk/LC_MESSAGES/sphinx.mo", 
    "lib/python2.7/site-packages/Sphinx-1.4.6-py2.7.egg/sphinx/locale/sk/LC_MESSAGES/sphinx.po", 
    "lib/python2.7/site-packages/Sphinx-1.4.6-py2.7.egg/sphinx/locale/sl/LC_MESSAGES/sphinx.js", 
    "lib/python2.7/site-packages/Sphinx-1.4.6-py2.7.egg/sphinx/locale/sl/LC_MESSAGES/sphinx.mo", 
    "lib/python2.7/site-packages/Sphinx-1.4.6-py2.7.egg/sphinx/locale/sl/LC_MESSAGES/sphinx.po", 
    "lib/python2.7/site-packages/Sphinx-1.4.6-py2.7.egg/sphinx/locale/sphinx.pot", 
    "lib/python2.7/site-packages/Sphinx-1.4.6-py2.7.egg/sphinx/locale/sv/LC_MESSAGES/sphinx.js", 
    "lib/python2.7/site-packages/Sphinx-1.4.6-py2.7.egg/sphinx/locale/sv/LC_MESSAGES/sphinx.mo", 
    "lib/python2.7/site-packages/Sphinx-1.4.6-py2.7.egg/sphinx/locale/sv/LC_MESSAGES/sphinx.po", 
    "lib/python2.7/site-packages/Sphinx-1.4.6-py2.7.egg/sphinx/locale/tr/LC_MESSAGES/sphinx.js", 
    "lib/python2.7/site-packages/Sphinx-1.4.6-py2.7.egg/sphinx/locale/tr/LC_MESSAGES/sphinx.mo", 
    "lib/python2.7/site-packages/Sphinx-1.4.6-py2.7.egg/sphinx/locale/tr/LC_MESSAGES/sphinx.po", 
    "lib/python2.7/site-packages/Sphinx-1.4.6-py2.7.egg/sphinx/locale/uk_UA/LC_MESSAGES/sphinx.js", 
    "lib/python2.7/site-packages/Sphinx-1.4.6-py2.7.egg/sphinx/locale/uk_UA/LC_MESSAGES/sphinx.mo", 
    "lib/python2.7/site-packages/Sphinx-1.4.6-py2.7.egg/sphinx/locale/uk_UA/LC_MESSAGES/sphinx.po", 
    "lib/python2.7/site-packages/Sphinx-1.4.6-py2.7.egg/sphinx/locale/vi/LC_MESSAGES/sphinx.js", 
    "lib/python2.7/site-packages/Sphinx-1.4.6-py2.7.egg/sphinx/locale/vi/LC_MESSAGES/sphinx.mo", 
    "lib/python2.7/site-packages/Sphinx-1.4.6-py2.7.egg/sphinx/locale/vi/LC_MESSAGES/sphinx.po", 
    "lib/python2.7/site-packages/Sphinx-1.4.6-py2.7.egg/sphinx/locale/zh_CN/LC_MESSAGES/sphinx.js", 
    "lib/python2.7/site-packages/Sphinx-1.4.6-py2.7.egg/sphinx/locale/zh_CN/LC_MESSAGES/sphinx.mo", 
    "lib/python2.7/site-packages/Sphinx-1.4.6-py2.7.egg/sphinx/locale/zh_CN/LC_MESSAGES/sphinx.po", 
    "lib/python2.7/site-packages/Sphinx-1.4.6-py2.7.egg/sphinx/locale/zh_TW/LC_MESSAGES/sphinx.js", 
    "lib/python2.7/site-packages/Sphinx-1.4.6-py2.7.egg/sphinx/locale/zh_TW/LC_MESSAGES/sphinx.mo", 
    "lib/python2.7/site-packages/Sphinx-1.4.6-py2.7.egg/sphinx/locale/zh_TW/LC_MESSAGES/sphinx.po", 
    "lib/python2.7/site-packages/Sphinx-1.4.6-py2.7.egg/sphinx/make_mode.py", 
    "lib/python2.7/site-packages/Sphinx-1.4.6-py2.7.egg/sphinx/make_mode.pyc", 
    "lib/python2.7/site-packages/Sphinx-1.4.6-py2.7.egg/sphinx/parsers.py", 
    "lib/python2.7/site-packages/Sphinx-1.4.6-py2.7.egg/sphinx/parsers.pyc", 
    "lib/python2.7/site-packages/Sphinx-1.4.6-py2.7.egg/sphinx/pycode/Grammar-py2.pickle", 
    "lib/python2.7/site-packages/Sphinx-1.4.6-py2.7.egg/sphinx/pycode/Grammar-py2.txt", 
    "lib/python2.7/site-packages/Sphinx-1.4.6-py2.7.egg/sphinx/pycode/Grammar-py3.pickle", 
    "lib/python2.7/site-packages/Sphinx-1.4.6-py2.7.egg/sphinx/pycode/Grammar-py3.txt", 
    "lib/python2.7/site-packages/Sphinx-1.4.6-py2.7.egg/sphinx/pycode/__init__.py", 
    "lib/python2.7/site-packages/Sphinx-1.4.6-py2.7.egg/sphinx/pycode/__init__.pyc", 
    "lib/python2.7/site-packages/Sphinx-1.4.6-py2.7.egg/sphinx/pycode/nodes.py", 
    "lib/python2.7/site-packages/Sphinx-1.4.6-py2.7.egg/sphinx/pycode/nodes.pyc", 
    "lib/python2.7/site-packages/Sphinx-1.4.6-py2.7.egg/sphinx/pycode/pgen2/__init__.py", 
    "lib/python2.7/site-packages/Sphinx-1.4.6-py2.7.egg/sphinx/pycode/pgen2/__init__.pyc", 
    "lib/python2.7/site-packages/Sphinx-1.4.6-py2.7.egg/sphinx/pycode/pgen2/driver.py", 
    "lib/python2.7/site-packages/Sphinx-1.4.6-py2.7.egg/sphinx/pycode/pgen2/driver.pyc", 
    "lib/python2.7/site-packages/Sphinx-1.4.6-py2.7.egg/sphinx/pycode/pgen2/grammar.py", 
    "lib/python2.7/site-packages/Sphinx-1.4.6-py2.7.egg/sphinx/pycode/pgen2/grammar.pyc", 
    "lib/python2.7/site-packages/Sphinx-1.4.6-py2.7.egg/sphinx/pycode/pgen2/literals.py", 
    "lib/python2.7/site-packages/Sphinx-1.4.6-py2.7.egg/sphinx/pycode/pgen2/literals.pyc", 
    "lib/python2.7/site-packages/Sphinx-1.4.6-py2.7.egg/sphinx/pycode/pgen2/parse.py", 
    "lib/python2.7/site-packages/Sphinx-1.4.6-py2.7.egg/sphinx/pycode/pgen2/parse.pyc", 
    "lib/python2.7/site-packages/Sphinx-1.4.6-py2.7.egg/sphinx/pycode/pgen2/pgen.py", 
    "lib/python2.7/site-packages/Sphinx-1.4.6-py2.7.egg/sphinx/pycode/pgen2/pgen.pyc", 
    "lib/python2.7/site-packages/Sphinx-1.4.6-py2.7.egg/sphinx/pycode/pgen2/token.py", 
    "lib/python2.7/site-packages/Sphinx-1.4.6-py2.7.egg/sphinx/pycode/pgen2/token.pyc", 
    "lib/python2.7/site-packages/Sphinx-1.4.6-py2.7.egg/sphinx/pycode/pgen2/tokenize.py", 
    "lib/python2.7/site-packages/Sphinx-1.4.6-py2.7.egg/sphinx/pycode/pgen2/tokenize.pyc", 
    "lib/python2.7/site-packages/Sphinx-1.4.6-py2.7.egg/sphinx/pygments_styles.py", 
    "lib/python2.7/site-packages/Sphinx-1.4.6-py2.7.egg/sphinx/pygments_styles.pyc", 
    "lib/python2.7/site-packages/Sphinx-1.4.6-py2.7.egg/sphinx/quickstart.py", 
    "lib/python2.7/site-packages/Sphinx-1.4.6-py2.7.egg/sphinx/quickstart.pyc", 
    "lib/python2.7/site-packages/Sphinx-1.4.6-py2.7.egg/sphinx/roles.py", 
    "lib/python2.7/site-packages/Sphinx-1.4.6-py2.7.egg/sphinx/roles.pyc", 
    "lib/python2.7/site-packages/Sphinx-1.4.6-py2.7.egg/sphinx/search/__init__.py", 
    "lib/python2.7/site-packages/Sphinx-1.4.6-py2.7.egg/sphinx/search/__init__.pyc", 
    "lib/python2.7/site-packages/Sphinx-1.4.6-py2.7.egg/sphinx/search/da.py", 
    "lib/python2.7/site-packages/Sphinx-1.4.6-py2.7.egg/sphinx/search/da.pyc", 
    "lib/python2.7/site-packages/Sphinx-1.4.6-py2.7.egg/sphinx/search/de.py", 
    "lib/python2.7/site-packages/Sphinx-1.4.6-py2.7.egg/sphinx/search/de.pyc", 
    "lib/python2.7/site-packages/Sphinx-1.4.6-py2.7.egg/sphinx/search/en.py", 
    "lib/python2.7/site-packages/Sphinx-1.4.6-py2.7.egg/sphinx/search/en.pyc", 
    "lib/python2.7/site-packages/Sphinx-1.4.6-py2.7.egg/sphinx/search/es.py", 
    "lib/python2.7/site-packages/Sphinx-1.4.6-py2.7.egg/sphinx/search/es.pyc", 
    "lib/python2.7/site-packages/Sphinx-1.4.6-py2.7.egg/sphinx/search/fi.py", 
    "lib/python2.7/site-packages/Sphinx-1.4.6-py2.7.egg/sphinx/search/fi.pyc", 
    "lib/python2.7/site-packages/Sphinx-1.4.6-py2.7.egg/sphinx/search/fr.py", 
    "lib/python2.7/site-packages/Sphinx-1.4.6-py2.7.egg/sphinx/search/fr.pyc", 
    "lib/python2.7/site-packages/Sphinx-1.4.6-py2.7.egg/sphinx/search/hu.py", 
    "lib/python2.7/site-packages/Sphinx-1.4.6-py2.7.egg/sphinx/search/hu.pyc", 
    "lib/python2.7/site-packages/Sphinx-1.4.6-py2.7.egg/sphinx/search/it.py", 
    "lib/python2.7/site-packages/Sphinx-1.4.6-py2.7.egg/sphinx/search/it.pyc", 
    "lib/python2.7/site-packages/Sphinx-1.4.6-py2.7.egg/sphinx/search/ja.py", 
    "lib/python2.7/site-packages/Sphinx-1.4.6-py2.7.egg/sphinx/search/ja.pyc", 
    "lib/python2.7/site-packages/Sphinx-1.4.6-py2.7.egg/sphinx/search/nl.py", 
    "lib/python2.7/site-packages/Sphinx-1.4.6-py2.7.egg/sphinx/search/nl.pyc", 
    "lib/python2.7/site-packages/Sphinx-1.4.6-py2.7.egg/sphinx/search/no.py", 
    "lib/python2.7/site-packages/Sphinx-1.4.6-py2.7.egg/sphinx/search/no.pyc", 
    "lib/python2.7/site-packages/Sphinx-1.4.6-py2.7.egg/sphinx/search/non-minified-js/danish-stemmer.js", 
    "lib/python2.7/site-packages/Sphinx-1.4.6-py2.7.egg/sphinx/search/non-minified-js/dutch-stemmer.js", 
    "lib/python2.7/site-packages/Sphinx-1.4.6-py2.7.egg/sphinx/search/non-minified-js/finnish-stemmer.js", 
    "lib/python2.7/site-packages/Sphinx-1.4.6-py2.7.egg/sphinx/search/non-minified-js/french-stemmer.js", 
    "lib/python2.7/site-packages/Sphinx-1.4.6-py2.7.egg/sphinx/search/non-minified-js/german-stemmer.js", 
    "lib/python2.7/site-packages/Sphinx-1.4.6-py2.7.egg/sphinx/search/non-minified-js/hungarian-stemmer.js", 
    "lib/python2.7/site-packages/Sphinx-1.4.6-py2.7.egg/sphinx/search/non-minified-js/italian-stemmer.js", 
    "lib/python2.7/site-packages/Sphinx-1.4.6-py2.7.egg/sphinx/search/non-minified-js/norwegian-stemmer.js", 
    "lib/python2.7/site-packages/Sphinx-1.4.6-py2.7.egg/sphinx/search/non-minified-js/porter-stemmer.js", 
    "lib/python2.7/site-packages/Sphinx-1.4.6-py2.7.egg/sphinx/search/non-minified-js/portuguese-stemmer.js", 
    "lib/python2.7/site-packages/Sphinx-1.4.6-py2.7.egg/sphinx/search/non-minified-js/romanian-stemmer.js", 
    "lib/python2.7/site-packages/Sphinx-1.4.6-py2.7.egg/sphinx/search/non-minified-js/russian-stemmer.js", 
    "lib/python2.7/site-packages/Sphinx-1.4.6-py2.7.egg/sphinx/search/non-minified-js/spanish-stemmer.js", 
    "lib/python2.7/site-packages/Sphinx-1.4.6-py2.7.egg/sphinx/search/non-minified-js/swedish-stemmer.js", 
    "lib/python2.7/site-packages/Sphinx-1.4.6-py2.7.egg/sphinx/search/non-minified-js/turkish-stemmer.js", 
    "lib/python2.7/site-packages/Sphinx-1.4.6-py2.7.egg/sphinx/search/pt.py", 
    "lib/python2.7/site-packages/Sphinx-1.4.6-py2.7.egg/sphinx/search/pt.pyc", 
    "lib/python2.7/site-packages/Sphinx-1.4.6-py2.7.egg/sphinx/search/ro.py", 
    "lib/python2.7/site-packages/Sphinx-1.4.6-py2.7.egg/sphinx/search/ro.pyc", 
    "lib/python2.7/site-packages/Sphinx-1.4.6-py2.7.egg/sphinx/search/ru.py", 
    "lib/python2.7/site-packages/Sphinx-1.4.6-py2.7.egg/sphinx/search/ru.pyc", 
    "lib/python2.7/site-packages/Sphinx-1.4.6-py2.7.egg/sphinx/search/sv.py", 
    "lib/python2.7/site-packages/Sphinx-1.4.6-py2.7.egg/sphinx/search/sv.pyc", 
    "lib/python2.7/site-packages/Sphinx-1.4.6-py2.7.egg/sphinx/search/tr.py", 
    "lib/python2.7/site-packages/Sphinx-1.4.6-py2.7.egg/sphinx/search/tr.pyc", 
    "lib/python2.7/site-packages/Sphinx-1.4.6-py2.7.egg/sphinx/search/zh.py", 
    "lib/python2.7/site-packages/Sphinx-1.4.6-py2.7.egg/sphinx/search/zh.pyc", 
    "lib/python2.7/site-packages/Sphinx-1.4.6-py2.7.egg/sphinx/setup_command.py", 
    "lib/python2.7/site-packages/Sphinx-1.4.6-py2.7.egg/sphinx/setup_command.pyc", 
    "lib/python2.7/site-packages/Sphinx-1.4.6-py2.7.egg/sphinx/texinputs/Makefile", 
    "lib/python2.7/site-packages/Sphinx-1.4.6-py2.7.egg/sphinx/texinputs/fncychap.sty", 
    "lib/python2.7/site-packages/Sphinx-1.4.6-py2.7.egg/sphinx/texinputs/iftex.sty", 
    "lib/python2.7/site-packages/Sphinx-1.4.6-py2.7.egg/sphinx/texinputs/needspace.sty", 
    "lib/python2.7/site-packages/Sphinx-1.4.6-py2.7.egg/sphinx/texinputs/newfloat.sty", 
    "lib/python2.7/site-packages/Sphinx-1.4.6-py2.7.egg/sphinx/texinputs/python.ist", 
    "lib/python2.7/site-packages/Sphinx-1.4.6-py2.7.egg/sphinx/texinputs/sphinx.sty", 
    "lib/python2.7/site-packages/Sphinx-1.4.6-py2.7.egg/sphinx/texinputs/sphinxhowto.cls", 
    "lib/python2.7/site-packages/Sphinx-1.4.6-py2.7.egg/sphinx/texinputs/sphinxmanual.cls", 
    "lib/python2.7/site-packages/Sphinx-1.4.6-py2.7.egg/sphinx/texinputs/tabulary.sty", 
    "lib/python2.7/site-packages/Sphinx-1.4.6-py2.7.egg/sphinx/themes/agogo/layout.html", 
    "lib/python2.7/site-packages/Sphinx-1.4.6-py2.7.egg/sphinx/themes/agogo/static/agogo.css_t", 
    "lib/python2.7/site-packages/Sphinx-1.4.6-py2.7.egg/sphinx/themes/agogo/static/bgfooter.png", 
    "lib/python2.7/site-packages/Sphinx-1.4.6-py2.7.egg/sphinx/themes/agogo/static/bgtop.png", 
    "lib/python2.7/site-packages/Sphinx-1.4.6-py2.7.egg/sphinx/themes/agogo/theme.conf", 
    "lib/python2.7/site-packages/Sphinx-1.4.6-py2.7.egg/sphinx/themes/basic/changes/frameset.html", 
    "lib/python2.7/site-packages/Sphinx-1.4.6-py2.7.egg/sphinx/themes/basic/changes/rstsource.html", 
    "lib/python2.7/site-packages/Sphinx-1.4.6-py2.7.egg/sphinx/themes/basic/changes/versionchanges.html", 
    "lib/python2.7/site-packages/Sphinx-1.4.6-py2.7.egg/sphinx/themes/basic/defindex.html", 
    "lib/python2.7/site-packages/Sphinx-1.4.6-py2.7.egg/sphinx/themes/basic/domainindex.html", 
    "lib/python2.7/site-packages/Sphinx-1.4.6-py2.7.egg/sphinx/themes/basic/genindex-single.html", 
    "lib/python2.7/site-packages/Sphinx-1.4.6-py2.7.egg/sphinx/themes/basic/genindex-split.html", 
    "lib/python2.7/site-packages/Sphinx-1.4.6-py2.7.egg/sphinx/themes/basic/genindex.html", 
    "lib/python2.7/site-packages/Sphinx-1.4.6-py2.7.egg/sphinx/themes/basic/globaltoc.html", 
    "lib/python2.7/site-packages/Sphinx-1.4.6-py2.7.egg/sphinx/themes/basic/layout.html", 
    "lib/python2.7/site-packages/Sphinx-1.4.6-py2.7.egg/sphinx/themes/basic/localtoc.html", 
    "lib/python2.7/site-packages/Sphinx-1.4.6-py2.7.egg/sphinx/themes/basic/opensearch.xml", 
    "lib/python2.7/site-packages/Sphinx-1.4.6-py2.7.egg/sphinx/themes/basic/page.html", 
    "lib/python2.7/site-packages/Sphinx-1.4.6-py2.7.egg/sphinx/themes/basic/relations.html", 
    "lib/python2.7/site-packages/Sphinx-1.4.6-py2.7.egg/sphinx/themes/basic/search.html", 
    "lib/python2.7/site-packages/Sphinx-1.4.6-py2.7.egg/sphinx/themes/basic/searchbox.html", 
    "lib/python2.7/site-packages/Sphinx-1.4.6-py2.7.egg/sphinx/themes/basic/searchresults.html", 
    "lib/python2.7/site-packages/Sphinx-1.4.6-py2.7.egg/sphinx/themes/basic/sourcelink.html", 
    "lib/python2.7/site-packages/Sphinx-1.4.6-py2.7.egg/sphinx/themes/basic/static/ajax-loader.gif", 
    "lib/python2.7/site-packages/Sphinx-1.4.6-py2.7.egg/sphinx/themes/basic/static/basic.css_t", 
    "lib/python2.7/site-packages/Sphinx-1.4.6-py2.7.egg/sphinx/themes/basic/static/comment-bright.png", 
    "lib/python2.7/site-packages/Sphinx-1.4.6-py2.7.egg/sphinx/themes/basic/static/comment-close.png", 
    "lib/python2.7/site-packages/Sphinx-1.4.6-py2.7.egg/sphinx/themes/basic/static/comment.png", 
    "lib/python2.7/site-packages/Sphinx-1.4.6-py2.7.egg/sphinx/themes/basic/static/doctools.js_t", 
    "lib/python2.7/site-packages/Sphinx-1.4.6-py2.7.egg/sphinx/themes/basic/static/down-pressed.png", 
    "lib/python2.7/site-packages/Sphinx-1.4.6-py2.7.egg/sphinx/themes/basic/static/down.png", 
    "lib/python2.7/site-packages/Sphinx-1.4.6-py2.7.egg/sphinx/themes/basic/static/file.png", 
    "lib/python2.7/site-packages/Sphinx-1.4.6-py2.7.egg/sphinx/themes/basic/static/jquery-1.11.1.js", 
    "lib/python2.7/site-packages/Sphinx-1.4.6-py2.7.egg/sphinx/themes/basic/static/jquery.js", 
    "lib/python2.7/site-packages/Sphinx-1.4.6-py2.7.egg/sphinx/themes/basic/static/minus.png", 
    "lib/python2.7/site-packages/Sphinx-1.4.6-py2.7.egg/sphinx/themes/basic/static/plus.png", 
    "lib/python2.7/site-packages/Sphinx-1.4.6-py2.7.egg/sphinx/themes/basic/static/searchtools.js_t", 
    "lib/python2.7/site-packages/Sphinx-1.4.6-py2.7.egg/sphinx/themes/basic/static/underscore-1.3.1.js", 
    "lib/python2.7/site-packages/Sphinx-1.4.6-py2.7.egg/sphinx/themes/basic/static/underscore.js", 
    "lib/python2.7/site-packages/Sphinx-1.4.6-py2.7.egg/sphinx/themes/basic/static/up-pressed.png", 
    "lib/python2.7/site-packages/Sphinx-1.4.6-py2.7.egg/sphinx/themes/basic/static/up.png", 
    "lib/python2.7/site-packages/Sphinx-1.4.6-py2.7.egg/sphinx/themes/basic/static/websupport.js", 
    "lib/python2.7/site-packages/Sphinx-1.4.6-py2.7.egg/sphinx/themes/basic/theme.conf", 
    "lib/python2.7/site-packages/Sphinx-1.4.6-py2.7.egg/sphinx/themes/bizstyle/layout.html", 
    "lib/python2.7/site-packages/Sphinx-1.4.6-py2.7.egg/sphinx/themes/bizstyle/static/background_b01.png", 
    "lib/python2.7/site-packages/Sphinx-1.4.6-py2.7.egg/sphinx/themes/bizstyle/static/bizstyle.css_t", 
    "lib/python2.7/site-packages/Sphinx-1.4.6-py2.7.egg/sphinx/themes/bizstyle/static/bizstyle.js_t", 
    "lib/python2.7/site-packages/Sphinx-1.4.6-py2.7.egg/sphinx/themes/bizstyle/static/css3-mediaqueries.js", 
    "lib/python2.7/site-packages/Sphinx-1.4.6-py2.7.egg/sphinx/themes/bizstyle/static/css3-mediaqueries_src.js", 
    "lib/python2.7/site-packages/Sphinx-1.4.6-py2.7.egg/sphinx/themes/bizstyle/theme.conf", 
    "lib/python2.7/site-packages/Sphinx-1.4.6-py2.7.egg/sphinx/themes/classic/layout.html", 
    "lib/python2.7/site-packages/Sphinx-1.4.6-py2.7.egg/sphinx/themes/classic/static/classic.css_t", 
    "lib/python2.7/site-packages/Sphinx-1.4.6-py2.7.egg/sphinx/themes/classic/static/sidebar.js_t", 
    "lib/python2.7/site-packages/Sphinx-1.4.6-py2.7.egg/sphinx/themes/classic/theme.conf", 
    "lib/python2.7/site-packages/Sphinx-1.4.6-py2.7.egg/sphinx/themes/default/static/default.css", 
    "lib/python2.7/site-packages/Sphinx-1.4.6-py2.7.egg/sphinx/themes/default/theme.conf", 
    "lib/python2.7/site-packages/Sphinx-1.4.6-py2.7.egg/sphinx/themes/epub/epub-cover.html", 
    "lib/python2.7/site-packages/Sphinx-1.4.6-py2.7.egg/sphinx/themes/epub/layout.html", 
    "lib/python2.7/site-packages/Sphinx-1.4.6-py2.7.egg/sphinx/themes/epub/static/epub.css", 
    "lib/python2.7/site-packages/Sphinx-1.4.6-py2.7.egg/sphinx/themes/epub/theme.conf", 
    "lib/python2.7/site-packages/Sphinx-1.4.6-py2.7.egg/sphinx/themes/haiku/layout.html", 
    "lib/python2.7/site-packages/Sphinx-1.4.6-py2.7.egg/sphinx/themes/haiku/static/alert_info_32.png", 
    "lib/python2.7/site-packages/Sphinx-1.4.6-py2.7.egg/sphinx/themes/haiku/static/alert_warning_32.png", 
    "lib/python2.7/site-packages/Sphinx-1.4.6-py2.7.egg/sphinx/themes/haiku/static/bg-page.png", 
    "lib/python2.7/site-packages/Sphinx-1.4.6-py2.7.egg/sphinx/themes/haiku/static/bullet_orange.png", 
    "lib/python2.7/site-packages/Sphinx-1.4.6-py2.7.egg/sphinx/themes/haiku/static/haiku.css_t", 
    "lib/python2.7/site-packages/Sphinx-1.4.6-py2.7.egg/sphinx/themes/haiku/theme.conf", 
    "lib/python2.7/site-packages/Sphinx-1.4.6-py2.7.egg/sphinx/themes/nature/static/nature.css_t", 
    "lib/python2.7/site-packages/Sphinx-1.4.6-py2.7.egg/sphinx/themes/nature/theme.conf", 
    "lib/python2.7/site-packages/Sphinx-1.4.6-py2.7.egg/sphinx/themes/pyramid/layout.html", 
    "lib/python2.7/site-packages/Sphinx-1.4.6-py2.7.egg/sphinx/themes/pyramid/static/dialog-note.png", 
    "lib/python2.7/site-packages/Sphinx-1.4.6-py2.7.egg/sphinx/themes/pyramid/static/dialog-seealso.png", 
    "lib/python2.7/site-packages/Sphinx-1.4.6-py2.7.egg/sphinx/themes/pyramid/static/dialog-todo.png", 
    "lib/python2.7/site-packages/Sphinx-1.4.6-py2.7.egg/sphinx/themes/pyramid/static/dialog-topic.png", 
    "lib/python2.7/site-packages/Sphinx-1.4.6-py2.7.egg/sphinx/themes/pyramid/static/dialog-warning.png", 
    "lib/python2.7/site-packages/Sphinx-1.4.6-py2.7.egg/sphinx/themes/pyramid/static/epub.css", 
    "lib/python2.7/site-packages/Sphinx-1.4.6-py2.7.egg/sphinx/themes/pyramid/static/footerbg.png", 
    "lib/python2.7/site-packages/Sphinx-1.4.6-py2.7.egg/sphinx/themes/pyramid/static/headerbg.png", 
    "lib/python2.7/site-packages/Sphinx-1.4.6-py2.7.egg/sphinx/themes/pyramid/static/ie6.css", 
    "lib/python2.7/site-packages/Sphinx-1.4.6-py2.7.egg/sphinx/themes/pyramid/static/middlebg.png", 
    "lib/python2.7/site-packages/Sphinx-1.4.6-py2.7.egg/sphinx/themes/pyramid/static/pyramid.css_t", 
    "lib/python2.7/site-packages/Sphinx-1.4.6-py2.7.egg/sphinx/themes/pyramid/static/transparent.gif", 
    "lib/python2.7/site-packages/Sphinx-1.4.6-py2.7.egg/sphinx/themes/pyramid/theme.conf", 
    "lib/python2.7/site-packages/Sphinx-1.4.6-py2.7.egg/sphinx/themes/scrolls/artwork/logo.svg", 
    "lib/python2.7/site-packages/Sphinx-1.4.6-py2.7.egg/sphinx/themes/scrolls/layout.html", 
    "lib/python2.7/site-packages/Sphinx-1.4.6-py2.7.egg/sphinx/themes/scrolls/static/darkmetal.png", 
    "lib/python2.7/site-packages/Sphinx-1.4.6-py2.7.egg/sphinx/themes/scrolls/static/headerbg.png", 
    "lib/python2.7/site-packages/Sphinx-1.4.6-py2.7.egg/sphinx/themes/scrolls/static/logo.png", 
    "lib/python2.7/site-packages/Sphinx-1.4.6-py2.7.egg/sphinx/themes/scrolls/static/metal.png", 
    "lib/python2.7/site-packages/Sphinx-1.4.6-py2.7.egg/sphinx/themes/scrolls/static/navigation.png", 
    "lib/python2.7/site-packages/Sphinx-1.4.6-py2.7.egg/sphinx/themes/scrolls/static/print.css", 
    "lib/python2.7/site-packages/Sphinx-1.4.6-py2.7.egg/sphinx/themes/scrolls/static/scrolls.css_t", 
    "lib/python2.7/site-packages/Sphinx-1.4.6-py2.7.egg/sphinx/themes/scrolls/static/theme_extras.js", 
    "lib/python2.7/site-packages/Sphinx-1.4.6-py2.7.egg/sphinx/themes/scrolls/static/watermark.png", 
    "lib/python2.7/site-packages/Sphinx-1.4.6-py2.7.egg/sphinx/themes/scrolls/static/watermark_blur.png", 
    "lib/python2.7/site-packages/Sphinx-1.4.6-py2.7.egg/sphinx/themes/scrolls/theme.conf", 
    "lib/python2.7/site-packages/Sphinx-1.4.6-py2.7.egg/sphinx/themes/sphinxdoc/layout.html", 
    "lib/python2.7/site-packages/Sphinx-1.4.6-py2.7.egg/sphinx/themes/sphinxdoc/static/contents.png", 
    "lib/python2.7/site-packages/Sphinx-1.4.6-py2.7.egg/sphinx/themes/sphinxdoc/static/navigation.png", 
    "lib/python2.7/site-packages/Sphinx-1.4.6-py2.7.egg/sphinx/themes/sphinxdoc/static/sphinxdoc.css_t", 
    "lib/python2.7/site-packages/Sphinx-1.4.6-py2.7.egg/sphinx/themes/sphinxdoc/theme.conf", 
    "lib/python2.7/site-packages/Sphinx-1.4.6-py2.7.egg/sphinx/themes/traditional/static/traditional.css_t", 
    "lib/python2.7/site-packages/Sphinx-1.4.6-py2.7.egg/sphinx/themes/traditional/theme.conf", 
    "lib/python2.7/site-packages/Sphinx-1.4.6-py2.7.egg/sphinx/theming.py", 
    "lib/python2.7/site-packages/Sphinx-1.4.6-py2.7.egg/sphinx/theming.pyc", 
    "lib/python2.7/site-packages/Sphinx-1.4.6-py2.7.egg/sphinx/transforms.py", 
    "lib/python2.7/site-packages/Sphinx-1.4.6-py2.7.egg/sphinx/transforms.pyc", 
    "lib/python2.7/site-packages/Sphinx-1.4.6-py2.7.egg/sphinx/util/__init__.py", 
    "lib/python2.7/site-packages/Sphinx-1.4.6-py2.7.egg/sphinx/util/__init__.pyc", 
    "lib/python2.7/site-packages/Sphinx-1.4.6-py2.7.egg/sphinx/util/compat.py", 
    "lib/python2.7/site-packages/Sphinx-1.4.6-py2.7.egg/sphinx/util/compat.pyc", 
    "lib/python2.7/site-packages/Sphinx-1.4.6-py2.7.egg/sphinx/util/console.py", 
    "lib/python2.7/site-packages/Sphinx-1.4.6-py2.7.egg/sphinx/util/console.pyc", 
    "lib/python2.7/site-packages/Sphinx-1.4.6-py2.7.egg/sphinx/util/docfields.py", 
    "lib/python2.7/site-packages/Sphinx-1.4.6-py2.7.egg/sphinx/util/docfields.pyc", 
    "lib/python2.7/site-packages/Sphinx-1.4.6-py2.7.egg/sphinx/util/docstrings.py", 
    "lib/python2.7/site-packages/Sphinx-1.4.6-py2.7.egg/sphinx/util/docstrings.pyc", 
    "lib/python2.7/site-packages/Sphinx-1.4.6-py2.7.egg/sphinx/util/i18n.py", 
    "lib/python2.7/site-packages/Sphinx-1.4.6-py2.7.egg/sphinx/util/i18n.pyc", 
    "lib/python2.7/site-packages/Sphinx-1.4.6-py2.7.egg/sphinx/util/images.py", 
    "lib/python2.7/site-packages/Sphinx-1.4.6-py2.7.egg/sphinx/util/images.pyc", 
    "lib/python2.7/site-packages/Sphinx-1.4.6-py2.7.egg/sphinx/util/inspect.py", 
    "lib/python2.7/site-packages/Sphinx-1.4.6-py2.7.egg/sphinx/util/inspect.pyc", 
    "lib/python2.7/site-packages/Sphinx-1.4.6-py2.7.egg/sphinx/util/jsdump.py", 
    "lib/python2.7/site-packages/Sphinx-1.4.6-py2.7.egg/sphinx/util/jsdump.pyc", 
    "lib/python2.7/site-packages/Sphinx-1.4.6-py2.7.egg/sphinx/util/jsonimpl.py", 
    "lib/python2.7/site-packages/Sphinx-1.4.6-py2.7.egg/sphinx/util/jsonimpl.pyc", 
    "lib/python2.7/site-packages/Sphinx-1.4.6-py2.7.egg/sphinx/util/logging.py", 
    "lib/python2.7/site-packages/Sphinx-1.4.6-py2.7.egg/sphinx/util/logging.pyc", 
    "lib/python2.7/site-packages/Sphinx-1.4.6-py2.7.egg/sphinx/util/matching.py", 
    "lib/python2.7/site-packages/Sphinx-1.4.6-py2.7.egg/sphinx/util/matching.pyc", 
    "lib/python2.7/site-packages/Sphinx-1.4.6-py2.7.egg/sphinx/util/nodes.py", 
    "lib/python2.7/site-packages/Sphinx-1.4.6-py2.7.egg/sphinx/util/nodes.pyc", 
    "lib/python2.7/site-packages/Sphinx-1.4.6-py2.7.egg/sphinx/util/osutil.py", 
    "lib/python2.7/site-packages/Sphinx-1.4.6-py2.7.egg/sphinx/util/osutil.pyc", 
    "lib/python2.7/site-packages/Sphinx-1.4.6-py2.7.egg/sphinx/util/parallel.py", 
    "lib/python2.7/site-packages/Sphinx-1.4.6-py2.7.egg/sphinx/util/parallel.pyc", 
    "lib/python2.7/site-packages/Sphinx-1.4.6-py2.7.egg/sphinx/util/png.py", 
    "lib/python2.7/site-packages/Sphinx-1.4.6-py2.7.egg/sphinx/util/png.pyc", 
    "lib/python2.7/site-packages/Sphinx-1.4.6-py2.7.egg/sphinx/util/pycompat.py", 
    "lib/python2.7/site-packages/Sphinx-1.4.6-py2.7.egg/sphinx/util/pycompat.pyc", 
    "lib/python2.7/site-packages/Sphinx-1.4.6-py2.7.egg/sphinx/util/smartypants.py", 
    "lib/python2.7/site-packages/Sphinx-1.4.6-py2.7.egg/sphinx/util/smartypants.pyc", 
    "lib/python2.7/site-packages/Sphinx-1.4.6-py2.7.egg/sphinx/util/stemmer.py", 
    "lib/python2.7/site-packages/Sphinx-1.4.6-py2.7.egg/sphinx/util/stemmer.pyc", 
    "lib/python2.7/site-packages/Sphinx-1.4.6-py2.7.egg/sphinx/util/tags.py", 
    "lib/python2.7/site-packages/Sphinx-1.4.6-py2.7.egg/sphinx/util/tags.pyc", 
    "lib/python2.7/site-packages/Sphinx-1.4.6-py2.7.egg/sphinx/util/texescape.py", 
    "lib/python2.7/site-packages/Sphinx-1.4.6-py2.7.egg/sphinx/util/texescape.pyc", 
    "lib/python2.7/site-packages/Sphinx-1.4.6-py2.7.egg/sphinx/util/websupport.py", 
    "lib/python2.7/site-packages/Sphinx-1.4.6-py2.7.egg/sphinx/util/websupport.pyc", 
    "lib/python2.7/site-packages/Sphinx-1.4.6-py2.7.egg/sphinx/versioning.py", 
    "lib/python2.7/site-packages/Sphinx-1.4.6-py2.7.egg/sphinx/versioning.pyc", 
    "lib/python2.7/site-packages/Sphinx-1.4.6-py2.7.egg/sphinx/websupport/__init__.py", 
    "lib/python2.7/site-packages/Sphinx-1.4.6-py2.7.egg/sphinx/websupport/__init__.pyc", 
    "lib/python2.7/site-packages/Sphinx-1.4.6-py2.7.egg/sphinx/websupport/errors.py", 
    "lib/python2.7/site-packages/Sphinx-1.4.6-py2.7.egg/sphinx/websupport/errors.pyc", 
    "lib/python2.7/site-packages/Sphinx-1.4.6-py2.7.egg/sphinx/websupport/search/__init__.py", 
    "lib/python2.7/site-packages/Sphinx-1.4.6-py2.7.egg/sphinx/websupport/search/__init__.pyc", 
    "lib/python2.7/site-packages/Sphinx-1.4.6-py2.7.egg/sphinx/websupport/search/nullsearch.py", 
    "lib/python2.7/site-packages/Sphinx-1.4.6-py2.7.egg/sphinx/websupport/search/nullsearch.pyc", 
    "lib/python2.7/site-packages/Sphinx-1.4.6-py2.7.egg/sphinx/websupport/search/whooshsearch.py", 
    "lib/python2.7/site-packages/Sphinx-1.4.6-py2.7.egg/sphinx/websupport/search/whooshsearch.pyc", 
    "lib/python2.7/site-packages/Sphinx-1.4.6-py2.7.egg/sphinx/websupport/search/xapiansearch.py", 
    "lib/python2.7/site-packages/Sphinx-1.4.6-py2.7.egg/sphinx/websupport/search/xapiansearch.pyc", 
    "lib/python2.7/site-packages/Sphinx-1.4.6-py2.7.egg/sphinx/websupport/storage/__init__.py", 
    "lib/python2.7/site-packages/Sphinx-1.4.6-py2.7.egg/sphinx/websupport/storage/__init__.pyc", 
    "lib/python2.7/site-packages/Sphinx-1.4.6-py2.7.egg/sphinx/websupport/storage/differ.py", 
    "lib/python2.7/site-packages/Sphinx-1.4.6-py2.7.egg/sphinx/websupport/storage/differ.pyc", 
    "lib/python2.7/site-packages/Sphinx-1.4.6-py2.7.egg/sphinx/websupport/storage/sqlalchemy_db.py", 
    "lib/python2.7/site-packages/Sphinx-1.4.6-py2.7.egg/sphinx/websupport/storage/sqlalchemy_db.pyc", 
    "lib/python2.7/site-packages/Sphinx-1.4.6-py2.7.egg/sphinx/websupport/storage/sqlalchemystorage.py", 
    "lib/python2.7/site-packages/Sphinx-1.4.6-py2.7.egg/sphinx/websupport/storage/sqlalchemystorage.pyc", 
    "lib/python2.7/site-packages/Sphinx-1.4.6-py2.7.egg/sphinx/writers/__init__.py", 
    "lib/python2.7/site-packages/Sphinx-1.4.6-py2.7.egg/sphinx/writers/__init__.pyc", 
    "lib/python2.7/site-packages/Sphinx-1.4.6-py2.7.egg/sphinx/writers/html.py", 
    "lib/python2.7/site-packages/Sphinx-1.4.6-py2.7.egg/sphinx/writers/html.pyc", 
    "lib/python2.7/site-packages/Sphinx-1.4.6-py2.7.egg/sphinx/writers/latex.py", 
    "lib/python2.7/site-packages/Sphinx-1.4.6-py2.7.egg/sphinx/writers/latex.pyc", 
    "lib/python2.7/site-packages/Sphinx-1.4.6-py2.7.egg/sphinx/writers/manpage.py", 
    "lib/python2.7/site-packages/Sphinx-1.4.6-py2.7.egg/sphinx/writers/manpage.pyc", 
    "lib/python2.7/site-packages/Sphinx-1.4.6-py2.7.egg/sphinx/writers/texinfo.py", 
    "lib/python2.7/site-packages/Sphinx-1.4.6-py2.7.egg/sphinx/writers/texinfo.pyc", 
    "lib/python2.7/site-packages/Sphinx-1.4.6-py2.7.egg/sphinx/writers/text.py", 
    "lib/python2.7/site-packages/Sphinx-1.4.6-py2.7.egg/sphinx/writers/text.pyc", 
    "lib/python2.7/site-packages/Sphinx-1.4.6-py2.7.egg/sphinx/writers/websupport.py", 
    "lib/python2.7/site-packages/Sphinx-1.4.6-py2.7.egg/sphinx/writers/websupport.pyc", 
    "lib/python2.7/site-packages/Sphinx-1.4.6-py2.7.egg/sphinx/writers/xml.py", 
    "lib/python2.7/site-packages/Sphinx-1.4.6-py2.7.egg/sphinx/writers/xml.pyc", 
    "lib/python2.7/site-packages/Sphinx.pth"
  ], 
  "fn": "sphinx-1.4.6-py27_0.tar.bz2", 
  "license": "BSD", 
  "link": {
    "source": "/home/fdavilakurban/.conda/envs/.pkgs/sphinx-1.4.6-py27_0", 
    "type": "hard-link"
  }, 
  "md5": "429c19ecff448a36aa1b097eb204deef", 
  "name": "sphinx", 
  "platform": "linux", 
  "priority": 0, 
  "requires": [], 
  "schannel": "defaults", 
  "size": 1315310, 
  "subdir": "linux-64", 
  "url": "https://repo.continuum.io/pkgs/free/linux-64/sphinx-1.4.6-py27_0.tar.bz2", 
  "version": "1.4.6"
}