{
  "arch": "x86_64", 
  "build": "py27_0", 
  "build_number": 0, 
  "channel": "https://repo.continuum.io/pkgs/free/linux-64/", 
  "date": "2016-06-03", 
  "depends": [
    "python 2.7*"
  ], 
  "files": [
    "lib/python2.7/site-packages/toolz-0.8.0-py2.7.egg-info/PKG-INFO", 
    "lib/python2.7/site-packages/toolz-0.8.0-py2.7.egg-info/SOURCES.txt", 
    "lib/python2.7/site-packages/toolz-0.8.0-py2.7.egg-info/dependency_links.txt", 
    "lib/python2.7/site-packages/toolz-0.8.0-py2.7.egg-info/not-zip-safe", 
    "lib/python2.7/site-packages/toolz-0.8.0-py2.7.egg-info/top_level.txt", 
    "lib/python2.7/site-packages/toolz/__init__.py", 
    "lib/python2.7/site-packages/toolz/__init__.pyc", 
    "lib/python2.7/site-packages/toolz/_signatures.py", 
    "lib/python2.7/site-packages/toolz/_signatures.pyc", 
    "lib/python2.7/site-packages/toolz/compatibility.py", 
    "lib/python2.7/site-packages/toolz/compatibility.pyc", 
    "lib/python2.7/site-packages/toolz/curried/__init__.py", 
    "lib/python2.7/site-packages/toolz/curried/__init__.pyc", 
    "lib/python2.7/site-packages/toolz/curried/exceptions.py", 
    "lib/python2.7/site-packages/toolz/curried/exceptions.pyc", 
    "lib/python2.7/site-packages/toolz/curried/operator.py", 
    "lib/python2.7/site-packages/toolz/curried/operator.pyc", 
    "lib/python2.7/site-packages/toolz/dicttoolz.py", 
    "lib/python2.7/site-packages/toolz/dicttoolz.pyc", 
    "lib/python2.7/site-packages/toolz/functoolz.py", 
    "lib/python2.7/site-packages/toolz/functoolz.pyc", 
    "lib/python2.7/site-packages/toolz/itertoolz.py", 
    "lib/python2.7/site-packages/toolz/itertoolz.pyc", 
    "lib/python2.7/site-packages/toolz/recipes.py", 
    "lib/python2.7/site-packages/toolz/recipes.pyc", 
    "lib/python2.7/site-packages/toolz/sandbox/__init__.py", 
    "lib/python2.7/site-packages/toolz/sandbox/__init__.pyc", 
    "lib/python2.7/site-packages/toolz/sandbox/core.py", 
    "lib/python2.7/site-packages/toolz/sandbox/core.pyc", 
    "lib/python2.7/site-packages/toolz/sandbox/parallel.py", 
    "lib/python2.7/site-packages/toolz/sandbox/parallel.pyc", 
    "lib/python2.7/site-packages/toolz/tests/test_compatibility.py", 
    "lib/python2.7/site-packages/toolz/tests/test_compatibility.pyc", 
    "lib/python2.7/site-packages/toolz/tests/test_curried.py", 
    "lib/python2.7/site-packages/toolz/tests/test_curried.pyc", 
    "lib/python2.7/site-packages/toolz/tests/test_dicttoolz.py", 
    "lib/python2.7/site-packages/toolz/tests/test_dicttoolz.pyc", 
    "lib/python2.7/site-packages/toolz/tests/test_functoolz.py", 
    "lib/python2.7/site-packages/toolz/tests/test_functoolz.pyc", 
    "lib/python2.7/site-packages/toolz/tests/test_inspect_args.py", 
    "lib/python2.7/site-packages/toolz/tests/test_inspect_args.pyc", 
    "lib/python2.7/site-packages/toolz/tests/test_itertoolz.py", 
    "lib/python2.7/site-packages/toolz/tests/test_itertoolz.pyc", 
    "lib/python2.7/site-packages/toolz/tests/test_recipes.py", 
    "lib/python2.7/site-packages/toolz/tests/test_recipes.pyc", 
    "lib/python2.7/site-packages/toolz/tests/test_serialization.py", 
    "lib/python2.7/site-packages/toolz/tests/test_serialization.pyc", 
    "lib/python2.7/site-packages/toolz/tests/test_signatures.py", 
    "lib/python2.7/site-packages/toolz/tests/test_signatures.pyc", 
    "lib/python2.7/site-packages/toolz/tests/test_utils.py", 
    "lib/python2.7/site-packages/toolz/tests/test_utils.pyc", 
    "lib/python2.7/site-packages/toolz/utils.py", 
    "lib/python2.7/site-packages/toolz/utils.pyc"
  ], 
  "license": "BSD", 
  "link": {
    "source": "/home/fdavilakurban/.conda/envs/.pkgs/toolz-0.8.0-py27_0", 
    "type": "hard-link"
  }, 
  "md5": "ff81cf0c0ad3d820251f579a619d6f7e", 
  "name": "toolz", 
  "platform": "linux", 
  "requires": [], 
  "size": 79587, 
  "subdir": "linux-64", 
  "url": "https://repo.continuum.io/pkgs/free/linux-64/toolz-0.8.0-py27_0.tar.bz2", 
  "version": "0.8.0"
}