{
  "arch": "x86_64", 
  "build": "py27_0", 
  "build_number": 0, 
  "channel": "https://repo.continuum.io/pkgs/free/linux-64/", 
  "date": "2016-09-15", 
  "depends": [
    "python 2.7*"
  ], 
  "files": [
    "bin/vba_extract.py", 
    "lib/python2.7/site-packages/XlsxWriter-0.9.3-py2.7.egg-info", 
    "lib/python2.7/site-packages/xlsxwriter/__init__.py", 
    "lib/python2.7/site-packages/xlsxwriter/__init__.pyc", 
    "lib/python2.7/site-packages/xlsxwriter/app.py", 
    "lib/python2.7/site-packages/xlsxwriter/app.pyc", 
    "lib/python2.7/site-packages/xlsxwriter/chart.py", 
    "lib/python2.7/site-packages/xlsxwriter/chart.pyc", 
    "lib/python2.7/site-packages/xlsxwriter/chart_area.py", 
    "lib/python2.7/site-packages/xlsxwriter/chart_area.pyc", 
    "lib/python2.7/site-packages/xlsxwriter/chart_bar.py", 
    "lib/python2.7/site-packages/xlsxwriter/chart_bar.pyc", 
    "lib/python2.7/site-packages/xlsxwriter/chart_column.py", 
    "lib/python2.7/site-packages/xlsxwriter/chart_column.pyc", 
    "lib/python2.7/site-packages/xlsxwriter/chart_doughnut.py", 
    "lib/python2.7/site-packages/xlsxwriter/chart_doughnut.pyc", 
    "lib/python2.7/site-packages/xlsxwriter/chart_line.py", 
    "lib/python2.7/site-packages/xlsxwriter/chart_line.pyc", 
    "lib/python2.7/site-packages/xlsxwriter/chart_pie.py", 
    "lib/python2.7/site-packages/xlsxwriter/chart_pie.pyc", 
    "lib/python2.7/site-packages/xlsxwriter/chart_radar.py", 
    "lib/python2.7/site-packages/xlsxwriter/chart_radar.pyc", 
    "lib/python2.7/site-packages/xlsxwriter/chart_scatter.py", 
    "lib/python2.7/site-packages/xlsxwriter/chart_scatter.pyc", 
    "lib/python2.7/site-packages/xlsxwriter/chart_stock.py", 
    "lib/python2.7/site-packages/xlsxwriter/chart_stock.pyc", 
    "lib/python2.7/site-packages/xlsxwriter/chartsheet.py", 
    "lib/python2.7/site-packages/xlsxwriter/chartsheet.pyc", 
    "lib/python2.7/site-packages/xlsxwriter/comments.py", 
    "lib/python2.7/site-packages/xlsxwriter/comments.pyc", 
    "lib/python2.7/site-packages/xlsxwriter/compat_collections.py", 
    "lib/python2.7/site-packages/xlsxwriter/compat_collections.pyc", 
    "lib/python2.7/site-packages/xlsxwriter/compatibility.py", 
    "lib/python2.7/site-packages/xlsxwriter/compatibility.pyc", 
    "lib/python2.7/site-packages/xlsxwriter/contenttypes.py", 
    "lib/python2.7/site-packages/xlsxwriter/contenttypes.pyc", 
    "lib/python2.7/site-packages/xlsxwriter/core.py", 
    "lib/python2.7/site-packages/xlsxwriter/core.pyc", 
    "lib/python2.7/site-packages/xlsxwriter/custom.py", 
    "lib/python2.7/site-packages/xlsxwriter/custom.pyc", 
    "lib/python2.7/site-packages/xlsxwriter/drawing.py", 
    "lib/python2.7/site-packages/xlsxwriter/drawing.pyc", 
    "lib/python2.7/site-packages/xlsxwriter/format.py", 
    "lib/python2.7/site-packages/xlsxwriter/format.pyc", 
    "lib/python2.7/site-packages/xlsxwriter/packager.py", 
    "lib/python2.7/site-packages/xlsxwriter/packager.pyc", 
    "lib/python2.7/site-packages/xlsxwriter/relationships.py", 
    "lib/python2.7/site-packages/xlsxwriter/relationships.pyc", 
    "lib/python2.7/site-packages/xlsxwriter/shape.py", 
    "lib/python2.7/site-packages/xlsxwriter/shape.pyc", 
    "lib/python2.7/site-packages/xlsxwriter/sharedstrings.py", 
    "lib/python2.7/site-packages/xlsxwriter/sharedstrings.pyc", 
    "lib/python2.7/site-packages/xlsxwriter/styles.py", 
    "lib/python2.7/site-packages/xlsxwriter/styles.pyc", 
    "lib/python2.7/site-packages/xlsxwriter/table.py", 
    "lib/python2.7/site-packages/xlsxwriter/table.pyc", 
    "lib/python2.7/site-packages/xlsxwriter/theme.py", 
    "lib/python2.7/site-packages/xlsxwriter/theme.pyc", 
    "lib/python2.7/site-packages/xlsxwriter/utility.py", 
    "lib/python2.7/site-packages/xlsxwriter/utility.pyc", 
    "lib/python2.7/site-packages/xlsxwriter/vml.py", 
    "lib/python2.7/site-packages/xlsxwriter/vml.pyc", 
    "lib/python2.7/site-packages/xlsxwriter/workbook.py", 
    "lib/python2.7/site-packages/xlsxwriter/workbook.pyc", 
    "lib/python2.7/site-packages/xlsxwriter/worksheet.py", 
    "lib/python2.7/site-packages/xlsxwriter/worksheet.pyc", 
    "lib/python2.7/site-packages/xlsxwriter/xmlwriter.py", 
    "lib/python2.7/site-packages/xlsxwriter/xmlwriter.pyc"
  ], 
  "license": "BSD", 
  "link": {
    "source": "/home/fdavilakurban/.conda/envs/.pkgs/xlsxwriter-0.9.3-py27_0", 
    "type": "hard-link"
  }, 
  "md5": "eaed17272dde79cf2065c6b9c3de4c73", 
  "name": "xlsxwriter", 
  "platform": "linux", 
  "requires": [], 
  "size": 196614, 
  "subdir": "linux-64", 
  "url": "https://repo.continuum.io/pkgs/free/linux-64/xlsxwriter-0.9.3-py27_0.tar.bz2", 
  "version": "0.9.3"
}