{
  "arch": "x86_64", 
  "build": "0", 
  "build_number": 0, 
  "channel": "https://repo.continuum.io/pkgs/free/linux-64", 
  "date": "2016-05-25", 
  "depends": [
    "libsodium 1.0.*"
  ], 
  "files": [
    "bin/curve_keygen", 
    "include/zmq.h", 
    "include/zmq_utils.h", 
    "lib/libzmq.a", 
    "lib/libzmq.la", 
    "lib/libzmq.so", 
    "lib/libzmq.so.5", 
    "lib/libzmq.so.5.0.0", 
    "lib/pkgconfig/libzmq.pc"
  ], 
  "fn": "zeromq-4.1.4-0.tar.bz2", 
  "license": "LGPL", 
  "link": {
    "source": "/home/fdavilakurban/.conda/envs/.pkgs/zeromq-4.1.4-0", 
    "type": "hard-link"
  }, 
  "md5": "3ca5060fe4311d8d098d4e005f198c16", 
  "name": "zeromq", 
  "platform": "linux", 
  "priority": 0, 
  "requires": [], 
  "schannel": "defaults", 
  "size": 4277048, 
  "subdir": "linux-64", 
  "url": "https://repo.continuum.io/pkgs/free/linux-64/zeromq-4.1.4-0.tar.bz2", 
  "version": "4.1.4"
}