0.044563384065730696 27528.0
0.0 581895.0
0.011140846016432674 163755.0
0.011140846016432674 39073.0
0.08912676813146139 40445.0
0.011140846016432674 74263.0
0.03342253804929802 96082.0
0.07798592211502872 58295.0
0.022281692032865348 41095.0
0.044563384065730696 23024.0
0.011140846016432674 26175.0
0.03342253804929802 76096.0
0.0 581899.0
0.06684507609859604 16434.0
0.17825353626292278 79760.0
0.044563384065730696 392158.0
0.011140846016432674 7197.0
0.06684507609859604 531481.0
0.022281692032865348 532901.0
0.03342253804929802 531568.0
0.0 532892.0
0.03342253804929802 15643.0
0.044563384065730696 15618.0
0.022281692032865348 12937.0
0.13369015219719207 75866.0
0.011140846016432674 68243.0
0.0 537144.0
0.03342253804929802 540722.0
0.022281692032865348 537452.0
0.022281692032865348 62804.0
0.011140846016432674 93112.0
0.0 83281.0
0.06684507609859604 86106.0
0.08912676813146139 332707.0
0.0 335557.0
0.044563384065730696 346677.0
0.0 444529.0
0.011140846016432674 347736.0
0.0 159677.0
0.20053522829578813 120729.0
0.0 341333.0
0.03342253804929802 314660.0
0.022281692032865348 312121.0
0.0 358259.0
0.0 520232.0
0.022281692032865348 347716.0
0.0 154927.0
0.022281692032865348 390317.0
0.0 550168.0
0.0 252907.0
0.011140846016432674 158421.0
0.0 351809.0
0.011140846016432674 3026.0
0.022281692032865348 39425.0
0.06684507609859604 10264.0
0.16711269024649011 10033.0
0.022281692032865348 4656.0
0.011140846016432674 6596.0
0.022281692032865348 53203.0
0.044563384065730696 117239.0
0.03342253804929802 12013.0
0.044563384065730696 7435.0
0.03342253804929802 555540.0
0.022281692032865348 526956.0
0.011140846016432674 3532.0
0.011140846016432674 550120.0
0.14483099821362477 18241.0
0.044563384065730696 5184.0
0.011140846016432674 9912.0
0.0 2230.0
0.0 10814.0
0.0 31918.0
0.011140846016432674 543.0
0.15597184423005744 536730.0
0.044563384065730696 11235.0
0.11140846016432673 11216.0
0.011140846016432674 4085.0
0.044563384065730696 98191.0
0.14483099821362477 73164.0
0.0 2978.0
0.011140846016432674 537226.0
0.022281692032865348 520586.0
0.03342253804929802 85012.0
0.011140846016432674 4161.0
0.044563384065730696 3277.0
0.0 5039.0
0.0 89486.0
0.011140846016432674 3785.0
0.022281692032865348 89572.0
0.022281692032865348 27872.0
0.03342253804929802 14018.0
0.10026761414789406 7891.0
0.0 309945.0
0.0 87339.0
0.022281692032865348 321148.0
0.022281692032865348 75313.0
0.022281692032865348 270050.0
0.022281692032865348 266432.0
0.022281692032865348 91849.0
0.0 173408.0
0.011140846016432674 326953.0
0.0 388533.0
0.0 124202.0
0.0 391140.0
0.0 347152.0
0.0 335728.0
0.0 335730.0
0.07798592211502872 343663.0
0.022281692032865348 435468.0
0.0 177207.0
0.0 96150.0
0.07798592211502872 113125.0
0.011140846016432674 108884.0
0.0 568454.0
0.0 199257.0
0.011140846016432674 584161.0
0.0 63922.0
0.011140846016432674 65569.0
0.044563384065730696 67359.0
0.0 11635.0
0.11140846016432673 114989.0
0.011140846016432674 59873.0
0.022281692032865348 25618.0
0.0 156948.0
0.011140846016432674 535420.0
0.07798592211502872 97391.0
0.022281692032865348 41242.0
0.0 39478.0
0.05570423008216337 58115.0
0.044563384065730696 60998.0
0.03342253804929802 51966.0
0.18939438227935546 580112.0
0.011140846016432674 565545.0
0.10026761414789406 565589.0
0.12254930618075942 565786.0
0.011140846016432674 26589.0
0.03342253804929802 90588.0
0.06684507609859604 114840.0
0.011140846016432674 59882.0
0.03342253804929802 208519.0
0.03342253804929802 64166.0
0.03342253804929802 82907.0
0.10026761414789406 28188.0
0.0 20395.0
0.10026761414789406 221848.0
0.011140846016432674 59953.0
0.0 164053.0
0.05570423008216337 336784.0
0.022281692032865348 225921.0
0.10026761414789406 342032.0
0.0 529019.0
0.12254930618075942 500931.0
0.03342253804929802 123127.0
0.011140846016432674 188005.0
0.011140846016432674 65714.0
0.07798592211502872 190139.0
0.07798592211502872 172264.0
0.11140846016432673 191871.0
0.044563384065730696 89095.0
0.022281692032865348 65276.0
0.16711269024649011 52902.0
0.0 75901.0
0.07798592211502872 53052.0
0.022281692032865348 502752.0
0.06684507609859604 32197.0
0.05570423008216337 69606.0
0.022281692032865348 132755.0
0.011140846016432674 48770.0
0.011140846016432674 43160.0
0.0 35749.0
0.08912676813146139 495976.0
0.0 43247.0
0.011140846016432674 48588.0
0.011140846016432674 227926.0
0.22281692032865347 291823.0
0.06684507609859604 305974.0
0.2116760743122208 120865.0
0.011140846016432674 278333.0
0.022281692032865348 122866.0
0.011140846016432674 289362.0
0.2116760743122208 267822.0
0.044563384065730696 121037.0
0.06684507609859604 295585.0
0.044563384065730696 279154.0
0.15597184423005744 565401.0
0.022281692032865348 227445.0
0.03342253804929802 230778.0
0.022281692032865348 216522.0
0.05570423008216337 221306.0
0.05570423008216337 219301.0
0.08912676813146139 550156.0
0.022281692032865348 220239.0
0.10026761414789406 215108.0
0.011140846016432674 396935.0
0.022281692032865348 197678.0
0.022281692032865348 344389.0
0.011140846016432674 206484.0
0.0 186037.0
0.11140846016432673 143523.0
0.18939438227935546 237200.0
0.07798592211502872 471450.0
0.022281692032865348 191819.0
0.03342253804929802 264512.0
0.03342253804929802 167414.0
0.11140846016432673 251997.0
0.08912676813146139 134396.0
0.011140846016432674 268777.0
0.022281692032865348 171069.0
0.044563384065730696 167569.0
0.044563384065730696 280234.0
0.05570423008216337 271695.0
0.06684507609859604 280967.0
0.011140846016432674 285570.0
0.0 505654.0
0.022281692032865348 505449.0
0.06684507609859604 145370.0
0.06684507609859604 231852.0
0.0 547171.0
0.05570423008216337 299384.0
0.011140846016432674 322116.0
0.044563384065730696 254559.0
0.03342253804929802 223409.0
0.044563384065730696 268277.0
0.022281692032865348 230811.0
0.011140846016432674 306802.0
0.011140846016432674 241756.0
0.044563384065730696 431893.0
0.011140846016432674 468429.0
0.044563384065730696 518484.0
0.0 469841.0
0.022281692032865348 499252.0
0.022281692032865348 226846.0
0.011140846016432674 681369.0
0.08912676813146139 505899.0
0.022281692032865348 333561.0
0.022281692032865348 205132.0
0.0 337811.0
0.011140846016432674 215346.0
0.022281692032865348 327500.0
0.044563384065730696 192402.0
0.022281692032865348 242659.0
0.022281692032865348 267218.0
0.0 237927.0
0.05570423008216337 241142.0
0.0 235599.0
0.022281692032865348 278895.0
0.044563384065730696 147588.0
0.011140846016432674 276669.0
0.011140846016432674 232493.0
0.05570423008216337 245009.0
0.0 210785.0
0.022281692032865348 346048.0
0.06684507609859604 362985.0
0.022281692032865348 314741.0
0.06684507609859604 286635.0
0.0 448597.0
0.022281692032865348 315816.0
0.011140846016432674 331904.0
0.022281692032865348 459578.0
0.0 476594.0
0.011140846016432674 433299.0
0.05570423008216337 113726.0
0.03342253804929802 122092.0
0.011140846016432674 14941.0
0.022281692032865348 16116.0
0.08912676813146139 383471.0
0.022281692032865348 417671.0
0.0 418816.0
0.011140846016432674 426545.0
0.06684507609859604 446090.0
0.044563384065730696 478910.0
0.0 661872.0
0.022281692032865348 426525.0
0.022281692032865348 462293.0
0.06684507609859604 523299.0
0.0 522376.0
0.07798592211502872 319147.0
0.022281692032865348 340247.0
0.05570423008216337 335808.0
0.03342253804929802 211828.0
0.0 221401.0
0.07798592211502872 272919.0
0.011140846016432674 241550.0
0.03342253804929802 242656.0
0.03342253804929802 223301.0
0.07798592211502872 226079.0
0.044563384065730696 226146.0
0.03342253804929802 334039.0
0.011140846016432674 255667.0
0.05570423008216337 294123.0
0.0 365435.0
0.044563384065730696 357704.0
0.044563384065730696 300789.0
0.03342253804929802 454510.0
0.022281692032865348 449477.0
0.12254930618075942 465148.0
0.011140846016432674 541506.0
0.022281692032865348 495568.0
0.022281692032865348 427072.0
0.022281692032865348 433684.0
0.011140846016432674 382206.0
0.022281692032865348 638722.0
0.08912676813146139 454402.0
0.022281692032865348 35026.0
0.022281692032865348 88439.0
0.07798592211502872 81562.0
0.022281692032865348 79592.0
0.022281692032865348 87527.0
0.011140846016432674 20345.0
0.011140846016432674 28998.0
0.07798592211502872 582854.0
0.0 27405.0
0.0 92045.0
0.022281692032865348 410498.0
0.011140846016432674 363909.0
0.011140846016432674 352773.0
0.03342253804929802 416587.0
0.08912676813146139 414868.0
0.13369015219719207 414849.0
0.011140846016432674 402943.0
0.044563384065730696 384904.0
0.10026761414789406 410358.0
0.022281692032865348 398039.0
0.011140846016432674 431650.0
0.022281692032865348 417915.0
0.03342253804929802 500207.0
0.022281692032865348 505586.0
0.011140846016432674 479403.0
0.0 514212.0
0.011140846016432674 481513.0
0.011140846016432674 515884.0
0.06684507609859604 513583.0
0.07798592211502872 544381.0
0.0 510634.0
0.011140846016432674 517099.0
0.022281692032865348 239529.0
0.03342253804929802 458576.0
0.0 524004.0
0.022281692032865348 466694.0
0.06684507609859604 365569.0
0.022281692032865348 466737.0
0.044563384065730696 459473.0
0.011140846016432674 465028.0
0.06684507609859604 513168.0
0.044563384065730696 528570.0
0.022281692032865348 530217.0
0.05570423008216337 332286.0
0.022281692032865348 445906.0
0.03342253804929802 447026.0
0.0 447159.0
0.05570423008216337 447011.0
0.03342253804929802 514698.0
0.03342253804929802 525223.0
0.022281692032865348 420660.0
0.06684507609859604 555250.0
0.022281692032865348 555422.0
0.06684507609859604 558075.0
0.03342253804929802 534951.0
0.03342253804929802 428432.0
0.011140846016432674 454412.0
0.03342253804929802 445595.0
0.0 465698.0
0.05570423008216337 636589.0
0.044563384065730696 202813.0
0.011140846016432674 353595.0
0.0 497236.0
0.07798592211502872 387235.0
0.0 380829.0
0.044563384065730696 408552.0
0.0 376244.0
0.011140846016432674 364836.0
0.0 366438.0
0.011140846016432674 412152.0
0.022281692032865348 424210.0
0.044563384065730696 435255.0
0.0 427369.0
0.0 436350.0
0.10026761414789406 411392.0
0.011140846016432674 436212.0
0.022281692032865348 662677.0
0.011140846016432674 662766.0
0.044563384065730696 476470.0
0.03342253804929802 663878.0
0.044563384065730696 478805.0
0.0 662695.0
0.022281692032865348 460592.0
0.011140846016432674 473553.0
0.044563384065730696 481097.0
0.0 493946.0
0.0 417477.0
0.0 417478.0
0.03342253804929802 451425.0
0.05570423008216337 438834.0
0.022281692032865348 445128.0
0.07798592211502872 448226.0
0.11140846016432673 439922.0
0.03342253804929802 426991.0
0.07798592211502872 506299.0
0.03342253804929802 485272.0
0.011140846016432674 449315.0
0.10026761414789406 558120.0
0.011140846016432674 500250.0
0.03342253804929802 561163.0
0.044563384065730696 558153.0
0.10026761414789406 561086.0
0.05570423008216337 534898.0
0.011140846016432674 562373.0
0.0 430720.0
0.11140846016432673 527978.0
0.12254930618075942 445082.0
0.022281692032865348 414078.0
0.011140846016432674 442401.0
0.0 406896.0
0.011140846016432674 272692.0
0.011140846016432674 278963.0
0.011140846016432674 136568.0
0.07798592211502872 388123.0
0.0 150470.0
0.0 378075.0
0.06684507609859604 352991.0
0.05570423008216337 352973.0
0.011140846016432674 351954.0
0.03342253804929802 371334.0
0.011140846016432674 458683.0
0.03342253804929802 416407.0
0.05570423008216337 412128.0
0.011140846016432674 409457.0
0.044563384065730696 410557.0
0.011140846016432674 455760.0
0.011140846016432674 450690.0
0.044563384065730696 460705.0
0.0 454846.0
0.07798592211502872 450630.0
0.044563384065730696 472605.0
0.022281692032865348 488568.0
0.011140846016432674 510145.0
0.022281692032865348 560938.0
0.022281692032865348 424235.0
0.022281692032865348 533327.0
0.022281692032865348 531330.0
0.06684507609859604 333082.0
0.022281692032865348 428006.0
0.07798592211502872 308496.0
0.0 409436.0
0.03342253804929802 304398.0
0.03342253804929802 96853.0
0.0 133454.0
0.03342253804929802 133398.0
0.17825353626292278 335850.0
0.0 212715.0
0.011140846016432674 372223.0
0.0 370862.0
0.011140846016432674 407759.0
0.011140846016432674 381795.0
0.0 425790.0
0.044563384065730696 439744.0
0.13369015219719207 416757.0
0.011140846016432674 422016.0
0.022281692032865348 416768.0
0.022281692032865348 660179.0
0.022281692032865348 499765.0
0.022281692032865348 413519.0
0.022281692032865348 499183.0
0.011140846016432674 457772.0
0.0 398478.0
0.03342253804929802 433447.0
0.022281692032865348 439176.0
0.0 659657.0
0.0 441769.0
0.03342253804929802 420586.0
0.011140846016432674 408054.0
0.022281692032865348 507152.0
0.13369015219719207 529887.0
0.08912676813146139 522686.0
0.12254930618075942 402603.0
0.07798592211502872 407058.0
0.08912676813146139 393479.0
0.022281692032865348 406519.0
0.0 517215.0
0.022281692032865348 326854.0
0.022281692032865348 396017.0
0.05570423008216337 263388.0
0.0 319371.0
0.011140846016432674 263096.0
0.20053522829578813 286362.0
0.044563384065730696 313533.0
0.05570423008216337 249367.0
0.022281692032865348 278562.0
0.011140846016432674 212311.0
0.0 304583.0
0.022281692032865348 311198.0
0.08912676813146139 329517.0
0.044563384065730696 326202.0
0.011140846016432674 140928.0
0.03342253804929802 103515.0
0.0 388139.0
0.0 189837.0
0.15597184423005744 213274.0
0.022281692032865348 218287.0
0.03342253804929802 370866.0
0.011140846016432674 392580.0
0.011140846016432674 357075.0
0.022281692032865348 652500.0
0.0 418467.0
0.011140846016432674 471377.0
0.011140846016432674 485717.0
0.011140846016432674 502852.0
0.0 428147.0
0.05570423008216337 404732.0
0.022281692032865348 380885.0
0.011140846016432674 342548.0
0.022281692032865348 407716.0
0.044563384065730696 426894.0
0.0 498538.0
0.044563384065730696 473114.0
0.0 634063.0
0.10026761414789406 461515.0
0.03342253804929802 266941.0
0.15597184423005744 316744.0
0.0 226854.0
0.011140846016432674 278560.0
0.0 229612.0
0.05570423008216337 307177.0
0.044563384065730696 75042.0
0.022281692032865348 78217.0
0.08912676813146139 114166.0
0.022281692032865348 117910.0
0.011140846016432674 532038.0
0.03342253804929802 143120.0
0.011140846016432674 105664.0
0.10026761414789406 144627.0
0.044563384065730696 388240.0
0.022281692032865348 179564.0
0.12254930618075942 207737.0
0.011140846016432674 361552.0
0.011140846016432674 403951.0
0.022281692032865348 247608.0
0.03342253804929802 344543.0
0.022281692032865348 434933.0
0.022281692032865348 410413.0
0.044563384065730696 420125.0
0.022281692032865348 409775.0
0.022281692032865348 499101.0
0.06684507609859604 397298.0
0.08912676813146139 410017.0
0.03342253804929802 490460.0
0.022281692032865348 373852.0
0.011140846016432674 391381.0
0.0 405813.0
0.0 370892.0
0.022281692032865348 657976.0
0.03342253804929802 382143.0
0.08912676813146139 376817.0
0.05570423008216337 391345.0
0.0 405812.0
0.044563384065730696 487815.0
0.022281692032865348 470404.0
0.10026761414789406 480427.0
0.03342253804929802 231604.0
0.0 251708.0
0.22281692032865347 305261.0
0.08912676813146139 324912.0
0.11140846016432673 309814.0
0.05570423008216337 283780.0
0.0 268657.0
0.011140846016432674 312828.0
0.011140846016432674 321321.0
0.022281692032865348 295220.0
0.07798592211502872 162844.0
0.06684507609859604 50100.0
0.022281692032865348 529158.0
0.022281692032865348 158748.0
0.03342253804929802 388258.0
0.011140846016432674 227462.0
0.022281692032865348 228407.0
0.044563384065730696 341211.0
0.0 243837.0
0.022281692032865348 342219.0
0.022281692032865348 618111.0
0.07798592211502872 335266.0
0.05570423008216337 339545.0
0.08912676813146139 243966.0
0.0 345830.0
0.022281692032865348 329607.0
0.0 398946.0
0.022281692032865348 468193.0
0.0 359386.0
0.022281692032865348 634570.0
0.0 378442.0
0.022281692032865348 403280.0
0.011140846016432674 416109.0
0.011140846016432674 426343.0
0.011140846016432674 456757.0
0.0 260243.0
0.011140846016432674 242074.0
0.022281692032865348 316945.0
0.14483099821362477 317862.0
0.0 230979.0
0.05570423008216337 230619.0
0.08912676813146139 621024.0
0.10026761414789406 275835.0
0.044563384065730696 277726.0
0.022281692032865348 326411.0
0.0 304295.0
0.022281692032865348 159194.0
0.0 175195.0
0.011140846016432674 238360.0
0.0 295004.0
0.011140846016432674 76781.0
0.044563384065730696 41260.0
0.07798592211502872 80486.0
0.044563384065730696 78059.0
0.05570423008216337 76672.0
0.12254930618075942 586405.0
0.011140846016432674 120253.0
0.044563384065730696 222459.0
0.044563384065730696 229526.0
0.011140846016432674 632101.0
0.0 255184.0
0.10026761414789406 243943.0
0.05570423008216337 341132.0
0.07798592211502872 342156.0
0.022281692032865348 245546.0
0.0 366921.0
0.011140846016432674 214364.0
0.044563384065730696 368978.0
0.022281692032865348 364327.0
0.011140846016432674 348481.0
0.05570423008216337 356659.0
0.06684507609859604 375453.0
0.0 346863.0
0.044563384065730696 459899.0
0.13369015219719207 450359.0
0.10026761414789406 455421.0
0.03342253804929802 361105.0
0.10026761414789406 269641.0
0.12254930618075942 248734.0
0.022281692032865348 209917.0
0.03342253804929802 246508.0
0.08912676813146139 230691.0
0.0 206292.0
0.03342253804929802 321405.0
0.05570423008216337 317111.0
0.33422538049298023 159637.0
0.0 197955.0
0.022281692032865348 153255.0
0.0 80183.0
0.0 80718.0
0.011140846016432674 102656.0
0.0 13093.0
0.03342253804929802 55527.0
0.0 127249.0
0.03342253804929802 199520.0
0.011140846016432674 320709.0
0.022281692032865348 192262.0
0.011140846016432674 244437.0
0.022281692032865348 267702.0
0.06684507609859604 247333.0
0.022281692032865348 267455.0
0.011140846016432674 352569.0
0.011140846016432674 285869.0
0.022281692032865348 368902.0
0.022281692032865348 351573.0
0.0 350283.0
0.05570423008216337 303911.0
0.022281692032865348 250024.0
0.03342253804929802 186217.0
0.07798592211502872 149847.0
0.03342253804929802 320853.0
0.0 161755.0
0.011140846016432674 214877.0
0.022281692032865348 209735.0
0.011140846016432674 253295.0
0.022281692032865348 68439.0
0.044563384065730696 47391.0
0.011140846016432674 348582.0
0.05570423008216337 567557.0
0.0 322853.0
0.0 107286.0
0.03342253804929802 283830.0
0.0 221159.0
0.0 282020.0
0.011140846016432674 294574.0
0.0 227957.0
0.0 188370.0
0.0 197035.0
0.0 116711.0
0.011140846016432674 603023.0
0.011140846016432674 157652.0
0.05570423008216337 169985.0
0.0 74799.0
0.011140846016432674 78968.0
0.011140846016432674 276805.0
0.0 24444.0
0.011140846016432674 145414.0
0.022281692032865348 597609.0
0.06684507609859604 101045.0
0.0 118880.0
0.011140846016432674 170644.0
0.022281692032865348 173397.0
0.011140846016432674 266785.0
0.022281692032865348 262135.0
0.044563384065730696 107845.0
0.0 254472.0
0.0 225894.0
0.0 264707.0
0.15597184423005744 207081.0
0.044563384065730696 211525.0
0.0 278085.0
0.011140846016432674 264211.0
0.0 112321.0
0.011140846016432674 156167.0
0.022281692032865348 146326.0
0.011140846016432674 16353.0
0.0 162596.0
0.0 37609.0
0.0 37756.0
0.03342253804929802 31009.0
0.0 138923.0
0.0 154003.0
0.011140846016432674 160123.0
0.07798592211502872 178233.0
0.0 148037.0
0.0 217928.0
0.03342253804929802 144832.0
0.0 224560.0
0.0 224572.0
0.03342253804929802 119702.0
0.0 612484.0
0.0 119423.0
0.044563384065730696 248838.0
0.0 29310.0
0.0 136934.0
0.022281692032865348 90181.0
0.0 57387.0
0.0 163438.0
0.06684507609859604 146613.0
0.0 94530.0
0.022281692032865348 96734.0
0.0 118479.0
0.022281692032865348 281145.0
0.0 234812.0
0.0 344523.0
0.0 129134.0
0.0 29768.0
0.0 57624.0
0.0 59306.0
0.0 90151.0
0.0 112662.0
0.0 112667.0
0.0 158057.0
0.0 201712.0
0.044563384065730696 102523.0
0.0 261856.0
0.11140846016432673 203037.0
0.0 348033.0
0.0 27247.0
0.022281692032865348 252104.0
0.0 104662.0
0.0 280999.0
0.0 258310.0
0.0 261831.0
0.0 187335.0
0.0 200880.0
0.0 347570.0
0.0 104643.0
0.0 69728.0
0.0 58662.0
0.0 50973.0
0.0 97103.0
0.0 85718.0
0.0 339611.0
0.0 56508.0
0.0 501022.0
0.0 543356.0
0.0 543285.0
