0.022281692032865348 27528.0
0.011140846016432674 581895.0
0.011140846016432674 163755.0
0.03342253804929802 39073.0
0.08912676813146139 40445.0
0.03342253804929802 74263.0
0.12254930618075942 96082.0
0.08912676813146139 58295.0
0.05570423008216337 41095.0
0.14483099821362477 23024.0
0.011140846016432674 26175.0
0.044563384065730696 76096.0
0.0 581899.0
0.03342253804929802 16434.0
0.22281692032865347 79760.0
0.05570423008216337 392158.0
0.03342253804929802 7197.0
0.03342253804929802 531481.0
0.10026761414789406 532901.0
0.03342253804929802 531568.0
0.08912676813146139 532892.0
0.07798592211502872 15643.0
0.044563384065730696 15618.0
0.0 12937.0
0.05570423008216337 75866.0
0.0 68243.0
0.07798592211502872 537144.0
0.044563384065730696 540722.0
0.0 537452.0
0.022281692032865348 62804.0
0.022281692032865348 93112.0
0.022281692032865348 83281.0
0.022281692032865348 86106.0
0.03342253804929802 332707.0
0.022281692032865348 335557.0
0.06684507609859604 346677.0
0.03342253804929802 444529.0
0.0 347736.0
0.03342253804929802 159677.0
0.15597184423005744 120729.0
0.0 341333.0
0.011140846016432674 314660.0
0.044563384065730696 312121.0
0.022281692032865348 358259.0
0.0 520232.0
0.0 347716.0
0.011140846016432674 154927.0
0.0 390317.0
0.0 550168.0
0.044563384065730696 252907.0
0.044563384065730696 158421.0
0.0 351809.0
0.022281692032865348 3026.0
0.05570423008216337 39425.0
0.13369015219719207 10264.0
0.2116760743122208 10033.0
0.0 4656.0
0.011140846016432674 6596.0
0.044563384065730696 53203.0
0.17825353626292278 117239.0
0.05570423008216337 12013.0
0.03342253804929802 7435.0
0.044563384065730696 555540.0
0.06684507609859604 526956.0
0.011140846016432674 3532.0
0.03342253804929802 550120.0
0.11140846016432673 18241.0
0.0 5184.0
0.0 9912.0
0.0 2230.0
0.011140846016432674 10814.0
0.0 31918.0
0.08912676813146139 543.0
0.17825353626292278 536730.0
0.13369015219719207 11235.0
0.15597184423005744 11216.0
0.0 4085.0
0.05570423008216337 98191.0
0.22281692032865347 73164.0
0.0 2978.0
0.022281692032865348 537226.0
0.18939438227935546 520586.0
0.022281692032865348 85012.0
0.022281692032865348 4161.0
0.05570423008216337 3277.0
0.03342253804929802 5039.0
0.05570423008216337 89486.0
0.12254930618075942 3785.0
0.03342253804929802 89572.0
0.03342253804929802 27872.0
0.03342253804929802 14018.0
0.08912676813146139 7891.0
0.0 309945.0
0.011140846016432674 87339.0
0.0 321148.0
0.022281692032865348 75313.0
0.044563384065730696 270050.0
0.011140846016432674 266432.0
0.03342253804929802 91849.0
0.011140846016432674 173408.0
0.011140846016432674 326953.0
0.0 388533.0
0.03342253804929802 124202.0
0.011140846016432674 391140.0
0.0 347152.0
0.011140846016432674 335728.0
0.011140846016432674 335730.0
0.05570423008216337 343663.0
0.044563384065730696 435468.0
0.011140846016432674 177207.0
0.0 96150.0
0.03342253804929802 113125.0
0.0 108884.0
0.011140846016432674 568454.0
0.0 199257.0
0.06684507609859604 584161.0
0.011140846016432674 63922.0
0.0 65569.0
0.03342253804929802 67359.0
0.022281692032865348 11635.0
0.03342253804929802 114989.0
0.03342253804929802 59873.0
0.044563384065730696 25618.0
0.0 156948.0
0.011140846016432674 535420.0
0.07798592211502872 97391.0
0.022281692032865348 41242.0
0.011140846016432674 39478.0
0.10026761414789406 58115.0
0.03342253804929802 60998.0
0.022281692032865348 51966.0
0.11140846016432673 580112.0
0.011140846016432674 565545.0
0.10026761414789406 565589.0
0.17825353626292278 565786.0
0.011140846016432674 26589.0
0.044563384065730696 90588.0
0.03342253804929802 114840.0
0.044563384065730696 59882.0
0.044563384065730696 208519.0
0.03342253804929802 64166.0
0.11140846016432673 82907.0
0.03342253804929802 28188.0
0.011140846016432674 20395.0
0.14483099821362477 221848.0
0.0 59953.0
0.011140846016432674 164053.0
0.0 336784.0
0.06684507609859604 225921.0
0.11140846016432673 342032.0
0.03342253804929802 529019.0
0.10026761414789406 500931.0
0.03342253804929802 123127.0
0.022281692032865348 188005.0
0.044563384065730696 65714.0
0.05570423008216337 190139.0
0.08912676813146139 172264.0
0.18939438227935546 191871.0
0.022281692032865348 89095.0
0.011140846016432674 65276.0
0.32308453447654756 52902.0
0.0 75901.0
0.15597184423005744 53052.0
0.011140846016432674 502752.0
0.03342253804929802 32197.0
0.06684507609859604 69606.0
0.06684507609859604 132755.0
0.022281692032865348 48770.0
0.05570423008216337 43160.0
0.0 35749.0
0.022281692032865348 495976.0
0.0 43247.0
0.022281692032865348 48588.0
0.07798592211502872 227926.0
0.26738030439438415 291823.0
0.13369015219719207 305974.0
0.15597184423005744 120865.0
0.03342253804929802 278333.0
0.06684507609859604 122866.0
0.03342253804929802 289362.0
0.5570423008216338 267822.0
0.05570423008216337 121037.0
0.08912676813146139 295585.0
0.08912676813146139 279154.0
0.03342253804929802 565401.0
0.0 227445.0
0.011140846016432674 230778.0
0.022281692032865348 216522.0
0.022281692032865348 221306.0
0.06684507609859604 219301.0
0.14483099821362477 550156.0
0.022281692032865348 220239.0
0.13369015219719207 215108.0
0.05570423008216337 396935.0
0.05570423008216337 197678.0
0.05570423008216337 344389.0
0.022281692032865348 206484.0
0.03342253804929802 186037.0
0.05570423008216337 143523.0
0.022281692032865348 237200.0
0.07798592211502872 471450.0
0.03342253804929802 191819.0
0.044563384065730696 264512.0
0.022281692032865348 167414.0
0.18939438227935546 251997.0
0.14483099821362477 134396.0
0.06684507609859604 268777.0
0.03342253804929802 171069.0
0.10026761414789406 167569.0
0.15597184423005744 280234.0
0.07798592211502872 271695.0
0.16711269024649011 280967.0
0.011140846016432674 285570.0
0.044563384065730696 505654.0
0.044563384065730696 505449.0
0.06684507609859604 145370.0
0.08912676813146139 231852.0
0.011140846016432674 547171.0
0.18939438227935546 299384.0
0.011140846016432674 322116.0
0.044563384065730696 254559.0
0.03342253804929802 223409.0
0.0 268277.0
0.0 230811.0
0.0 306802.0
0.03342253804929802 241756.0
0.022281692032865348 431893.0
0.022281692032865348 468429.0
0.03342253804929802 518484.0
0.022281692032865348 469841.0
0.011140846016432674 499252.0
0.03342253804929802 226846.0
0.011140846016432674 681369.0
0.03342253804929802 505899.0
0.06684507609859604 333561.0
0.10026761414789406 205132.0
0.05570423008216337 337811.0
0.044563384065730696 215346.0
0.022281692032865348 327500.0
0.022281692032865348 192402.0
0.14483099821362477 242659.0
0.044563384065730696 267218.0
0.0 237927.0
0.022281692032865348 241142.0
0.0 235599.0
0.13369015219719207 278895.0
0.06684507609859604 147588.0
0.0 276669.0
0.022281692032865348 232493.0
0.022281692032865348 245009.0
0.044563384065730696 210785.0
0.011140846016432674 346048.0
0.13369015219719207 362985.0
0.022281692032865348 314741.0
0.011140846016432674 286635.0
0.0 448597.0
0.05570423008216337 315816.0
0.03342253804929802 331904.0
0.07798592211502872 459578.0
0.011140846016432674 476594.0
0.022281692032865348 433299.0
0.03342253804929802 113726.0
0.08912676813146139 122092.0
0.05570423008216337 14941.0
0.0 16116.0
0.23395776634508617 383471.0
0.022281692032865348 417671.0
0.03342253804929802 418816.0
0.03342253804929802 426545.0
0.044563384065730696 446090.0
0.05570423008216337 478910.0
0.011140846016432674 661872.0
0.14483099821362477 426525.0
0.0 462293.0
0.05570423008216337 523299.0
0.022281692032865348 522376.0
0.15597184423005744 319147.0
0.022281692032865348 340247.0
0.07798592211502872 335808.0
0.05570423008216337 211828.0
0.011140846016432674 221401.0
0.18939438227935546 272919.0
0.022281692032865348 241550.0
0.0 242656.0
0.06684507609859604 223301.0
0.022281692032865348 226079.0
0.06684507609859604 226146.0
0.022281692032865348 334039.0
0.08912676813146139 255667.0
0.0 294123.0
0.022281692032865348 365435.0
0.12254930618075942 357704.0
0.10026761414789406 300789.0
0.05570423008216337 454510.0
0.044563384065730696 449477.0
0.23395776634508617 465148.0
0.011140846016432674 541506.0
0.06684507609859604 495568.0
0.022281692032865348 427072.0
0.011140846016432674 433684.0
0.011140846016432674 382206.0
0.0 638722.0
0.044563384065730696 454402.0
0.011140846016432674 35026.0
0.03342253804929802 88439.0
0.12254930618075942 81562.0
0.05570423008216337 79592.0
0.022281692032865348 87527.0
0.0 20345.0
0.0 28998.0
0.06684507609859604 582854.0
0.07798592211502872 27405.0
0.011140846016432674 92045.0
0.022281692032865348 410498.0
0.05570423008216337 363909.0
0.0 352773.0
0.044563384065730696 416587.0
0.07798592211502872 414868.0
0.06684507609859604 414849.0
0.044563384065730696 402943.0
0.022281692032865348 384904.0
0.03342253804929802 410358.0
0.03342253804929802 398039.0
0.022281692032865348 431650.0
0.0 417915.0
0.044563384065730696 500207.0
0.011140846016432674 505586.0
0.011140846016432674 479403.0
0.044563384065730696 514212.0
0.10026761414789406 481513.0
0.011140846016432674 515884.0
0.07798592211502872 513583.0
0.022281692032865348 544381.0
0.0 510634.0
0.16711269024649011 517099.0
0.2785211504108169 239529.0
0.03342253804929802 458576.0
0.0 524004.0
0.044563384065730696 466694.0
0.08912676813146139 365569.0
0.0 466737.0
0.13369015219719207 459473.0
0.03342253804929802 465028.0
0.044563384065730696 513168.0
0.011140846016432674 528570.0
0.011140846016432674 530217.0
0.022281692032865348 332286.0
0.022281692032865348 445906.0
0.0 447026.0
0.011140846016432674 447159.0
0.03342253804929802 447011.0
0.08912676813146139 514698.0
0.0 525223.0
0.044563384065730696 420660.0
0.044563384065730696 555250.0
0.022281692032865348 555422.0
0.18939438227935546 558075.0
0.022281692032865348 534951.0
0.05570423008216337 428432.0
0.011140846016432674 454412.0
0.11140846016432673 445595.0
0.022281692032865348 465698.0
0.011140846016432674 636589.0
0.044563384065730696 202813.0
0.044563384065730696 353595.0
0.044563384065730696 497236.0
0.044563384065730696 387235.0
0.022281692032865348 380829.0
0.13369015219719207 408552.0
0.0 376244.0
0.05570423008216337 364836.0
0.06684507609859604 366438.0
0.022281692032865348 412152.0
0.011140846016432674 424210.0
0.07798592211502872 435255.0
0.011140846016432674 427369.0
0.022281692032865348 436350.0
0.06684507609859604 411392.0
0.044563384065730696 436212.0
0.044563384065730696 662677.0
0.05570423008216337 662766.0
0.011140846016432674 476470.0
0.03342253804929802 663878.0
0.20053522829578813 478805.0
0.0 662695.0
0.011140846016432674 460592.0
0.011140846016432674 473553.0
0.044563384065730696 481097.0
0.0 493946.0
0.011140846016432674 417477.0
0.0 417478.0
0.011140846016432674 451425.0
0.20053522829578813 438834.0
0.022281692032865348 445128.0
0.011140846016432674 448226.0
0.0 439922.0
0.03342253804929802 426991.0
0.03342253804929802 506299.0
0.03342253804929802 485272.0
0.022281692032865348 449315.0
0.10026761414789406 558120.0
0.03342253804929802 500250.0
0.03342253804929802 561163.0
0.022281692032865348 558153.0
0.08912676813146139 561086.0
0.13369015219719207 534898.0
0.08912676813146139 562373.0
0.044563384065730696 430720.0
0.07798592211502872 527978.0
0.10026761414789406 445082.0
0.12254930618075942 414078.0
0.07798592211502872 442401.0
0.05570423008216337 406896.0
0.08912676813146139 272692.0
0.05570423008216337 278963.0
0.022281692032865348 136568.0
0.06684507609859604 388123.0
0.0 150470.0
0.03342253804929802 378075.0
0.13369015219719207 352991.0
0.03342253804929802 352973.0
0.022281692032865348 351954.0
0.011140846016432674 371334.0
0.0 458683.0
0.05570423008216337 416407.0
0.011140846016432674 412128.0
0.022281692032865348 409457.0
0.044563384065730696 410557.0
0.0 455760.0
0.03342253804929802 450690.0
0.011140846016432674 460705.0
0.022281692032865348 454846.0
0.044563384065730696 450630.0
0.07798592211502872 472605.0
0.022281692032865348 488568.0
0.0 510145.0
0.0 560938.0
0.011140846016432674 424235.0
0.05570423008216337 533327.0
0.044563384065730696 531330.0
0.05570423008216337 333082.0
0.10026761414789406 428006.0
0.14483099821362477 308496.0
0.022281692032865348 409436.0
0.022281692032865348 304398.0
0.08912676813146139 96853.0
0.0 133454.0
0.06684507609859604 133398.0
0.16711269024649011 335850.0
0.08912676813146139 212715.0
0.03342253804929802 372223.0
0.0 370862.0
0.05570423008216337 407759.0
0.05570423008216337 381795.0
0.011140846016432674 425790.0
0.011140846016432674 439744.0
0.12254930618075942 416757.0
0.011140846016432674 422016.0
0.011140846016432674 416768.0
0.06684507609859604 660179.0
0.06684507609859604 499765.0
0.011140846016432674 413519.0
0.03342253804929802 499183.0
0.044563384065730696 457772.0
0.011140846016432674 398478.0
0.022281692032865348 433447.0
0.0 439176.0
0.022281692032865348 659657.0
0.011140846016432674 441769.0
0.07798592211502872 420586.0
0.011140846016432674 408054.0
0.05570423008216337 507152.0
0.4233521486244416 529887.0
0.13369015219719207 522686.0
0.044563384065730696 402603.0
0.08912676813146139 407058.0
0.05570423008216337 393479.0
0.2785211504108169 406519.0
0.044563384065730696 517215.0
0.044563384065730696 326854.0
0.011140846016432674 396017.0
0.07798592211502872 263388.0
0.11140846016432673 319371.0
0.08912676813146139 263096.0
0.46791553269017233 286362.0
0.011140846016432674 313533.0
0.12254930618075942 249367.0
0.011140846016432674 278562.0
0.03342253804929802 212311.0
0.022281692032865348 304583.0
0.022281692032865348 311198.0
0.05570423008216337 329517.0
0.11140846016432673 326202.0
0.12254930618075942 140928.0
0.03342253804929802 103515.0
0.044563384065730696 388139.0
0.011140846016432674 189837.0
0.24509861236151884 213274.0
0.07798592211502872 218287.0
0.03342253804929802 370866.0
0.05570423008216337 392580.0
0.08912676813146139 357075.0
0.022281692032865348 652500.0
0.044563384065730696 418467.0
0.011140846016432674 471377.0
0.044563384065730696 485717.0
0.022281692032865348 502852.0
0.0 428147.0
0.07798592211502872 404732.0
0.011140846016432674 380885.0
0.11140846016432673 342548.0
0.044563384065730696 407716.0
0.05570423008216337 426894.0
0.0 498538.0
0.03342253804929802 473114.0
0.044563384065730696 634063.0
0.24509861236151884 461515.0
0.13369015219719207 266941.0
0.24509861236151884 316744.0
0.022281692032865348 226854.0
0.03342253804929802 278560.0
0.03342253804929802 229612.0
0.08912676813146139 307177.0
0.022281692032865348 75042.0
0.044563384065730696 78217.0
0.11140846016432673 114166.0
0.12254930618075942 117910.0
0.022281692032865348 532038.0
0.11140846016432673 143120.0
0.022281692032865348 105664.0
0.12254930618075942 144627.0
0.14483099821362477 388240.0
0.011140846016432674 179564.0
0.10026761414789406 207737.0
0.022281692032865348 361552.0
0.06684507609859604 403951.0
0.022281692032865348 247608.0
0.044563384065730696 344543.0
0.0 434933.0
0.044563384065730696 410413.0
0.05570423008216337 420125.0
0.011140846016432674 409775.0
0.011140846016432674 499101.0
0.05570423008216337 397298.0
0.08912676813146139 410017.0
0.03342253804929802 490460.0
0.08912676813146139 373852.0
0.0 391381.0
0.03342253804929802 405813.0
0.011140846016432674 370892.0
0.03342253804929802 657976.0
0.03342253804929802 382143.0
0.011140846016432674 376817.0
0.011140846016432674 391345.0
0.0 405812.0
0.011140846016432674 487815.0
0.044563384065730696 470404.0
0.26738030439438415 480427.0
0.10026761414789406 231604.0
0.03342253804929802 251708.0
0.2785211504108169 305261.0
0.15597184423005744 324912.0
0.15597184423005744 309814.0
0.11140846016432673 283780.0
0.022281692032865348 268657.0
0.022281692032865348 312828.0
0.022281692032865348 321321.0
0.044563384065730696 295220.0
0.03342253804929802 162844.0
0.08912676813146139 50100.0
0.0 529158.0
0.022281692032865348 158748.0
0.07798592211502872 388258.0
0.022281692032865348 227462.0
0.011140846016432674 228407.0
0.044563384065730696 341211.0
0.011140846016432674 243837.0
0.0 342219.0
0.011140846016432674 618111.0
0.06684507609859604 335266.0
0.03342253804929802 339545.0
0.05570423008216337 243966.0
0.022281692032865348 345830.0
0.0 329607.0
0.0 398946.0
0.044563384065730696 468193.0
0.022281692032865348 359386.0
0.022281692032865348 634570.0
0.022281692032865348 378442.0
0.011140846016432674 403280.0
0.022281692032865348 416109.0
0.0 426343.0
0.011140846016432674 456757.0
0.044563384065730696 260243.0
0.0 242074.0
0.11140846016432673 316945.0
0.20053522829578813 317862.0
0.0 230979.0
0.03342253804929802 230619.0
0.07798592211502872 621024.0
0.11140846016432673 275835.0
0.06684507609859604 277726.0
0.06684507609859604 326411.0
0.0 304295.0
0.0 159194.0
0.011140846016432674 175195.0
0.06684507609859604 238360.0
0.0 295004.0
0.022281692032865348 76781.0
0.022281692032865348 41260.0
0.07798592211502872 80486.0
0.011140846016432674 78059.0
0.13369015219719207 76672.0
0.06684507609859604 586405.0
0.022281692032865348 120253.0
0.011140846016432674 222459.0
0.14483099821362477 229526.0
0.011140846016432674 632101.0
0.0 255184.0
0.07798592211502872 243943.0
0.07798592211502872 341132.0
0.044563384065730696 342156.0
0.0 245546.0
0.0 366921.0
0.05570423008216337 214364.0
0.022281692032865348 368978.0
0.0 364327.0
0.022281692032865348 348481.0
0.05570423008216337 356659.0
0.08912676813146139 375453.0
0.0 346863.0
0.03342253804929802 459899.0
0.22281692032865347 450359.0
0.06684507609859604 455421.0
0.05570423008216337 361105.0
0.10026761414789406 269641.0
0.07798592211502872 248734.0
0.03342253804929802 209917.0
0.05570423008216337 246508.0
0.07798592211502872 230691.0
0.011140846016432674 206292.0
0.10026761414789406 321405.0
0.06684507609859604 317111.0
0.20053522829578813 159637.0
0.0 197955.0
0.011140846016432674 153255.0
0.011140846016432674 80183.0
0.011140846016432674 80718.0
0.03342253804929802 102656.0
0.044563384065730696 13093.0
0.13369015219719207 55527.0
0.011140846016432674 127249.0
0.022281692032865348 199520.0
0.011140846016432674 320709.0
0.06684507609859604 192262.0
0.03342253804929802 244437.0
0.07798592211502872 267702.0
0.011140846016432674 247333.0
0.03342253804929802 267455.0
0.044563384065730696 352569.0
0.044563384065730696 285869.0
0.011140846016432674 368902.0
0.03342253804929802 351573.0
0.0 350283.0
0.14483099821362477 303911.0
0.022281692032865348 250024.0
0.0 186217.0
0.05570423008216337 149847.0
0.0 320853.0
0.0 161755.0
0.011140846016432674 214877.0
0.044563384065730696 209735.0
0.07798592211502872 253295.0
0.022281692032865348 68439.0
0.03342253804929802 47391.0
0.0 348582.0
0.044563384065730696 567557.0
0.0 322853.0
0.05570423008216337 107286.0
0.06684507609859604 283830.0
0.0 221159.0
0.0 282020.0
0.011140846016432674 294574.0
0.011140846016432674 227957.0
0.0 188370.0
0.0 197035.0
0.0 116711.0
0.0 603023.0
0.0 157652.0
0.05570423008216337 169985.0
0.011140846016432674 74799.0
0.08912676813146139 78968.0
0.011140846016432674 276805.0
0.0 24444.0
0.0 145414.0
0.011140846016432674 597609.0
0.022281692032865348 101045.0
0.0 118880.0
0.05570423008216337 170644.0
0.011140846016432674 173397.0
0.0 266785.0
0.011140846016432674 262135.0
0.044563384065730696 107845.0
0.0 254472.0
0.0 225894.0
0.0 264707.0
0.10026761414789406 207081.0
0.03342253804929802 211525.0
0.0 278085.0
0.011140846016432674 264211.0
0.0 112321.0
0.03342253804929802 156167.0
0.0 146326.0
0.03342253804929802 16353.0
0.0 162596.0
0.0 37609.0
0.0 37756.0
0.05570423008216337 31009.0
0.0 138923.0
0.022281692032865348 154003.0
0.011140846016432674 160123.0
0.08912676813146139 178233.0
0.13369015219719207 148037.0
0.0 217928.0
0.022281692032865348 144832.0
0.0 224560.0
0.0 224572.0
0.07798592211502872 119702.0
0.022281692032865348 612484.0
0.0 119423.0
0.022281692032865348 248838.0
0.0 29310.0
0.0 136934.0
0.0 90181.0
0.0 57387.0
0.0 163438.0
0.044563384065730696 146613.0
0.03342253804929802 94530.0
0.05570423008216337 96734.0
0.0 118479.0
0.11140846016432673 281145.0
0.0 234812.0
0.0 344523.0
0.0 129134.0
0.0 29768.0
0.0 57624.0
0.05570423008216337 59306.0
0.0 90151.0
0.0 112662.0
0.0 112667.0
0.0 158057.0
0.044563384065730696 201712.0
0.0 102523.0
0.0 261856.0
0.05570423008216337 203037.0
0.0 348033.0
0.0 27247.0
0.022281692032865348 252104.0
0.0 104662.0
0.0 280999.0
0.0 258310.0
0.0 261831.0
0.0 187335.0
0.022281692032865348 200880.0
0.0 347570.0
0.0 104643.0
0.0 69728.0
0.0 58662.0
0.0 50973.0
0.044563384065730696 97103.0
0.0 85718.0
0.0 339611.0
0.0 56508.0
0.0 501022.0
0.0 543356.0
0.0 543285.0
