0.0 170946.0
0.08912676813146139 77678.0
0.022281692032865348 8814.0
0.044563384065730696 8624.0
0.15597184423005744 100943.0
0.08912676813146139 347217.0
0.0 295880.0
0.08912676813146139 36925.0
0.044563384065730696 114686.0
0.044563384065730696 555630.0
0.044563384065730696 468658.0
0.06684507609859604 135221.0
0.022281692032865348 23670.0
0.35650707252584557 208502.0
0.0 118775.0
0.0 73866.0
0.022281692032865348 49027.0
0.06684507609859604 119380.0
0.13369015219719207 291735.0
0.06684507609859604 341243.0
0.15597184423005744 197644.0
0.044563384065730696 471448.0
0.022281692032865348 277220.0
0.3787887645587109 277995.0
0.06684507609859604 285404.0
0.0 309449.0
0.022281692032865348 289358.0
0.13369015219719207 251971.0
0.08912676813146139 218193.0
0.044563384065730696 190956.0
0.022281692032865348 618723.0
0.06684507609859604 553359.0
0.0 619970.0
0.20053522829578813 321608.0
0.0 358157.0
0.0 284964.0
0.022281692032865348 622475.0
0.08912676813146139 433945.0
0.0 499224.0
0.0 267167.0
0.06684507609859604 209621.0
0.0 215588.0
0.17825353626292278 229427.0
0.0 362597.0
0.044563384065730696 358222.0
0.0 286742.0
0.022281692032865348 594147.0
0.08912676813146139 16741.0
0.0 444705.0
0.022281692032865348 473242.0
0.044563384065730696 449958.0
0.06684507609859604 665250.0
0.44563384065730693 524151.0
0.044563384065730696 507091.0
0.022281692032865348 331958.0
0.08912676813146139 437373.0
0.022281692032865348 450833.0
0.044563384065730696 428294.0
0.022281692032865348 463396.0
0.044563384065730696 367152.0
0.15597184423005744 409956.0
0.13369015219719207 427689.0
0.044563384065730696 514559.0
0.022281692032865348 481904.0
0.0 519365.0
0.06684507609859604 536996.0
0.0 396488.0
0.06684507609859604 493844.0
0.044563384065730696 476666.0
0.022281692032865348 511719.0
0.0 540488.0
0.044563384065730696 238853.0
0.022281692032865348 203008.0
0.0 398268.0
0.022281692032865348 498814.0
0.06684507609859604 435911.0
0.15597184423005744 246037.0
0.044563384065730696 632652.0
0.11140846016432673 399391.0
0.022281692032865348 143033.0
0.06684507609859604 220740.0
0.0 296195.0
0.022281692032865348 497975.0
0.0 351242.0
0.0 411487.0
0.0 400924.0
0.022281692032865348 353803.0
0.0 358496.0
0.08912676813146139 365317.0
0.022281692032865348 313614.0
0.022281692032865348 563955.0
0.08912676813146139 78161.0
0.15597184423005744 49047.0
0.06684507609859604 87938.0
0.06684507609859604 211752.0
0.022281692032865348 111291.0
0.06684507609859604 14894.0
0.044563384065730696 367612.0
0.022281692032865348 336014.0
0.0 107736.0
0.0 237720.0
0.15597184423005744 27783.0
0.0 404263.0
0.08912676813146139 350353.0
0.06684507609859604 117998.0
0.022281692032865348 588665.0
0.0 258436.0
0.044563384065730696 163364.0
0.044563384065730696 39242.0
0.0 125563.0
0.08912676813146139 155240.0
0.06684507609859604 182122.0
0.022281692032865348 576217.0
0.11140846016432673 29077.0
