0.0 170946.0
0.011140846016432674 77678.0
0.044563384065730696 8814.0
0.07798592211502872 8624.0
0.13369015219719207 100943.0
0.0 347217.0
0.011140846016432674 295880.0
0.07798592211502872 36925.0
0.03342253804929802 114686.0
0.0 555630.0
0.05570423008216337 468658.0
0.07798592211502872 135221.0
0.044563384065730696 23670.0
0.12254930618075942 208502.0
0.0 118775.0
0.05570423008216337 73866.0
0.03342253804929802 49027.0
0.05570423008216337 119380.0
0.011140846016432674 291735.0
0.11140846016432673 341243.0
0.08912676813146139 197644.0
0.06684507609859604 471448.0
0.03342253804929802 277220.0
0.15597184423005744 277995.0
0.07798592211502872 285404.0
0.022281692032865348 309449.0
0.10026761414789406 251971.0
0.03342253804929802 218193.0
0.011140846016432674 190956.0
0.044563384065730696 618723.0
0.06684507609859604 553359.0
0.06684507609859604 619970.0
0.08912676813146139 321608.0
0.011140846016432674 358157.0
0.044563384065730696 284964.0
0.044563384065730696 622475.0
0.044563384065730696 433945.0
0.022281692032865348 499224.0
0.022281692032865348 267167.0
0.011140846016432674 209621.0
0.03342253804929802 215588.0
0.05570423008216337 229427.0
0.05570423008216337 362597.0
0.10026761414789406 358222.0
0.03342253804929802 286742.0
0.011140846016432674 594147.0
0.0 16741.0
0.022281692032865348 444705.0
0.03342253804929802 473242.0
0.044563384065730696 449958.0
0.03342253804929802 665250.0
0.6238873769202298 524151.0
0.03342253804929802 507091.0
0.022281692032865348 331958.0
0.06684507609859604 437373.0
0.08912676813146139 450833.0
0.05570423008216337 428294.0
0.07798592211502872 463396.0
0.022281692032865348 367152.0
0.05570423008216337 409956.0
0.10026761414789406 427689.0
0.022281692032865348 514559.0
0.08912676813146139 481904.0
0.07798592211502872 519365.0
0.022281692032865348 536996.0
0.022281692032865348 396488.0
0.03342253804929802 493844.0
0.011140846016432674 476666.0
0.06684507609859604 511719.0
0.022281692032865348 540488.0
0.07798592211502872 238853.0
0.0 203008.0
0.07798592211502872 398268.0
0.044563384065730696 498814.0
0.044563384065730696 435911.0
0.05570423008216337 246037.0
0.0 632652.0
0.07798592211502872 399391.0
0.022281692032865348 143033.0
0.022281692032865348 220740.0
0.0 296195.0
0.022281692032865348 497975.0
0.05570423008216337 351242.0
0.08912676813146139 411487.0
0.044563384065730696 400924.0
0.011140846016432674 353803.0
0.044563384065730696 358496.0
0.011140846016432674 365317.0
0.14483099821362477 313614.0
0.022281692032865348 563955.0
0.28966199642724955 78161.0
0.044563384065730696 49047.0
0.044563384065730696 87938.0
0.08912676813146139 211752.0
0.011140846016432674 111291.0
0.07798592211502872 14894.0
0.03342253804929802 367612.0
0.11140846016432673 336014.0
0.03342253804929802 107736.0
0.011140846016432674 237720.0
0.08912676813146139 27783.0
0.011140846016432674 404263.0
0.10026761414789406 350353.0
0.06684507609859604 117998.0
0.0 258436.0
0.03342253804929802 163364.0
0.0 39242.0
0.03342253804929802 125563.0
0.03342253804929802 155240.0
0.06684507609859604 182122.0
0.0 576217.0
0.011140846016432674 29077.0
