0.46070588235294113
-1.0
1.5562352941176472
-0.6348235294117647
0.8258823529411764
-1.0
1.5562352941176472
8.494588235294117
4.112470588235294
15.432941176470587
-1.0
2.2865882352941176
0.09552941176470586
1.5562352941176472
3.3821176470588235
3.3821176470588235
-1.0
3.3821176470588235
0.09552941176470586
0.09552941176470586
1.5562352941176472
-0.2696470588235294
0.8258823529411764
-1.0
7.764235294117647
-0.2696470588235294
1.9214117647058824
1.9214117647058824
0.46070588235294113
-1.0
-0.6348235294117647
-1.0
0.46070588235294113
1.1910588235294117
0.09552941176470586
-0.6348235294117647
0.46070588235294113
-0.2696470588235294
-0.6348235294117647
0.8258823529411764
-0.2696470588235294
-0.2696470588235294
1.1910588235294117
-0.2696470588235294
-0.2696470588235294
-1.0
-1.0
-0.2696470588235294
-0.6348235294117647
-0.6348235294117647
1.5562352941176472
-0.6348235294117647
-0.6348235294117647
2.2865882352941176
8.129411764705882
1.5562352941176472
-1.0
-0.6348235294117647
-1.0
1.5562352941176472
0.8258823529411764
1.5562352941176472
-0.2696470588235294
0.46070588235294113
-0.6348235294117647
-0.2696470588235294
3.747294117647059
2.651764705882353
-0.6348235294117647
-1.0
-1.0
-1.0
1.9214117647058824
4.112470588235294
4.112470588235294
5.573176470588235
-1.0
0.09552941176470586
12.87670588235294
-0.6348235294117647
3.747294117647059
8.129411764705882
0.8258823529411764
-0.2696470588235294
0.09552941176470586
-0.6348235294117647
-1.0
6.668705882352941
0.09552941176470586
2.2865882352941176
1.5562352941176472
2.2865882352941176
-1.0
-0.6348235294117647
0.8258823529411764
0.46070588235294113
0.8258823529411764
-1.0
0.46070588235294113
0.09552941176470586
0.09552941176470586
0.46070588235294113
-0.6348235294117647
-0.2696470588235294
-1.0
-0.6348235294117647
0.09552941176470586
-0.6348235294117647
-0.6348235294117647
-0.2696470588235294
-0.2696470588235294
0.8258823529411764
-0.6348235294117647
-0.2696470588235294
-0.6348235294117647
1.9214117647058824
0.09552941176470586
0.09552941176470586
-0.6348235294117647
-1.0
2.651764705882353
1.9214117647058824
0.46070588235294113
-0.2696470588235294
1.5562352941176472
4.842823529411765
-0.2696470588235294
2.2865882352941176
0.46070588235294113
-0.2696470588235294
0.46070588235294113
3.3821176470588235
-1.0
5.573176470588235
7.033882352941177
-1.0
-0.2696470588235294
-0.6348235294117647
3.0169411764705885
4.112470588235294
0.09552941176470586
5.573176470588235
3.3821176470588235
1.5562352941176472
1.9214117647058824
0.46070588235294113
-1.0
1.5562352941176472
1.9214117647058824
1.9214117647058824
-0.2696470588235294
1.1910588235294117
2.2865882352941176
-0.6348235294117647
0.09552941176470586
0.09552941176470586
3.3821176470588235
6.303529411764706
-0.2696470588235294
-0.6348235294117647
1.1910588235294117
-0.2696470588235294
4.842823529411765
1.5562352941176472
0.46070588235294113
2.2865882352941176
1.9214117647058824
1.5562352941176472
2.2865882352941176
0.8258823529411764
2.2865882352941176
0.09552941176470586
0.46070588235294113
5.938352941176471
15.432941176470587
3.747294117647059
5.938352941176471
0.8258823529411764
1.5562352941176472
0.46070588235294113
22.006117647058822
3.3821176470588235
5.938352941176471
4.112470588235294
3.747294117647059
-1.0
0.8258823529411764
2.2865882352941176
3.3821176470588235
1.9214117647058824
4.112470588235294
-0.6348235294117647
6.668705882352941
1.5562352941176472
3.0169411764705885
0.8258823529411764
0.8258823529411764
-0.2696470588235294
0.46070588235294113
2.2865882352941176
0.8258823529411764
-0.6348235294117647
-0.6348235294117647
3.747294117647059
4.842823529411765
2.2865882352941176
-0.2696470588235294
1.5562352941176472
4.477647058823529
1.5562352941176472
1.9214117647058824
3.747294117647059
0.8258823529411764
3.3821176470588235
1.1910588235294117
0.09552941176470586
5.208
-1.0
0.09552941176470586
1.1910588235294117
3.3821176470588235
3.747294117647059
-0.6348235294117647
0.46070588235294113
-1.0
1.5562352941176472
-0.2696470588235294
0.09552941176470586
4.477647058823529
0.09552941176470586
-0.2696470588235294
-0.2696470588235294
0.09552941176470586
0.46070588235294113
0.09552941176470586
0.8258823529411764
0.8258823529411764
1.1910588235294117
-0.2696470588235294
0.8258823529411764
0.09552941176470586
0.46070588235294113
0.09552941176470586
-1.0
-0.6348235294117647
9.590117647058824
2.2865882352941176
0.09552941176470586
0.09552941176470586
-0.6348235294117647
1.5562352941176472
-1.0
1.1910588235294117
0.8258823529411764
0.8258823529411764
1.5562352941176472
-0.2696470588235294
0.09552941176470586
1.1910588235294117
-1.0
1.1910588235294117
1.1910588235294117
9.224941176470589
0.09552941176470586
0.46070588235294113
9.590117647058824
0.09552941176470586
1.9214117647058824
-0.2696470588235294
1.5562352941176472
0.46070588235294113
-0.2696470588235294
2.2865882352941176
-0.6348235294117647
1.9214117647058824
-0.2696470588235294
0.8258823529411764
0.46070588235294113
1.9214117647058824
1.5562352941176472
-0.2696470588235294
10.685647058823529
1.1910588235294117
-0.2696470588235294
1.1910588235294117
2.2865882352941176
0.46070588235294113
3.3821176470588235
2.651764705882353
1.5562352941176472
0.8258823529411764
4.842823529411765
0.8258823529411764
1.5562352941176472
3.0169411764705885
3.3821176470588235
-1.0
0.8258823529411764
-0.6348235294117647
-0.6348235294117647
0.09552941176470586
-1.0
4.112470588235294
-1.0
2.2865882352941176
1.1910588235294117
1.1910588235294117
0.8258823529411764
-0.6348235294117647
4.112470588235294
0.09552941176470586
1.1910588235294117
1.1910588235294117
0.09552941176470586
3.3821176470588235
-0.2696470588235294
1.1910588235294117
2.2865882352941176
1.5562352941176472
1.9214117647058824
1.5562352941176472
-0.2696470588235294
0.46070588235294113
0.8258823529411764
-1.0
8.494588235294117
-0.2696470588235294
-1.0
0.8258823529411764
1.1910588235294117
-0.2696470588235294
1.1910588235294117
-0.6348235294117647
-0.2696470588235294
0.8258823529411764
3.3821176470588235
0.46070588235294113
-0.2696470588235294
0.46070588235294113
8.859764705882354
-1.0
3.0169411764705885
0.46070588235294113
0.8258823529411764
3.0169411764705885
4.842823529411765
0.8258823529411764
3.0169411764705885
-0.2696470588235294
1.5562352941176472
1.9214117647058824
0.09552941176470586
1.5562352941176472
-0.2696470588235294
3.3821176470588235
-0.2696470588235294
7.033882352941177
1.5562352941176472
0.09552941176470586
-0.2696470588235294
-0.2696470588235294
0.8258823529411764
0.46070588235294113
-0.2696470588235294
0.8258823529411764
0.09552941176470586
0.46070588235294113
-1.0
2.651764705882353
1.5562352941176472
2.2865882352941176
0.46070588235294113
0.8258823529411764
-0.2696470588235294
7.399058823529412
-0.2696470588235294
0.8258823529411764
0.09552941176470586
0.8258823529411764
0.09552941176470586
0.8258823529411764
1.5562352941176472
-0.6348235294117647
2.2865882352941176
-1.0
0.09552941176470586
0.8258823529411764
-0.2696470588235294
-0.6348235294117647
0.09552941176470586
-0.2696470588235294
1.5562352941176472
15.432941176470587
0.46070588235294113
-0.2696470588235294
0.46070588235294113
1.1910588235294117
1.5562352941176472
2.2865882352941176
0.8258823529411764
4.112470588235294
-1.0
1.5562352941176472
0.09552941176470586
4.477647058823529
1.5562352941176472
5.938352941176471
1.1910588235294117
0.8258823529411764
2.651764705882353
0.8258823529411764
1.1910588235294117
0.09552941176470586
5.573176470588235
1.5562352941176472
0.09552941176470586
3.747294117647059
0.46070588235294113
1.1910588235294117
0.8258823529411764
3.747294117647059
-0.2696470588235294
-0.2696470588235294
-0.6348235294117647
-0.2696470588235294
5.573176470588235
0.09552941176470586
1.5562352941176472
1.1910588235294117
3.747294117647059
0.8258823529411764
-1.0
0.46070588235294113
2.651764705882353
-0.6348235294117647
-0.6348235294117647
0.09552941176470586
0.09552941176470586
-0.2696470588235294
1.9214117647058824
1.9214117647058824
-1.0
5.938352941176471
0.46070588235294113
0.8258823529411764
1.9214117647058824
-0.6348235294117647
1.1910588235294117
5.938352941176471
5.938352941176471
0.09552941176470586
1.1910588235294117
-0.6348235294117647
2.2865882352941176
3.0169411764705885
3.3821176470588235
0.8258823529411764
-1.0
0.09552941176470586
-0.6348235294117647
0.8258823529411764
0.46070588235294113
1.5562352941176472
0.46070588235294113
-1.0
0.09552941176470586
-0.6348235294117647
-0.6348235294117647
-0.2696470588235294
1.5562352941176472
-0.6348235294117647
1.1910588235294117
12.146352941176469
6.303529411764706
1.9214117647058824
4.112470588235294
6.303529411764706
7.033882352941177
-0.6348235294117647
-0.6348235294117647
0.46070588235294113
2.651764705882353
0.8258823529411764
8.494588235294117
19.449882352941174
-0.2696470588235294
0.46070588235294113
-1.0
0.09552941176470586
0.8258823529411764
2.2865882352941176
3.747294117647059
1.9214117647058824
1.1910588235294117
2.651764705882353
-0.2696470588235294
-1.0
0.8258823529411764
1.1910588235294117
0.09552941176470586
1.1910588235294117
0.09552941176470586
-0.6348235294117647
0.09552941176470586
-0.6348235294117647
-0.2696470588235294
0.46070588235294113
-0.2696470588235294
2.2865882352941176
-0.6348235294117647
4.842823529411765
-0.2696470588235294
-0.6348235294117647
-0.6348235294117647
1.9214117647058824
1.9214117647058824
0.8258823529411764
19.449882352941174
15.432941176470587
0.09552941176470586
2.2865882352941176
0.8258823529411764
3.0169411764705885
1.1910588235294117
0.8258823529411764
-0.2696470588235294
2.2865882352941176
1.9214117647058824
-1.0
0.46070588235294113
0.09552941176470586
0.46070588235294113
0.8258823529411764
6.668705882352941
0.09552941176470586
-0.2696470588235294
-1.0
3.0169411764705885
-0.6348235294117647
0.46070588235294113
-0.6348235294117647
0.8258823529411764
-0.6348235294117647
-0.2696470588235294
0.46070588235294113
-0.2696470588235294
6.668705882352941
-1.0
-0.2696470588235294
0.46070588235294113
-0.6348235294117647
-1.0
-0.6348235294117647
-0.6348235294117647
-1.0
2.651764705882353
-0.2696470588235294
7.033882352941177
7.033882352941177
-0.6348235294117647
5.208
5.208
11.781176470588234
0.46070588235294113
0.8258823529411764
0.46070588235294113
-1.0
1.9214117647058824
-0.2696470588235294
0.8258823529411764
-0.6348235294117647
4.477647058823529
-0.2696470588235294
0.09552941176470586
1.1910588235294117
-0.2696470588235294
0.09552941176470586
0.46070588235294113
-1.0
2.651764705882353
3.0169411764705885
0.46070588235294113
0.09552941176470586
-0.6348235294117647
-0.6348235294117647
1.1910588235294117
0.8258823529411764
0.8258823529411764
1.9214117647058824
-0.6348235294117647
-0.6348235294117647
-0.2696470588235294
-1.0
0.8258823529411764
-0.6348235294117647
1.9214117647058824
8.494588235294117
-0.6348235294117647
-0.6348235294117647
2.651764705882353
2.2865882352941176
1.1910588235294117
2.2865882352941176
-1.0
0.09552941176470586
-0.2696470588235294
-0.2696470588235294
-1.0
-1.0
1.1910588235294117
3.0169411764705885
1.1910588235294117
0.46070588235294113
3.747294117647059
-0.6348235294117647
-0.6348235294117647
3.747294117647059
-1.0
-0.6348235294117647
1.1910588235294117
0.8258823529411764
3.0169411764705885
-1.0
-0.6348235294117647
7.399058823529412
4.477647058823529
-1.0
-0.2696470588235294
-0.6348235294117647
0.09552941176470586
-1.0
-0.6348235294117647
1.9214117647058824
3.0169411764705885
-0.6348235294117647
11.781176470588234
4.842823529411765
3.3821176470588235
1.5562352941176472
-0.6348235294117647
-0.6348235294117647
11.416
2.651764705882353
4.477647058823529
0.09552941176470586
-0.6348235294117647
-0.2696470588235294
-0.2696470588235294
-1.0
-1.0
2.651764705882353
-1.0
0.8258823529411764
0.8258823529411764
-0.6348235294117647
-0.2696470588235294
4.112470588235294
-0.6348235294117647
-0.2696470588235294
-0.6348235294117647
4.112470588235294
-0.6348235294117647
0.09552941176470586
0.09552941176470586
1.1910588235294117
-1.0
-1.0
3.0169411764705885
2.2865882352941176
-1.0
0.46070588235294113
3.0169411764705885
0.09552941176470586
0.09552941176470586
-1.0
-1.0
-0.2696470588235294
-1.0
1.5562352941176472
1.5562352941176472
-1.0
-0.6348235294117647
0.09552941176470586
-0.2696470588235294
-1.0
0.09552941176470586
-0.6348235294117647
-0.6348235294117647
0.46070588235294113
1.5562352941176472
-0.2696470588235294
3.747294117647059
0.09552941176470586
-1.0
-0.2696470588235294
-1.0
3.3821176470588235
-1.0
-0.6348235294117647
0.8258823529411764
0.09552941176470586
-1.0
1.5562352941176472
-1.0
-1.0
-1.0
3.0169411764705885
4.477647058823529
-0.6348235294117647
-1.0
-1.0
2.2865882352941176
0.8258823529411764
1.1910588235294117
-1.0
-1.0
-0.2696470588235294
0.09552941176470586
-1.0
-0.2696470588235294
-0.2696470588235294
1.1910588235294117
-0.6348235294117647
-1.0
0.09552941176470586
-1.0
-1.0
-0.2696470588235294
1.5562352941176472
3.0169411764705885
0.46070588235294113
-1.0
-1.0
2.2865882352941176
-1.0
-1.0
0.46070588235294113
1.9214117647058824
0.09552941176470586
-1.0
1.9214117647058824
-1.0
-1.0
-1.0
-1.0
-1.0
0.46070588235294113
-1.0
-1.0
-0.6348235294117647
-1.0
4.842823529411765
4.477647058823529
-1.0
0.09552941176470586
-1.0
-1.0
0.46070588235294113
-1.0
-1.0
-1.0
-1.0
-1.0
-0.2696470588235294
-1.0
-1.0
-1.0
-1.0
-1.0
0.09552941176470586
-1.0
-1.0
-1.0
-1.0
-1.0
-1.0
