-1.0
2.796610169491525
-0.050847457627118675
4.694915254237288
8.491525423728813
3.7457627118644066
-1.0
4.694915254237288
1.847457627118644
1.847457627118644
0.8983050847457626
1.847457627118644
-0.050847457627118675
24.627118644067796
-1.0
-1.0
-0.050847457627118675
1.847457627118644
4.694915254237288
1.847457627118644
6.59322033898305
0.8983050847457626
-0.050847457627118675
17.033898305084747
3.7457627118644066
-1.0
7.542372881355932
3.7457627118644066
0.8983050847457626
0.8983050847457626
1.847457627118644
-1.0
11.338983050847457
-0.050847457627118675
-1.0
-0.050847457627118675
7.542372881355932
-1.0
-1.0
1.847457627118644
-1.0
6.59322033898305
-1.0
1.847457627118644
-1.0
-0.050847457627118675
2.796610169491525
-0.050847457627118675
-0.050847457627118675
1.847457627118644
1.847457627118644
21.779661016949152
0.8983050847457626
-0.050847457627118675
4.694915254237288
0.8983050847457626
1.847457627118644
0.8983050847457626
0.8983050847457626
7.542372881355932
4.694915254237288
0.8983050847457626
-0.050847457627118675
-1.0
2.796610169491525
-1.0
2.796610169491525
1.847457627118644
0.8983050847457626
-1.0
0.8983050847457626
-0.050847457627118675
-0.050847457627118675
0.8983050847457626
2.796610169491525
5.644067796610169
0.8983050847457626
11.338983050847457
0.8983050847457626
1.847457627118644
-0.050847457627118675
-0.050847457627118675
-1.0
-1.0
-1.0
0.8983050847457626
-1.0
3.7457627118644066
-0.050847457627118675
-0.050847457627118675
4.694915254237288
9.440677966101694
2.796610169491525
1.847457627118644
-0.050847457627118675
1.847457627118644
0.8983050847457626
-0.050847457627118675
-0.050847457627118675
-0.050847457627118675
8.491525423728813
-0.050847457627118675
4.694915254237288
3.7457627118644066
-1.0
1.847457627118644
0.8983050847457626
-1.0
2.796610169491525
2.796610169491525
-0.050847457627118675
6.59322033898305
