# name Xcent Ycent zprom dVmax sigmaz rpmax(fromcent) sumr90 Rminkpc S Mr13 Nm nspec frac
8624 193.71391 -2.62362 0.11976 514.59 202.70906 67.91302 206.76268 61.4162277 0.2559767 -1.25884 5 4 0.8
8814 193.22117 -2.19133 0.0706 450.2862 180.53895 73.29115 363.89293 71.3047059 0.1300573 -1.9335 4 4 1.0
14894 117.53795 39.61426 0.09677 272.4912 99.64235 109.5168 221.41595 102.0990184 0.0682505 -1.41659 4 4 1.0
16741 21.22148 15.02184 0.12667 413.676 152.52987 147.7309 222.98505 133.9630681 0.0639027 -1.03799 4 4 1.0
23670 203.64788 1.06822 0.08516 505.431 198.45345 69.87282 70.5162 58.1112098 0.0533783 -1.08811 4 4 1.0
27783 248.60188 43.39598 0.07283 453.312 185.13571 97.58335 207.88435 100.7275457 0.0394251 -1.8586 4 3 0.75
29077 169.79298 60.47769 0.13142 409.248 187.32294 131.88605 355.87127 221.1492868 0.0398563 -1.42963 4 4 1.0
36925 148.2495 -0.78617 0.08923 343.2045 128.34617 105.60537 136.48489 91.3302671 0.0454916 -1.99124 4 4 1.0
39242 125.01504 50.18017 0.0963 327.4182 134.15928 102.16229 180.78349 115.725686 0.0430005 -0.80964 4 3 0.75
49027 209.75049 5.39801 0.06587 123.507 57.88179 66.80129 245.02384 48.0185819 0.1700048 -0.37188 4 3 0.75
49047 257.16799 33.46056 0.10238 251.1228 108.47405 98.25921 105.22928 90.779559 0.0453417 -1.13268 4 4 1.0
73866 165.88943 4.87297 0.12969 65.61 26.84965 110.32947 175.74488 99.2405336 0.0955551 -1.29586 4 3 0.75
77678 43.49612 -6.79936 0.11309 142.4163 71.20815 107.98687 180.52076 94.7124716 0.0850856 -1.26822 4 2 0.5
78161 256.01048 33.87649 0.09149 239.5698 99.32266 88.64951 530.75328 67.9878755 0.3338704 -1.5221 5 3 0.6
87938 119.80663 37.7214 0.08477 498.7035 207.87479 76.98895 67.35447 69.7966908 0.0350531 -0.56043 4 3 0.75
100943 4.61978 -0.55457 0.06946 294.294 113.07966 75.46075 199.14766 75.1544109 0.0621963 -1.37077 4 4 1.0
107736 122.85953 43.63512 0.14295 113.58 46.38163 120.0186 225.08496 144.1152423 0.0684378 -1.59687 4 3 0.75
111291 251.32078 38.62099 0.09928 721.863 296.29933 89.83839 136.24254 76.763493 0.0777507 -0.99406 4 3 0.75
114686 160.17514 -0.32435 0.13402 239.919 99.68649 105.31901 104.68634 81.7291715 0.0887496 -1.33331 4 3 0.75
117998 124.75656 44.40707 0.05649 139.1625 55.90165 78.82362 348.10101 83.6496811 0.0598269 -1.57641 4 4 1.0
118775 161.89314 4.10631 0.09838 126.852 63.426 112.71027 133.06667 103.6606795 0.0409763 -1.72026 4 2 0.5
119380 214.5598 5.44632 0.10765 276.4158 138.2079 121.14931 149.19662 112.9336873 0.0453741 -1.26404 4 2 0.5
125563 126.69295 51.93898 0.13034 480.357 177.84779 122.01834 217.5605 171.7170451 0.0398474 -0.81874 4 4 1.0
135221 151.16676 2.96284 0.10389 662.607 224.83231 119.69172 401.68448 105.0588437 0.1326102 -1.66063 5 5 1.0
143033 115.7864 28.55282 0.07741 163.0755 61.33214 102.29823 236.19475 99.9545183 0.0508421 -0.65919 4 4 1.0
155240 264.89438 55.12962 0.10033 470.685 235.3425 115.6294 87.87976 90.3024322 0.0369208 -1.29203 4 2 0.5
163364 155.58122 48.63139 0.13984 225.849 91.24192 172.36178 158.48702 164.1493619 0.0357926 -0.4813 4 4 1.0
170946 16.36766 -10.34515 0.13107 443.631 221.8155 156.68531 180.20064 154.8713812 0.0409616 -1.67516 4 2 0.5
182122 185.31428 57.10753 0.06751 125.8692 57.6286 81.66957 337.4529 82.7326902 0.0825218 -1.91135 4 4 1.0
190956 166.30918 10.29937 0.0664 217.413 96.75093 116.21667 221.64627 95.8535358 0.03916 -1.76446 5 3 0.6
197644 136.31128 7.92619 0.06276 605.3841 193.75245 134.58815 302.33407 117.784583 0.03188 -1.96861 6 6 1.0
203008 123.30384 23.47563 0.08194 268.866 116.28865 48.67637 282.12197 46.9386803 0.3052989 -1.13345 4 3 0.75
208502 228.94105 2.79798 0.11084 451.0992 170.96852 165.58026 179.59161 148.0060628 0.033469 -0.88818 4 4 1.0
209621 161.60205 12.4614 0.13587 214.965 94.35619 147.53789 139.33539 114.0891566 0.0620455 -0.5425 4 3 0.75
211752 221.37819 37.57608 0.07095 294.246 128.94882 108.4392 350.55546 99.9957141 0.0642978 -1.19645 4 4 1.0
215588 164.80575 12.18907 0.12897 112.404 45.90051 122.04878 165.14539 103.8238678 0.0812589 -1.74884 4 3 0.75
218193 151.17004 10.4072 0.05579 130.0464 59.4601 124.07297 452.30031 118.7710737 0.0376725 -1.72812 4 3 0.75
220740 132.62608 30.43098 0.0714 286.983 103.78993 127.05291 225.87274 117.2357808 0.0304874 -1.91602 4 4 1.0
229427 185.5243 12.11329 0.0809 72.582 31.79448 130.96543 219.63767 121.7540842 0.0345151 -1.45041 4 3 0.75
237720 181.97037 44.05437 0.11309 622.5117 223.28919 105.44106 134.52259 113.1832898 0.0443957 -1.13168 4 4 1.0
238853 247.38033 20.33277 0.09171 119.214 51.49228 107.29923 174.06723 87.2227134 0.066815 -1.00631 4 3 0.75
246037 245.85406 24.85999 0.0675 250.83 89.09165 85.77305 180.7617 87.3536485 0.0396419 -1.73137 5 5 1.0
251971 226.24485 7.09086 0.0928 322.3632 138.00628 146.98235 168.37243 115.0716249 0.0379217 -1.33997 6 4 0.6666667
258436 160.12435 45.28765 0.13693 281.01 140.505 112.74288 90.13957 84.3756322 0.0743553 -0.41399 4 2 0.5
267167 157.21419 11.8632 0.11081 446.229 182.17638 163.21174 185.97823 138.1377839 0.0397689 -0.99704 4 3 0.75
277220 184.37793 7.95502 0.11775 5.6907 2.84535 129.75821 185.01065 102.4628969 0.0799228 -0.49774 4 2 0.5
277995 185.47981 8.07943 0.07195 903.222 286.79339 155.45359 492.65687 135.3517789 0.0506003 -1.82262 5 5 1.0
284964 227.34233 10.8118 0.09593 489.228 177.57262 113.49064 211.57486 97.8864245 0.0698586 -1.27131 4 4 1.0
285404 185.71314 8.56281 0.14214 688.752 248.52503 169.66733 304.61528 166.1659705 0.0690095 -1.7835 4 4 1.0
286742 226.59179 11.81801 0.07764 123.4818 50.91039 147.92506 260.92706 112.7128673 0.0444023 -0.7167 4 3 0.75
291735 241.65691 4.9404 0.11566 417.8055 196.54059 121.67805 252.05893 108.8167538 0.093578 -0.70407 4 3 0.75
295880 56.4235 -0.38195 0.10977 363.261 165.55545 139.50655 470.30585 112.1452367 0.1500756 -1.48884 4 4 1.0
296195 224.88055 29.70307 0.10364 96.4338 48.2169 138.00244 132.96839 125.7003199 0.0305321 -1.35286 4 2 0.5
309449 206.06385 6.98391 0.10202 517.392 193.64573 91.34963 88.59201 80.4299785 0.048324 -1.4327 4 4 1.0
313614 223.98989 34.38033 0.08788 141.3648 58.09899 101.23911 103.62933 80.2536955 0.0435228 -0.93982 4 3 0.75
321608 204.90297 9.94287 0.08306 865.2558 318.48826 74.1119 138.43328 67.160349 0.0749899 -1.21264 4 4 1.0
331958 198.17728 15.6128 0.07671 484.191 192.91739 126.81167 195.36221 104.8019015 0.0376225 -1.46385 4 4 1.0
336014 171.14008 40.42601 0.108 358.578 129.33684 85.23467 470.39873 89.6705795 0.2281864 -1.2219 4 4 1.0
341243 122.66658 6.05198 0.09862 435.0912 203.50539 136.43355 298.02917 103.4922193 0.0924686 -0.97981 5 3 0.6
347217 15.38841 0.53932 0.11894 714.72 258.7848 103.5193 118.49243 98.5404132 0.056312 -0.80212 4 4 1.0
350353 114.5395 44.85282 0.07959 139.254 69.627 113.84089 391.81739 103.0756267 0.0834119 -1.50583 4 2 0.5
351242 149.45249 30.82265 0.13651 230.676 99.3629 106.60335 177.27616 100.9103735 0.1017138 -0.54556 4 3 0.75
353803 136.28784 34.87724 0.10952 766.413 284.65724 109.93781 138.23204 112.0590365 0.0440044 -1.86618 4 4 1.0
358157 224.20439 11.06813 0.09145 410.8905 159.78672 150.65911 174.79211 117.5220763 0.0367704 -1.26611 5 4 0.8
358222 219.2276 12.15138 0.05476 143.142 58.43755 85.40845 343.0961 69.430913 0.0807728 -1.21458 4 3 0.75
358496 184.28508 35.28952 0.08771 262.986 102.4383 102.54595 188.20986 95.0262201 0.0561871 -1.51265 4 4 1.0
362597 210.34619 14.09119 0.10189 322.8432 141.21835 122.70218 134.72052 124.249665 0.0307236 -1.51799 4 3 0.75
365317 184.78361 35.50515 0.13492 261.42 93.19548 149.34199 241.49308 174.2215264 0.0455681 -1.23446 4 4 1.0
367152 130.6639 18.21434 0.10593 166.7868 64.65279 174.5251 287.51331 146.5686176 0.0504595 -1.42521 4 4 1.0
367612 170.31198 39.91317 0.06781 353.952 152.91837 76.31495 200.82044 67.6108388 0.0741371 -1.86639 4 4 1.0
396488 141.11278 21.23791 0.10419 314.004 132.65833 103.93926 216.12718 95.6730409 0.0864718 -0.78641 4 4 1.0
398268 130.38358 24.81449 0.08541 220.32 86.42037 165.07688 368.75515 151.6124523 0.0412269 -1.58887 5 4 0.8
399391 185.12006 27.17869 0.07863 278.907 115.88157 89.08563 126.52532 82.3036884 0.0413247 -0.80555 4 4 1.0
400924 192.56356 31.4032 0.10346 227.823 83.49046 105.86008 133.06968 102.6257647 0.0457033 -1.44605 5 5 1.0
403882 138.52864 66.06253 0.08783 486.4542 185.88569 195.86085 386.71699 180.9308839 0.0319223 -0.98844 4 4 1.0
404263 112.2505 45.34451 0.0963 72.198 31.81147 108.51992 166.21607 128.3599661 0.032139 -1.4971 4 3 0.75
409956 136.57645 17.89033 0.12454 435.2538 139.14676 145.87096 211.69511 110.4211434 0.0867317 -0.67181 5 5 1.0
411487 164.6742 31.73741 0.07248 240.945 98.51156 72.2201 299.38723 68.772331 0.1207077 -1.27936 4 4 1.0
427689 160.65391 18.61627 0.05601 274.4457 137.22285 121.62588 648.11783 98.8980391 0.0784355 -1.59231 4 2 0.5
428294 239.16147 15.82541 0.13327 6.933 3.4665 138.2418 76.88377 101.0403204 0.0422434 -0.98533 4 2 0.5
433945 127.08945 12.68861 0.0957 425.259 173.77628 89.18846 172.29965 78.367934 0.0883874 -1.60691 4 4 1.0
435911 207.22124 23.23798 0.10959 696.099 250.49129 96.00852 154.41669 89.3105815 0.077474 -1.1619 5 4 0.8
437373 217.0528 16.05214 0.14123 487.77 185.88771 168.91794 221.83639 147.5603014 0.0630388 -1.92494 4 4 1.0
444705 134.61976 14.22683 0.09941 417.4452 163.79505 114.80671 130.18939 94.9143817 0.0487136 -1.06271 4 4 1.0
449958 139.71661 15.74545 0.09297 445.86 170.71708 107.6043 242.65333 92.0389295 0.0857086 -1.71576 4 4 1.0
450833 236.40721 15.0609 0.08056 541.6635 214.81721 122.36476 163.37576 93.5284271 0.0431806 -1.65846 4 4 1.0
463396 241.51844 15.26145 0.10828 392.85 141.68194 143.54454 176.68512 127.0135413 0.0429194 -1.80645 4 4 1.0
468658 355.5373 -0.4352 0.13398 462.096 181.30542 145.80006 149.77479 130.4016899 0.0498548 -0.2374 4 4 1.0
471448 165.00989 8.40567 0.07305 419.9148 157.37165 136.21145 493.60774 120.7356846 0.0655027 -1.38669 6 4 0.6666667
473242 136.84875 16.00497 0.10291 351.7695 146.68187 136.77559 142.36102 129.29957 0.0305143 -1.11156 4 4 1.0
476666 206.87499 21.16643 0.11993 344.433 136.79032 138.71082 196.85025 112.2849427 0.0730865 -1.67018 5 4 0.8
481904 204.5882 18.93101 0.11482 297.105 118.69948 152.36811 240.73076 135.8492699 0.0566222 -1.27765 4 4 1.0
493844 181.64581 20.47303 0.11301 268.0338 121.25437 182.70371 385.02498 169.3130535 0.0567151 -1.59353 4 3 0.75
497975 117.77247 32.69645 0.07985 499.551 195.99294 113.67571 151.4383 90.2682049 0.0422894 -1.07281 4 4 1.0
498814 159.84151 25.07405 0.09085 392.304 155.54239 138.48146 176.24481 124.758038 0.0325103 -0.88627 4 4 1.0
499224 138.80546 12.51339 0.11629 285.846 116.70016 129.82531 87.55686 110.8634827 0.0316138 -0.99322 4 3 0.75
507091 191.28495 16.31678 0.08737 468.2925 175.08776 123.45446 184.66164 120.8612308 0.0338386 -1.6157 4 4 1.0
511719 215.25462 20.80088 0.10562 248.9118 101.71546 91.12493 91.66345 87.5427121 0.044868 -0.60811 4 3 0.75
514559 192.02694 17.99921 0.07569 249.8322 89.55698 98.37505 181.33279 79.0396027 0.0599214 -1.89811 4 4 1.0
519365 216.22728 17.1428 0.10134 397.0962 179.59579 144.10946 268.63629 138.4162059 0.0489007 -1.33474 4 3 0.75
524151 189.16415 16.88851 0.06937 508.3905 181.64766 118.18371 188.06862 103.4753016 0.0309061 -1.49395 5 5 1.0
536996 226.91845 19.05077 0.06759 604.7745 217.93073 116.58443 318.37966 105.9168962 0.0476114 -1.69427 4 4 1.0
540488 224.53837 20.52674 0.129 71.535 35.7675 116.39798 132.17664 99.3319456 0.0710837 -0.5223 4 2 0.5
553359 202.40894 9.87975 0.06639 128.8215 52.71295 94.63776 161.40979 88.5843009 0.0333861 -0.72885 4 4 1.0
555630 167.65833 0.04881 0.12474 604.611 227.07867 129.37472 131.08001 122.906634 0.0434697 -1.0116 4 4 1.0
563955 235.18034 33.68887 0.12606 347.838 142.1881 155.38563 138.98689 118.1092811 0.0508231 -0.69998 4 3 0.75
576217 147.71029 58.66702 0.11421 879.702 362.573 114.19147 237.52322 177.4390755 0.0324467 -1.70412 4 3 0.75
594147 325.90869 12.65861 0.11072 256.311 115.45292 158.51576 123.67649 122.067672 0.0338177 -1.9049 4 3 0.75
618723 188.52944 9.09544 0.08929 172.1028 80.79318 128.78242 239.94421 124.9218896 0.0427962 -1.56226 4 3 0.75
619970 202.69972 10.53657 0.08755 722.7228 306.61405 81.39999 105.57086 69.6644214 0.0584505 -1.11587 4 3 0.75
622475 240.05792 9.88117 0.10381 552.4965 251.45166 148.32152 140.97591 115.164965 0.0386756 -1.81243 4 3 0.75
632652 133.15296 25.5596 0.12486 722.403 309.57114 123.98044 129.57463 103.8065335 0.0603402 -1.95115 4 3 0.75
665250 167.44505 16.8909 0.10442 802.1478 334.29166 121.77292 165.69607 95.2900658 0.0670918 -0.57013 4 3 0.75
