%!PS-Adobe-3.0 EPSF-3.0
%%Title: graf_ws_hist2d_(62, 13)nbins_paresc.eps
%%Creator: matplotlib version 1.4.3, http://matplotlib.org/
%%CreationDate: Wed Nov 18 10:35:26 2015
%%Orientation: portrait
%%BoundingBox: 18 180 594 612
%%EndComments
%%BeginProlog
/mpldict 10 dict def
mpldict begin
/m { moveto } bind def
/l { lineto } bind def
/r { rlineto } bind def
/c { curveto } bind def
/cl { closepath } bind def
/box {
m
1 index 0 r
0 exch r
neg 0 r
cl
} bind def
/clipbox {
box
clip
newpath
} bind def
%!PS-Adobe-3.0 Resource-Font
%%Title: cmmi10
%%Copyright: Copyright (C) 1994, Basil K. Malyshev. All Rights Reserved.012BaKoMa Fonts Collection, Level-B.
%%Creator: Converted from TrueType to type 3 by PPR
25 dict begin
/_d{bind def}bind def
/_m{moveto}_d
/_l{lineto}_d
/_cl{closepath eofill}_d
/_c{curveto}_d
/_sc{7 -1 roll{setcachedevice}{pop pop pop pop pop pop}ifelse}_d
/_e{exec}_d
/FontName /Cmmi10 def
/PaintType 0 def
/FontMatrix[.001 0 0 .001 0 0]def
/FontBBox[-34 -250 1048 750]def
/FontType 3 def
/Encoding [ /sigma /omega ] def
/FontInfo 10 dict dup begin
/FamilyName (cmmi10) def
/FullName (cmmi10) def
/Notice (Copyright (C) 1994, Basil K. Malyshev. All Rights Reserved.012BaKoMa Fonts Collection, Level-B. ) def
/Weight (Regular) def
/Version (1.1/12-Nov-94) def
/ItalicAngle 0.0 def
/isFixedPitch false def
/UnderlinePosition -133 def
/UnderlineThickness 20 def
end readonly def
/CharStrings 2 dict dup begin
/sigma{{571 0 36 -10 568 431 _sc
187 -10 _m
157 -10 131 -3 108 10 _c
85 24 67 43 55 67 _c
42 91 36 118 36 147 _c
36 177 43 210 57 244 _c
71 278 90 310 114 338 _c
138 366 166 389 197 406 _c
227 422 259 431 291 431 _c
543 431 _l
549 431 555 428 560 424 _c
565 419 568 413 568 406 _c
568 396 564 387 557 380 _c
550 372 542 369 532 369 _c
410 369 _l
}_e{429 340 439 305 439 265 _c
439 231 432 198 419 166 _c
406 133 388 103 365 77 _c
342 50 315 29 284 13 _c
253 -2 221 -10 187 -10 _c
188 15 _m
224 15 257 29 285 58 _c
313 86 334 121 349 162 _c
364 203 372 241 372 277 _c
372 305 364 328 348 344 _c
332 360 310 369 282 369 _c
243 369 210 356 183 330 _c
156 304 136 271 122 232 _c
108 192 102 154 102 118 _c
}_e{102 89 109 65 124 45 _c
139 25 160 15 188 15 _c
_cl}_e}_d
/omega{{622 0 14 -10 605 443 _sc
121 -10 _m
83 -10 55 3 39 31 _c
22 58 14 92 14 132 _c
14 158 16 183 21 209 _c
25 234 32 260 42 286 _c
52 312 63 336 75 359 _c
87 381 101 403 117 425 _c
120 429 124 431 129 431 _c
133 431 136 429 139 427 _c
141 424 143 421 143 418 _c
143 414 142 411 140 408 _c
79 324 49 247 49 177 _c
49 146 56 120 70 98 _c
}_e{84 76 105 65 135 65 _c
159 65 182 72 204 87 _c
225 101 244 120 260 143 _c
260 155 262 173 266 198 _c
270 222 276 244 285 264 _c
293 283 304 293 316 293 _c
331 293 339 284 339 266 _c
339 255 336 242 332 226 _c
328 210 323 196 318 182 _c
312 168 306 153 298 136 _c
306 88 329 65 369 65 _c
392 65 415 71 439 85 _c
462 98 482 115 500 137 _c
}_e{518 159 532 182 542 207 _c
552 232 558 256 558 279 _c
558 299 554 314 548 326 _c
542 337 533 349 523 361 _c
513 373 508 383 508 391 _c
508 404 513 416 524 427 _c
535 437 547 443 560 443 _c
576 443 587 435 594 420 _c
601 405 605 388 605 370 _c
605 339 598 300 586 254 _c
574 208 560 169 545 138 _c
523 96 496 60 464 32 _c
432 4 395 -10 355 -10 _c
}_e{329 -10 308 -2 292 12 _c
276 27 266 48 262 75 _c
243 49 222 28 198 13 _c
174 -2 149 -10 121 -10 _c
_cl}_e}_d
end readonly def

/BuildGlyph
 {exch begin
 CharStrings exch
 2 copy known not{pop /.notdef}if
 true 3 1 roll get exec
 end}_d

/BuildChar {
 1 index /Encoding get exch get
 1 index /BuildGlyph get exec
}_d

FontName currentdict end definefont pop
%!PS-Adobe-3.0 Resource-Font
%%Title: Bitstream Vera Sans
%%Copyright: Copyright (c) 2003 by Bitstream, Inc. All Rights Reserved.
%%Creator: Converted from TrueType to type 3 by PPR
25 dict begin
/_d{bind def}bind def
/_m{moveto}_d
/_l{lineto}_d
/_cl{closepath eofill}_d
/_c{curveto}_d
/_sc{7 -1 roll{setcachedevice}{pop pop pop pop pop pop}ifelse}_d
/_e{exec}_d
/FontName /BitstreamVeraSans-Roman def
/PaintType 0 def
/FontMatrix[.001 0 0 .001 0 0]def
/FontBBox[-183 -236 1287 928]def
/FontType 3 def
/Encoding [ /space /hyphen /zero /one /two /three /C /D /E /F /H /L /N /P /S /T /a /b /c /d /e /i /l /m /n /o /p /r /s /t /u /v /y /z ] def
/FontInfo 10 dict dup begin
/FamilyName (Bitstream Vera Sans) def
/FullName (Bitstream Vera Sans) def
/Notice (Copyright (c) 2003 by Bitstream, Inc. All Rights Reserved. Bitstream Vera is a trademark of Bitstream, Inc.) def
/Weight (Roman) def
/Version (Release 1.10) def
/ItalicAngle 0.0 def
/isFixedPitch false def
/UnderlinePosition -213 def
/UnderlineThickness 143 def
end readonly def
/CharStrings 34 dict dup begin
/space{318 0 0 0 0 0 _sc
}_d
/hyphen{361 0 49 234 312 314 _sc
49 314 _m
312 314 _l
312 234 _l
49 234 _l
49 314 _l
_cl}_d
/zero{636 0 66 -13 570 742 _sc
318 664 _m
267 664 229 639 203 589 _c
177 539 165 464 165 364 _c
165 264 177 189 203 139 _c
229 89 267 64 318 64 _c
369 64 407 89 433 139 _c
458 189 471 264 471 364 _c
471 464 458 539 433 589 _c
407 639 369 664 318 664 _c
318 742 _m
399 742 461 709 505 645 _c
548 580 570 486 570 364 _c
570 241 548 147 505 83 _c
461 19 399 -13 318 -13 _c
236 -13 173 19 130 83 _c
87 147 66 241 66 364 _c
66 486 87 580 130 645 _c
173 709 236 742 318 742 _c
_cl}_d
/one{636 0 110 0 544 729 _sc
124 83 _m
285 83 _l
285 639 _l
110 604 _l
110 694 _l
284 729 _l
383 729 _l
383 83 _l
544 83 _l
544 0 _l
124 0 _l
124 83 _l
_cl}_d
/two{{636 0 73 0 536 742 _sc
192 83 _m
536 83 _l
536 0 _l
73 0 _l
73 83 _l
110 121 161 173 226 239 _c
290 304 331 346 348 365 _c
380 400 402 430 414 455 _c
426 479 433 504 433 528 _c
433 566 419 598 392 622 _c
365 646 330 659 286 659 _c
255 659 222 653 188 643 _c
154 632 117 616 78 594 _c
78 694 _l
118 710 155 722 189 730 _c
223 738 255 742 284 742 _c
}_e{359 742 419 723 464 685 _c
509 647 532 597 532 534 _c
532 504 526 475 515 449 _c
504 422 484 390 454 354 _c
446 344 420 317 376 272 _c
332 227 271 164 192 83 _c
_cl}_e}_d
/three{{636 0 76 -13 556 742 _sc
406 393 _m
453 383 490 362 516 330 _c
542 298 556 258 556 212 _c
556 140 531 84 482 45 _c
432 6 362 -13 271 -13 _c
240 -13 208 -10 176 -4 _c
144 1 110 10 76 22 _c
76 117 _l
103 101 133 89 166 81 _c
198 73 232 69 268 69 _c
330 69 377 81 409 105 _c
441 129 458 165 458 212 _c
458 254 443 288 413 312 _c
383 336 341 349 287 349 _c
}_e{202 349 _l
202 430 _l
291 430 _l
339 430 376 439 402 459 _c
428 478 441 506 441 543 _c
441 580 427 609 401 629 _c
374 649 336 659 287 659 _c
260 659 231 656 200 650 _c
169 644 135 635 98 623 _c
98 711 _l
135 721 170 729 203 734 _c
235 739 266 742 296 742 _c
370 742 429 725 473 691 _c
517 657 539 611 539 553 _c
539 513 527 479 504 451 _c
481 423 448 403 406 393 _c
_cl}_e}_d
/C{{698 0 56 -13 644 742 _sc
644 673 _m
644 569 _l
610 599 575 622 537 638 _c
499 653 460 661 418 661 _c
334 661 270 635 226 584 _c
182 533 160 460 160 364 _c
160 268 182 194 226 143 _c
270 92 334 67 418 67 _c
460 67 499 74 537 90 _c
575 105 610 128 644 159 _c
644 56 _l
609 32 572 15 534 4 _c
496 -7 455 -13 412 -13 _c
302 -13 215 20 151 87 _c
}_e{87 154 56 246 56 364 _c
56 481 87 573 151 641 _c
215 708 302 742 412 742 _c
456 742 497 736 535 725 _c
573 713 610 696 644 673 _c
_cl}_e}_d
/D{770 0 98 0 711 729 _sc
197 648 _m
197 81 _l
316 81 _l
416 81 490 103 537 149 _c
583 195 607 267 607 365 _c
607 463 583 534 537 580 _c
490 625 416 648 316 648 _c
197 648 _l
98 729 _m
301 729 _l
442 729 546 699 612 641 _c
678 582 711 490 711 365 _c
711 239 677 147 611 88 _c
545 29 441 0 301 0 _c
98 0 _l
98 729 _l
_cl}_d
/E{632 0 98 0 568 729 _sc
98 729 _m
559 729 _l
559 646 _l
197 646 _l
197 430 _l
544 430 _l
544 347 _l
197 347 _l
197 83 _l
568 83 _l
568 0 _l
98 0 _l
98 729 _l
_cl}_d
/F{575 0 98 0 517 729 _sc
98 729 _m
517 729 _l
517 646 _l
197 646 _l
197 431 _l
486 431 _l
486 348 _l
197 348 _l
197 0 _l
98 0 _l
98 729 _l
_cl}_d
/H{752 0 98 0 654 729 _sc
98 729 _m
197 729 _l
197 430 _l
555 430 _l
555 729 _l
654 729 _l
654 0 _l
555 0 _l
555 347 _l
197 347 _l
197 0 _l
98 0 _l
98 729 _l
_cl}_d
/L{557 0 98 0 552 729 _sc
98 729 _m
197 729 _l
197 83 _l
552 83 _l
552 0 _l
98 0 _l
98 729 _l
_cl}_d
/N{748 0 98 0 650 729 _sc
98 729 _m
231 729 _l
554 119 _l
554 729 _l
650 729 _l
650 0 _l
517 0 _l
194 610 _l
194 0 _l
98 0 _l
98 729 _l
_cl}_d
/P{603 0 98 0 569 729 _sc
197 648 _m
197 374 _l
321 374 _l
367 374 402 385 427 409 _c
452 433 465 467 465 511 _c
465 555 452 588 427 612 _c
402 636 367 648 321 648 _c
197 648 _l
98 729 _m
321 729 _l
402 729 464 710 506 673 _c
548 636 569 582 569 511 _c
569 439 548 384 506 348 _c
464 311 402 293 321 293 _c
197 293 _l
197 0 _l
98 0 _l
98 729 _l
_cl}_d
/S{{635 0 66 -13 579 742 _sc
535 705 _m
535 609 _l
497 627 462 640 429 649 _c
395 657 363 662 333 662 _c
279 662 237 651 208 631 _c
179 610 165 580 165 542 _c
165 510 174 485 194 469 _c
213 452 250 439 304 429 _c
364 417 _l
437 403 491 378 526 343 _c
561 307 579 260 579 201 _c
579 130 555 77 508 41 _c
460 5 391 -13 300 -13 _c
265 -13 228 -9 189 -2 _c
}_e{150 5 110 16 69 32 _c
69 134 _l
109 111 148 94 186 83 _c
224 71 262 66 300 66 _c
356 66 399 77 430 99 _c
460 121 476 152 476 194 _c
476 230 465 258 443 278 _c
421 298 385 313 335 323 _c
275 335 _l
201 349 148 372 115 404 _c
82 435 66 478 66 534 _c
66 598 88 649 134 686 _c
179 723 242 742 322 742 _c
356 742 390 739 426 733 _c
461 727 497 717 535 705 _c
}_e{_cl}_e}_d
/T{611 0 -2 0 614 729 _sc
-2 729 _m
614 729 _l
614 646 _l
355 646 _l
355 0 _l
256 0 _l
256 646 _l
-2 646 _l
-2 729 _l
_cl}_d
/a{{613 0 60 -13 522 560 _sc
343 275 _m
270 275 220 266 192 250 _c
164 233 150 205 150 165 _c
150 133 160 107 181 89 _c
202 70 231 61 267 61 _c
317 61 357 78 387 114 _c
417 149 432 196 432 255 _c
432 275 _l
343 275 _l
522 312 _m
522 0 _l
432 0 _l
432 83 _l
411 49 385 25 355 10 _c
325 -5 287 -13 243 -13 _c
187 -13 142 2 109 33 _c
76 64 60 106 60 159 _c
}_e{60 220 80 266 122 298 _c
163 329 224 345 306 345 _c
432 345 _l
432 354 _l
432 395 418 427 391 450 _c
364 472 326 484 277 484 _c
245 484 215 480 185 472 _c
155 464 127 453 100 439 _c
100 522 _l
132 534 164 544 195 550 _c
226 556 256 560 286 560 _c
365 560 424 539 463 498 _c
502 457 522 395 522 312 _c
_cl}_e}_d
/b{{635 0 91 -13 580 760 _sc
487 273 _m
487 339 473 390 446 428 _c
418 466 381 485 334 485 _c
286 485 249 466 222 428 _c
194 390 181 339 181 273 _c
181 207 194 155 222 117 _c
249 79 286 61 334 61 _c
381 61 418 79 446 117 _c
473 155 487 207 487 273 _c
181 464 _m
199 496 223 520 252 536 _c
281 552 316 560 356 560 _c
422 560 476 533 518 481 _c
559 428 580 359 580 273 _c
}_e{580 187 559 117 518 65 _c
476 13 422 -13 356 -13 _c
316 -13 281 -5 252 10 _c
223 25 199 49 181 82 _c
181 0 _l
91 0 _l
91 760 _l
181 760 _l
181 464 _l
_cl}_e}_d
/c{{550 0 55 -13 488 560 _sc
488 526 _m
488 442 _l
462 456 437 466 411 473 _c
385 480 360 484 334 484 _c
276 484 230 465 198 428 _c
166 391 150 339 150 273 _c
150 206 166 154 198 117 _c
230 80 276 62 334 62 _c
360 62 385 65 411 72 _c
437 79 462 90 488 104 _c
488 21 _l
462 9 436 0 410 -5 _c
383 -10 354 -13 324 -13 _c
242 -13 176 12 128 64 _c
}_e{79 115 55 185 55 273 _c
55 362 79 432 128 483 _c
177 534 244 560 330 560 _c
358 560 385 557 411 551 _c
437 545 463 537 488 526 _c
_cl}_e}_d
/d{{635 0 55 -13 544 760 _sc
454 464 _m
454 760 _l
544 760 _l
544 0 _l
454 0 _l
454 82 _l
435 49 411 25 382 10 _c
353 -5 319 -13 279 -13 _c
213 -13 159 13 117 65 _c
75 117 55 187 55 273 _c
55 359 75 428 117 481 _c
159 533 213 560 279 560 _c
319 560 353 552 382 536 _c
411 520 435 496 454 464 _c
148 273 _m
148 207 161 155 188 117 _c
215 79 253 61 301 61 _c
}_e{348 61 385 79 413 117 _c
440 155 454 207 454 273 _c
454 339 440 390 413 428 _c
385 466 348 485 301 485 _c
253 485 215 466 188 428 _c
161 390 148 339 148 273 _c
_cl}_e}_d
/e{{615 0 55 -13 562 560 _sc
562 296 _m
562 252 _l
149 252 _l
153 190 171 142 205 110 _c
238 78 284 62 344 62 _c
378 62 412 66 444 74 _c
476 82 509 95 541 113 _c
541 28 _l
509 14 476 3 442 -3 _c
408 -9 373 -13 339 -13 _c
251 -13 182 12 131 62 _c
80 112 55 181 55 268 _c
55 357 79 428 127 481 _c
175 533 241 560 323 560 _c
397 560 455 536 498 489 _c
}_e{540 441 562 377 562 296 _c
472 322 _m
471 371 457 410 431 440 _c
404 469 368 484 324 484 _c
274 484 234 469 204 441 _c
174 413 156 373 152 322 _c
472 322 _l
_cl}_e}_d
/i{278 0 94 0 184 760 _sc
94 547 _m
184 547 _l
184 0 _l
94 0 _l
94 547 _l
94 760 _m
184 760 _l
184 646 _l
94 646 _l
94 760 _l
_cl}_d
/l{278 0 94 0 184 760 _sc
94 760 _m
184 760 _l
184 0 _l
94 0 _l
94 760 _l
_cl}_d
/m{{974 0 91 0 889 560 _sc
520 442 _m
542 482 569 511 600 531 _c
631 550 668 560 711 560 _c
767 560 811 540 842 500 _c
873 460 889 403 889 330 _c
889 0 _l
799 0 _l
799 327 _l
799 379 789 418 771 444 _c
752 469 724 482 686 482 _c
639 482 602 466 575 435 _c
548 404 535 362 535 309 _c
535 0 _l
445 0 _l
445 327 _l
445 379 435 418 417 444 _c
398 469 369 482 331 482 _c
}_e{285 482 248 466 221 435 _c
194 404 181 362 181 309 _c
181 0 _l
91 0 _l
91 547 _l
181 547 _l
181 462 _l
201 495 226 520 255 536 _c
283 552 317 560 357 560 _c
397 560 430 550 458 530 _c
486 510 506 480 520 442 _c
_cl}_e}_d
/n{634 0 91 0 549 560 _sc
549 330 _m
549 0 _l
459 0 _l
459 327 _l
459 379 448 417 428 443 _c
408 469 378 482 338 482 _c
289 482 251 466 223 435 _c
195 404 181 362 181 309 _c
181 0 _l
91 0 _l
91 547 _l
181 547 _l
181 462 _l
202 494 227 519 257 535 _c
286 551 320 560 358 560 _c
420 560 468 540 500 501 _c
532 462 549 405 549 330 _c
_cl}_d
/o{612 0 55 -13 557 560 _sc
306 484 _m
258 484 220 465 192 427 _c
164 389 150 338 150 273 _c
150 207 163 156 191 118 _c
219 80 257 62 306 62 _c
354 62 392 80 420 118 _c
448 156 462 207 462 273 _c
462 337 448 389 420 427 _c
392 465 354 484 306 484 _c
306 560 _m
384 560 445 534 490 484 _c
534 433 557 363 557 273 _c
557 183 534 113 490 63 _c
445 12 384 -13 306 -13 _c
227 -13 165 12 121 63 _c
77 113 55 183 55 273 _c
55 363 77 433 121 484 _c
165 534 227 560 306 560 _c
_cl}_d
/p{{635 0 91 -207 580 560 _sc
181 82 _m
181 -207 _l
91 -207 _l
91 547 _l
181 547 _l
181 464 _l
199 496 223 520 252 536 _c
281 552 316 560 356 560 _c
422 560 476 533 518 481 _c
559 428 580 359 580 273 _c
580 187 559 117 518 65 _c
476 13 422 -13 356 -13 _c
316 -13 281 -5 252 10 _c
223 25 199 49 181 82 _c
487 273 _m
487 339 473 390 446 428 _c
418 466 381 485 334 485 _c
}_e{286 485 249 466 222 428 _c
194 390 181 339 181 273 _c
181 207 194 155 222 117 _c
249 79 286 61 334 61 _c
381 61 418 79 446 117 _c
473 155 487 207 487 273 _c
_cl}_e}_d
/r{411 0 91 0 411 560 _sc
411 463 _m
401 469 390 473 378 476 _c
366 478 353 480 339 480 _c
288 480 249 463 222 430 _c
194 397 181 350 181 288 _c
181 0 _l
91 0 _l
91 547 _l
181 547 _l
181 462 _l
199 495 224 520 254 536 _c
284 552 321 560 365 560 _c
371 560 378 559 386 559 _c
393 558 401 557 411 555 _c
411 463 _l
_cl}_d
/s{{521 0 54 -13 472 560 _sc
443 531 _m
443 446 _l
417 458 391 468 364 475 _c
336 481 308 485 279 485 _c
234 485 200 478 178 464 _c
156 450 145 430 145 403 _c
145 382 153 366 169 354 _c
185 342 217 330 265 320 _c
296 313 _l
360 299 405 279 432 255 _c
458 230 472 195 472 151 _c
472 100 452 60 412 31 _c
372 1 316 -13 246 -13 _c
216 -13 186 -10 154 -5 _c
}_e{122 0 89 8 54 20 _c
54 113 _l
87 95 120 82 152 74 _c
184 65 216 61 248 61 _c
290 61 323 68 346 82 _c
368 96 380 117 380 144 _c
380 168 371 187 355 200 _c
339 213 303 226 247 238 _c
216 245 _l
160 257 119 275 95 299 _c
70 323 58 356 58 399 _c
58 450 76 490 112 518 _c
148 546 200 560 268 560 _c
301 560 332 557 362 552 _c
391 547 418 540 443 531 _c
}_e{_cl}_e}_d
/t{392 0 27 0 368 702 _sc
183 702 _m
183 547 _l
368 547 _l
368 477 _l
183 477 _l
183 180 _l
183 135 189 106 201 94 _c
213 81 238 75 276 75 _c
368 75 _l
368 0 _l
276 0 _l
206 0 158 13 132 39 _c
106 65 93 112 93 180 _c
93 477 _l
27 477 _l
27 547 _l
93 547 _l
93 702 _l
183 702 _l
_cl}_d
/u{634 0 85 -13 543 547 _sc
85 216 _m
85 547 _l
175 547 _l
175 219 _l
175 167 185 129 205 103 _c
225 77 255 64 296 64 _c
344 64 383 79 411 110 _c
439 141 453 183 453 237 _c
453 547 _l
543 547 _l
543 0 _l
453 0 _l
453 84 _l
431 50 405 26 377 10 _c
348 -5 315 -13 277 -13 _c
214 -13 166 6 134 45 _c
101 83 85 140 85 216 _c
_cl}_d
/v{592 0 30 0 562 547 _sc
30 547 _m
125 547 _l
296 88 _l
467 547 _l
562 547 _l
357 0 _l
235 0 _l
30 547 _l
_cl}_d
/y{592 0 30 -207 562 547 _sc
322 -50 _m
296 -114 271 -157 247 -177 _c
223 -197 191 -207 151 -207 _c
79 -207 _l
79 -132 _l
132 -132 _l
156 -132 175 -126 189 -114 _c
203 -102 218 -75 235 -31 _c
251 9 _l
30 547 _l
125 547 _l
296 119 _l
467 547 _l
562 547 _l
322 -50 _l
_cl}_d
/z{525 0 43 0 482 547 _sc
55 547 _m
482 547 _l
482 465 _l
144 72 _l
482 72 _l
482 0 _l
43 0 _l
43 82 _l
381 475 _l
55 475 _l
55 547 _l
_cl}_d
end readonly def

/BuildGlyph
 {exch begin
 CharStrings exch
 2 copy known not{pop /.notdef}if
 true 3 1 roll get exec
 end}_d

/BuildChar {
 1 index /Encoding get exch get
 1 index /BuildGlyph get exec
}_d

FontName currentdict end definefont pop
%!PS-Adobe-3.0 Resource-Font
%%Title: cmr10
%%Copyright: Copyright (C) 1994, Basil K. Malyshev. All Rights Reserved.012BaKoMa Fonts Collection, Level-B.
%%Creator: Converted from TrueType to type 3 by PPR
25 dict begin
/_d{bind def}bind def
/_m{moveto}_d
/_l{lineto}_d
/_cl{closepath eofill}_d
/_c{curveto}_d
/_sc{7 -1 roll{setcachedevice}{pop pop pop pop pop pop}ifelse}_d
/_e{exec}_d
/FontName /Cmr10 def
/PaintType 0 def
/FontMatrix[.001 0 0 .001 0 0]def
/FontBBox[-44 -250 1009 750]def
/FontType 3 def
/Encoding [ /parenright /parenleft ] def
/FontInfo 10 dict dup begin
/FamilyName (cmr10) def
/FullName (cmr10) def
/Notice (Copyright (C) 1994, Basil K. Malyshev. All Rights Reserved.012BaKoMa Fonts Collection, Level-B. ) def
/Weight (Regular) def
/Version (1.1/12-Nov-94) def
/ItalicAngle 0.0 def
/isFixedPitch false def
/UnderlinePosition -133 def
/UnderlineThickness 20 def
end readonly def
/CharStrings 2 dict dup begin
/parenright{{388 0 56 -249 291 750 _sc
65 -249 _m
59 -249 56 -246 56 -240 _c
56 -237 56 -235 58 -234 _c
172 -122 229 38 229 250 _c
229 462 172 623 60 733 _c
57 734 56 737 56 741 _c
56 743 57 745 59 747 _c
61 749 63 750 65 750 _c
74 750 _l
76 750 77 749 79 748 _c
127 710 167 664 199 610 _c
231 556 254 498 269 437 _c
283 376 291 314 291 250 _c
291 202 287 156 279 110 _c
}_e{271 64 258 20 241 -24 _c
223 -68 201 -108 175 -146 _c
148 -184 116 -217 79 -247 _c
77 -248 76 -249 74 -249 _c
65 -249 _l
_cl}_e}_d
/parenleft{{388 0 97 -249 332 750 _sc
310 -247 _m
272 -217 240 -184 214 -146 _c
187 -108 165 -67 148 -25 _c
131 17 118 62 110 109 _c
101 155 97 202 97 250 _c
97 298 101 345 110 392 _c
118 438 131 483 149 527 _c
166 570 188 611 215 649 _c
242 687 274 720 310 748 _c
310 749 311 750 315 750 _c
324 750 _l
326 750 327 749 329 747 _c
331 745 332 743 332 741 _c
332 738 331 736 330 735 _c
}_e{297 703 270 668 248 632 _c
226 596 209 557 196 516 _c
183 474 174 432 168 388 _c
162 344 159 298 159 250 _c
159 38 215 -122 329 -232 _c
331 -234 332 -236 332 -240 _c
332 -242 331 -244 329 -246 _c
327 -248 326 -249 324 -249 _c
315 -249 _l
311 -249 310 -248 310 -247 _c
_cl}_e}_d
end readonly def

/BuildGlyph
 {exch begin
 CharStrings exch
 2 copy known not{pop /.notdef}if
 true 3 1 roll get exec
 end}_d

/BuildChar {
 1 index /Encoding get exch get
 1 index /BuildGlyph get exec
}_d

FontName currentdict end definefont pop
end
%%EndProlog
mpldict begin
18 180 translate
576 432 0 0 clipbox
gsave
0 0 m
576 0 l
576 432 l
0 432 l
cl
1.000 setgray
fill
grestore
gsave
68.2147 55.89 m
552.267 55.89 l
552.267 400.54 l
68.2147 400.54 l
cl
1.000 setgray
fill
grestore
1.000 setlinewidth
1 setlinejoin
0 setlinecap
[] 0 setdash
0.000 setgray
gsave
484.1 344.7 68.21 55.89 clipbox
/o {
gsave
newpath
translate
1.0 setlinewidth
1 setlinejoin
0 setlinecap
0 -2.5 m
0.663008 -2.5 1.29895 -2.23658 1.76777 -1.76777 c
2.23658 -1.29895 2.5 -0.663008 2.5 0 c
2.5 0.663008 2.23658 1.29895 1.76777 1.76777 c
1.29895 2.23658 0.663008 2.5 0 2.5 c
-0.663008 2.5 -1.29895 2.23658 -1.76777 1.76777 c
-2.23658 1.29895 -2.5 0.663008 -2.5 0 c
-2.5 -0.663008 -2.23658 -1.29895 -1.76777 -1.76777 c
-1.29895 -2.23658 -0.663008 -2.5 0 -2.5 c
cl
gsave
0.000 setgray
fill
grestore
stroke
grestore
} bind def
193.919 275.178 o
219.768 270.943 o
245.617 263.608 o
271.467 254.449 o
297.316 245.97 o
323.165 237.201 o
349.015 226.347 o
374.864 214.492 o
400.713 203.394 o
426.563 190.081 o
grestore
1.000 0.000 0.000 setrgbcolor
gsave
484.1 344.7 68.21 55.89 clipbox
/o {
gsave
newpath
translate
1.0 setlinewidth
1 setlinejoin
0 setlinecap
0 -2.5 m
0.663008 -2.5 1.29895 -2.23658 1.76777 -1.76777 c
2.23658 -1.29895 2.5 -0.663008 2.5 0 c
2.5 0.663008 2.23658 1.29895 1.76777 1.76777 c
1.29895 2.23658 0.663008 2.5 0 2.5 c
-0.663008 2.5 -1.29895 2.23658 -1.76777 1.76777 c
-2.23658 1.29895 -2.5 0.663008 -2.5 0 c
-2.5 -0.663008 -2.23658 -1.29895 -1.76777 -1.76777 c
-1.29895 -2.23658 -0.663008 -2.5 0 -2.5 c
cl
gsave
1.000 0.000 0.000 setrgbcolor
fill
grestore
stroke
grestore
} bind def
193.919 280.057 o
219.768 268.954 o
245.617 258.741 o
271.467 248.955 o
297.316 239.613 o
323.165 231.215 o
349.015 218.662 o
374.864 206.652 o
400.713 193.14 o
426.563 177.474 o
grestore
0.000 0.000 1.000 setrgbcolor
gsave
484.1 344.7 68.21 55.89 clipbox
/o {
gsave
newpath
translate
1.0 setlinewidth
1 setlinejoin
0 setlinecap
0 -2.5 m
0.663008 -2.5 1.29895 -2.23658 1.76777 -1.76777 c
2.23658 -1.29895 2.5 -0.663008 2.5 0 c
2.5 0.663008 2.23658 1.29895 1.76777 1.76777 c
1.29895 2.23658 0.663008 2.5 0 2.5 c
-0.663008 2.5 -1.29895 2.23658 -1.76777 1.76777 c
-2.23658 1.29895 -2.5 0.663008 -2.5 0 c
-2.5 -0.663008 -2.23658 -1.29895 -1.76777 -1.76777 c
-1.29895 -2.23658 -0.663008 -2.5 0 -2.5 c
cl
gsave
0.000 0.000 1.000 setrgbcolor
fill
grestore
stroke
grestore
} bind def
193.919 285.618 o
219.768 267.117 o
245.617 253.672 o
271.467 243.058 o
297.316 232.616 o
323.165 224.651 o
349.015 209.882 o
374.864 197.607 o
400.713 180.603 o
426.563 161.059 o
grestore
0.000 0.500 0.000 setrgbcolor
gsave
484.1 344.7 68.21 55.89 clipbox
/o {
gsave
newpath
translate
1.0 setlinewidth
1 setlinejoin
0 setlinecap
0 -2.5 m
0.663008 -2.5 1.29895 -2.23658 1.76777 -1.76777 c
2.23658 -1.29895 2.5 -0.663008 2.5 0 c
2.5 0.663008 2.23658 1.29895 1.76777 1.76777 c
1.29895 2.23658 0.663008 2.5 0 2.5 c
-0.663008 2.5 -1.29895 2.23658 -1.76777 1.76777 c
-2.23658 1.29895 -2.5 0.663008 -2.5 0 c
-2.5 -0.663008 -2.23658 -1.29895 -1.76777 -1.76777 c
-1.29895 -2.23658 -0.663008 -2.5 0 -2.5 c
cl
gsave
0.000 0.500 0.000 setrgbcolor
fill
grestore
stroke
grestore
} bind def
193.919 272.371 o
219.768 266.543 o
245.617 258.971 o
271.467 246.742 o
297.316 235.761 o
323.165 226.862 o
349.015 213.009 o
374.864 200.411 o
400.713 183.606 o
426.563 164.006 o
grestore
0.000 setgray
gsave
484.1 344.7 68.21 55.89 clipbox
193.919 274.567 m
193.919 275.781 l
stroke
grestore
gsave
484.1 344.7 68.21 55.89 clipbox
219.768 270.04 m
219.768 271.831 l
stroke
grestore
gsave
484.1 344.7 68.21 55.89 clipbox
245.617 262.81 m
245.617 264.394 l
stroke
grestore
gsave
484.1 344.7 68.21 55.89 clipbox
271.467 253.865 m
271.467 255.027 l
stroke
grestore
gsave
484.1 344.7 68.21 55.89 clipbox
297.316 245.542 m
297.316 246.394 l
stroke
grestore
gsave
484.1 344.7 68.21 55.89 clipbox
323.165 236.728 m
323.165 237.669 l
stroke
grestore
gsave
484.1 344.7 68.21 55.89 clipbox
349.015 225.702 m
349.015 226.983 l
stroke
grestore
gsave
484.1 344.7 68.21 55.89 clipbox
374.864 214.036 m
374.864 214.943 l
stroke
grestore
gsave
484.1 344.7 68.21 55.89 clipbox
400.713 202.992 m
400.713 203.793 l
stroke
grestore
gsave
484.1 344.7 68.21 55.89 clipbox
426.563 189.454 m
426.563 190.701 l
stroke
grestore
1.000 0.000 0.000 setrgbcolor
gsave
484.1 344.7 68.21 55.89 clipbox
193.919 278.558 m
193.919 281.512 l
stroke
grestore
gsave
484.1 344.7 68.21 55.89 clipbox
219.768 267.348 m
219.768 270.51 l
stroke
grestore
gsave
484.1 344.7 68.21 55.89 clipbox
245.617 257.02 m
245.617 260.405 l
stroke
grestore
gsave
484.1 344.7 68.21 55.89 clipbox
271.467 247.237 m
271.467 250.616 l
stroke
grestore
gsave
484.1 344.7 68.21 55.89 clipbox
297.316 237.78 m
297.316 241.381 l
stroke
grestore
gsave
484.1 344.7 68.21 55.89 clipbox
323.165 229.132 m
323.165 233.214 l
stroke
grestore
gsave
484.1 344.7 68.21 55.89 clipbox
349.015 216.257 m
349.015 220.957 l
stroke
grestore
gsave
484.1 344.7 68.21 55.89 clipbox
374.864 203.856 m
374.864 209.299 l
stroke
grestore
gsave
484.1 344.7 68.21 55.89 clipbox
400.713 189.212 m
400.713 196.782 l
stroke
grestore
gsave
484.1 344.7 68.21 55.89 clipbox
426.563 172.799 m
426.563 181.749 l
stroke
grestore
0.000 0.000 1.000 setrgbcolor
gsave
484.1 344.7 68.21 55.89 clipbox
193.919 282.496 m
193.919 288.556 l
stroke
grestore
gsave
484.1 344.7 68.21 55.89 clipbox
219.768 263.925 m
219.768 270.117 l
stroke
grestore
gsave
484.1 344.7 68.21 55.89 clipbox
245.617 249.661 m
245.617 257.384 l
stroke
grestore
gsave
484.1 344.7 68.21 55.89 clipbox
271.467 239.07 m
271.467 246.751 l
stroke
grestore
gsave
484.1 344.7 68.21 55.89 clipbox
297.316 227.967 m
297.316 236.868 l
stroke
grestore
gsave
484.1 344.7 68.21 55.89 clipbox
323.165 219.306 m
323.165 229.479 l
stroke
grestore
gsave
484.1 344.7 68.21 55.89 clipbox
349.015 203.654 m
349.015 215.419 l
stroke
grestore
gsave
484.1 344.7 68.21 55.89 clipbox
374.864 189.71 m
374.864 204.423 l
stroke
grestore
gsave
484.1 344.7 68.21 55.89 clipbox
400.713 168.668 m
400.713 190.227 l
stroke
grestore
gsave
484.1 344.7 68.21 55.89 clipbox
426.563 143.917 m
426.563 173.794 l
stroke
grestore
0.502 setgray
gsave
484.1 344.7 68.21 55.89 clipbox
193.919 270.778 m
193.919 273.915 l
stroke
grestore
gsave
484.1 344.7 68.21 55.89 clipbox
219.768 264.789 m
219.768 268.238 l
stroke
grestore
gsave
484.1 344.7 68.21 55.89 clipbox
245.617 257.293 m
245.617 260.594 l
stroke
grestore
gsave
484.1 344.7 68.21 55.89 clipbox
271.467 244.767 m
271.467 248.642 l
stroke
grestore
gsave
484.1 344.7 68.21 55.89 clipbox
297.316 233.212 m
297.316 238.187 l
stroke
grestore
gsave
484.1 344.7 68.21 55.89 clipbox
323.165 223.875 m
323.165 229.68 l
stroke
grestore
gsave
484.1 344.7 68.21 55.89 clipbox
349.015 209.255 m
349.015 216.5 l
stroke
grestore
gsave
484.1 344.7 68.21 55.89 clipbox
374.864 195.647 m
374.864 204.76 l
stroke
grestore
gsave
484.1 344.7 68.21 55.89 clipbox
400.713 176.256 m
400.713 190.011 l
stroke
grestore
gsave
484.1 344.7 68.21 55.89 clipbox
426.563 153.363 m
426.563 172.773 l
stroke
grestore
0.500 setlinewidth
0.000 setgray
gsave
484.1 344.7 68.21 55.89 clipbox
/o {
gsave
newpath
translate
0.5 setlinewidth
1 setlinejoin
0 setlinecap
3 -1.83697e-16 m
-3 1.83697e-16 l
gsave
0.000 setgray
fill
grestore
stroke
grestore
} bind def
193.919 274.567 o
219.768 270.04 o
245.617 262.81 o
271.467 253.865 o
297.316 245.542 o
323.165 236.728 o
349.015 225.702 o
374.864 214.036 o
400.713 202.992 o
426.563 189.454 o
grestore
gsave
484.1 344.7 68.21 55.89 clipbox
/o {
gsave
newpath
translate
0.5 setlinewidth
1 setlinejoin
0 setlinecap
3 -1.83697e-16 m
-3 1.83697e-16 l
gsave
0.000 setgray
fill
grestore
stroke
grestore
} bind def
193.919 275.781 o
219.768 271.831 o
245.617 264.394 o
271.467 255.027 o
297.316 246.394 o
323.165 237.669 o
349.015 226.983 o
374.864 214.943 o
400.713 203.793 o
426.563 190.701 o
grestore
1.000 setlinewidth
2 setlinecap
gsave
484.1 344.7 68.21 55.89 clipbox
193.919 275.178 m
219.768 270.943 l
245.617 263.608 l
271.467 254.449 l
297.316 245.97 l
323.165 237.201 l
349.015 226.347 l
374.864 214.492 l
400.713 203.394 l
426.563 190.081 l
stroke
grestore
0.500 setlinewidth
0 setlinecap
1.000 0.000 0.000 setrgbcolor
gsave
484.1 344.7 68.21 55.89 clipbox
/o {
gsave
newpath
translate
0.5 setlinewidth
1 setlinejoin
0 setlinecap
3 -1.83697e-16 m
-3 1.83697e-16 l
gsave
1.000 0.000 0.000 setrgbcolor
fill
grestore
stroke
grestore
} bind def
193.919 278.558 o
219.768 267.348 o
245.617 257.02 o
271.467 247.237 o
297.316 237.78 o
323.165 229.132 o
349.015 216.257 o
374.864 203.856 o
400.713 189.212 o
426.563 172.799 o
grestore
gsave
484.1 344.7 68.21 55.89 clipbox
/o {
gsave
newpath
translate
0.5 setlinewidth
1 setlinejoin
0 setlinecap
3 -1.83697e-16 m
-3 1.83697e-16 l
gsave
1.000 0.000 0.000 setrgbcolor
fill
grestore
stroke
grestore
} bind def
193.919 281.512 o
219.768 270.51 o
245.617 260.405 o
271.467 250.616 o
297.316 241.381 o
323.165 233.214 o
349.015 220.957 o
374.864 209.299 o
400.713 196.782 o
426.563 181.749 o
grestore
1.000 setlinewidth
2 setlinecap
gsave
484.1 344.7 68.21 55.89 clipbox
193.919 280.057 m
219.768 268.954 l
245.617 258.741 l
271.467 248.955 l
297.316 239.613 l
323.165 231.215 l
349.015 218.662 l
374.864 206.652 l
400.713 193.14 l
426.563 177.474 l
stroke
grestore
0.500 setlinewidth
0 setlinecap
0.000 0.000 1.000 setrgbcolor
gsave
484.1 344.7 68.21 55.89 clipbox
/o {
gsave
newpath
translate
0.5 setlinewidth
1 setlinejoin
0 setlinecap
3 -1.83697e-16 m
-3 1.83697e-16 l
gsave
0.000 0.000 1.000 setrgbcolor
fill
grestore
stroke
grestore
} bind def
193.919 282.496 o
219.768 263.925 o
245.617 249.661 o
271.467 239.07 o
297.316 227.967 o
323.165 219.306 o
349.015 203.654 o
374.864 189.71 o
400.713 168.668 o
426.563 143.917 o
grestore
gsave
484.1 344.7 68.21 55.89 clipbox
/o {
gsave
newpath
translate
0.5 setlinewidth
1 setlinejoin
0 setlinecap
3 -1.83697e-16 m
-3 1.83697e-16 l
gsave
0.000 0.000 1.000 setrgbcolor
fill
grestore
stroke
grestore
} bind def
193.919 288.556 o
219.768 270.117 o
245.617 257.384 o
271.467 246.751 o
297.316 236.868 o
323.165 229.479 o
349.015 215.419 o
374.864 204.423 o
400.713 190.227 o
426.563 173.794 o
grestore
1.000 setlinewidth
2 setlinecap
gsave
484.1 344.7 68.21 55.89 clipbox
193.919 285.618 m
219.768 267.117 l
245.617 253.672 l
271.467 243.058 l
297.316 232.616 l
323.165 224.651 l
349.015 209.882 l
374.864 197.607 l
400.713 180.603 l
426.563 161.059 l
stroke
grestore
0.500 setlinewidth
0 setlinecap
0.502 setgray
gsave
484.1 344.7 68.21 55.89 clipbox
/o {
gsave
newpath
translate
0.5 setlinewidth
1 setlinejoin
0 setlinecap
3 -1.83697e-16 m
-3 1.83697e-16 l
gsave
0.502 setgray
fill
grestore
stroke
grestore
} bind def
193.919 270.778 o
219.768 264.789 o
245.617 257.293 o
271.467 244.767 o
297.316 233.212 o
323.165 223.875 o
349.015 209.255 o
374.864 195.647 o
400.713 176.256 o
426.563 153.363 o
grestore
gsave
484.1 344.7 68.21 55.89 clipbox
/o {
gsave
newpath
translate
0.5 setlinewidth
1 setlinejoin
0 setlinecap
3 -1.83697e-16 m
-3 1.83697e-16 l
gsave
0.502 setgray
fill
grestore
stroke
grestore
} bind def
193.919 273.915 o
219.768 268.238 o
245.617 260.594 o
271.467 248.642 o
297.316 238.187 o
323.165 229.68 o
349.015 216.5 o
374.864 204.76 o
400.713 190.011 o
426.563 172.773 o
grestore
1.000 setlinewidth
2 setlinecap
gsave
484.1 344.7 68.21 55.89 clipbox
193.919 272.371 m
219.768 266.543 l
245.617 258.971 l
271.467 246.742 l
297.316 235.761 l
323.165 226.862 l
349.015 213.009 l
374.864 200.411 l
400.713 183.606 l
426.563 164.006 l
stroke
grestore
0 setlinejoin
0.000 setgray
gsave
68.2147 400.54 m
552.267 400.54 l
stroke
grestore
gsave
552.267 55.89 m
552.267 400.54 l
stroke
grestore
gsave
68.2147 55.89 m
552.267 55.89 l
stroke
grestore
gsave
68.2147 55.89 m
68.2147 400.54 l
stroke
grestore
0.500 setlinewidth
1 setlinejoin
0 setlinecap
[1 3] 0 setdash
gsave
484.1 344.7 68.21 55.89 clipbox
68.2147 55.89 m
68.2147 400.54 l
stroke
grestore
[] 0 setdash
gsave
/o {
gsave
newpath
translate
0.5 setlinewidth
1 setlinejoin
0 setlinecap
0 0 m
0 4 l
gsave
0.000 setgray
fill
grestore
stroke
grestore
} bind def
68.2147 55.89 o
grestore
gsave
/o {
gsave
newpath
translate
0.5 setlinewidth
1 setlinejoin
0 setlinecap
0 0 m
0 -4 l
gsave
0.000 setgray
fill
grestore
stroke
grestore
} bind def
68.2147 400.54 o
grestore
gsave
54.714749 40.390000 translate
0.000000 rotate
/BitstreamVeraSans-Roman findfont
12.0 scalefont
setfont
0.000000 0.575000 moveto
/one glyphshow

7.634766 0.575000 moveto
/zero glyphshow

/BitstreamVeraSans-Roman findfont
8.4 scalefont
setfont
15.269531 6.875000 moveto
/hyphen glyphshow

18.300586 6.875000 moveto
/one glyphshow


grestore
[1 3] 0 setdash
gsave
484.1 344.7 68.21 55.89 clipbox
229.565 55.89 m
229.565 400.54 l
stroke
grestore
[] 0 setdash
gsave
/o {
gsave
newpath
translate
0.5 setlinewidth
1 setlinejoin
0 setlinecap
0 0 m
0 4 l
gsave
0.000 setgray
fill
grestore
stroke
grestore
} bind def
229.565 55.89 o
grestore
gsave
/o {
gsave
newpath
translate
0.5 setlinewidth
1 setlinejoin
0 setlinecap
0 0 m
0 -4 l
gsave
0.000 setgray
fill
grestore
stroke
grestore
} bind def
229.565 400.54 o
grestore
gsave
217.565343 40.390000 translate
0.000000 rotate
/BitstreamVeraSans-Roman findfont
12.0 scalefont
setfont
0.000000 0.465625 moveto
/one glyphshow

7.634766 0.465625 moveto
/zero glyphshow

/BitstreamVeraSans-Roman findfont
8.4 scalefont
setfont
15.269531 6.765625 moveto
/zero glyphshow


grestore
[1 3] 0 setdash
gsave
484.1 344.7 68.21 55.89 clipbox
390.916 55.89 m
390.916 400.54 l
stroke
grestore
[] 0 setdash
gsave
/o {
gsave
newpath
translate
0.5 setlinewidth
1 setlinejoin
0 setlinecap
0 0 m
0 4 l
gsave
0.000 setgray
fill
grestore
stroke
grestore
} bind def
390.916 55.89 o
grestore
gsave
/o {
gsave
newpath
translate
0.5 setlinewidth
1 setlinejoin
0 setlinecap
0 0 m
0 -4 l
gsave
0.000 setgray
fill
grestore
stroke
grestore
} bind def
390.916 400.54 o
grestore
gsave
378.915937 40.390000 translate
0.000000 rotate
/BitstreamVeraSans-Roman findfont
12.0 scalefont
setfont
0.000000 0.575000 moveto
/one glyphshow

7.634766 0.575000 moveto
/zero glyphshow

/BitstreamVeraSans-Roman findfont
8.4 scalefont
setfont
15.269531 6.875000 moveto
/one glyphshow


grestore
[1 3] 0 setdash
gsave
484.1 344.7 68.21 55.89 clipbox
552.267 55.89 m
552.267 400.54 l
stroke
grestore
[] 0 setdash
gsave
/o {
gsave
newpath
translate
0.5 setlinewidth
1 setlinejoin
0 setlinecap
0 0 m
0 4 l
gsave
0.000 setgray
fill
grestore
stroke
grestore
} bind def
552.267 55.89 o
grestore
gsave
/o {
gsave
newpath
translate
0.5 setlinewidth
1 setlinejoin
0 setlinecap
0 0 m
0 -4 l
gsave
0.000 setgray
fill
grestore
stroke
grestore
} bind def
552.267 400.54 o
grestore
gsave
540.266532 40.390000 translate
0.000000 rotate
/BitstreamVeraSans-Roman findfont
12.0 scalefont
setfont
0.000000 0.465625 moveto
/one glyphshow

7.634766 0.465625 moveto
/zero glyphshow

/BitstreamVeraSans-Roman findfont
8.4 scalefont
setfont
15.269531 6.765625 moveto
/two glyphshow


grestore
gsave
/o {
gsave
newpath
translate
0.5 setlinewidth
1 setlinejoin
0 setlinecap
0 0 m
0 2 l
gsave
0.000 setgray
fill
grestore
stroke
grestore
} bind def
116.786 55.89 o
grestore
gsave
/o {
gsave
newpath
translate
0.5 setlinewidth
1 setlinejoin
0 setlinecap
0 0 m
0 -2 l
gsave
0.000 setgray
fill
grestore
stroke
grestore
} bind def
116.786 400.54 o
grestore
gsave
/o {
gsave
newpath
translate
0.5 setlinewidth
1 setlinejoin
0 setlinecap
0 0 m
0 2 l
gsave
0.000 setgray
fill
grestore
stroke
grestore
} bind def
145.199 55.89 o
grestore
gsave
/o {
gsave
newpath
translate
0.5 setlinewidth
1 setlinejoin
0 setlinecap
0 0 m
0 -2 l
gsave
0.000 setgray
fill
grestore
stroke
grestore
} bind def
145.199 400.54 o
grestore
gsave
/o {
gsave
newpath
translate
0.5 setlinewidth
1 setlinejoin
0 setlinecap
0 0 m
0 2 l
gsave
0.000 setgray
fill
grestore
stroke
grestore
} bind def
165.357 55.89 o
grestore
gsave
/o {
gsave
newpath
translate
0.5 setlinewidth
1 setlinejoin
0 setlinecap
0 0 m
0 -2 l
gsave
0.000 setgray
fill
grestore
stroke
grestore
} bind def
165.357 400.54 o
grestore
gsave
/o {
gsave
newpath
translate
0.5 setlinewidth
1 setlinejoin
0 setlinecap
0 0 m
0 2 l
gsave
0.000 setgray
fill
grestore
stroke
grestore
} bind def
180.994 55.89 o
grestore
gsave
/o {
gsave
newpath
translate
0.5 setlinewidth
1 setlinejoin
0 setlinecap
0 0 m
0 -2 l
gsave
0.000 setgray
fill
grestore
stroke
grestore
} bind def
180.994 400.54 o
grestore
gsave
/o {
gsave
newpath
translate
0.5 setlinewidth
1 setlinejoin
0 setlinecap
0 0 m
0 2 l
gsave
0.000 setgray
fill
grestore
stroke
grestore
} bind def
193.77 55.89 o
grestore
gsave
/o {
gsave
newpath
translate
0.5 setlinewidth
1 setlinejoin
0 setlinecap
0 0 m
0 -2 l
gsave
0.000 setgray
fill
grestore
stroke
grestore
} bind def
193.77 400.54 o
grestore
gsave
/o {
gsave
newpath
translate
0.5 setlinewidth
1 setlinejoin
0 setlinecap
0 0 m
0 2 l
gsave
0.000 setgray
fill
grestore
stroke
grestore
} bind def
204.572 55.89 o
grestore
gsave
/o {
gsave
newpath
translate
0.5 setlinewidth
1 setlinejoin
0 setlinecap
0 0 m
0 -2 l
gsave
0.000 setgray
fill
grestore
stroke
grestore
} bind def
204.572 400.54 o
grestore
gsave
/o {
gsave
newpath
translate
0.5 setlinewidth
1 setlinejoin
0 setlinecap
0 0 m
0 2 l
gsave
0.000 setgray
fill
grestore
stroke
grestore
} bind def
213.929 55.89 o
grestore
gsave
/o {
gsave
newpath
translate
0.5 setlinewidth
1 setlinejoin
0 setlinecap
0 0 m
0 -2 l
gsave
0.000 setgray
fill
grestore
stroke
grestore
} bind def
213.929 400.54 o
grestore
gsave
/o {
gsave
newpath
translate
0.5 setlinewidth
1 setlinejoin
0 setlinecap
0 0 m
0 2 l
gsave
0.000 setgray
fill
grestore
stroke
grestore
} bind def
222.182 55.89 o
grestore
gsave
/o {
gsave
newpath
translate
0.5 setlinewidth
1 setlinejoin
0 setlinecap
0 0 m
0 -2 l
gsave
0.000 setgray
fill
grestore
stroke
grestore
} bind def
222.182 400.54 o
grestore
gsave
/o {
gsave
newpath
translate
0.5 setlinewidth
1 setlinejoin
0 setlinecap
0 0 m
0 2 l
gsave
0.000 setgray
fill
grestore
stroke
grestore
} bind def
278.137 55.89 o
grestore
gsave
/o {
gsave
newpath
translate
0.5 setlinewidth
1 setlinejoin
0 setlinecap
0 0 m
0 -2 l
gsave
0.000 setgray
fill
grestore
stroke
grestore
} bind def
278.137 400.54 o
grestore
gsave
/o {
gsave
newpath
translate
0.5 setlinewidth
1 setlinejoin
0 setlinecap
0 0 m
0 2 l
gsave
0.000 setgray
fill
grestore
stroke
grestore
} bind def
306.549 55.89 o
grestore
gsave
/o {
gsave
newpath
translate
0.5 setlinewidth
1 setlinejoin
0 setlinecap
0 0 m
0 -2 l
gsave
0.000 setgray
fill
grestore
stroke
grestore
} bind def
306.549 400.54 o
grestore
gsave
/o {
gsave
newpath
translate
0.5 setlinewidth
1 setlinejoin
0 setlinecap
0 0 m
0 2 l
gsave
0.000 setgray
fill
grestore
stroke
grestore
} bind def
326.708 55.89 o
grestore
gsave
/o {
gsave
newpath
translate
0.5 setlinewidth
1 setlinejoin
0 setlinecap
0 0 m
0 -2 l
gsave
0.000 setgray
fill
grestore
stroke
grestore
} bind def
326.708 400.54 o
grestore
gsave
/o {
gsave
newpath
translate
0.5 setlinewidth
1 setlinejoin
0 setlinecap
0 0 m
0 2 l
gsave
0.000 setgray
fill
grestore
stroke
grestore
} bind def
342.345 55.89 o
grestore
gsave
/o {
gsave
newpath
translate
0.5 setlinewidth
1 setlinejoin
0 setlinecap
0 0 m
0 -2 l
gsave
0.000 setgray
fill
grestore
stroke
grestore
} bind def
342.345 400.54 o
grestore
gsave
/o {
gsave
newpath
translate
0.5 setlinewidth
1 setlinejoin
0 setlinecap
0 0 m
0 2 l
gsave
0.000 setgray
fill
grestore
stroke
grestore
} bind def
355.121 55.89 o
grestore
gsave
/o {
gsave
newpath
translate
0.5 setlinewidth
1 setlinejoin
0 setlinecap
0 0 m
0 -2 l
gsave
0.000 setgray
fill
grestore
stroke
grestore
} bind def
355.121 400.54 o
grestore
gsave
/o {
gsave
newpath
translate
0.5 setlinewidth
1 setlinejoin
0 setlinecap
0 0 m
0 2 l
gsave
0.000 setgray
fill
grestore
stroke
grestore
} bind def
365.922 55.89 o
grestore
gsave
/o {
gsave
newpath
translate
0.5 setlinewidth
1 setlinejoin
0 setlinecap
0 0 m
0 -2 l
gsave
0.000 setgray
fill
grestore
stroke
grestore
} bind def
365.922 400.54 o
grestore
gsave
/o {
gsave
newpath
translate
0.5 setlinewidth
1 setlinejoin
0 setlinecap
0 0 m
0 2 l
gsave
0.000 setgray
fill
grestore
stroke
grestore
} bind def
375.279 55.89 o
grestore
gsave
/o {
gsave
newpath
translate
0.5 setlinewidth
1 setlinejoin
0 setlinecap
0 0 m
0 -2 l
gsave
0.000 setgray
fill
grestore
stroke
grestore
} bind def
375.279 400.54 o
grestore
gsave
/o {
gsave
newpath
translate
0.5 setlinewidth
1 setlinejoin
0 setlinecap
0 0 m
0 2 l
gsave
0.000 setgray
fill
grestore
stroke
grestore
} bind def
383.533 55.89 o
grestore
gsave
/o {
gsave
newpath
translate
0.5 setlinewidth
1 setlinejoin
0 setlinecap
0 0 m
0 -2 l
gsave
0.000 setgray
fill
grestore
stroke
grestore
} bind def
383.533 400.54 o
grestore
gsave
/o {
gsave
newpath
translate
0.5 setlinewidth
1 setlinejoin
0 setlinecap
0 0 m
0 2 l
gsave
0.000 setgray
fill
grestore
stroke
grestore
} bind def
439.487 55.89 o
grestore
gsave
/o {
gsave
newpath
translate
0.5 setlinewidth
1 setlinejoin
0 setlinecap
0 0 m
0 -2 l
gsave
0.000 setgray
fill
grestore
stroke
grestore
} bind def
439.487 400.54 o
grestore
gsave
/o {
gsave
newpath
translate
0.5 setlinewidth
1 setlinejoin
0 setlinecap
0 0 m
0 2 l
gsave
0.000 setgray
fill
grestore
stroke
grestore
} bind def
467.9 55.89 o
grestore
gsave
/o {
gsave
newpath
translate
0.5 setlinewidth
1 setlinejoin
0 setlinecap
0 0 m
0 -2 l
gsave
0.000 setgray
fill
grestore
stroke
grestore
} bind def
467.9 400.54 o
grestore
gsave
/o {
gsave
newpath
translate
0.5 setlinewidth
1 setlinejoin
0 setlinecap
0 0 m
0 2 l
gsave
0.000 setgray
fill
grestore
stroke
grestore
} bind def
488.059 55.89 o
grestore
gsave
/o {
gsave
newpath
translate
0.5 setlinewidth
1 setlinejoin
0 setlinecap
0 0 m
0 -2 l
gsave
0.000 setgray
fill
grestore
stroke
grestore
} bind def
488.059 400.54 o
grestore
gsave
/o {
gsave
newpath
translate
0.5 setlinewidth
1 setlinejoin
0 setlinecap
0 0 m
0 2 l
gsave
0.000 setgray
fill
grestore
stroke
grestore
} bind def
503.695 55.89 o
grestore
gsave
/o {
gsave
newpath
translate
0.5 setlinewidth
1 setlinejoin
0 setlinecap
0 0 m
0 -2 l
gsave
0.000 setgray
fill
grestore
stroke
grestore
} bind def
503.695 400.54 o
grestore
gsave
/o {
gsave
newpath
translate
0.5 setlinewidth
1 setlinejoin
0 setlinecap
0 0 m
0 2 l
gsave
0.000 setgray
fill
grestore
stroke
grestore
} bind def
516.471 55.89 o
grestore
gsave
/o {
gsave
newpath
translate
0.5 setlinewidth
1 setlinejoin
0 setlinecap
0 0 m
0 -2 l
gsave
0.000 setgray
fill
grestore
stroke
grestore
} bind def
516.471 400.54 o
grestore
gsave
/o {
gsave
newpath
translate
0.5 setlinewidth
1 setlinejoin
0 setlinecap
0 0 m
0 2 l
gsave
0.000 setgray
fill
grestore
stroke
grestore
} bind def
527.273 55.89 o
grestore
gsave
/o {
gsave
newpath
translate
0.5 setlinewidth
1 setlinejoin
0 setlinecap
0 0 m
0 -2 l
gsave
0.000 setgray
fill
grestore
stroke
grestore
} bind def
527.273 400.54 o
grestore
gsave
/o {
gsave
newpath
translate
0.5 setlinewidth
1 setlinejoin
0 setlinecap
0 0 m
0 2 l
gsave
0.000 setgray
fill
grestore
stroke
grestore
} bind def
536.63 55.89 o
grestore
gsave
/o {
gsave
newpath
translate
0.5 setlinewidth
1 setlinejoin
0 setlinecap
0 0 m
0 -2 l
gsave
0.000 setgray
fill
grestore
stroke
grestore
} bind def
536.63 400.54 o
grestore
gsave
/o {
gsave
newpath
translate
0.5 setlinewidth
1 setlinejoin
0 setlinecap
0 0 m
0 2 l
gsave
0.000 setgray
fill
grestore
stroke
grestore
} bind def
544.884 55.89 o
grestore
gsave
/o {
gsave
newpath
translate
0.5 setlinewidth
1 setlinejoin
0 setlinecap
0 0 m
0 -2 l
gsave
0.000 setgray
fill
grestore
stroke
grestore
} bind def
544.884 400.54 o
grestore
gsave
305.240640 19.968125 translate
0.000000 rotate
/Cmmi10 findfont
17.28 scalefont
setfont
0.000000 0.562500 moveto
/sigma glyphshow


grestore
[1 3] 0 setdash
gsave
484.1 344.7 68.21 55.89 clipbox
68.2147 55.89 m
552.267 55.89 l
stroke
grestore
[] 0 setdash
gsave
/o {
gsave
newpath
translate
0.5 setlinewidth
1 setlinejoin
0 setlinecap
0 0 m
4 0 l
gsave
0.000 setgray
fill
grestore
stroke
grestore
} bind def
68.2147 55.89 o
grestore
gsave
/o {
gsave
newpath
translate
0.5 setlinewidth
1 setlinejoin
0 setlinecap
0 0 m
-4 0 l
gsave
0.000 setgray
fill
grestore
stroke
grestore
} bind def
552.267 55.89 o
grestore
gsave
40.214749 51.390000 translate
0.000000 rotate
/BitstreamVeraSans-Roman findfont
12.0 scalefont
setfont
0.000000 0.465625 moveto
/one glyphshow

7.634766 0.465625 moveto
/zero glyphshow

/BitstreamVeraSans-Roman findfont
8.4 scalefont
setfont
15.269531 6.765625 moveto
/zero glyphshow


grestore
[1 3] 0 setdash
gsave
484.1 344.7 68.21 55.89 clipbox
68.2147 170.773 m
552.267 170.773 l
stroke
grestore
[] 0 setdash
gsave
/o {
gsave
newpath
translate
0.5 setlinewidth
1 setlinejoin
0 setlinecap
0 0 m
4 0 l
gsave
0.000 setgray
fill
grestore
stroke
grestore
} bind def
68.2147 170.773 o
grestore
gsave
/o {
gsave
newpath
translate
0.5 setlinewidth
1 setlinejoin
0 setlinecap
0 0 m
-4 0 l
gsave
0.000 setgray
fill
grestore
stroke
grestore
} bind def
552.267 170.773 o
grestore
gsave
40.214749 166.273333 translate
0.000000 rotate
/BitstreamVeraSans-Roman findfont
12.0 scalefont
setfont
0.000000 0.575000 moveto
/one glyphshow

7.634766 0.575000 moveto
/zero glyphshow

/BitstreamVeraSans-Roman findfont
8.4 scalefont
setfont
15.269531 6.875000 moveto
/one glyphshow


grestore
[1 3] 0 setdash
gsave
484.1 344.7 68.21 55.89 clipbox
68.2147 285.657 m
552.267 285.657 l
stroke
grestore
[] 0 setdash
gsave
/o {
gsave
newpath
translate
0.5 setlinewidth
1 setlinejoin
0 setlinecap
0 0 m
4 0 l
gsave
0.000 setgray
fill
grestore
stroke
grestore
} bind def
68.2147 285.657 o
grestore
gsave
/o {
gsave
newpath
translate
0.5 setlinewidth
1 setlinejoin
0 setlinecap
0 0 m
-4 0 l
gsave
0.000 setgray
fill
grestore
stroke
grestore
} bind def
552.267 285.657 o
grestore
gsave
40.214749 281.156667 translate
0.000000 rotate
/BitstreamVeraSans-Roman findfont
12.0 scalefont
setfont
0.000000 0.465625 moveto
/one glyphshow

7.634766 0.465625 moveto
/zero glyphshow

/BitstreamVeraSans-Roman findfont
8.4 scalefont
setfont
15.269531 6.765625 moveto
/two glyphshow


grestore
[1 3] 0 setdash
gsave
484.1 344.7 68.21 55.89 clipbox
68.2147 400.54 m
552.267 400.54 l
stroke
grestore
[] 0 setdash
gsave
/o {
gsave
newpath
translate
0.5 setlinewidth
1 setlinejoin
0 setlinecap
0 0 m
4 0 l
gsave
0.000 setgray
fill
grestore
stroke
grestore
} bind def
68.2147 400.54 o
grestore
gsave
/o {
gsave
newpath
translate
0.5 setlinewidth
1 setlinejoin
0 setlinecap
0 0 m
-4 0 l
gsave
0.000 setgray
fill
grestore
stroke
grestore
} bind def
552.267 400.54 o
grestore
gsave
40.214749 396.040000 translate
0.000000 rotate
/BitstreamVeraSans-Roman findfont
12.0 scalefont
setfont
0.000000 0.465625 moveto
/one glyphshow

7.634766 0.465625 moveto
/zero glyphshow

/BitstreamVeraSans-Roman findfont
8.4 scalefont
setfont
15.269531 6.765625 moveto
/three glyphshow


grestore
gsave
/o {
gsave
newpath
translate
0.5 setlinewidth
1 setlinejoin
0 setlinecap
0 0 m
2 0 l
gsave
0.000 setgray
fill
grestore
stroke
grestore
} bind def
68.2147 90.4733 o
grestore
gsave
/o {
gsave
newpath
translate
0.5 setlinewidth
1 setlinejoin
0 setlinecap
0 0 m
-2 0 l
gsave
0.000 setgray
fill
grestore
stroke
grestore
} bind def
552.267 90.4733 o
grestore
gsave
/o {
gsave
newpath
translate
0.5 setlinewidth
1 setlinejoin
0 setlinecap
0 0 m
2 0 l
gsave
0.000 setgray
fill
grestore
stroke
grestore
} bind def
68.2147 110.703 o
grestore
gsave
/o {
gsave
newpath
translate
0.5 setlinewidth
1 setlinejoin
0 setlinecap
0 0 m
-2 0 l
gsave
0.000 setgray
fill
grestore
stroke
grestore
} bind def
552.267 110.703 o
grestore
gsave
/o {
gsave
newpath
translate
0.5 setlinewidth
1 setlinejoin
0 setlinecap
0 0 m
2 0 l
gsave
0.000 setgray
fill
grestore
stroke
grestore
} bind def
68.2147 125.057 o
grestore
gsave
/o {
gsave
newpath
translate
0.5 setlinewidth
1 setlinejoin
0 setlinecap
0 0 m
-2 0 l
gsave
0.000 setgray
fill
grestore
stroke
grestore
} bind def
552.267 125.057 o
grestore
gsave
/o {
gsave
newpath
translate
0.5 setlinewidth
1 setlinejoin
0 setlinecap
0 0 m
2 0 l
gsave
0.000 setgray
fill
grestore
stroke
grestore
} bind def
68.2147 136.19 o
grestore
gsave
/o {
gsave
newpath
translate
0.5 setlinewidth
1 setlinejoin
0 setlinecap
0 0 m
-2 0 l
gsave
0.000 setgray
fill
grestore
stroke
grestore
} bind def
552.267 136.19 o
grestore
gsave
/o {
gsave
newpath
translate
0.5 setlinewidth
1 setlinejoin
0 setlinecap
0 0 m
2 0 l
gsave
0.000 setgray
fill
grestore
stroke
grestore
} bind def
68.2147 145.287 o
grestore
gsave
/o {
gsave
newpath
translate
0.5 setlinewidth
1 setlinejoin
0 setlinecap
0 0 m
-2 0 l
gsave
0.000 setgray
fill
grestore
stroke
grestore
} bind def
552.267 145.287 o
grestore
gsave
/o {
gsave
newpath
translate
0.5 setlinewidth
1 setlinejoin
0 setlinecap
0 0 m
2 0 l
gsave
0.000 setgray
fill
grestore
stroke
grestore
} bind def
68.2147 152.978 o
grestore
gsave
/o {
gsave
newpath
translate
0.5 setlinewidth
1 setlinejoin
0 setlinecap
0 0 m
-2 0 l
gsave
0.000 setgray
fill
grestore
stroke
grestore
} bind def
552.267 152.978 o
grestore
gsave
/o {
gsave
newpath
translate
0.5 setlinewidth
1 setlinejoin
0 setlinecap
0 0 m
2 0 l
gsave
0.000 setgray
fill
grestore
stroke
grestore
} bind def
68.2147 159.64 o
grestore
gsave
/o {
gsave
newpath
translate
0.5 setlinewidth
1 setlinejoin
0 setlinecap
0 0 m
-2 0 l
gsave
0.000 setgray
fill
grestore
stroke
grestore
} bind def
552.267 159.64 o
grestore
gsave
/o {
gsave
newpath
translate
0.5 setlinewidth
1 setlinejoin
0 setlinecap
0 0 m
2 0 l
gsave
0.000 setgray
fill
grestore
stroke
grestore
} bind def
68.2147 165.517 o
grestore
gsave
/o {
gsave
newpath
translate
0.5 setlinewidth
1 setlinejoin
0 setlinecap
0 0 m
-2 0 l
gsave
0.000 setgray
fill
grestore
stroke
grestore
} bind def
552.267 165.517 o
grestore
gsave
/o {
gsave
newpath
translate
0.5 setlinewidth
1 setlinejoin
0 setlinecap
0 0 m
2 0 l
gsave
0.000 setgray
fill
grestore
stroke
grestore
} bind def
68.2147 205.357 o
grestore
gsave
/o {
gsave
newpath
translate
0.5 setlinewidth
1 setlinejoin
0 setlinecap
0 0 m
-2 0 l
gsave
0.000 setgray
fill
grestore
stroke
grestore
} bind def
552.267 205.357 o
grestore
gsave
/o {
gsave
newpath
translate
0.5 setlinewidth
1 setlinejoin
0 setlinecap
0 0 m
2 0 l
gsave
0.000 setgray
fill
grestore
stroke
grestore
} bind def
68.2147 225.587 o
grestore
gsave
/o {
gsave
newpath
translate
0.5 setlinewidth
1 setlinejoin
0 setlinecap
0 0 m
-2 0 l
gsave
0.000 setgray
fill
grestore
stroke
grestore
} bind def
552.267 225.587 o
grestore
gsave
/o {
gsave
newpath
translate
0.5 setlinewidth
1 setlinejoin
0 setlinecap
0 0 m
2 0 l
gsave
0.000 setgray
fill
grestore
stroke
grestore
} bind def
68.2147 239.94 o
grestore
gsave
/o {
gsave
newpath
translate
0.5 setlinewidth
1 setlinejoin
0 setlinecap
0 0 m
-2 0 l
gsave
0.000 setgray
fill
grestore
stroke
grestore
} bind def
552.267 239.94 o
grestore
gsave
/o {
gsave
newpath
translate
0.5 setlinewidth
1 setlinejoin
0 setlinecap
0 0 m
2 0 l
gsave
0.000 setgray
fill
grestore
stroke
grestore
} bind def
68.2147 251.073 o
grestore
gsave
/o {
gsave
newpath
translate
0.5 setlinewidth
1 setlinejoin
0 setlinecap
0 0 m
-2 0 l
gsave
0.000 setgray
fill
grestore
stroke
grestore
} bind def
552.267 251.073 o
grestore
gsave
/o {
gsave
newpath
translate
0.5 setlinewidth
1 setlinejoin
0 setlinecap
0 0 m
2 0 l
gsave
0.000 setgray
fill
grestore
stroke
grestore
} bind def
68.2147 260.17 o
grestore
gsave
/o {
gsave
newpath
translate
0.5 setlinewidth
1 setlinejoin
0 setlinecap
0 0 m
-2 0 l
gsave
0.000 setgray
fill
grestore
stroke
grestore
} bind def
552.267 260.17 o
grestore
gsave
/o {
gsave
newpath
translate
0.5 setlinewidth
1 setlinejoin
0 setlinecap
0 0 m
2 0 l
gsave
0.000 setgray
fill
grestore
stroke
grestore
} bind def
68.2147 267.861 o
grestore
gsave
/o {
gsave
newpath
translate
0.5 setlinewidth
1 setlinejoin
0 setlinecap
0 0 m
-2 0 l
gsave
0.000 setgray
fill
grestore
stroke
grestore
} bind def
552.267 267.861 o
grestore
gsave
/o {
gsave
newpath
translate
0.5 setlinewidth
1 setlinejoin
0 setlinecap
0 0 m
2 0 l
gsave
0.000 setgray
fill
grestore
stroke
grestore
} bind def
68.2147 274.523 o
grestore
gsave
/o {
gsave
newpath
translate
0.5 setlinewidth
1 setlinejoin
0 setlinecap
0 0 m
-2 0 l
gsave
0.000 setgray
fill
grestore
stroke
grestore
} bind def
552.267 274.523 o
grestore
gsave
/o {
gsave
newpath
translate
0.5 setlinewidth
1 setlinejoin
0 setlinecap
0 0 m
2 0 l
gsave
0.000 setgray
fill
grestore
stroke
grestore
} bind def
68.2147 280.4 o
grestore
gsave
/o {
gsave
newpath
translate
0.5 setlinewidth
1 setlinejoin
0 setlinecap
0 0 m
-2 0 l
gsave
0.000 setgray
fill
grestore
stroke
grestore
} bind def
552.267 280.4 o
grestore
gsave
/o {
gsave
newpath
translate
0.5 setlinewidth
1 setlinejoin
0 setlinecap
0 0 m
2 0 l
gsave
0.000 setgray
fill
grestore
stroke
grestore
} bind def
68.2147 320.24 o
grestore
gsave
/o {
gsave
newpath
translate
0.5 setlinewidth
1 setlinejoin
0 setlinecap
0 0 m
-2 0 l
gsave
0.000 setgray
fill
grestore
stroke
grestore
} bind def
552.267 320.24 o
grestore
gsave
/o {
gsave
newpath
translate
0.5 setlinewidth
1 setlinejoin
0 setlinecap
0 0 m
2 0 l
gsave
0.000 setgray
fill
grestore
stroke
grestore
} bind def
68.2147 340.47 o
grestore
gsave
/o {
gsave
newpath
translate
0.5 setlinewidth
1 setlinejoin
0 setlinecap
0 0 m
-2 0 l
gsave
0.000 setgray
fill
grestore
stroke
grestore
} bind def
552.267 340.47 o
grestore
gsave
/o {
gsave
newpath
translate
0.5 setlinewidth
1 setlinejoin
0 setlinecap
0 0 m
2 0 l
gsave
0.000 setgray
fill
grestore
stroke
grestore
} bind def
68.2147 354.823 o
grestore
gsave
/o {
gsave
newpath
translate
0.5 setlinewidth
1 setlinejoin
0 setlinecap
0 0 m
-2 0 l
gsave
0.000 setgray
fill
grestore
stroke
grestore
} bind def
552.267 354.823 o
grestore
gsave
/o {
gsave
newpath
translate
0.5 setlinewidth
1 setlinejoin
0 setlinecap
0 0 m
2 0 l
gsave
0.000 setgray
fill
grestore
stroke
grestore
} bind def
68.2147 365.957 o
grestore
gsave
/o {
gsave
newpath
translate
0.5 setlinewidth
1 setlinejoin
0 setlinecap
0 0 m
-2 0 l
gsave
0.000 setgray
fill
grestore
stroke
grestore
} bind def
552.267 365.957 o
grestore
gsave
/o {
gsave
newpath
translate
0.5 setlinewidth
1 setlinejoin
0 setlinecap
0 0 m
2 0 l
gsave
0.000 setgray
fill
grestore
stroke
grestore
} bind def
68.2147 375.053 o
grestore
gsave
/o {
gsave
newpath
translate
0.5 setlinewidth
1 setlinejoin
0 setlinecap
0 0 m
-2 0 l
gsave
0.000 setgray
fill
grestore
stroke
grestore
} bind def
552.267 375.053 o
grestore
gsave
/o {
gsave
newpath
translate
0.5 setlinewidth
1 setlinejoin
0 setlinecap
0 0 m
2 0 l
gsave
0.000 setgray
fill
grestore
stroke
grestore
} bind def
68.2147 382.744 o
grestore
gsave
/o {
gsave
newpath
translate
0.5 setlinewidth
1 setlinejoin
0 setlinecap
0 0 m
-2 0 l
gsave
0.000 setgray
fill
grestore
stroke
grestore
} bind def
552.267 382.744 o
grestore
gsave
/o {
gsave
newpath
translate
0.5 setlinewidth
1 setlinejoin
0 setlinecap
0 0 m
2 0 l
gsave
0.000 setgray
fill
grestore
stroke
grestore
} bind def
68.2147 389.407 o
grestore
gsave
/o {
gsave
newpath
translate
0.5 setlinewidth
1 setlinejoin
0 setlinecap
0 0 m
-2 0 l
gsave
0.000 setgray
fill
grestore
stroke
grestore
} bind def
552.267 389.407 o
grestore
gsave
/o {
gsave
newpath
translate
0.5 setlinewidth
1 setlinejoin
0 setlinecap
0 0 m
2 0 l
gsave
0.000 setgray
fill
grestore
stroke
grestore
} bind def
68.2147 395.283 o
grestore
gsave
/o {
gsave
newpath
translate
0.5 setlinewidth
1 setlinejoin
0 setlinecap
0 0 m
-2 0 l
gsave
0.000 setgray
fill
grestore
stroke
grestore
} bind def
552.267 395.283 o
grestore
gsave
29.214749 207.715000 translate
90.000000 rotate
/Cmmi10 findfont
20.736 scalefont
setfont
0.000000 0.453125 moveto
/omega glyphshow

/Cmr10 findfont
20.736 scalefont
setfont
12.898239 0.453125 moveto
/parenleft glyphshow

/Cmmi10 findfont
20.736 scalefont
setfont
20.946976 0.453125 moveto
/sigma glyphshow

/Cmr10 findfont
20.736 scalefont
setfont
32.782166 0.453125 moveto
/parenright glyphshow


grestore
/BitstreamVeraSans-Roman findfont
17.280 scalefont
setfont
gsave
169.818765 405.540000 translate
0.000000 rotate
0.000000 0.000000 m /F glyphshow
9.922119 0.000000 m /C glyphshow
21.966797 0.000000 m /hyphen glyphshow
28.191284 0.000000 m /p glyphshow
39.140991 0.000000 m /a glyphshow
49.711670 0.000000 m /r glyphshow
56.428711 0.000000 m /e glyphshow
67.041504 0.000000 m /s glyphshow
76.028687 0.000000 m /c glyphshow
85.512817 0.000000 m /space glyphshow
90.996094 0.000000 m /T glyphshow
98.658081 0.000000 m /o glyphshow
109.211914 0.000000 m /d glyphshow
120.161621 0.000000 m /o glyphshow
130.715454 0.000000 m /s glyphshow
139.702637 0.000000 m /space glyphshow
145.185913 0.000000 m /l glyphshow
149.978516 0.000000 m /o glyphshow
160.532349 0.000000 m /s glyphshow
169.519531 0.000000 m /space glyphshow
175.002808 0.000000 m /E glyphshow
185.901978 0.000000 m /s glyphshow
194.889160 0.000000 m /t glyphshow
201.652710 0.000000 m /i glyphshow
206.445312 0.000000 m /m glyphshow
223.248901 0.000000 m /a glyphshow
233.819580 0.000000 m /d glyphshow
244.769287 0.000000 m /o glyphshow
255.323120 0.000000 m /r glyphshow
262.040161 0.000000 m /e glyphshow
272.652954 0.000000 m /s glyphshow
grestore
1.000 setlinewidth
0 setlinejoin
0.300 setgray
gsave
339.579 265.102 m
540.267 265.102 l
542.933 265.102 544.267 266.436 544.267 269.102 c
544.267 384.54 l
544.267 387.207 542.933 388.54 540.267 388.54 c
339.579 388.54 l
336.912 388.54 335.579 387.207 335.579 384.54 c
335.579 269.102 l
335.579 266.436 336.912 265.102 339.579 265.102 c
cl
gsave
fill
grestore
stroke
grestore
0.000 setgray
gsave
337.579 267.102 m
538.267 267.102 l
540.933 267.102 542.267 268.436 542.267 271.102 c
542.267 386.54 l
542.267 389.207 540.933 390.54 538.267 390.54 c
337.579 390.54 l
334.912 390.54 333.579 389.207 333.579 386.54 c
333.579 271.102 l
333.579 268.436 334.912 267.102 337.579 267.102 c
cl
gsave
1.000 setgray
fill
grestore
stroke
grestore
1 setlinejoin
gsave
347.579 370.087 m
348.242 370.087 348.878 370.35 349.347 370.819 c
349.816 371.288 350.079 371.924 350.079 372.587 c
350.079 373.25 349.816 373.886 349.347 374.355 c
348.878 374.823 348.242 375.087 347.579 375.087 c
346.916 375.087 346.28 374.823 345.811 374.355 c
345.342 373.886 345.079 373.25 345.079 372.587 c
345.079 371.924 345.342 371.288 345.811 370.819 c
346.28 370.35 346.916 370.087 347.579 370.087 c
cl
gsave
fill
grestore
stroke
grestore
gsave
361.579 371.837 m
362.242 371.837 362.878 372.1 363.347 372.569 c
363.816 373.038 364.079 373.674 364.079 374.337 c
364.079 375 363.816 375.636 363.347 376.105 c
362.878 376.573 362.242 376.837 361.579 376.837 c
360.916 376.837 360.28 376.573 359.811 376.105 c
359.342 375.636 359.079 375 359.079 374.337 c
359.079 373.674 359.342 373.038 359.811 372.569 c
360.28 372.1 360.916 371.837 361.579 371.837 c
cl
gsave
fill
grestore
stroke
grestore
gsave
375.579 369.212 m
376.242 369.212 376.878 369.475 377.347 369.944 c
377.816 370.413 378.079 371.049 378.079 371.712 c
378.079 372.375 377.816 373.011 377.347 373.48 c
376.878 373.948 376.242 374.212 375.579 374.212 c
374.916 374.212 374.28 373.948 373.811 373.48 c
373.342 373.011 373.079 372.375 373.079 371.712 c
373.079 371.049 373.342 370.413 373.811 369.944 c
374.28 369.475 374.916 369.212 375.579 369.212 c
cl
gsave
fill
grestore
stroke
grestore
/BitstreamVeraSans-Roman findfont
20.000 scalefont
setfont
gsave
397.579032 367.336875 translate
0.000000 rotate
0.000000 0.000000 m /N glyphshow
14.960938 0.000000 m /a glyphshow
27.216797 0.000000 m /t glyphshow
35.058594 0.000000 m /u glyphshow
47.734375 0.000000 m /r glyphshow
55.957031 0.000000 m /a glyphshow
68.212891 0.000000 m /l glyphshow
grestore
1.000 0.000 0.000 setrgbcolor
gsave
347.579 340.727 m
348.242 340.727 348.878 340.991 349.347 341.46 c
349.816 341.929 350.079 342.564 350.079 343.227 c
350.079 343.891 349.816 344.526 349.347 344.995 c
348.878 345.464 348.242 345.727 347.579 345.727 c
346.916 345.727 346.28 345.464 345.811 344.995 c
345.342 344.526 345.079 343.891 345.079 343.227 c
345.079 342.564 345.342 341.929 345.811 341.46 c
346.28 340.991 346.916 340.727 347.579 340.727 c
cl
gsave
fill
grestore
stroke
grestore
gsave
361.579 342.477 m
362.242 342.477 362.878 342.741 363.347 343.21 c
363.816 343.679 364.079 344.314 364.079 344.977 c
364.079 345.641 363.816 346.276 363.347 346.745 c
362.878 347.214 362.242 347.477 361.579 347.477 c
360.916 347.477 360.28 347.214 359.811 346.745 c
359.342 346.276 359.079 345.641 359.079 344.977 c
359.079 344.314 359.342 343.679 359.811 343.21 c
360.28 342.741 360.916 342.477 361.579 342.477 c
cl
gsave
fill
grestore
stroke
grestore
gsave
375.579 339.852 m
376.242 339.852 376.878 340.116 377.347 340.585 c
377.816 341.054 378.079 341.689 378.079 342.352 c
378.079 343.016 377.816 343.651 377.347 344.12 c
376.878 344.589 376.242 344.852 375.579 344.852 c
374.916 344.852 374.28 344.589 373.811 344.12 c
373.342 343.651 373.079 343.016 373.079 342.352 c
373.079 341.689 373.342 341.054 373.811 340.585 c
374.28 340.116 374.916 339.852 375.579 339.852 c
cl
gsave
fill
grestore
stroke
grestore
0.000 setgray
gsave
397.579032 337.977500 translate
0.000000 rotate
0.000000 0.000000 m /D glyphshow
15.400391 0.000000 m /a glyphshow
27.656250 0.000000 m /v glyphshow
39.492188 0.000000 m /i glyphshow
45.048828 0.000000 m /s glyphshow
55.468750 0.000000 m /hyphen glyphshow
62.685547 0.000000 m /P glyphshow
73.996094 0.000000 m /e glyphshow
86.300781 0.000000 m /e glyphshow
98.605469 0.000000 m /b glyphshow
111.300781 0.000000 m /l glyphshow
116.857422 0.000000 m /e glyphshow
129.162109 0.000000 m /s glyphshow
grestore
0.000 0.000 1.000 setrgbcolor
gsave
347.579 311.368 m
348.242 311.368 348.878 311.632 349.347 312.1 c
349.816 312.569 350.079 313.205 350.079 313.868 c
350.079 314.531 349.816 315.167 349.347 315.636 c
348.878 316.105 348.242 316.368 347.579 316.368 c
346.916 316.368 346.28 316.105 345.811 315.636 c
345.342 315.167 345.079 314.531 345.079 313.868 c
345.079 313.205 345.342 312.569 345.811 312.1 c
346.28 311.632 346.916 311.368 347.579 311.368 c
cl
gsave
fill
grestore
stroke
grestore
gsave
361.579 313.118 m
362.242 313.118 362.878 313.382 363.347 313.85 c
363.816 314.319 364.079 314.955 364.079 315.618 c
364.079 316.281 363.816 316.917 363.347 317.386 c
362.878 317.855 362.242 318.118 361.579 318.118 c
360.916 318.118 360.28 317.855 359.811 317.386 c
359.342 316.917 359.079 316.281 359.079 315.618 c
359.079 314.955 359.342 314.319 359.811 313.85 c
360.28 313.382 360.916 313.118 361.579 313.118 c
cl
gsave
fill
grestore
stroke
grestore
gsave
375.579 310.493 m
376.242 310.493 376.878 310.757 377.347 311.225 c
377.816 311.694 378.079 312.33 378.079 312.993 c
378.079 313.656 377.816 314.292 377.347 314.761 c
376.878 315.23 376.242 315.493 375.579 315.493 c
374.916 315.493 374.28 315.23 373.811 314.761 c
373.342 314.292 373.079 313.656 373.079 312.993 c
373.079 312.33 373.342 311.694 373.811 311.225 c
374.28 310.757 374.916 310.493 375.579 310.493 c
cl
gsave
fill
grestore
stroke
grestore
0.000 setgray
gsave
397.579032 308.618125 translate
0.000000 rotate
0.000000 0.000000 m /H glyphshow
15.039062 0.000000 m /a glyphshow
27.294922 0.000000 m /m glyphshow
46.777344 0.000000 m /i glyphshow
52.333984 0.000000 m /l glyphshow
57.890625 0.000000 m /t glyphshow
65.732422 0.000000 m /o glyphshow
77.968750 0.000000 m /n glyphshow
grestore
0.000 0.500 0.000 setrgbcolor
gsave
347.579 282.009 m
348.242 282.009 348.878 282.272 349.347 282.741 c
349.816 283.21 350.079 283.846 350.079 284.509 c
350.079 285.172 349.816 285.808 349.347 286.277 c
348.878 286.745 348.242 287.009 347.579 287.009 c
346.916 287.009 346.28 286.745 345.811 286.277 c
345.342 285.808 345.079 285.172 345.079 284.509 c
345.079 283.846 345.342 283.21 345.811 282.741 c
346.28 282.272 346.916 282.009 347.579 282.009 c
cl
gsave
fill
grestore
stroke
grestore
gsave
361.579 283.759 m
362.242 283.759 362.878 284.022 363.347 284.491 c
363.816 284.96 364.079 285.596 364.079 286.259 c
364.079 286.922 363.816 287.558 363.347 288.027 c
362.878 288.495 362.242 288.759 361.579 288.759 c
360.916 288.759 360.28 288.495 359.811 288.027 c
359.342 287.558 359.079 286.922 359.079 286.259 c
359.079 285.596 359.342 284.96 359.811 284.491 c
360.28 284.022 360.916 283.759 361.579 283.759 c
cl
gsave
fill
grestore
stroke
grestore
gsave
375.579 281.134 m
376.242 281.134 376.878 281.397 377.347 281.866 c
377.816 282.335 378.079 282.971 378.079 283.634 c
378.079 284.297 377.816 284.933 377.347 285.402 c
376.878 285.87 376.242 286.134 375.579 286.134 c
374.916 286.134 374.28 285.87 373.811 285.402 c
373.342 284.933 373.079 284.297 373.079 283.634 c
373.079 282.971 373.342 282.335 373.811 281.866 c
374.28 281.397 374.916 281.134 375.579 281.134 c
cl
gsave
fill
grestore
stroke
grestore
0.000 setgray
gsave
397.579032 279.258750 translate
0.000000 rotate
0.000000 0.000000 m /L glyphshow
11.142578 0.000000 m /a glyphshow
23.398438 0.000000 m /n glyphshow
36.074219 0.000000 m /d glyphshow
48.769531 0.000000 m /i glyphshow
54.326172 0.000000 m /hyphen glyphshow
61.542969 0.000000 m /S glyphshow
74.238281 0.000000 m /z glyphshow
84.736328 0.000000 m /a glyphshow
96.992188 0.000000 m /l glyphshow
102.548828 0.000000 m /a glyphshow
114.804688 0.000000 m /y glyphshow
grestore

end
showpage
