0.288238778693 -97.9979897649 1.87463740024
0.45269068156 15.7698532195 1.34068007397
0.710969058711 12.0377193808 0.553454001386
1.11660571563 5.91802992991 0.246432160638
1.75367452199 3.20558306922 0.104144602169
2.75421689682 1.89059407831 0.0567040363879
4.32560923912 0.904608913086 0.0354839163759
6.79354458654 0.432189846801 0.0174241535941
10.669537052 0.18346952838 0.0170131100216
