0.288238778693 -110.716977031 3.20714105774
0.45269068156 16.690877965 1.50722923942
0.710969058711 12.45126913 0.620417457951
1.11660571563 6.69429872309 0.29197008629
1.75367452199 2.89607539806 0.0896331617507
2.75421689682 1.71930193235 0.0365102653411
4.32560923912 0.812755373478 0.0479492383511
6.79354458654 0.442389747006 0.0230595818107
10.669537052 0.189630085728 0.0174504627974
