%!PS-Adobe-3.0
%%Title: sigma5_paper.ps
%%Creator: matplotlib version 1.5.3, http://matplotlib.org/
%%CreationDate: Wed Apr 12 13:59:47 2017
%%Orientation: portrait
%%DocumentPaperSizes: letter
%%BoundingBox: 18 198 594 594
%%Pages: 1
%%EndComments
%%BeginProlog
/mpldict 7 dict def
mpldict begin
/m { moveto } bind def
/l { lineto } bind def
/r { rlineto } bind def
/c { curveto } bind def
/cl { closepath } bind def
/box {
m
1 index 0 r
0 exch r
neg 0 r
cl
} bind def
/clipbox {
box
clip
newpath
} bind def
end
%%EndProlog
%%Page: 1 1
mpldict begin
18 198 translate
576 396 0 0 clipbox
100000 setmiterlimit
gsave
0 0 m
576 0 l
576 396 l
0 396 l
cl
1.000 setgray
fill
grestore

end
showpage
%%EOF
