-0.3601541607600979 27528.0
-1.2601743807400383 581895.0
-0.7152649140079457 163755.0
-0.6873355274330714 39073.0
-0.36915275733691694 548529.0
0.10666849622878545 40445.0
-0.47013477087680655 74263.0
-0.4078037479887926 76096.0
-0.9949671395800858 581899.0
0.13198222502256526 16434.0
0.2749734683988587 79760.0
-0.1976060754396745 96082.0
0.030961922869242157 392158.0
0.2217571389748106 58295.0
-0.2906886517581886 41095.0
-0.09324402824022987 23024.0
-1.0783750353941095 26175.0
0.017059105601224464 332707.0
-0.8679681507082027 335557.0
-0.1262048747410826 346677.0
-0.5000093489271996 444529.0
-0.90360229495221 347736.0
-0.3708074748386774 159677.0
0.30512191433541896 120729.0
-1.1794635341819226 341333.0
-0.4734816966901696 314660.0
-0.2381083087750248 312121.0
-0.9542071280572668 292578.0
-0.8349831004989381 358259.0
-0.7790017795900541 520232.0
-1.2174554712013477 347716.0
-1.3025611045174488 154927.0
-0.9835808587730792 390317.0
-1.1549973201801542 550168.0
-0.9021779040190887 252907.0
-0.4612309408849157 158421.0
-2.1154734332042557 351809.0
-1.1869257730171228 3026.0
-0.36744134135071027 39425.0
-0.08947970087204549 10264.0
0.4843282938806257 10033.0
-0.6694072068888575 4656.0
-1.0470805376868346 11635.0
-0.9676977860657443 6596.0
-0.22158312492973373 53203.0
-0.08544575855211017 117239.0
0.09245504783311663 12013.0
-0.3391899902637195 514079.0
-0.3450025446004334 7435.0
-0.3824017061501771 555540.0
-1.0795230407460785 7197.0
-0.21460005387449121 526956.0
0.035146108061355784 531481.0
-0.37572810013716207 532901.0
-0.9081105029932964 3532.0
-0.4125458574668452 531568.0
-0.4217324949316643 532892.0
-0.4935415534768165 550120.0
-0.25127039230175263 15643.0
0.0057602152467249685 15618.0
0.37473018718257545 18241.0
0.05693573985097378 5184.0
-0.9668673534087997 9912.0
-1.9907185187814047 2230.0
-1.3947353748755427 10814.0
-1.4265547369938714 31918.0
-0.30302314348163795 543.0
0.225757171361314 536730.0
-1.0059487977583672 12937.0
-0.09926309992520577 11235.0
0.12894339475336816 11216.0
-1.2642122210710687 4085.0
-0.1681458988422154 98191.0
0.33836138412634886 75866.0
-0.949424288225753 68243.0
0.3421466069079702 73164.0
-1.0231898055572932 2978.0
-0.39678568076176485 537144.0
-0.14214575520767447 540722.0
-0.6743380182575099 537452.0
-0.6434847683196958 537226.0
-0.6448310478214879 62804.0
-0.18736820685163377 520586.0
-0.4134686238595323 85012.0
-0.6503655445068045 4161.0
-0.5542782274576814 4240.0
-0.2713723683491185 3277.0
-0.5373666819381426 93112.0
-0.853778315541877 5039.0
-0.5341292840791281 89486.0
-0.9236280777679066 83281.0
0.08437610673553829 86106.0
-0.26420569601376787 3785.0
0.21033277763004324 19974.0
0.23652585948171606 19975.0
-0.5468865793847367 89572.0
-0.4920289433994893 27872.0
-0.38503039740566697 14018.0
0.24687756427132038 7891.0
-1.0947124900766803 309945.0
-1.4709948871963245 87339.0
-0.7419936910165275 321148.0
-0.5229971791340586 75313.0
-1.176413470388654 125057.0
-1.5934949297134289 316839.0
-0.3483633122674097 270050.0
-1.0332027021127514 266432.0
-0.4280707548990749 91849.0
-1.0379917544144344 173408.0
-0.8645578190195606 326953.0
-0.8571803153441273 388533.0
-0.7511799390657102 124202.0
-1.0555433404878847 391140.0
-1.7543050473387822 347152.0
-0.9308566193106163 335728.0
-0.8311673087587772 335730.0
-0.0013445285667028992 343663.0
-0.248906400890434 435468.0
-0.5086501255978424 610121.0
-0.6398264834204571 230778.0
-1.2052587882553958 164053.0
-0.9766706034118272 177207.0
-1.0333220197731006 225185.0
-0.5663689280881585 336784.0
-0.1982665747254113 225921.0
-1.1261020898683805 96150.0
0.6032892851879806 113125.0
-1.1535885995590682 108884.0
-0.7110748026293585 112769.0
-1.0545410459298674 390957.0
-0.45117117920221084 396935.0
-0.960270180240471 568454.0
0.2836877699242356 342032.0
-1.0560079108110685 199257.0
-0.40320448941118237 584161.0
-1.1868441552348894 529019.0
0.6334899932300184 500931.0
-0.34087220636441745 123127.0
-1.0318338709562966 188005.0
-0.6732110057504945 65714.0
-0.8112338029969028 63922.0
0.46847998691629655 190139.0
-0.9734880563533101 65569.0
-0.28247784518935326 67359.0
-0.0786659575266502 172264.0
0.20995050968355308 191871.0
0.40762465313619795 89095.0
0.2915895974448552 114989.0
-0.602312447985833 59873.0
-0.6959597581588369 65276.0
-0.21109933265173106 264512.0
-0.7264374139276811 580928.0
-0.4905153336056411 167414.0
-0.5377553509746913 152923.0
-0.4384230913821152 25618.0
-1.071637159121586 156948.0
0.17505372007638706 52902.0
-0.7795296019590916 535420.0
0.5163889351146762 167569.0
-0.8976478488559858 75901.0
0.24778037577628054 53052.0
-0.6615459001161034 502752.0
-0.002841698955634751 97391.0
-0.08578392612553112 32197.0
-0.023453118816347637 69606.0
-0.572494739444195 41242.0
-0.630467791131769 39478.0
-0.35223036138370695 132755.0
-0.5922116288411562 48770.0
-0.3581488982181851 43160.0
-0.19073775309442445 58115.0
-0.7224935704532552 35749.0
-1.090120876872477 33740.0
0.038595745120461954 495976.0
-1.0044077204149469 43247.0
-0.2992264378224436 60998.0
-0.989192401174231 48914.0
-0.24671126722642073 51966.0
0.17377388031323254 580112.0
-1.3642650560944753 565545.0
0.39779896852585683 565589.0
0.6680316427683333 565786.0
-0.831401151947294 48588.0
-0.12170664948883388 616676.0
-0.3830078692736164 227926.0
0.5333244600204141 291823.0
0.48315047296830294 305974.0
-1.078488258704439 26589.0
0.6843043510349955 120865.0
-0.4976023472995041 278333.0
-0.26591593262327673 90588.0
-0.07789116509271082 114840.0
-0.38203374562179193 122866.0
-0.28151164570812154 59882.0
-0.7786875920109997 289362.0
0.48177654054271346 267822.0
-0.26879640288603696 121037.0
-0.30829706489776326 208519.0
-0.42457940516631254 64166.0
-0.10764700080726823 82907.0
0.06939506092615004 28188.0
-0.7877322008190744 20395.0
0.20667208092014794 295585.0
-0.21476008460939797 279154.0
0.24511865307412148 565401.0
0.07060420867970245 221848.0
-0.7643817662201826 59953.0
-0.7026097064937638 280652.0
-1.1616335961640218 227445.0
-1.4707377316044299 668.0
-1.2809479627775044 424664.0
0.3563300736634185 216522.0
-0.6426054195919023 468429.0
-0.9750696038563413 499352.0
-0.17230465473731973 221306.0
-0.029650545792233918 219301.0
0.03063375621894162 550156.0
-0.42493238246534143 220239.0
-0.21916299198522882 518484.0
-0.7234022762744271 469841.0
0.5139952068141913 215108.0
-0.945422393085262 499252.0
-0.44158972146478204 226846.0
-0.8736810042557613 681369.0
-0.2983734851477777 197678.0
-0.13468047830783875 344389.0
0.6359254611740793 505899.0
-0.5484941112899008 206484.0
-0.23262600801579844 333561.0
0.22876908013554298 205132.0
-0.3820186048129359 337811.0
-0.7211551509847554 186037.0
0.39242522841200106 143523.0
-0.3801846968633325 215346.0
-0.4671289144518823 327500.0
-0.4121298938589967 192402.0
-1.4461700628731833 129584.0
-0.28073699230119903 242659.0
0.3566769782987306 211828.0
-0.4259518460032138 267218.0
0.7768864525738672 237200.0
-0.2180939267198576 194920.0
-0.06919365993921517 471450.0
-0.7690404233448758 191819.0
-1.146816148083643 237927.0
-0.8420076688069641 294103.0
-1.0160406380187375 147805.0
0.43318090335049275 251997.0
-0.1356807558720836 230385.0
-0.04074028717790516 134396.0
-0.2461624029823893 268777.0
-0.6086990334786058 171069.0
-0.46248346772829163 241550.0
-0.13681908746519106 241142.0
-1.1719723117210368 235599.0
-0.05875539166207174 280234.0
0.024993963557877585 271695.0
0.006356285022874493 280967.0
-0.6284609875630116 286770.0
-0.23963687003817571 278895.0
-0.0014725205195940127 147588.0
-0.5104553036468275 285570.0
-0.5582952057122531 276669.0
-0.4119958719467675 281572.0
-0.7385049569717993 232493.0
-0.46152293917646425 505654.0
0.004491768381644869 245009.0
-0.34431055401099914 505449.0
0.2574324735402539 145370.0
-0.35657891684397647 601805.0
-1.5238675595021265 619487.0
0.19771698346215436 231852.0
-1.7755614913677555 551343.0
-1.07436876813511 547171.0
-0.10813534878899235 299384.0
-0.46450115690917354 210785.0
-0.9478379519989759 346048.0
-0.5777209103242293 322116.0
-0.08612949154635066 254559.0
-0.6861022419719783 260965.0
-0.5655789921742359 298428.0
0.12547220385285424 362985.0
-0.7001683530329388 314741.0
-0.08266295807033379 286635.0
-0.37386171485417863 223409.0
-1.3473748018379168 316221.0
-0.7861688000202168 268277.0
-0.7438438538319307 230811.0
-0.7452618840489702 448597.0
-0.3949415873761565 315816.0
-0.5900431585823522 331904.0
-0.3224543023837645 459578.0
-0.8763240396880004 479355.0
-1.153372487015654 306802.0
-0.5079017838193718 241756.0
-1.0883617850939358 476594.0
-0.6526299145448594 622358.0
-1.9996463524068722 480838.0
-0.4146006122643355 431893.0
0.046749942477194 433299.0
-1.2299576072176843 35026.0
-0.41663738539077033 544517.0
-0.07587196825032505 113726.0
-0.2685968484945836 122092.0
-0.4364266706738699 14941.0
-0.8124756490438862 16116.0
-1.0576062645254374 17738.0
0.2516470669172839 383471.0
-0.2915764582679441 410498.0
-0.21202113280561558 363909.0
-1.1419728946592635 352773.0
-0.5020793430144814 417671.0
-0.5496282264883545 418816.0
-0.6453348330411937 426545.0
-0.06459793958769125 446090.0
-0.3159434463814527 416587.0
0.5558016176843392 414868.0
0.49797222579832967 414849.0
-0.15686752624636538 478910.0
-0.1863165927407706 402943.0
-1.216102458022969 661872.0
-0.7048935903552456 448834.0
-0.13751804819058966 384904.0
-0.22623232418524256 426525.0
0.21243533402643708 410358.0
-0.47245442580479946 398039.0
-0.6493732095908786 431650.0
-0.6498461595780762 417915.0
-0.3047477943644711 500207.0
-1.0409016862523113 462293.0
-0.054987368117997835 523299.0
-0.6634747793572929 522376.0
-0.7941084467754109 505586.0
-0.027388003598317834 319147.0
-0.404417463296608 340247.0
0.15276883269936148 333598.0
0.3252475390443267 335808.0
-1.1215413709736273 479403.0
-0.8782964516457767 514212.0
-0.22945202007073726 481513.0
-0.8983521319358159 221401.0
-0.9696816295728534 515884.0
0.12040272400082987 513583.0
0.4651143248399068 544381.0
-1.4390267109853003 510634.0
0.7034245218630866 517099.0
-0.10530295918637804 239529.0
-0.38443895237117454 458576.0
0.41469652856306405 272919.0
-0.7012233825096021 524004.0
-0.3583963168359479 466694.0
-0.9235873851823455 242656.0
-0.2374378505414977 223301.0
0.08778043631647311 226079.0
0.346286060126313 365569.0
-0.2818200343005887 226146.0
-0.844576768289983 460592.0
-1.0975498147642937 466737.0
-0.17339739033928836 459473.0
-0.558429038899223 465028.0
0.2841036801128226 513168.0
-0.5491479008827507 528570.0
-0.6447839578472704 530217.0
-0.4525971167141572 334039.0
-0.1554744316709459 255667.0
-0.16785976316730222 530260.0
-0.5912082820610451 294123.0
-0.8443410899539193 331480.0
-0.04961618574192863 332286.0
0.041844524714260034 448226.0
-0.1490621037620361 365435.0
-0.5391855232342815 445906.0
-0.6556699140990367 420749.0
-1.175464321340861 294174.0
-0.5915274534430599 447026.0
-0.8542245003912655 447159.0
0.33142072150503193 357704.0
-0.16670732592112564 300789.0
0.31893772356631683 447011.0
0.1403891291315989 439922.0
0.02048775959982207 426991.0
-0.1398911643251732 514698.0
-0.08418126642130187 525223.0
-0.3343603229305194 454510.0
-0.41125529043612985 420660.0
-0.015884863338679587 555250.0
-0.45030619843840186 449477.0
-0.5408067056949524 500250.0
0.37481657426010184 465148.0
0.17716561451492746 558153.0
-0.5306488175083065 555422.0
0.06739667415149996 558075.0
-1.0983780373897303 556791.0
-0.44317317400369816 534951.0
-0.9402843417855893 541506.0
0.12116036839483886 527978.0
-0.3938642649910925 495568.0
-0.4686398257144424 427072.0
-0.5400416735066347 433684.0
-0.1883128519461146 428432.0
-0.9409786047559409 454412.0
-0.32861540299861913 445595.0
-0.7451924474766157 465698.0
-0.3943164841508011 442401.0
-0.045441550067311154 636589.0
-0.9207247287452738 382206.0
-0.5888343455610432 638722.0
0.5848558386576405 454402.0
-0.417270294827066 88439.0
0.016481177044651758 81562.0
-0.2954445874349847 79592.0
-0.5361642672396445 87527.0
-0.5504214662090194 20345.0
-0.6571866411374296 28998.0
0.34139681601366684 582854.0
-0.3656904516119205 27405.0
-0.7185553055349705 92045.0
-0.22931058472204435 96853.0
-0.6961778248200542 136568.0
0.081727762951997 388123.0
-1.23035166420146 133454.0
-0.11184990213028631 202813.0
-0.9819459756252321 150470.0
-0.5174399007208504 353595.0
-0.7005946018195135 497236.0
0.2916023593757489 387235.0
-0.7440192946907418 378075.0
0.12026912943825392 352991.0
-0.9579441125120691 380829.0
0.23189746459075228 352973.0
-0.01881359733130434 408552.0
-0.6056336787301844 351954.0
-0.39244509435962427 359122.0
-0.5101299217354197 371334.0
-0.7270530977928592 376244.0
-0.2360831876602251 364836.0
-0.41884042179908976 366438.0
-0.9790577640688962 366498.0
-0.7411934101975357 412152.0
-0.8656639904988512 458683.0
-0.630022381652761 424210.0
-0.1444881068093255 435255.0
-0.674967762792713 427369.0
-0.7894381518959495 436350.0
0.4455077663946715 411392.0
-0.29797782708377035 416407.0
-0.35558457808520744 412128.0
-0.7533558631505979 409457.0
-0.3362732145207619 436212.0
0.017375172056944853 410557.0
-0.26901363393790767 662677.0
-0.6720959344693441 459023.0
-0.9628092495184001 457738.0
-0.5513085959864013 413519.0
0.6428743648367246 435116.0
-0.4890911797802856 457772.0
-0.38244728567597575 662766.0
-0.40460121557624074 476470.0
-0.39302453052485814 663878.0
-0.04468225301784412 478805.0
-0.476568109139022 433447.0
-0.7419190488046473 455760.0
-1.4101312794013774 662695.0
-0.31424338342086056 450690.0
-0.35964859074644645 460705.0
-0.5960658282645412 454846.0
0.3194668448477372 450630.0
0.09170295612806409 473553.0
-0.24641942505997497 481097.0
-0.14243033513429246 472605.0
-1.3050460353121174 493946.0
-0.8440074789142775 417477.0
-1.0960764885027445 417478.0
-0.5468154069265271 451425.0
0.15232215912892225 438834.0
-0.6379588588703055 445128.0
-0.5936509408780671 488568.0
-0.35141046763883854 507152.0
-1.098565565270699 510145.0
-0.6277499512231496 560938.0
0.2764812419955715 506299.0
-0.41131873059571217 511633.0
-0.7198882440946854 424235.0
-0.22789856223081412 533327.0
-0.3282602710503053 531330.0
-0.4508407746704237 485272.0
-0.7285842283531125 449315.0
0.2768471083890489 558120.0
-0.3885604246873658 326854.0
-0.4357432122394964 561163.0
0.17780298275251133 333082.0
0.29394949299689105 561086.0
0.16595400250785491 534898.0
-0.7607937760973257 358272.0
-0.330671655989773 562373.0
-0.66482383084991 396017.0
-0.6245528067171475 430720.0
-0.3022923440520687 428006.0
0.1848114646134231 445082.0
-0.23496445661148305 414078.0
-0.0011037868822557535 308496.0
-0.8170455706200929 304583.0
-0.6789149947095039 409436.0
-0.3420159975474848 406896.0
-0.24811479639232487 272692.0
-0.2582984048136969 278963.0
-0.11069229380956859 304398.0
-0.17806179379168624 140928.0
-0.18329704109266923 133398.0
-0.0491621289494705 143120.0
-0.45085571211817455 103515.0
-0.5263492550844998 388139.0
-1.1046862487931384 189837.0
0.21326853747039373 335850.0
-0.40254671152637583 212715.0
-0.33936621993660987 372223.0
0.2772712108942026 213274.0
-0.2807736866746352 218287.0
-0.799404886838264 370862.0
-0.3706474943882236 370866.0
-0.3059752932479467 407759.0
-0.3800602402767575 372221.0
-0.4020957731077231 392580.0
-0.2576229371138458 381795.0
-0.18416633268028432 403951.0
-0.21915392433642072 404153.0
-0.2555406036444444 357075.0
-0.7190000123176321 425790.0
-0.16694806934638776 439744.0
-0.5701308466533219 652500.0
-0.6533032968884637 418467.0
-0.6138319903779021 652404.0
-1.0005850606826037 434933.0
-0.9801743722723859 471377.0
-0.1913649211007382 420125.0
-0.537359439586421 485717.0
-0.46989849202817313 502852.0
0.36139351022008964 416757.0
-1.3329583297835235 422016.0
-0.6740679651731878 499101.0
-0.5468042846007346 416768.0
-0.2773533038619105 660179.0
-0.3303494520742296 499765.0
-0.5029765400698589 499183.0
-1.2286649135777572 391381.0
-1.7339318982634762 398478.0
-1.1113482496319647 428147.0
-1.060413023539317 417266.0
-0.8462740642204051 370892.0
-1.0790887602257158 439176.0
-0.9207457347921788 659657.0
-0.5392869448168185 657976.0
-0.12880567141601262 404732.0
0.021289127534729963 376817.0
-0.3292061099353691 380885.0
-0.24638158590855563 342548.0
-0.6525176133074574 441769.0
-0.45010742215078586 407716.0
0.13944376117187374 391345.0
-0.18513808797823755 420586.0
-0.3038665439564971 389567.0
-0.6899628134405403 426669.0
0.016766125725074486 426894.0
-0.5192017046919019 408054.0
0.6074660218764683 409656.0
0.13558482441610994 529887.0
-1.6632260901832328 498538.0
0.09167019637405627 522686.0
0.5185942037977802 473114.0
0.08718595702886224 480427.0
0.4569173343220111 402603.0
-0.4679722053876313 636540.0
0.5323333956936495 407058.0
0.2111953874115057 393479.0
-0.13858136018750575 406519.0
-0.5016896731686435 517215.0
-0.48377236127563356 634063.0
0.03032577913879298 461515.0
0.15860046818716456 380961.0
-0.2747022629386452 266941.0
-0.9094960779680503 264650.0
0.5446282248799326 263388.0
-0.37794161961868117 319371.0
-0.2682011815404445 263096.0
0.669503777015882 316744.0
0.16723850130073506 286362.0
-0.8481338794247317 313533.0
-0.8670428938162671 226854.0
-0.35034313116235893 272837.0
-0.49051258467397335 278560.0
0.42094841034479485 249367.0
-0.8992088588280969 278562.0
-0.7725582282875667 212311.0
-0.355174325467784 229612.0
0.3262341854828763 307177.0
-0.5311646704093456 311198.0
0.301210138675634 329517.0
0.11627278873629929 162844.0
-0.15390910767883348 326202.0
-0.3708812321626749 75042.0
-0.32214367085650514 78217.0
0.5436835002342892 114166.0
-0.1526163993871273 117910.0
-0.6032314541507086 532038.0
-0.171227349058937 529158.0
-0.7929193205417648 105664.0
-0.1961308991216366 319852.0
0.15226366188207455 144627.0
-0.1325718536557381 388240.0
-0.2439751847277198 158748.0
0.2422769649208372 388258.0
-0.4572562568273879 189507.0
-0.6073919752372611 179564.0
0.38177064895430257 207737.0
-0.5926820134377192 120253.0
-0.6947997160365083 361552.0
-0.49045530044555363 247608.0
-0.6174446044434844 227462.0
-0.1276989221773272 344543.0
-0.5576547150220031 228407.0
-0.661658891016358 243980.0
-0.14612853997000072 341211.0
-0.9103428824964643 243837.0
-0.49413327115710404 632101.0
-0.7523234181610347 342219.0
-0.6858424979712325 632040.0
-1.0167107520349934 618111.0
-0.011316943737138697 335266.0
0.33769546047239357 339545.0
0.18828758416231509 243966.0
0.3366150284526752 243943.0
-0.49201554450344154 345830.0
-0.7046422950772893 329607.0
-0.42401112594842955 410413.0
-0.8226943753531893 348457.0
-1.2027387321957559 398946.0
-0.6669061488715472 409775.0
-0.6930722493308681 467957.0
-0.10733937987147861 468193.0
-0.05525455561982817 397298.0
-0.5030927191091623 359386.0
0.022602765590758973 410017.0
-0.450361021570604 490460.0
-0.13761806418581243 373852.0
-0.9279604054501757 405813.0
-0.033934624292198325 375453.0
-0.627793137683294 634570.0
0.12925543945781398 459899.0
-0.669609742266994 378442.0
-0.11599667010460929 382143.0
-0.7301971927739603 403280.0
0.5278815245719917 378297.0
-0.6361653605095079 416109.0
-0.7511913384900353 426343.0
-1.2785504024614178 405812.0
-0.3005609246179841 388010.0
-0.31814074376384766 487815.0
-1.0841260601215763 456757.0
-0.4528465310049187 495821.0
-0.2542653510075352 470404.0
-0.5659918333446072 260243.0
-0.16686987229779984 231604.0
-1.1951884000783084 242074.0
-0.023347127838313792 316945.0
-0.17460439585854926 246508.0
-0.8692916112921956 251708.0
0.8319063862017114 317862.0
0.3314546743943109 305261.0
0.08832734517481236 324912.0
0.22524393015293395 309814.0
-1.0666345603347847 230979.0
0.04095454034082013 230619.0
-0.9433704291335642 324223.0
0.10640981398768971 621024.0
0.062065737019845135 275835.0
-0.007362795375758824 283780.0
-0.8352576445233307 268657.0
0.4657094465983804 277726.0
-0.37658121274902867 326411.0
-0.5456205235072333 312828.0
-0.9878005433514708 321321.0
-0.05107514870912981 153255.0
-1.4897247121122765 304295.0
-0.27087646236408613 295220.0
-0.9406463144672369 159194.0
-1.366524800913868 175195.0
-0.3670516051593147 238360.0
-1.043200296375299 295004.0
0.060224065746489815 78199.0
-1.4929867960107 76781.0
-0.04317157672802111 50100.0
0.04996349853094833 41260.0
-0.9199173184510139 80718.0
0.017349584787002166 80486.0
-0.36879471072683145 102656.0
-1.0404656755865358 13093.0
-0.4546599884003664 78059.0
-0.1193037625808006 76672.0
0.48601612576160197 586405.0
-0.6220237415719407 192172.0
-0.3099713509004201 55527.0
-0.9953814258615387 127249.0
-0.1877875823384068 199520.0
-0.6617026864951376 320709.0
-1.648988592154783 322853.0
-0.362354710958625 229541.0
-0.8403570270120364 222459.0
0.055849370161389314 229526.0
-1.0742564616342634 255184.0
-0.12774647516775472 192262.0
-0.6500719982986654 244437.0
-0.37749384678678694 267702.0
0.07280625524267571 247333.0
-0.3362186595315526 267455.0
-0.5377662461293318 221159.0
-0.349528143134585 352569.0
-0.3875761020715377 285869.0
-0.0015762648768938615 341132.0
0.06670228508308577 281231.0
-0.004774205642011319 342156.0
-0.9602130515445703 245546.0
-1.2056915394808263 366921.0
-0.4392231830320325 214364.0
-0.4423723289634574 368978.0
-1.0087256622491465 243182.0
-1.0288784834966338 364327.0
-0.12358073390796655 368902.0
-0.5875591904354556 340857.0
-0.8987636007926351 348481.0
-0.625699627855428 282020.0
-0.008867061917780698 356659.0
-1.4294790187882453 346863.0
0.18768414092615748 450359.0
0.4399142188850377 455421.0
-0.1954308197424424 361105.0
-0.7654024918033164 351573.0
-0.5948910825731057 350283.0
-0.14277132618940142 303911.0
-1.3286341096191976 319948.0
0.19460031213229328 269641.0
-1.0205594950290635 227957.0
0.16448224755033053 248734.0
-0.4403874268481939 250024.0
-0.715187079009169 197035.0
-1.636551047222248 186217.0
-0.7202215232057648 116711.0
-0.43564003481731084 209917.0
-0.08800222884815465 230691.0
0.3113487408473258 621526.0
-1.5226772722238693 206292.0
-0.25433462276012436 321405.0
-0.10055268556950263 317111.0
0.16308642027432757 149847.0
-0.22782777392721956 320853.0
-0.9109676570479763 161755.0
-1.2345701827130535 329148.0
-0.6184688173487499 214877.0
0.5378784937287082 159637.0
-0.9825698971305568 197955.0
-0.32531130244940515 209735.0
-0.22528484529434342 253295.0
-0.3003559772871714 59016.0
-1.0844500968653294 162806.0
-0.35286131919260855 68439.0
-0.9322611544335183 80183.0
-0.21105609083925034 47391.0
-1.2432114809658696 348582.0
-0.8621554161142679 276805.0
-0.18949401758638618 567557.0
-0.33399890068354554 24444.0
-0.9514113833281133 135164.0
-1.1899362366371506 145414.0
0.17314779825766485 138923.0
-1.081247694663398 597609.0
-1.0189022864098607 140224.0
-0.41100279357958647 107286.0
0.19623134623792737 101045.0
-0.8844129308060278 118880.0
-0.2651608106401235 170644.0
-0.4616653673530725 173397.0
-0.2927889073125802 266785.0
-0.3128024212675557 262135.0
-0.17975865536893196 107845.0
0.25240495683321246 254472.0
-0.9932800342489122 112273.0
-0.19532276958394446 283830.0
-0.31329129867301664 225894.0
-0.9419689783526446 264707.0
-0.6761432514324157 217928.0
0.3534154979296033 207081.0
-0.15071520458189458 211525.0
0.5041955028350849 278085.0
-0.867039181629619 285886.0
-0.7401830433821671 294574.0
-1.2776694333696765 264211.0
-1.0919309786023546 188370.0
-1.7994561291836981 195446.0
-0.37114864401419256 112321.0
-0.44113383192617295 156167.0
-0.980683505300584 603023.0
-0.6255366838660228 157652.0
-0.8106980330676719 146326.0
-0.49309031722021346 16353.0
-1.2100600793514913 87672.0
-0.4164615641274193 162596.0
0.09800783695357292 169985.0
-0.988695019094701 74799.0
-0.17128219114625964 78968.0
-1.0403719870492425 37609.0
-0.88943556984473 37756.0
0.27413773886457254 31009.0
-0.6493657988775559 29768.0
0.17419999414324683 29310.0
-0.0003721422822543402 136934.0
-0.4557542787801433 57624.0
-0.0550714400861612 90181.0
-0.9293486743219554 57387.0
-0.3637136809303442 154003.0
-0.5739427410795881 90151.0
-0.6996915245941289 160123.0
0.14839987231746884 178233.0
-0.8820286178723239 200220.0
0.3019423041004864 112662.0
-1.7121676786143856 602059.0
-0.4185331928011189 158057.0
-0.34833547211798066 163438.0
0.2490586451318212 148037.0
-0.07228676500292999 146613.0
-0.18568146777767341 144832.0
-1.242073644243477 224560.0
-1.0576867143236774 224572.0
-0.5075893350321284 94530.0
0.37864945698720764 96734.0
-0.6274601442400811 118479.0
-0.13407321880601475 119702.0
0.04066127499586054 281145.0
-0.44806611256519574 612484.0
0.09341659548693426 234812.0
-0.7773260761632742 119423.0
-0.777393093445063 225056.0
-0.24477212597708434 248838.0
-1.3554947943467157 613593.0
-0.7774457528986457 191660.0
0.1704917317143266 70665.0
-1.0847176595781391 344523.0
-0.07039698314128069 348033.0
-0.4412080704130673 129134.0
-1.1939019626173475 347570.0
-0.5972738380598547 59306.0
-1.0825344580064524 27247.0
-1.4029166211141892 90210.0
-0.37731004404647406 69728.0
0.20720998701040047 112667.0
-0.3151104962918339 201712.0
-0.38528643593831097 252104.0
-0.23304248408094713 104662.0
-0.4248299941850883 145725.0
-0.07255377785148114 102523.0
-0.8649883070045039 280999.0
-0.8030851256187044 258310.0
-0.3889122657410662 261831.0
-0.49257390557288316 187335.0
0.17994793181692412 200880.0
-0.0003440506396410228 261856.0
-0.3299264809743253 85718.0
0.3631876108700851 203037.0
-0.1520312110605114 339611.0
-0.09558659485676117 104643.0
-0.7381601393571654 58662.0
0.4109369753769187 56508.0
-0.47636031805511597 50973.0
-1.2195590456950012 152069.0
-0.12223030284932103 97103.0
-0.18981835055619256 501022.0
-1.0617637856282856 565576.0
-0.09137460507111606 543356.0
-0.8780436179551511 543285.0
