0.47953713473336235 170946.0
0.1238458671188469 77678.0
0.03203544649297941 100943.0
0.006630720522893075 347217.0
0.13792506797244006 298143.0
0.10286801958748774 341891.0
-0.6047180391737323 295880.0
0.04641269098001829 36925.0
0.5004319529440758 114686.0
0.36378886223730117 555630.0
0.45051957807600795 8814.0
0.511085953053507 8624.0
0.4223582393588471 80955.0
-0.19034248949914748 23670.0
-0.2493217391149532 468658.0
0.6489697358730824 341243.0
0.7748118469659055 135221.0
0.5901622141986386 66712.0
0.710312042512439 118775.0
0.7988775937000347 73866.0
-0.30070443005175646 589053.0
-0.6730799324242447 309449.0
0.21947866683330014 49027.0
0.4997642048507206 113968.0
0.810636228872609 119380.0
0.7955029638666206 289358.0
0.26443505522176597 251971.0
0.7796928232104279 208502.0
-0.5294047806118186 36412.0
1.9332233808035852 291735.0
0.1899281793537733 433945.0
0.7460619076017792 197644.0
0.675832144769344 499224.0
0.11869628450662384 340569.0
0.7703700455187754 218193.0
-0.6411628885426143 267167.0
0.036715845184504756 209621.0
0.4533308887228174 215588.0
0.7699381633628216 471448.0
0.29856498220865096 190956.0
0.7356272234639523 143213.0
0.3609518988795677 237945.0
-0.397324558200281 277220.0
0.3902212738389754 277995.0
1.2932437121635538 229427.0
0.6528386494699121 285404.0
3.0351889910641807 618723.0
0.7839324231053626 141794.0
0.2512759658005775 553359.0
-0.44249645030543583 619970.0
0.6768741193779388 321608.0
0.6650731227695448 220944.0
0.45823787347204087 313246.0
0.4955234774246277 358222.0
-0.2834889024945625 358157.0
-0.5573497541880771 286742.0
-0.5388266119380112 284964.0
0.7653720465019851 463065.0
-0.037196246659940195 622475.0
-0.12117656155555143 594147.0
0.09124836937257606 16741.0
0.7643107232336204 421447.0
0.5466946753827774 367152.0
0.22793696896680754 384752.0
0.5590803622945527 444705.0
0.11493995942740917 409956.0
-0.009209391045843198 473242.0
0.6723847967394669 449958.0
-0.043475618591418484 522466.0
0.47299706056398105 427689.0
-0.23711240971057476 665250.0
0.32066248510775147 485873.0
0.605189147723934 355828.0
0.7451197429391501 524151.0
0.8165296681445972 507091.0
0.020591552124759882 514559.0
-0.3528112105555511 331958.0
-0.043955102158296504 481904.0
-0.43832037890884207 362597.0
3.2149453643210233 519365.0
0.4894397115921808 437373.0
0.6270327534279465 536611.0
-0.10596094127583446 660649.0
0.7554319550037102 537072.0
0.2535038588887374 450833.0
-0.21132529016115717 428294.0
0.3824369392132673 463396.0
-0.1604634159052242 203008.0
-0.18645542376549332 398268.0
0.038189273303244245 349245.0
0.6848022644754134 396488.0
0.15158703483414782 493844.0
0.669422699071761 476666.0
0.07333965630583471 435911.0
0.600085571468148 511719.0
0.6438388880358903 540488.0
0.6838319574440255 536996.0
0.11613060083147478 637369.0
0.23773965357885982 246037.0
0.038953411554692334 238853.0
0.28341320724297 143033.0
-0.2904659772265539 179584.0
0.5607937258961564 220740.0
0.10112230710573393 632652.0
0.6282794216980186 498814.0
0.30479625561038554 499179.0
0.6529386484554822 399391.0
-0.10461274753888102 428156.0
0.4274230434292916 489254.0
0.6997668167759836 296195.0
0.34330220894679553 159010.0
0.600992510703019 497975.0
0.7278284374939348 320725.0
0.8141753654936694 353803.0
0.13330772744445463 187467.0
-0.40800694288459616 351242.0
-0.4628940075673571 411487.0
-0.6753924915254214 358496.0
1.8469150141425372 365317.0
0.7796238602793502 400924.0
0.6347926658462699 313614.0
0.7380567947279415 320462.0
0.06593360569800177 227067.0
-0.19912402628992035 563955.0
0.6210475426507218 78161.0
0.7816293880788029 49047.0
0.6856614159704051 14894.0
0.22223753025761026 87938.0
-0.5600962633660583 244255.0
0.8156750751271099 367612.0
-0.3576942386822274 336014.0
0.41628882965517966 211752.0
0.2895067111417727 604056.0
-0.08826448312425621 111291.0
0.35467251595016797 404263.0
0.10362515399923017 350353.0
0.5607909102042244 107736.0
0.6218805806113823 117998.0
-0.0473445854133798 588665.0
-1.1503629477320862 258436.0
0.7156477887361302 237720.0
-0.060887412958553294 244752.0
0.46731461780702327 275382.0
0.7318113678891152 190195.0
0.6148631385742794 27783.0
-0.15988093599479336 39242.0
-0.4664855630430594 125563.0
0.4796825603429751 163364.0
0.185884818570517 159839.0
0.8082948698564922 160372.0
0.4691167474975914 216664.0
0.5881861233979565 58975.0
0.5549304399530917 576217.0
0.31769191540563535 182122.0
-0.2278556599457657 155240.0
0.48704531089926484 29077.0
