# name Xcent Ycent zprom dVmax sigmaz rpmax(fromcent) sumr90 Rminkpc S Mr13 Nm nspec frac
543 189.42858 -0.67926 0.13666 225.762 97.22206 138.68605 124.82469 123.1269433 0.048195 -0.19064 3 3 1.0
2230 185.21437 -1.11707 0.13342 450.873 225.4365 121.80651 161.0137 117.2987207 0.0657697 -1.018 3 2 0.6666667
2978 204.41969 -0.78437 0.11418 304.2375 152.11875 48.63066 57.64138 45.038303 0.1221708 -1.04873 3 2 0.6666667
3026 142.18042 -0.4992 0.11745 104.376 52.188 81.51034 69.15114 61.6952407 0.0820286 -0.48213 3 2 0.6666667
3277 219.24601 -1.06595 0.07217 26.994 13.497 51.61052 87.53578 43.4851461 0.0875884 -1.68063 3 2 0.6666667
3532 173.80667 -0.5306 0.11743 267.8715 133.93575 94.76916 228.33308 76.9206935 0.1741804 -1.41363 3 2 0.6666667
3785 227.54114 -1.19501 0.07062 214.569 99.6195 77.46463 245.3827 63.0448334 0.1122593 -1.83767 3 3 1.0
4085 198.02247 0.53978 0.12091 328.395 164.1975 84.3756 82.83508 79.7360282 0.0618589 -0.3303 3 2 0.6666667
4161 215.31177 -0.46638 0.10175 6.288 2.60471 145.35408 210.51807 137.3178365 0.0392136 -0.58567 3 3 1.0
4656 155.09016 -0.84832 0.08486 218.889 91.29891 103.64261 156.63604 99.0756859 0.0405294 -1.42917 3 3 1.0
5039 222.92347 0.04987 0.0995 135.936 56.194 105.17561 99.67042 83.9017968 0.0477984 -1.19123 3 3 1.0
5184 178.80953 -0.51599 0.13211 44.94 18.57832 113.39462 181.6087 98.5831103 0.1032721 -1.47859 3 3 1.0
6596 156.55703 -0.03483 0.10408 421.5015 210.75075 13.71467 74.70935 11.5054745 2.0629996 -0.12693 3 2 0.6666667
7197 171.59591 -3.5112 0.06174 352.716 176.358 44.79488 170.06305 40.5318543 0.1468886 -0.74604 3 2 0.6666667
7435 162.32448 -0.05565 0.07595 229.131 93.62213 72.98102 94.35585 61.4568207 0.0518902 -0.68063 3 3 1.0
7891 235.84591 -0.19962 0.07941 283.803 126.77186 98.35828 172.18205 79.2991387 0.0616756 -1.32367 3 3 1.0
9912 183.56447 0.73453 0.09971 138.189 69.0945 120.8066 100.82599 101.051203 0.0334567 -0.26066 3 2 0.6666667
10033 149.21813 -0.5525 0.0849 137.571 63.70891 117.2995 147.36018 107.3888084 0.032483 -0.95465 3 3 1.0
10264 148.79885 0.28076 0.08674 670.878 278.70034 102.2608 206.21742 86.3515755 0.0730703 -1.55408 3 3 1.0
10814 187.55497 -0.16839 0.13796 283.326 115.79979 130.00006 82.73723 123.0219921 0.0325161 -1.23326 3 3 1.0
11216 196.77918 -0.03585 0.08235 122.007 50.71562 61.96847 76.86878 58.1377717 0.0547131 -0.55931 3 3 1.0
11235 196.66715 -0.44493 0.08547 199.494 86.41399 81.87107 120.41993 72.9407449 0.0582328 -1.06125 3 3 1.0
11635 155.38156 1.06673 0.11071 480.3618 220.52805 66.31635 168.67528 62.8555559 0.1739364 -1.44212 3 3 1.0
12013 161.33119 0.65719 0.07246 372.1668 155.32538 85.34199 127.33607 76.4787071 0.041494 -1.64445 3 3 1.0
12937 196.00849 -3.13336 0.13147 495.963 247.9815 92.36068 101.67325 83.8353204 0.0792876 -0.29501 3 2 0.6666667
13093 119.36041 40.89386 0.13321 405.036 170.43711 94.24711 131.38611 86.5516196 0.098305 -0.88266 3 3 1.0
14018 232.10708 -0.28067 0.12431 495.5403 228.26187 113.80955 91.84297 92.1337408 0.0538817 -0.38622 3 3 1.0
14941 11.69377 14.09703 0.13382 407.334 170.16234 136.56645 111.02203 118.6996416 0.0445077 -0.92937 3 3 1.0
15618 177.27492 -2.67641 0.10078 396.5118 162.13053 64.11985 89.932 59.7007563 0.0871416 -0.57865 3 3 1.0
15643 177.06002 -2.91827 0.08559 599.931 261.55323 58.17203 87.02049 55.4845811 0.0729177 -0.54701 3 3 1.0
16116 14.49856 14.8721 0.13564 465.993 190.65802 98.93457 153.48404 94.2246792 0.0999155 -0.8065 3 3 1.0
16353 244.38894 46.63259 0.05792 104.3448 42.62882 52.00524 146.84965 63.7098091 0.0455904 -1.54955 3 3 1.0
16434 58.11412 -4.95222 0.0661 350.0958 175.0479 63.40863 133.07939 56.0775725 0.0681358 -1.19741 3 2 0.6666667
18241 177.47645 -1.63382 0.08343 390.8148 173.86554 86.35103 159.19881 70.6839932 0.0784835 -0.69353 3 3 1.0
20345 341.6764 13.76651 0.11907 72.219 36.1095 76.78232 77.62751 61.0018552 0.096446 -1.19631 3 2 0.6666667
20395 230.49459 3.56348 0.08545 69.363 34.6815 80.61993 56.71463 67.2971264 0.0322052 -1.17672 3 2 0.6666667
23024 359.22415 -10.26467 0.07354 213.1755 106.58775 45.38818 52.10068 35.3929869 0.0814632 -1.3031 3 2 0.6666667
24444 120.50358 44.47438 0.13109 260.205 130.1025 97.46367 103.52979 96.2865278 0.0609036 -0.35271 3 2 0.6666667
25618 171.93744 2.05274 0.12702 186.786 76.32956 134.34616 170.11002 111.8669658 0.0702453 -0.37846 3 3 1.0
26175 359.60854 -10.52387 0.11598 638.454 262.48154 67.96277 64.05869 64.5138251 0.0679951 -0.11943 3 3 1.0
26589 211.46098 3.07408 0.08668 359.655 147.13591 60.24585 176.60406 53.8609517 0.1606667 -1.80036 3 3 1.0
27247 136.35667 56.03229 0.09125 341.205 170.6025 89.27251 295.24661 131.804489 0.0491806 -0.57055 3 2 0.6666667
27405 346.8306 13.68836 0.09582 45.231 18.7169 133.62225 168.85344 119.3266231 0.0374471 -1.91399 3 3 1.0
27528 1.48461 -9.35428 0.06478 153.918 62.85024 87.9071 149.31694 76.2234924 0.0398578 -0.85796 3 3 1.0
27872 231.58195 0.31341 0.07623 296.958 129.23251 57.18864 83.66801 44.9528932 0.0865748 -0.77259 3 3 1.0
28188 229.96102 1.59257 0.09057 314.7795 139.65026 87.3874 279.66137 72.3533876 0.1525261 -1.0548 3 3 1.0
28998 345.27392 14.06274 0.0939 599.9355 245.36502 95.3364 202.38639 91.3138856 0.0739247 -1.20301 3 3 1.0
29310 127.89086 50.51845 0.0961 309.72 130.17379 58.46759 224.52296 50.3943207 0.2806018 -1.44429 3 3 1.0
29768 127.52074 53.34821 0.11489 39.063 19.5315 93.1959 155.9758 86.1152758 0.0913941 -1.23236 3 2 0.6666667
31009 123.79869 48.08062 0.05477 358.8945 147.96807 99.08403 325.56866 98.4752227 0.0381179 -1.23386 3 3 1.0
31918 187.87882 -1.61259 0.14035 172.653 86.3265 93.22004 47.97121 76.6310888 0.0500187 -0.85102 3 2 0.6666667
32197 184.60897 5.84798 0.09141 121.719 60.8595 155.54316 247.15676 146.5439 0.0334094 -0.78268 3 2 0.6666667
35026 323.31114 12.53071 0.10547 43.5258 21.7629 65.75975 139.11555 64.428089 0.1253964 -0.86011 3 2 0.6666667
35749 190.42247 5.78096 0.0644 2.0448 1.0224 60.13855 129.29234 51.3032904 0.0753725 -0.96191 3 2 0.6666667
37609 121.85692 48.3004 0.14098 371.832 167.35601 86.32931 79.67767 118.8092998 0.0348213 -0.5474 3 3 1.0
37756 123.008 47.73231 0.07686 119.235 49.49187 79.2946 219.00665 88.3803694 0.0595191 -1.54592 3 3 1.0
39073 33.38779 -9.57087 0.08676 109.806 54.903 120.6186 192.4628 100.9100773 0.0499639 -0.40979 3 2 0.6666667
39425 145.20869 -0.31463 0.12264 615.819 257.11869 130.10994 107.33644 102.9575296 0.0492676 -0.57652 3 3 1.0
39478 186.26351 1.73189 0.08968 86.646 37.78806 92.44346 126.07702 77.2876102 0.059204 -1.66941 3 3 1.0
40445 34.72439 -8.07732 0.10949 121.959 60.9795 126.94681 123.43501 97.665618 0.0517032 -0.53072 3 2 0.6666667
41095 341.7954 -9.30695 0.0824 44.5725 22.28625 60.08817 64.78535 48.8150505 0.0654764 -0.307 3 2 0.6666667
41242 185.66889 1.73001 0.09108 99.753 49.8765 24.27432 113.9247 21.3759336 0.7191207 -1.37973 3 2 0.6666667
41260 259.06936 33.96023 0.08815 420.375 210.1875 105.87731 123.46962 88.3282455 0.0430408 -1.43302 3 2 0.6666667
43160 189.05684 4.65658 0.07987 137.109 55.97467 117.137 245.83389 97.0884231 0.0593613 -1.59017 3 3 1.0
43247 195.80655 5.01931 0.14033 303.192 124.14137 132.03601 112.11748 120.2840524 0.0474381 -0.76633 3 3 1.0
47391 256.26646 39.03792 0.1317 92.166 46.083 116.26383 147.20633 111.7242599 0.0648293 -0.90323 3 2 0.6666667
48588 206.91099 4.69886 0.06932 311.166 129.6067 51.45873 79.21862 41.0794725 0.0825032 -0.30822 3 3 1.0
48770 188.92034 5.0365 0.06516 86.691 38.22119 63.46205 174.26321 53.9537928 0.0938561 -0.31026 3 3 1.0
50100 258.21882 32.13605 0.07979 145.011 59.2823 113.51626 253.93575 107.3531078 0.0500619 -1.59455 3 3 1.0
50973 180.15978 59.64427 0.11563 296.244 138.94418 100.08703 121.20286 104.1156665 0.049134 -1.43998 3 3 1.0
51966 200.95463 3.2043 0.13956 391.605 174.70161 90.43855 43.65278 74.4418885 0.0477766 -0.25932 3 3 1.0
52902 175.56977 5.66612 0.10172 254.3352 104.49188 92.10854 115.55136 76.6679343 0.0690098 -0.96588 3 3 1.0
53052 177.93418 6.06625 0.07933 407.0007 179.31134 76.24661 232.58114 72.2958884 0.1000395 -1.76342 3 3 1.0
53203 157.33076 0.97878 0.08887 213.315 99.15476 72.74248 126.66025 55.8666876 0.1119953 -1.22904 3 3 1.0
55527 123.64619 40.63651 0.06528 192.12 78.56804 98.65501 207.70867 100.9078828 0.032097 -0.86264 3 3 1.0
56508 175.63506 62.90584 0.09798 49.29 24.645 54.18692 88.76698 77.3630688 0.0487248 -1.19636 3 2 0.6666667
57387 137.05343 50.16205 0.09839 165.057 82.5285 77.80023 89.65855 74.2559878 0.0538095 -0.38002 3 2 0.6666667
57624 133.11393 53.22584 0.08571 304.995 124.65504 67.80302 190.2833 89.6628221 0.0612093 -0.4649 3 3 1.0
58115 190.19728 3.72541 0.07272 270.3 112.00801 89.33554 103.8015 70.2663311 0.0403404 -0.82956 3 3 1.0
58295 330.57045 -8.29865 0.06445 140.9298 58.5749 102.99998 200.76178 91.8322999 0.0365835 -1.7502 3 3 1.0
58662 174.31894 60.13214 0.09004 76.728 38.364 82.4709 138.65338 72.8004658 0.073912 -0.73613 3 2 0.6666667
59306 135.21821 54.88759 0.11599 369.2532 155.72031 71.71212 86.22109 107.290558 0.0330936 -0.397 3 3 1.0
59873 159.66824 1.45113 0.10739 193.8495 81.17643 77.60617 118.80171 66.1799949 0.1047554 -0.73709 3 3 1.0
59882 225.62511 2.67267 0.07974 13.1418 5.41438 52.74076 250.9868 51.9923603 0.2107289 -0.65959 3 3 1.0
59953 239.47112 2.33932 0.06442 132.294 55.78549 100.45109 203.66331 80.1568766 0.0486572 -1.63838 3 3 1.0
60998 196.31711 3.00501 0.10723 264.192 132.096 109.15831 76.32386 83.7293029 0.0419407 -0.26755 3 2 0.6666667
62804 212.8156 -3.28933 0.14539 216.537 108.2685 101.32254 84.09808 77.2998514 0.0914336 -0.4759 3 2 0.6666667
63922 150.92804 3.31661 0.12338 227.997 93.67864 137.01858 120.38899 118.6182083 0.0420645 -1.80272 3 3 1.0
64166 228.37432 2.91837 0.1348 391.548 160.43997 86.67774 191.70505 68.943205 0.2306557 -0.83263 3 3 1.0
65276 164.85982 4.43167 0.06217 98.8584 41.26768 60.34355 239.49993 57.9052742 0.1026711 -1.72868 3 3 1.0
65569 152.96934 2.98768 0.10426 117.0615 49.79098 114.70615 115.30879 95.2853866 0.0465683 -0.58187 3 3 1.0
65714 149.9006 4.09122 0.07403 106.602 53.301 83.86116 72.23819 63.5619673 0.035443 -0.84171 3 2 0.6666667
67359 153.75978 3.53591 0.11556 472.4022 236.2011 80.11315 100.2848 66.822122 0.0985948 -0.70003 3 2 0.6666667
68243 203.2085 -2.71278 0.14658 33.069 13.8905 56.40408 423.98881 43.9605175 1.4449765 -0.9876 3 3 1.0
68439 253.01812 40.75865 0.05291 219.2229 109.61145 28.58934 166.63 31.7354987 0.1760809 -1.72563 3 2 0.6666667
69606 184.96947 5.17371 0.1023 185.763 92.8815 73.96264 216.86993 60.0792018 0.2130356 -1.8658 3 2 0.6666667
69728 156.44334 58.93004 0.11798 222.669 111.3345 128.47939 113.78644 113.8561558 0.0399398 -0.87746 3 2 0.6666667
73164 203.43965 -1.37449 0.08736 246.8412 106.95489 109.14373 211.17324 94.7720493 0.0629242 -1.63964 3 3 1.0
74263 39.61234 -8.05838 0.05302 33.9756 14.15497 90.24664 247.18347 74.3327039 0.0477856 -1.0948 3 3 1.0
74799 247.64556 42.36822 0.13845 896.019 365.80015 99.38999 85.91327 77.2481567 0.0861444 -0.42304 3 3 1.0
75042 258.19744 29.29365 0.10536 272.721 117.02016 64.52177 56.42531 64.502654 0.0506522 -0.46009 3 3 1.0
75313 321.06932 -1.22607 0.06067 92.2878 38.12449 64.90644 267.25165 56.276571 0.1159065 -1.37311 3 3 1.0
75866 201.74378 -2.85432 0.08707 494.0628 232.21315 121.12522 128.2369 99.668745 0.0343448 -0.53608 3 3 1.0
75901 177.88753 5.45481 0.12659 41.589 17.62286 97.97821 177.09315 75.6685408 0.1589066 -0.79993 3 3 1.0
76096 46.75601 -7.47376 0.1226 369.051 169.14912 120.69763 161.02306 112.929506 0.0613922 -1.67954 3 3 1.0
76672 120.98164 36.90973 0.09123 275.007 128.95773 55.64815 91.57813 59.0152132 0.0760546 -1.23437 3 3 1.0
76781 256.25297 32.81621 0.13039 212.589 87.25896 117.00333 79.96831 108.6533465 0.0366076 -0.73715 3 3 1.0
78059 120.55655 37.14941 0.08351 164.226 70.23252 49.37446 142.2353 56.2454334 0.1109371 -1.328 3 3 1.0
78217 258.93666 28.72827 0.09603 282.612 119.98458 114.10342 140.40233 114.3383508 0.0340444 -0.823 3 3 1.0
78968 250.41986 43.89079 0.05987 698.682 285.24117 73.09227 205.79759 82.9899115 0.0400468 -1.29961 3 3 1.0
79592 340.91199 13.03591 0.08418 167.2875 83.64375 53.01134 30.74825 44.5830289 0.0387303 -0.35716 3 2 0.6666667
79760 321.25784 -6.7021 0.11498 106.3722 53.1861 83.12426 71.42883 81.0324486 0.047334 -0.11067 3 2 0.6666667
80183 256.24915 36.98878 0.12253 206.0202 103.0101 128.66637 122.57216 123.6192468 0.0389651 -0.4833 3 2 0.6666667
80486 117.8561 37.30337 0.08476 108.105 44.76362 116.81379 173.73151 99.8385369 0.0441746 -1.76852 3 3 1.0
80718 113.68682 39.45122 0.13756 164.808 75.91957 111.67157 106.97738 126.6118998 0.039498 -0.8978 3 3 1.0
81562 338.81997 14.07114 0.08292 316.782 130.1836 101.77208 330.98377 84.0383951 0.1141593 -0.32216 3 3 1.0
82907 229.74572 2.25567 0.08854 524.148 216.12857 88.34208 141.07002 80.9889949 0.0589675 -1.74009 3 3 1.0
83281 225.07075 -2.07345 0.1429 74.352 34.94709 101.47262 120.18093 82.42487 0.1116411 -0.26531 3 3 1.0
85012 214.66711 -1.79988 0.12006 115.305 57.6525 123.16523 94.55099 100.2565976 0.0441175 -0.36739 3 2 0.6666667
85718 214.25317 58.88527 0.13537 275.049 125.0145 115.3137 80.30257 91.1443015 0.0556811 -0.45821 3 3 1.0
86106 227.33491 -1.90855 0.11224 77.325 31.66784 68.5547 67.378 61.2386354 0.0749721 -0.19281 3 3 1.0
87339 311.48184 0.18231 0.08535 219.4665 95.3004 83.16784 96.4374 72.0396842 0.0476899 -1.19087 3 3 1.0
87527 341.60325 14.69803 0.11909 200.8092 100.4046 116.60456 84.18492 97.1784804 0.0412289 -1.21446 3 2 0.6666667
88439 335.85033 12.88694 0.12147 228.1242 114.0621 95.40224 95.13193 78.7189785 0.0734701 -1.48031 3 2 0.6666667
89095 158.55091 5.67447 0.13877 140.367 70.1835 112.94017 184.1295 89.2834407 0.1387448 -0.74983 3 2 0.6666667
89486 222.98874 -1.55893 0.099 370.665 185.3325 111.94691 151.19524 104.0453375 0.0467369 -0.69572 3 2 0.6666667
89572 228.84492 -1.51072 0.07333 213.249 106.6245 17.32856 234.63711 14.4310406 2.195213 -1.23899 3 2 0.6666667
90151 138.63596 52.87318 0.09833 39.729 18.4366 99.11107 82.68587 94.7427671 0.0304557 -0.83499 3 3 1.0
90181 136.01888 52.55403 0.08554 304.392 128.00042 83.0231 246.34606 107.4853112 0.0549399 -1.54991 3 3 1.0
90588 214.76651 3.85394 0.10986 195.747 79.97735 112.04212 154.73168 99.6381574 0.0626416 -1.14993 3 3 1.0
91849 338.08526 -0.68425 0.10766 453.783 193.57161 49.19648 79.87468 45.2248712 0.1514951 -1.04336 3 3 1.0
92045 353.2617 15.13795 0.09106 207.6345 84.76678 142.71108 165.85909 123.1565292 0.0315284 -1.0139 3 3 1.0
93112 219.6659 -2.88539 0.131 347.46 173.73 102.27055 75.70638 96.7931032 0.0440181 -0.73158 3 2 0.6666667
94530 179.96314 52.10736 0.08415 142.6245 59.94694 107.59375 110.19762 95.2632664 0.030381 -0.80619 3 3 1.0
96082 326.49565 -7.79766 0.09233 379.4343 173.67055 94.50168 256.24792 93.1874482 0.0872092 -1.90039 3 3 1.0
96150 134.10706 2.22966 0.12461 318.708 132.76762 96.05529 222.15623 88.6620545 0.1413219 -0.61516 3 3 1.0
96734 184.92033 52.54172 0.05876 173.7342 75.50078 63.49048 105.70043 60.6529649 0.0371904 -1.22192 3 3 1.0
96853 115.10103 24.17075 0.08715 286.635 124.67153 116.79566 111.30713 96.8785373 0.031602 -0.9382 3 3 1.0
97103 200.68622 60.88229 0.09887 596.2035 247.30947 68.79041 195.45331 64.2167732 0.1582254 -1.67992 3 3 1.0
97391 184.3303 1.58856 0.07486 70.443 31.79368 111.14329 172.36667 92.4333782 0.0408138 -0.42902 3 3 1.0
98191 200.46728 -1.42918 0.09973 409.599 204.7995 79.14408 148.73535 70.4042224 0.1017186 -0.72572 3 2 0.6666667
101045 150.95857 46.03147 0.06825 153.0 76.5 68.67835 195.44482 91.3602237 0.0399928 -0.37819 3 2 0.6666667
102523 182.72538 54.91 0.10605 548.9055 234.52606 89.73423 80.91227 88.4036952 0.0391152 -0.59933 3 3 1.0
102656 119.29498 38.79205 0.07468 159.717 79.8585 52.69764 69.12335 51.0681921 0.0533862 -0.16281 3 2 0.6666667
103515 119.92409 29.56499 0.08126 13.6413 6.03872 87.92358 103.66731 82.7656043 0.0355385 -1.24768 3 3 1.0
104643 156.16526 59.67358 0.07202 260.529 121.25963 87.34493 120.05638 69.4821981 0.04687 -0.96875 3 3 1.0
104662 178.08849 56.02202 0.08021 188.6988 77.41178 48.70399 70.47745 63.2454218 0.0404125 -0.87828 3 3 1.0
105664 124.86956 32.23537 0.10869 40.5765 16.65691 97.42086 108.99293 102.0650819 0.0412728 -0.47055 3 3 1.0
107286 145.27106 42.70964 0.12362 477.8928 238.9464 101.10336 116.58086 83.002972 0.0834647 -0.34173 3 2 0.6666667
107845 159.03398 45.95499 0.12743 82.518 41.259 120.04191 318.18631 129.2289471 0.0990097 -1.3831 3 2 0.6666667
108884 135.30236 3.18064 0.11724 20.277 10.1385 36.83081 136.23935 35.1146281 0.4973051 -0.33558 3 2 0.6666667
112321 216.04185 44.47216 0.09024 451.6884 197.25914 94.83642 107.48207 100.3611007 0.0302699 -0.96358 3 3 1.0
112662 157.08277 52.9826 0.06418 132.312 60.89804 73.68143 103.12409 68.7082272 0.0333043 -0.84333 3 3 1.0
112667 159.73156 53.96755 0.07122 231.147 95.0604 149.70007 465.60414 155.0370029 0.0357759 -1.6348 3 3 1.0
113125 135.23133 2.21234 0.05806 245.952 105.57662 87.63693 172.05854 73.1466217 0.0407078 -0.77068 3 3 1.0
113726 4.17905 15.16485 0.11628 272.181 118.70281 129.75038 125.82736 108.035463 0.0478396 -1.69929 3 3 1.0
114166 259.31308 27.69853 0.11868 579.774 254.58821 86.31964 94.34892 76.8863487 0.0733731 -0.56548 3 3 1.0
114840 217.80726 3.27513 0.10967 79.4025 39.70125 160.57364 422.29718 156.5805483 0.06902 -1.0804 3 2 0.6666667
114989 158.68208 3.6047 0.07365 357.798 154.49553 112.76135 307.07452 108.714445 0.0510178 -1.36107 3 3 1.0
116711 225.26254 41.68145 0.0936 662.1138 270.69012 106.01489 156.23066 107.9922334 0.0405674 -0.74143 3 3 1.0
117239 160.63347 0.93439 0.11576 378.057 154.92054 107.96602 394.41401 91.0670651 0.2094116 -0.97467 3 3 1.0
117910 259.47468 27.79927 0.10694 469.5987 193.25091 76.80139 175.52083 65.2157816 0.1582311 -1.80677 3 3 1.0
118479 185.33999 50.3141 0.08435 444.8934 196.96043 143.67179 270.98535 144.9359162 0.0324146 -1.36159 3 3 1.0
118880 151.953 44.4247 0.08651 196.1115 81.84418 75.883 150.15709 79.8809114 0.0618793 -1.60655 3 3 1.0
119423 208.18139 48.80238 0.06908 388.569 169.56849 47.9944 113.50389 64.3554581 0.0478557 -1.35942 3 3 1.0
119702 196.84668 49.22423 0.12599 150.195 75.0975 88.01011 60.00207 82.8401407 0.044556 -0.39093 3 2 0.6666667
120253 134.52963 36.02343 0.10574 561.405 229.53616 88.36348 80.48658 83.1681488 0.043738 -0.66421 3 3 1.0
120729 23.77431 -1.00946 0.07991 361.419 149.05574 90.00499 94.55744 71.8024571 0.0417858 -1.29117 3 3 1.0
120865 211.99161 5.50379 0.08515 524.1948 220.65422 96.60906 143.76016 80.7964022 0.0562815 -1.17661 3 3 1.0
121037 228.2157 4.85202 0.05526 30.2685 15.13425 68.66656 169.45784 60.2302595 0.0539273 -0.85993 3 2 0.6666667
122092 9.8822 15.22621 0.07851 235.959 117.9795 31.20888 112.62762 29.5253312 0.2850825 -0.58843 3 2 0.6666667
122866 218.52773 4.96654 0.08765 75.495 30.88624 80.53388 50.17549 64.4455327 0.032526 -0.13029 3 3 1.0
123127 148.26157 6.71608 0.07345 232.3905 116.19525 68.97958 163.88084 52.1105666 0.1179221 -1.06396 3 2 0.6666667
124202 349.0143 -0.12075 0.08058 75.99 37.995 53.26071 276.34603 50.698496 0.2486987 -1.65985 3 2 0.6666667
127249 124.44564 39.34418 0.13161 224.022 112.011 46.40246 70.51128 54.4817772 0.1304339 -0.89319 3 2 0.6666667
129134 126.91661 53.59742 0.1197 693.9405 284.56008 82.06982 218.29718 94.4738649 0.1141148 -1.7609 3 3 1.0
132755 186.62223 5.23325 0.08272 104.502 48.21101 88.64241 156.19679 79.1714371 0.0604392 -0.61813 3 3 1.0
133398 118.34834 24.55142 0.06124 182.5065 91.25325 22.69499 74.47439 19.5505709 0.2723527 -0.5861 3 2 0.6666667
133454 117.30901 24.23004 0.08272 31.182 15.591 113.46834 174.57332 95.7824317 0.0461503 -0.51934 3 2 0.6666667
134396 176.06992 9.47777 0.10619 167.3385 68.86026 89.26875 158.72704 79.1190234 0.0960204 -0.93515 3 3 1.0
136568 116.21912 23.69946 0.06546 84.5235 42.26175 72.51083 79.8815 57.1896181 0.038617 -1.14449 3 2 0.6666667
136934 127.99502 50.93265 0.07476 158.5122 79.2561 34.98007 106.29107 32.0424327 0.2089164 -1.05698 3 2 0.6666667
138923 133.9173 47.59176 0.09214 396.1455 198.07275 58.85316 102.2794 74.6945728 0.0539815 -1.11989 3 2 0.6666667
140928 114.3893 28.02375 0.07903 509.517 233.11163 59.76175 214.72418 50.8788983 0.1852198 -1.87907 3 3 1.0
143120 119.68219 30.12962 0.07074 92.559 46.2795 111.29234 189.95085 95.3817499 0.038081 -1.54774 3 2 0.6666667
143523 145.05083 8.61042 0.13582 311.082 127.20842 106.3417 197.38066 87.129785 0.1506008 -1.36848 3 3 1.0
144627 127.05317 32.57023 0.08933 152.853 62.402 95.55974 150.22029 105.3562659 0.0377008 -1.80229 3 3 1.0
144832 174.90254 48.33074 0.10141 59.595 26.41522 122.48477 175.18482 126.694914 0.038106 -1.47409 3 3 1.0
145370 194.98987 8.99912 0.07429 63.0072 31.5036 99.09791 103.29319 80.6991397 0.0316457 -0.98684 3 2 0.6666667
145414 129.9041 45.487 0.13946 494.634 247.317 69.52993 102.6905 67.3629986 0.1370785 -0.29239 3 2 0.6666667
146326 240.01558 45.99447 0.09672 73.818 36.909 79.23825 133.20021 67.8350263 0.0929321 -1.3276 3 2 0.6666667
146613 169.77557 51.6126 0.1079 108.8685 45.01232 107.61341 89.6999 104.5619395 0.0319494 -0.71963 3 3 1.0
147588 188.23775 11.02805 0.0666 200.7225 85.61744 78.88192 150.27583 78.3987392 0.0399113 -1.89082 3 3 1.0
148037 168.94654 48.03264 0.0739 189.129 94.5645 57.56389 159.50247 82.8804039 0.0458833 -1.48094 3 2 0.6666667
149847 237.66595 40.06986 0.07673 176.5218 72.07723 117.89582 272.99788 125.4191319 0.0367233 -1.34597 3 3 1.0
150470 118.65938 23.0598 0.0918 506.124 214.58579 124.38844 176.51984 102.4410206 0.049204 -0.2575 3 3 1.0
153255 244.48214 35.62445 0.07075 188.9718 87.49943 47.77651 292.8252 42.7332824 0.2925627 -1.89138 3 3 1.0
154003 137.74613 48.16065 0.10581 209.814 104.907 83.02415 389.8343 76.8258417 0.2485217 -0.60645 3 2 0.6666667
154927 39.41758 0.6473 0.12665 296.451 123.5074 80.1241 81.61339 60.7622093 0.113657 -1.25572 3 3 1.0
156167 229.89153 45.38772 0.09941 376.026 153.55139 74.1736 147.7651 83.5448102 0.0713566 -1.57861 3 3 1.0
156948 174.75209 3.02761 0.10629 198.717 99.3585 71.68051 59.68066 58.3125985 0.0665688 -0.39918 3 2 0.6666667
157652 234.77527 43.33501 0.05772 429.2709 188.11065 130.31446 325.25652 116.2629518 0.0301247 -0.7173 3 3 1.0
158057 163.48498 52.85384 0.10149 176.82 88.41 64.5821 86.63409 62.3467212 0.0779243 -0.63908 3 2 0.6666667
158421 52.06449 -0.19601 0.085 86.841 36.26411 98.47557 152.44192 85.2214643 0.0534715 -1.72262 3 3 1.0
158748 129.74301 34.12564 0.06068 322.7646 161.3823 115.96028 279.13674 99.4929356 0.0387443 -0.83261 3 2 0.6666667
159194 247.78734 34.68933 0.13509 208.872 104.436 117.09645 68.21648 109.7537903 0.0325065 -0.69963 3 2 0.6666667
159637 243.18084 36.8981 0.06683 151.095 62.08015 111.65353 1133.73643 109.6764443 0.1548638 -1.51904 3 3 1.0
159677 18.61805 -0.85693 0.08071 546.747 224.03801 46.57794 251.489 42.5250642 0.322603 -1.03563 3 3 1.0
160123 142.0647 48.41848 0.11426 178.9938 89.4969 117.32875 159.91041 150.653567 0.0303269 -0.87864 3 2 0.6666667
161755 240.37309 38.45166 0.07435 22.2312 11.1156 75.80674 119.78014 84.9307597 0.0331782 -0.2768 3 2 0.6666667
162596 245.56947 44.3922 0.13374 310.254 137.67989 92.26011 118.56671 108.9889466 0.0563237 -0.94268 3 3 1.0
162844 252.61517 30.23234 0.05918 123.5655 57.98989 54.20554 159.97524 50.4158536 0.082556 -0.57245 3 3 1.0
163438 163.72947 50.95632 0.11787 482.9325 241.46625 103.91917 92.98851 118.6608496 0.0300043 -1.37675 3 2 0.6666667
163755 21.09672 -10.29981 0.07673 37.6422 15.68573 129.38174 181.75648 109.576487 0.0320368 -1.45696 3 3 1.0
164053 126.33106 4.36701 0.11906 126.2406 55.79241 104.31755 159.68589 87.0326858 0.0974554 -1.12741 3 3 1.0
167414 170.90576 6.75804 0.07498 512.187 235.11356 53.42524 141.60351 53.3701794 0.1008807 -1.21959 3 3 1.0
167569 177.57339 6.82553 0.0767 314.007 157.0035 94.41351 151.77028 89.968875 0.0396475 -1.47437 3 2 0.6666667
169985 246.3429 44.06992 0.1328 136.368 68.184 83.97069 86.42308 69.7780166 0.0989657 -0.45532 3 2 0.6666667
170644 154.17391 45.32539 0.08394 137.001 64.38553 116.22067 193.84037 117.0827079 0.0352186 -1.64469 3 3 1.0
171069 176.53636 7.70752 0.07611 619.4982 263.50444 141.80913 234.55402 119.319838 0.0343514 -1.13584 3 3 1.0
172264 154.02263 6.71378 0.07313 506.982 210.56202 52.57641 131.61146 45.6464792 0.1224458 -1.11238 3 3 1.0
173397 154.234 46.67297 0.10387 271.812 135.906 68.50442 107.18665 64.3305596 0.0943389 -0.99498 3 2 0.6666667
173408 338.20371 -1.17459 0.07989 412.719 169.92865 71.12381 140.34055 56.9776309 0.0984401 -1.66345 3 3 1.0
175195 248.60967 33.00967 0.1262 5.856 2.928 100.41127 134.81042 103.9034773 0.0638207 -0.716 3 2 0.6666667
177207 127.75376 3.69764 0.09838 279.372 127.08384 61.03595 119.14131 56.2499462 0.1246063 -0.93924 3 3 1.0
178233 154.7251 48.77133 0.13382 54.606 27.303 49.7124 103.10589 69.8875893 0.1192467 -0.30986 3 2 0.6666667
179564 133.09557 31.38797 0.11996 16.3413 6.73859 150.68481 181.08397 150.6242354 0.0373794 -0.77807 3 3 1.0
186037 144.89905 7.05142 0.07045 220.3518 110.1759 48.90878 47.72423 41.882238 0.0492512 -0.58631 3 2 0.6666667
186217 225.03527 40.96515 0.14455 381.276 158.36903 119.9547 118.49322 123.3002032 0.0501488 -0.7136 3 3 1.0
187335 209.70405 56.29274 0.10446 242.736 102.16103 103.66783 108.14528 87.5601167 0.0518915 -0.76149 3 3 1.0
188005 149.79103 5.20817 0.10326 270.0765 110.59769 79.45849 100.66859 63.3213632 0.0905053 -1.10926 3 3 1.0
188370 213.11473 42.9184 0.08008 32.886 16.443 81.77925 191.68896 90.1564097 0.0539387 -1.52437 3 2 0.6666667
189837 126.00989 28.47773 0.11044 471.5955 235.79775 50.51427 156.90718 49.0105212 0.26498 -1.09424 3 2 0.6666667
190139 151.4216 5.80529 0.12389 336.039 137.20447 150.78924 377.17097 128.7525545 0.1126487 -1.75855 3 3 1.0
191819 167.00023 7.96337 0.08977 322.11 161.055 50.40927 180.1423 44.8661047 0.2515196 -1.34974 3 2 0.6666667
191871 155.20116 6.07877 0.11183 486.5997 210.52209 95.65242 116.24718 87.9121139 0.0623644 -1.07704 3 3 1.0
192262 153.9664 39.02652 0.06319 63.81 26.1049 44.89127 249.40816 41.1644123 0.2180725 -1.12912 3 3 1.0
192402 158.35189 11.26602 0.10169 180.948 78.16515 102.34034 194.78686 82.2326365 0.101071 -1.50659 3 3 1.0
197035 222.01155 41.81397 0.13015 340.122 146.45838 121.39265 116.4486 122.6111587 0.0417309 -1.00182 3 3 1.0
197678 141.67033 8.78749 0.13104 235.107 102.59622 130.67608 131.63489 111.0535925 0.0581772 -1.1777 3 3 1.0
197955 243.28931 38.15555 0.12556 587.883 254.58058 92.27898 80.6697 79.6775494 0.064377 -1.04414 3 3 1.0
199257 140.09437 3.47273 0.12626 409.953 175.23674 91.0783 129.07321 68.7364716 0.1397272 -1.33235 3 3 1.0
199520 126.03848 39.86135 0.09945 164.181 68.43416 80.23676 131.49826 85.8845041 0.0601329 -0.44132 3 3 1.0
200880 209.86479 57.4519 0.10618 34.1355 17.06775 60.79108 63.38034 60.2302136 0.0661443 -0.35006 3 2 0.6666667
201712 175.65125 54.23263 0.0633 72.243 30.59922 72.73849 142.4012 71.4753053 0.0414266 -0.96959 3 3 1.0
202813 117.69234 19.6596 0.06119 178.437 89.2185 36.60905 104.8967 31.5097512 0.1474582 -1.60474 3 2 0.6666667
203037 216.84046 55.71391 0.12808 24.702 12.351 125.8154 101.45252 127.1717674 0.0328833 -0.35499 3 2 0.6666667
205132 144.16774 10.09392 0.12983 570.903 233.51959 135.38005 90.20184 116.5370385 0.0356325 -0.45265 3 3 1.0
206292 231.90706 37.05401 0.10422 270.522 110.48914 66.97891 119.13493 55.8620345 0.1398896 -1.20545 3 3 1.0
206484 143.00696 8.36979 0.12651 404.166 166.19943 69.44065 70.34536 53.382155 0.1266924 -0.37307 3 3 1.0
207081 169.54828 45.41889 0.1119 370.503 185.2515 111.96908 157.42217 106.581109 0.0575179 -1.84842 3 2 0.6666667
207737 134.02862 32.46369 0.0754 253.5177 126.75885 64.86835 111.31407 59.7276622 0.0639543 -0.20156 3 2 0.6666667
208519 228.28127 2.76673 0.0912 298.0827 149.04135 88.31974 77.82384 74.3613476 0.0406847 -0.46694 3 2 0.6666667
209735 244.39591 39.2219 0.07665 245.106 102.33334 97.92333 173.12044 99.7514056 0.0367499 -0.9404 3 3 1.0
209917 225.5107 38.16973 0.1158 108.51 54.255 89.03903 156.06263 76.7693888 0.1166697 -0.45962 3 2 0.6666667
210785 207.98875 11.23162 0.08095 264.174 116.78838 67.8658 169.72106 55.8522542 0.1268867 -0.86002 3 3 1.0
211525 174.94304 46.97157 0.11448 156.8145 67.54273 111.56461 243.28626 111.004279 0.0852714 -0.30389 3 3 1.0
211828 161.6946 12.52603 0.09379 162.792 72.58747 115.44832 92.51468 91.8462112 0.0333341 -0.13269 3 3 1.0
212311 249.7825 24.77628 0.10096 276.8232 118.96726 75.89665 126.01692 78.7266758 0.0704364 -1.20128 3 3 1.0
212715 129.5175 26.86706 0.05139 539.6682 223.60021 41.39507 133.307 35.47203 0.1067302 -0.57228 3 3 1.0
213274 131.53989 27.97278 0.0857 92.634 46.317 27.30735 83.44966 23.4653802 0.3918693 -1.15192 3 2 0.6666667
214364 169.22311 37.79122 0.10657 152.502 67.37849 100.10702 107.8312 108.3388787 0.0350092 -0.72335 3 3 1.0
214877 242.62078 40.99378 0.08306 100.1925 50.09625 59.14713 86.0992 61.8823935 0.0549448 -1.32558 3 2 0.6666667
215108 136.18552 8.27019 0.06145 236.667 118.3335 56.63492 143.01688 49.9467954 0.0806518 -1.19339 3 2 0.6666667
215346 145.30009 10.82842 0.09635 630.132 257.49941 120.35842 120.20933 111.4168393 0.0308794 -1.96756 3 3 1.0
216522 124.67308 7.4081 0.07662 378.3762 159.69347 113.38545 145.02748 96.9347264 0.0325745 -0.65833 3 3 1.0
217928 169.33096 47.14931 0.06729 270.42 110.39941 99.46777 315.16412 80.1994663 0.0815319 -0.85881 3 3 1.0
218287 132.63946 29.12179 0.09712 403.8288 166.37208 95.40034 192.58921 83.5441498 0.0892462 -1.56175 3 3 1.0
219301 126.59214 7.25914 0.11098 268.503 110.76803 124.20254 93.49044 100.8007914 0.0376415 -0.26953 3 3 1.0
220239 130.18181 7.56792 0.07329 117.384 50.61634 85.86723 264.63907 84.8990252 0.0714645 -1.72164 3 3 1.0
221159 164.23262 41.68475 0.13437 115.686 47.45697 52.53613 323.8196 53.4702936 0.6442407 -0.70946 3 3 1.0
221306 126.51383 8.14427 0.06476 210.4962 93.10037 46.71361 90.13713 43.490428 0.0738848 -1.36698 3 3 1.0
221401 167.80193 12.83894 0.1254 311.4762 129.54717 90.73152 143.9139 74.3044631 0.1317755 -0.51632 3 3 1.0
221848 236.67449 3.69438 0.09706 483.789 199.84148 131.05415 200.14664 100.413428 0.0641312 -1.12436 3 3 1.0
222459 147.35114 37.42832 0.1069 129.7968 56.43691 76.08395 230.27221 71.5603198 0.1722943 -1.21071 3 3 1.0
223301 181.57344 14.64227 0.06558 103.863 46.32214 51.18103 959.10484 38.6606046 1.0180415 -1.52908 3 3 1.0
223409 226.26138 8.71867 0.07418 220.1448 103.33808 70.95315 119.67652 64.463591 0.0573063 -1.29854 3 3 1.0
224560 177.49811 48.00623 0.11133 151.248 75.624 74.80603 67.1577 64.3503388 0.0667195 -0.06162 3 2 0.6666667
224572 179.15569 47.97653 0.1137 317.6988 130.06702 94.80205 133.67378 115.0315764 0.0431144 -0.80998 3 3 1.0
225894 168.31376 44.52042 0.11239 176.6712 88.3356 53.79642 164.33073 50.5079991 0.2694183 -0.77632 3 2 0.6666667
225921 131.2736 4.43334 0.06066 40.6584 16.70398 79.08538 194.15259 71.391723 0.0523159 -0.68857 3 3 1.0
226079 181.90067 14.56969 0.06603 239.0448 102.48076 100.68589 435.25543 91.3879136 0.0837306 -1.65261 3 3 1.0
226146 182.84965 14.78472 0.11663 286.599 121.49745 118.13431 91.78575 108.3489775 0.0348747 -0.61823 3 3 1.0
226846 138.59603 10.38235 0.06545 29.907 14.9535 54.58987 127.16806 47.0066944 0.09098 -1.76705 3 2 0.6666667
226854 242.64022 29.60962 0.10749 138.5445 56.76239 77.59004 94.41223 68.0371418 0.0789034 -0.06757 3 3 1.0
227445 245.24273 6.75013 0.05931 135.915 57.40798 59.0589 69.31608 49.4733102 0.0372957 -0.21082 3 3 1.0
227462 142.19573 34.2111 0.1339 298.959 149.4795 102.24963 89.13105 97.8592195 0.052623 -0.73862 3 2 0.6666667
227926 208.83966 6.56158 0.08368 277.413 118.72172 110.99445 190.14099 103.4533559 0.0440027 -1.30049 3 3 1.0
227957 210.85985 41.86981 0.11298 159.954 66.53153 58.38115 156.1241 71.9301681 0.1273484 -0.40414 3 3 1.0
228407 143.58224 35.26157 0.0533 2.1522 1.0761 41.26543 72.62126 42.2962908 0.0437939 -0.6112 3 2 0.6666667
229526 147.81128 36.18893 0.05232 93.9696 44.15121 133.26547 510.72011 109.4872504 0.0443988 -1.53566 3 3 1.0
229612 250.17745 27.32035 0.11119 352.7835 176.39175 52.73252 37.22622 47.6651177 0.0672533 -1.4252 3 2 0.6666667
230619 232.89338 33.26558 0.08385 247.863 123.9315 108.35515 191.50501 103.9118114 0.0440826 -0.85526 3 2 0.6666667
230691 227.46536 36.26455 0.07385 455.5842 192.2878 131.45639 228.43528 100.012181 0.0450732 -1.83253 3 3 1.0
230778 124.06793 6.76197 0.08596 538.8162 243.27745 75.66395 89.98808 67.1854526 0.0518237 -0.69851 3 3 1.0
230811 227.57395 9.45191 0.10568 312.582 130.76642 127.53681 190.89189 96.9868786 0.0761947 -1.1177 3 3 1.0
230979 231.90925 34.20297 0.12623 417.906 182.979 22.5279 216.74448 19.4243161 2.937105 -0.30381 3 3 1.0
231604 221.93281 32.60225 0.08767 403.533 201.7665 109.47023 392.59533 100.4079379 0.104881 -1.0359 3 2 0.6666667
231852 198.43457 8.28038 0.09318 203.961 88.09967 130.42837 278.4932 111.5883864 0.0671926 -1.98311 3 3 1.0
232493 190.18445 12.16498 0.06191 16.5021 8.25105 92.03743 182.53563 88.242973 0.0334334 -0.75269 3 2 0.6666667
234812 205.50909 50.49598 0.0624 32.742 16.371 56.76359 216.06431 76.4754259 0.0534678 -1.83667 3 2 0.6666667
235599 183.33977 11.48765 0.07363 152.007 66.64921 43.79749 119.81036 36.5392057 0.1761566 -1.5279 3 3 1.0
237200 163.52054 8.96204 0.0624 135.4194 67.7097 57.75208 100.6079 44.7316996 0.0727742 -0.39986 3 2 0.6666667
237927 174.25401 12.45489 0.11796 408.153 204.0765 74.38214 88.93369 67.6812319 0.0883146 -0.84338 3 2 0.6666667
238360 249.54823 35.48336 0.07787 266.577 119.98068 89.06091 141.29064 92.1174221 0.0361934 -1.36738 3 3 1.0
239529 173.67467 15.63862 0.06947 158.586 68.12144 91.12341 132.35961 69.0324563 0.049004 -1.91029 3 3 1.0
241142 181.64607 12.50811 0.12313 480.684 208.64954 106.77689 148.75498 98.2638891 0.0754729 -1.11102 3 3 1.0
241550 180.43471 12.53379 0.06066 150.6126 75.3063 78.05386 112.62879 63.0442397 0.0389166 -1.85323 3 2 0.6666667
241756 234.40572 8.76498 0.12998 126.6 63.3 95.74434 148.05399 80.0198817 0.1242861 -0.77448 3 2 0.6666667
242074 224.02907 34.46474 0.06587 140.067 60.26297 94.25774 211.43916 86.1680508 0.0455558 -1.9662 3 3 1.0
242656 181.23313 13.43295 0.07651 298.5585 122.59707 62.17081 199.68406 56.2149794 0.1330359 -1.74871 3 3 1.0
242659 159.36862 11.69252 0.09661 226.992 113.496 47.12996 95.00829 42.0647427 0.1720281 -0.8043 3 2 0.6666667
243837 149.08124 33.41103 0.07803 329.445 142.05602 65.29743 121.11469 69.2190628 0.0551587 -0.09679 3 3 1.0
243943 155.72857 35.78345 0.09003 392.844 167.06337 59.66461 69.15093 51.2616457 0.0743333 -0.54124 3 3 1.0
243966 154.12462 35.34054 0.10293 462.102 191.07177 111.01009 87.86387 100.0605565 0.0314569 -0.20492 3 3 1.0
244437 157.12355 39.43038 0.12245 133.353 66.6765 98.46851 79.44998 88.0851271 0.0496845 -0.65238 3 2 0.6666667
245009 191.24656 12.15579 0.11837 423.3915 172.93948 151.10244 227.78757 141.9051622 0.0517688 -0.65078 3 3 1.0
245546 165.8479 38.18932 0.06632 216.003 93.9346 71.39058 116.72459 72.2985401 0.0361743 -1.34381 3 3 1.0
246508 226.47493 36.0518 0.09762 404.112 202.056 83.27554 120.23088 92.1489769 0.0462151 -1.32505 3 2 0.6666667
247333 160.4966 39.1867 0.10728 394.8462 172.40687 98.77773 76.24865 84.8939009 0.0407867 -0.35998 3 3 1.0
247608 140.91195 32.17693 0.08484 120.567 51.88598 114.11696 216.09842 115.0619506 0.0414442 -1.84123 3 3 1.0
248734 213.04241 37.45987 0.06662 213.648 96.99978 71.5554 118.49777 75.5486168 0.0339085 -0.98385 3 3 1.0
248838 215.90076 48.98023 0.13105 233.835 98.61739 111.80635 114.56951 91.4645623 0.0746512 -0.81034 3 3 1.0
249367 245.87472 25.15064 0.128 133.881 54.66556 127.00107 123.18554 105.3824062 0.0580819 -1.01459 3 3 1.0
250024 219.35335 39.10172 0.09794 106.011 45.65559 96.65734 131.35412 97.0530146 0.0457806 -1.25534 3 3 1.0
251708 227.8306 30.87901 0.10447 39.6735 18.33137 86.55441 256.21975 82.0066163 0.1401907 -1.45919 3 3 1.0
251997 175.49731 7.13164 0.09002 25.9524 10.86362 21.99395 86.63897 20.4585351 0.5846707 -0.2521 3 3 1.0
252104 177.93857 57.79237 0.06447 65.0208 26.66096 82.72432 162.74816 72.2471411 0.0479298 -0.26869 3 3 1.0
252907 48.97045 -0.33671 0.0871 204.8772 102.4386 77.25104 188.09649 76.0349511 0.0866103 -1.1121 3 2 0.6666667
253295 247.76893 39.43407 0.06258 188.4477 85.5711 73.52469 373.08171 68.8561483 0.1145107 -1.07979 3 3 1.0
254472 159.44708 44.72239 0.12614 309.636 143.33503 166.42527 188.3774 165.7760429 0.0350015 -1.43695 3 3 1.0
254559 213.91857 8.81693 0.08403 136.6317 64.00137 100.03538 112.09763 90.4091967 0.0342206 -1.70523 3 3 1.0
255184 151.62452 38.24096 0.1448 30.096 15.048 134.06044 85.60431 115.3509324 0.041514 -0.43339 3 2 0.6666667
255667 195.14704 13.36381 0.08367 467.37 200.60968 87.7815 106.74808 68.0922462 0.0570074 -0.55112 3 3 1.0
258310 195.22754 56.98875 0.08135 131.442 65.721 111.01548 205.41488 96.2858271 0.0521458 -1.16591 3 2 0.6666667
260243 217.73272 34.26386 0.08417 82.125 41.0625 129.35422 273.06072 99.59392 0.0688981 -1.48046 3 2 0.6666667
261831 198.93374 55.79093 0.08099 88.263 44.1315 47.44209 284.59832 40.9557414 0.3960681 -1.3457 3 2 0.6666667
261856 212.56461 53.66568 0.11275 162.6915 81.34575 56.34866 190.2675 51.4490251 0.3023052 -0.6958 3 2 0.6666667
262135 157.11223 45.03754 0.05186 195.006 80.69077 55.13249 154.35562 61.4664283 0.0418694 -1.2443 3 3 1.0
263096 239.46071 25.65217 0.08932 146.8185 73.40925 100.07497 185.32095 92.8401026 0.059884 -1.18111 3 2 0.6666667
263388 239.10193 26.45109 0.0763 209.3376 104.6688 51.47835 210.30891 44.2463589 0.2250372 -1.05388 3 2 0.6666667
264211 199.47632 46.94478 0.11918 37.3275 18.66375 97.30006 59.59129 93.0809698 0.0318518 -0.4906 3 2 0.6666667
264512 169.6154 6.83147 0.07535 208.23 85.6425 74.36124 185.33829 73.0902154 0.0710311 -1.09059 3 3 1.0
264707 169.02598 44.59448 0.12139 406.3905 166.86591 127.75952 116.09471 101.6343136 0.0537263 -0.80607 3 3 1.0
266432 337.51268 -0.29614 0.08143 133.902 60.79658 84.89472 656.94953 69.1071057 0.3242943 -1.8686 3 3 1.0
266785 156.95625 45.01914 0.07425 5.022 2.511 60.48195 105.67464 69.9879071 0.042999 -1.53506 3 2 0.6666667
266941 237.73689 27.00262 0.0815 35.112 17.556 56.4032 105.29615 59.4648468 0.0703085 -1.6529 3 2 0.6666667
267218 163.02886 12.29254 0.08088 200.502 100.251 103.10604 176.09231 90.2809028 0.0503128 -1.39102 3 2 0.6666667
267455 161.46831 39.2246 0.11847 526.7628 217.18706 78.64726 148.49617 94.5834017 0.0760785 -0.88613 3 3 1.0
267702 160.45087 40.28795 0.06925 68.103 34.0515 34.7567 103.41768 35.8780403 0.1409172 -0.40209 3 2 0.6666667
267822 227.13356 5.84323 0.07735 41.4162 20.7081 47.05651 61.69194 41.8305978 0.0757193 -1.111 3 2 0.6666667
268277 227.18555 7.84879 0.11347 136.806 56.05705 84.29834 111.73073 69.9621405 0.0970664 -0.70914 3 3 1.0
268657 237.37997 32.66968 0.12221 186.621 76.24832 91.72177 93.66061 79.4436497 0.0717632 -0.74858 3 3 1.0
268777 176.25211 7.54771 0.10543 151.1082 61.71623 127.00134 116.79385 117.3888017 0.0316925 -0.30782 3 3 1.0
269641 209.33409 37.96424 0.06198 217.6098 101.70307 66.66986 168.86311 72.806915 0.0455264 -0.96466 3 3 1.0
270050 332.56154 0.45921 0.08648 214.713 89.74072 56.63545 75.6957 52.9307375 0.0710048 -1.59958 3 3 1.0
271695 183.90262 7.6934 0.07355 120.228 49.19431 52.32934 207.81957 39.8039711 0.2569585 -0.92532 3 3 1.0
272692 255.57661 19.23475 0.0518 185.8155 92.90775 90.91472 365.85589 73.580662 0.069101 -1.50915 3 2 0.6666667
272919 176.26157 13.52821 0.08128 292.248 124.39933 106.16028 170.18878 83.0033426 0.0580419 -0.84342 3 3 1.0
275835 236.79898 33.79464 0.05457 42.3198 21.1599 58.89238 148.0533 48.8860532 0.0698507 -1.79141 3 2 0.6666667
276669 188.49185 9.89765 0.05283 46.794 19.30852 80.13396 200.72724 72.3776382 0.040663 -1.84523 3 3 1.0
276805 117.96531 46.18859 0.12981 223.977 91.62834 107.15415 234.08151 108.6937089 0.1062714 -0.41104 3 3 1.0
277726 238.77649 33.67437 0.11231 395.934 166.50112 56.64512 70.88713 49.833478 0.119231 -0.40028 3 3 1.0
278085 178.85729 44.56912 0.07083 175.41 87.705 45.10594 121.8731 54.2669015 0.0756547 -0.10111 3 2 0.6666667
278333 214.68757 5.58513 0.1465 356.976 178.488 42.43423 96.72288 41.0690773 0.3773571 -1.10199 3 2 0.6666667
278560 245.62856 29.19138 0.14542 499.848 225.75332 98.39743 75.52023 91.2976181 0.0588817 -0.90743 3 3 1.0
278562 249.74356 25.95053 0.12832 592.008 248.30414 70.7138 221.00872 60.7567947 0.3148159 -1.02571 3 3 1.0
278895 188.14681 11.204 0.08652 280.2438 114.64891 103.43458 131.69159 89.735676 0.0430147 -1.88503 3 3 1.0
278963 255.62031 21.06972 0.05497 145.6875 61.50085 111.73365 403.9503 99.2333304 0.0468945 -1.62136 3 3 1.0
279154 232.23034 6.44004 0.07764 59.517 29.7585 64.98119 242.45103 59.0491905 0.1503354 -1.06037 3 2 0.6666667
280234 183.63771 8.37118 0.07331 483.372 199.46145 141.48288 261.49069 123.1350539 0.0335781 -1.46193 3 3 1.0
280967 185.83662 8.36973 0.07343 314.619 128.4439 94.63318 150.47426 75.8783783 0.0510483 -1.21043 3 3 1.0
280999 188.83943 57.06429 0.14511 238.332 100.986 115.04464 67.40116 117.8237827 0.0314402 -0.06608 3 3 1.0
281145 197.7688 52.69751 0.0876 232.155 116.0775 97.83392 166.64244 93.2019302 0.0515967 -0.84286 3 2 0.6666667
282020 175.9054 41.3897 0.10319 169.0338 84.5169 63.65831 77.13299 54.6216251 0.0930809 -1.20459 3 2 0.6666667
283780 237.36307 31.80865 0.11091 426.828 179.86605 81.88888 177.87422 80.2205399 0.1129481 -1.96918 3 3 1.0
283830 161.59079 43.02053 0.07414 152.472 62.40852 73.42495 154.2435 91.2522141 0.0368166 -0.10747 3 3 1.0
285570 188.42597 8.14025 0.10054 132.288 66.144 85.99911 78.16704 71.1907182 0.0530368 -1.32333 3 2 0.6666667
285869 164.63773 41.27265 0.1154 208.5042 89.31957 115.5323 163.63729 114.608428 0.0545581 -0.58833 3 3 1.0
286362 240.42645 26.49846 0.09014 429.1395 176.63164 104.31383 213.75432 86.5707866 0.0807472 -0.69631 3 3 1.0
286635 226.14634 11.60054 0.08559 34.149 17.0745 123.94042 151.9211 113.8289822 0.0302461 -0.76304 3 2 0.6666667
289362 226.98922 6.24743 0.14152 110.145 55.0725 98.26396 151.59033 94.0785246 0.1063498 -0.56911 3 2 0.6666667
291823 209.04512 5.64842 0.07969 240.567 98.49996 121.08192 194.99721 104.5437899 0.0404429 -1.75356 3 3 1.0
294123 197.66541 15.12218 0.07854 182.055 76.14641 60.40699 153.47674 50.7154766 0.1317383 -0.86062 3 3 1.0
294574 190.5506 42.0323 0.10936 214.0215 87.45978 89.92973 93.42046 92.107067 0.0439082 -1.94328 3 3 1.0
295004 252.59071 32.75616 0.13703 484.629 225.76411 121.57936 104.28253 112.8226346 0.0481718 -0.46292 3 3 1.0
295220 246.1773 30.75341 0.05622 481.8921 196.77101 95.1419 393.11546 94.9851239 0.051938 -1.82059 3 3 1.0
295585 230.52289 6.03312 0.10394 193.0482 96.5241 77.63056 98.78785 66.7484951 0.080852 -1.51977 3 2 0.6666667
299384 207.293 9.5685 0.06109 63.7806 31.8903 37.64373 104.97273 36.4216059 0.1101159 -1.34033 3 2 0.6666667
300789 209.27688 14.33354 0.08084 237.585 104.56312 106.76402 279.49409 98.395102 0.0671622 -1.05796 3 3 1.0
303911 206.42228 40.74235 0.06252 264.9126 132.4563 48.34566 151.41829 43.7967795 0.1146381 -1.48306 3 2 0.6666667
304295 245.1972 33.84513 0.14191 248.472 124.236 96.9552 67.83786 85.2558795 0.0582167 -0.38188 3 2 0.6666667
304398 257.59471 22.27229 0.0876 140.6193 70.30965 94.13292 96.62593 83.2931174 0.0374571 -1.74244 3 2 0.6666667
304583 250.3875 24.0984 0.1 333.2955 137.75235 131.68324 121.34583 104.7172971 0.0376928 -0.70334 3 3 1.0
305261 230.29986 31.87943 0.11181 234.6225 117.31125 78.14851 300.02833 71.2791322 0.2447623 -0.75559 3 2 0.6666667
305974 209.95811 5.80158 0.07803 2.9796 1.4898 63.75484 260.19269 49.6697117 0.2301328 -1.97767 3 2 0.6666667
306802 234.36849 9.30023 0.13382 243.885 101.71093 134.12597 135.06231 117.6355841 0.0551336 -0.5803 3 3 1.0
307177 250.31008 29.04342 0.07524 355.8885 166.20693 115.45424 252.05851 109.413081 0.0429971 -1.16265 3 3 1.0
308496 241.08807 22.8807 0.08726 280.1448 115.65224 60.92061 188.39425 57.8862508 0.1501729 -0.99392 3 3 1.0
309814 231.60809 31.80037 0.07581 177.132 75.16046 71.66136 132.91341 60.8689634 0.0742674 -1.73807 3 3 1.0
309945 310.4325 -0.86959 0.08068 101.85 41.94476 62.21054 59.07276 57.6933997 0.0411451 -1.02281 3 3 1.0
311198 250.55594 24.97496 0.06256 567.423 231.73771 75.34792 107.95515 69.4852814 0.0325178 -1.5643 3 3 1.0
312121 28.42907 0.26326 0.08795 772.7172 317.97194 92.35007 127.36667 79.930068 0.0539987 -0.79764 3 3 1.0
312828 240.9662 32.55648 0.1312 173.547 78.86459 103.68168 143.6815 100.9154677 0.0770517 -0.63695 3 3 1.0
313533 241.2533 25.7543 0.10438 289.173 144.5865 78.23955 90.73827 71.8351521 0.0646062 -1.49624 3 2 0.6666667
314660 26.30894 0.37617 0.06944 113.109 51.44213 111.49807 196.5448 106.5432252 0.0305228 -1.73331 3 3 1.0
314741 224.47817 12.10655 0.1332 252.06 126.03 114.46656 126.08144 97.5027903 0.0743248 -1.12181 3 2 0.6666667
315816 230.77571 11.24878 0.05472 105.657 52.8285 29.39157 502.36113 26.5724758 0.806395 -1.73974 3 2 0.6666667
316744 239.51285 28.13271 0.09077 444.072 181.50389 86.22622 103.43439 90.603422 0.0361215 -1.50421 3 3 1.0
316945 226.16092 35.17146 0.09734 826.7868 338.04538 111.61893 114.10422 108.9294526 0.0312264 -1.5679 3 3 1.0
317111 237.47608 37.03883 0.07815 69.543 31.22243 90.9433 115.75237 79.9604733 0.0396078 -0.53984 3 3 1.0
317862 230.22162 33.55984 0.08177 490.77 223.62442 81.36994 121.29656 74.2617759 0.0522443 -1.05144 3 3 1.0
319147 154.64365 13.83708 0.08571 278.7705 123.25941 85.40762 129.36929 75.4381989 0.0587863 -0.3185 3 3 1.0
319371 239.11874 24.90875 0.08759 90.5058 36.95812 96.37926 174.2832 82.6141531 0.0686623 -0.4419 3 3 1.0
320709 135.55716 40.86442 0.13183 468.576 192.33388 117.3389 73.5922 101.0655825 0.0396711 -0.46836 3 3 1.0
320853 239.15726 38.82334 0.07736 77.5425 33.25636 137.8408 345.5231 124.2758596 0.0480571 -1.93547 3 3 1.0
321148 315.21871 -0.40556 0.07955 260.2935 106.2686 100.56656 199.41878 92.0553597 0.0531729 -1.77738 3 3 1.0
321321 243.44811 31.98121 0.11673 106.899 43.75765 133.34331 108.62168 120.5215566 0.0334066 -1.24338 3 3 1.0
321405 236.95231 36.82956 0.06975 343.2378 171.6189 40.83626 162.56786 45.1928777 0.1414877 -1.18698 3 2 0.6666667
322116 210.93923 9.6168 0.12001 327.318 163.659 129.92162 1310.55101 100.9853549 0.6023255 -1.11341 3 2 0.6666667
322853 137.72153 41.66109 0.11568 279.174 120.22596 117.07455 82.82883 100.4450722 0.0361048 -0.68942 3 3 1.0
324912 231.20746 31.69773 0.0809 552.393 227.26827 40.68409 174.90244 36.7604622 0.3015654 -0.29718 3 3 1.0
326202 254.33122 25.55439 0.05206 456.048 202.13083 99.89217 316.25518 78.9675594 0.0523589 -1.54267 3 3 1.0
326411 240.96322 33.53179 0.09087 130.431 60.98095 102.91086 109.10993 98.0102421 0.032628 -0.73643 3 3 1.0
326854 221.44617 24.23513 0.13498 58.218 29.109 61.24573 139.1461 54.3783833 0.2697315 -0.76673 3 2 0.6666667
326953 339.16755 0.03175 0.11824 96.987 43.96464 91.50646 130.48242 77.0866988 0.1003071 -1.3929 3 3 1.0
327500 145.35642 11.1029 0.11849 457.6452 199.73525 110.74201 86.77724 95.0267779 0.0440541 -0.87286 3 3 1.0
329517 252.45196 24.50897 0.05658 331.7715 137.51938 41.13745 73.52183 31.9292643 0.087002 -0.6303 3 3 1.0
329607 156.49593 32.88371 0.14624 279.594 121.45974 139.06706 105.54794 117.5115318 0.0501467 -0.90726 3 3 1.0
331904 231.91695 11.445 0.12759 350.619 149.40805 120.58293 277.79489 115.8646586 0.1077549 -0.74786 3 3 1.0
332286 198.79425 15.53161 0.09739 114.36 57.18 116.15092 103.02783 104.6706123 0.0305631 -1.06098 3 2 0.6666667
332707 12.7157 0.65057 0.0674 33.108 13.51633 75.43606 209.96977 67.6751405 0.0765112 -1.50945 3 3 1.0
333082 222.30504 23.67203 0.11784 109.446 54.723 96.38572 90.48147 89.7108972 0.0510554 -1.03486 3 2 0.6666667
333561 144.13424 10.9225 0.11998 214.2303 87.76712 86.38332 103.22481 73.8139231 0.0887528 -0.63459 3 3 1.0
334039 194.27262 13.967 0.06439 415.6572 207.8286 40.3319 170.42526 33.0360019 0.2395038 -1.33211 3 2 0.6666667
335266 153.70671 33.71483 0.12993 37.587 18.7935 64.98167 89.93858 66.4641198 0.1093629 -0.32147 3 2 0.6666667
335557 13.68492 0.62239 0.08631 198.3315 81.66592 126.81032 149.77956 105.899858 0.0349733 -1.55539 3 3 1.0
335728 351.01547 -1.13908 0.10972 191.874 83.23245 94.99642 91.70333 82.3475424 0.0542357 -0.97469 3 3 1.0
335730 351.12088 -1.07021 0.10924 470.757 213.76716 88.42207 64.48009 80.6258598 0.0394756 -0.3295 3 3 1.0
335808 159.2359 14.75533 0.09314 472.2492 192.89187 90.64834 163.98992 84.998172 0.0681378 -1.60691 3 3 1.0
335850 127.78781 24.8066 0.08753 111.108 46.03565 73.5027 99.75415 70.2777621 0.0542434 -1.1245 3 3 1.0
336784 130.70256 5.02059 0.05101 208.8213 85.81163 93.12008 242.48212 85.0296928 0.0333215 -1.63463 3 3 1.0
337811 144.22758 10.4463 0.12859 102.537 43.50407 113.74212 88.10644 91.6060384 0.0554094 -0.80762 3 3 1.0
339545 153.92741 35.19855 0.10127 308.6418 154.3209 115.06491 150.86798 102.474587 0.0500443 -1.11905 3 2 0.6666667
339611 144.9308 63.26752 0.11969 401.22 200.61 83.38909 117.22322 71.1876992 0.1079177 -0.48842 3 2 0.6666667
340247 156.53014 13.99417 0.08515 303.5118 126.0279 99.89246 119.20787 95.6925624 0.0332679 -1.87545 3 3 1.0
341132 164.68886 36.78166 0.0597 325.305 142.57808 88.82015 149.17581 70.9222181 0.0395343 -1.43608 3 3 1.0
341211 148.60764 33.9011 0.08633 14.286 7.143 39.59736 82.85962 32.9348334 0.2001354 -1.08249 3 2 0.6666667
341333 23.97681 0.55668 0.13575 428.328 177.57589 105.22628 102.37821 89.7470273 0.0735636 -0.85232 3 3 1.0
342032 140.02145 6.56821 0.07552 389.4747 161.86568 99.40485 176.58351 82.2655229 0.0536376 -0.96088 3 3 1.0
342156 165.72107 37.34945 0.07388 325.7322 133.3493 88.43374 115.01038 72.2330101 0.043538 -1.64544 3 3 1.0
342219 150.34934 34.5176 0.08992 184.563 75.45612 68.95105 168.34004 59.1660882 0.1355381 -1.50748 3 3 1.0
342548 186.36314 28.94346 0.06477 287.673 122.87278 77.77227 376.96541 73.2639854 0.1088999 -1.4849 3 3 1.0
343663 353.63775 -0.67613 0.0933 406.116 171.58487 110.98498 130.23401 88.369797 0.0502196 -0.8345 3 3 1.0
344389 142.06239 7.49575 0.11185 17.559 8.16525 100.99636 87.03932 82.270135 0.0533357 -0.84545 3 3 1.0
344523 245.23403 51.12292 0.11892 372.1587 186.07935 81.41917 83.06937 75.7950101 0.0667069 -0.8473 3 2 0.6666667
344543 143.13246 32.36707 0.12926 117.735 51.32231 124.30695 145.46338 130.1756299 0.0457062 -0.93585 3 3 1.0
345830 155.93922 33.41717 0.11561 62.328 31.164 47.778 45.10224 62.3453319 0.0509715 -0.28144 3 2 0.6666667
346048 208.24132 12.41748 0.10524 10.704 5.352 110.73103 74.69722 84.7682313 0.0387459 -0.0873 3 2 0.6666667
346677 14.59 0.0557 0.07921 165.789 73.53042 30.38999 192.84846 26.5022598 0.6157059 -0.23269 3 3 1.0
346863 180.52732 37.32843 0.11468 299.1798 125.97599 89.2472 150.94846 97.7277936 0.0684674 -0.78295 3 3 1.0
347152 349.83586 0.1142 0.12503 313.074 128.41051 78.4065 107.41055 67.1402788 0.1198427 -0.65719 3 3 1.0
347570 130.02615 58.77488 0.11964 214.941 107.4705 96.22689 99.04159 101.2234523 0.0450634 -1.38333 3 2 0.6666667
347716 37.74927 0.48273 0.13997 374.076 171.55215 116.12994 118.91713 108.1774926 0.0619322 -1.44499 3 3 1.0
347736 16.0187 0.87905 0.10692 559.158 239.38736 79.01699 117.39221 65.787462 0.1039593 -1.20344 3 3 1.0
348033 126.56705 56.25743 0.13725 94.176 47.088 133.37111 161.61632 177.4441743 0.030263 -1.47314 3 2 0.6666667
348481 173.99885 37.70749 0.06261 74.2392 37.1196 21.66502 107.77348 18.6203453 0.4526164 -1.20236 3 2 0.6666667
348582 110.52244 42.42686 0.13623 462.108 206.13615 99.60118 112.17282 92.0596863 0.0770639 -0.78285 3 3 1.0
350283 194.48569 38.58217 0.11183 151.5516 63.8765 35.34609 119.02932 35.5505844 0.3904857 -0.43595 3 3 1.0
351573 190.4005 40.16991 0.08039 163.9323 67.01859 56.63006 155.58414 47.338899 0.159918 -0.35095 3 3 1.0
351809 55.13949 0.31068 0.12029 256.152 108.43934 83.14768 61.79134 77.9234997 0.0478852 -0.96517 3 3 1.0
351954 130.47637 23.04028 0.12666 495.315 202.4032 96.29283 77.841 94.3855434 0.0449323 -0.63574 3 3 1.0
352569 164.3962 38.51566 0.05847 131.043 65.5215 71.50954 139.66057 60.8968954 0.048301 -1.613 3 2 0.6666667
352773 121.94547 18.1087 0.09925 263.121 131.5605 101.03897 128.9093 83.9656639 0.061449 -0.61555 3 2 0.6666667
352973 128.31688 23.2863 0.08622 342.765 140.06898 54.15922 107.12327 49.6862363 0.1134083 -0.81288 3 3 1.0
352991 125.77554 21.89092 0.0927 361.851 169.31077 114.09376 180.32766 90.8600575 0.0650116 -1.58472 3 3 1.0
353595 120.6733 20.2109 0.11694 230.562 115.281 67.49226 98.81409 62.1110055 0.1147852 -0.87801 3 2 0.6666667
356659 176.11889 37.13764 0.11485 553.0788 225.91592 108.66153 245.86008 93.1069759 0.1231722 -1.38486 3 3 1.0
357075 145.15882 29.46778 0.12763 416.337 176.35515 77.2432 186.98935 68.2013536 0.2094577 -0.6956 3 3 1.0
357704 208.42642 12.86612 0.14497 220.539 90.31586 80.99651 151.79022 77.9092291 0.1616873 -1.44843 3 3 1.0
358259 31.6203 -0.89406 0.07956 113.76 52.95686 43.87158 302.89605 36.8710581 0.5036263 -0.95906 3 3 1.0
359386 171.50677 34.5757 0.11143 72.225 30.51179 82.32899 89.22076 74.4610837 0.0662984 -0.77982 3 3 1.0
361105 187.41316 36.20028 0.07192 290.8905 125.67568 66.22796 355.3845 66.4494964 0.1513434 -1.1388 3 3 1.0
361552 139.74288 30.70466 0.11313 39.759 19.8795 99.31787 139.20556 83.6550319 0.084152 -1.46331 3 2 0.6666667
362985 220.01974 11.76306 0.12158 297.711 148.8555 152.72409 172.86593 142.5956806 0.0407482 -1.64542 3 2 0.6666667
363909 120.04216 15.43948 0.1074 36.5445 15.11324 105.31072 180.42781 99.9920577 0.0697061 -1.83646 3 3 1.0
364327 172.77746 36.57163 0.08893 166.077 73.40626 54.56065 66.65592 50.8288798 0.0712922 -0.56644 3 3 1.0
364836 134.90586 19.57397 0.0959 207.378 84.82126 101.89767 128.31519 99.8524937 0.0406994 -0.56708 3 3 1.0
365435 203.34099 14.49111 0.0726 528.135 234.04668 123.85865 370.76592 109.6231201 0.0590234 -1.71918 3 3 1.0
365569 182.43342 15.62272 0.08069 169.323 69.50042 53.2578 152.51712 52.284481 0.1293672 -1.15344 3 3 1.0
366438 137.24823 20.30845 0.07104 242.2542 101.13116 68.27082 182.09006 58.4454872 0.0979962 -1.43497 3 3 1.0
366921 168.85277 37.84874 0.13895 345.663 141.50788 124.26794 99.92736 123.9732882 0.0391424 -0.90288 3 3 1.0
368902 173.71045 38.92169 0.11199 435.63 178.73453 109.58925 185.74372 106.99304 0.0674417 -0.29908 3 3 1.0
368978 170.09189 36.49948 0.10318 310.065 126.6149 92.29218 140.01488 98.978109 0.0514523 -1.61569 3 3 1.0
370862 133.14505 26.83359 0.11908 404.598 167.52506 77.32575 93.77734 71.9422267 0.0837824 -1.16189 3 3 1.0
370866 133.93817 27.09296 0.09035 506.5008 217.7023 69.62072 114.42489 68.0512761 0.0702393 -0.77504 3 3 1.0
370892 180.34448 30.12176 0.14557 275.199 129.23373 113.19904 206.74305 102.6589924 0.1277198 -1.06001 3 3 1.0
371334 131.7761 23.58558 0.12759 24.243 12.1215 47.03341 78.60842 36.7143357 0.3036845 -1.17969 3 2 0.6666667
372223 131.14575 26.10479 0.10905 366.546 154.00403 112.90731 494.04104 105.1427938 0.1773142 -1.54906 3 3 1.0
373852 174.84431 32.23524 0.07376 112.3692 50.79225 69.22873 127.52657 62.2944902 0.0647089 -1.15027 3 3 1.0
375453 178.82406 35.65361 0.06813 503.9985 220.00826 100.09615 292.66256 87.8931898 0.0644915 -1.89634 3 3 1.0
376244 134.7456 19.61507 0.10749 420.075 187.41537 109.9328 115.50391 113.5758041 0.0346409 -1.10801 3 3 1.0
376817 184.18764 30.03513 0.08321 229.2738 103.09499 99.99094 230.92572 81.4782238 0.0852681 -0.78734 3 3 1.0
378075 124.56681 22.47191 0.1122 373.851 186.9255 116.35692 165.06719 113.4158683 0.0535089 -1.37086 3 2 0.6666667
378442 182.56282 34.63841 0.10239 317.292 158.646 103.75711 79.59758 82.8758451 0.041155 -0.21304 3 2 0.6666667
380829 125.95156 20.24296 0.12119 517.8675 213.17107 159.47442 208.20942 163.0146337 0.0373461 -1.22397 3 3 1.0
380885 185.10032 29.09604 0.13217 322.398 133.63037 102.13653 131.98568 102.5547714 0.0694048 -0.62801 3 3 1.0
381795 137.60503 26.27117 0.07977 226.5573 113.27865 66.0729 242.96607 63.4528119 0.1370615 -1.48218 3 2 0.6666667
382143 182.65223 32.15676 0.14521 233.082 102.4702 136.58673 115.90278 129.338008 0.0449213 -0.83528 3 3 1.0
382206 243.21296 13.65729 0.06118 271.0449 117.98464 77.79437 197.77818 68.486052 0.0588289 -1.60674 3 3 1.0
383471 18.49873 14.02229 0.06152 182.697 81.78701 96.64221 119.96113 73.8360222 0.0310169 -0.84326 3 3 1.0
384904 130.91583 16.26139 0.07374 688.755 288.02956 74.09196 109.37632 67.6726006 0.0470018 -0.81776 3 3 1.0
387235 124.55476 20.85355 0.10043 295.89 138.35742 105.93359 128.36942 95.5441154 0.0482633 -0.25183 3 3 1.0
388123 117.21573 23.07455 0.07625 165.6645 82.83225 72.27562 60.29778 58.9739502 0.0362727 -0.80498 3 2 0.6666667
388139 124.75719 29.14696 0.05675 294.069 131.45592 74.29998 132.61872 72.8857436 0.0302852 -1.56957 3 3 1.0
388240 128.15963 31.43171 0.09357 72.174 36.087 78.21288 141.99757 76.1532019 0.0741139 -0.53349 3 2 0.6666667
388258 130.22568 32.74856 0.06788 258.3408 129.1704 49.4711 174.18458 44.1331392 0.1512171 -1.26284 3 2 0.6666667
388533 347.98149 -0.58525 0.0912 37.605 16.08903 90.33973 129.45199 69.6392467 0.0771708 -0.58399 3 3 1.0
390317 44.7306 0.27207 0.12762 144.498 59.45805 96.67424 84.96974 74.890351 0.0789209 -1.24828 3 3 1.0
391140 349.7372 0.2764 0.07694 55.4412 24.12609 94.5262 89.57921 77.0851409 0.0320611 -1.55147 3 3 1.0
391345 192.23552 30.12695 0.14052 102.759 51.3795 131.80826 96.48045 130.7799767 0.0346084 -0.86627 3 2 0.6666667
391381 176.94022 30.01161 0.11044 476.655 238.3275 129.12078 83.95345 99.4363369 0.0344399 -0.43286 3 2 0.6666667
392158 330.0469 -7.30879 0.08607 333.807 140.2845 104.34198 167.68812 85.5924849 0.0596428 -0.35904 3 3 1.0
392580 137.13244 28.30156 0.10327 27.135 13.5675 81.5616 194.77509 68.8559833 0.1481208 -1.94888 3 2 0.6666667
393479 218.13236 25.21523 0.07892 185.343 75.97677 101.97348 167.12182 96.5267085 0.0399481 -0.12018 3 3 1.0
396017 226.44914 24.32974 0.09136 188.5098 88.16398 110.14543 129.30422 110.4386673 0.0307477 -0.56007 3 3 1.0
396935 139.52689 6.94598 0.05552 464.7936 189.76484 139.30029 439.82802 117.6751599 0.036981 -1.47612 3 3 1.0
397298 171.00747 32.29936 0.1134 311.9385 145.00523 136.25832 165.30311 109.3941948 0.058674 -1.07119 3 3 1.0
398039 133.49463 17.33986 0.06682 75.8565 31.96306 70.12592 182.54715 64.7523947 0.0715064 -1.37286 3 3 1.0
398478 178.57323 26.7253 0.12022 422.3178 211.1589 85.25987 95.94109 80.5458818 0.0695189 -1.61181 3 2 0.6666667
398946 164.2301 33.32882 0.0512 72.8715 32.08397 51.39691 373.19351 48.6601112 0.1577045 -1.69387 3 3 1.0
402603 213.84399 25.56529 0.07802 222.405 97.32341 114.77467 129.91748 92.9847511 0.0327794 -1.79963 3 3 1.0
402943 127.7261 17.68597 0.11254 414.507 169.42351 78.98155 178.30463 70.3844832 0.1508815 -0.81277 3 3 1.0
403280 184.23272 32.87449 0.11724 820.1367 335.09644 112.89123 130.20742 103.4858985 0.054723 -0.91016 3 3 1.0
403951 140.45395 29.84937 0.05899 246.1353 102.01583 41.76658 71.67417 35.5713375 0.0738674 -0.62827 3 3 1.0
404732 184.1421 27.67801 0.10268 374.0592 153.75793 108.29152 116.17762 115.8752695 0.0308841 -1.08859 3 3 1.0
405812 192.36438 31.97821 0.05628 263.0376 114.52817 87.18553 238.38056 90.9650857 0.0344089 -1.4624 3 3 1.0
405813 178.40001 32.50658 0.12864 22.656 11.328 153.89145 143.37537 150.4716043 0.0334419 -1.30357 3 2 0.6666667
406519 218.41313 26.68411 0.09454 259.4265 129.71325 74.98972 128.37671 70.4569267 0.079728 -1.25816 3 2 0.6666667
406896 255.3013 18.70179 0.08258 223.0065 94.80512 131.8248 202.24053 118.6325882 0.0347491 -1.5873 3 3 1.0
407058 217.80958 24.78203 0.09652 314.5758 137.53115 109.19674 145.07367 90.5648718 0.0565718 -1.73664 3 3 1.0
407716 190.89634 27.89789 0.08305 129.9015 53.04309 92.33526 120.2314 72.0085267 0.0566457 -1.54811 3 3 1.0
407759 134.97598 25.06172 0.09699 391.4058 162.27331 126.68131 145.97543 115.1643261 0.0355087 -1.78026 3 3 1.0
408054 204.9719 26.02698 0.136 325.671 145.93901 136.31506 104.98273 132.0254469 0.0349645 -0.70864 3 3 1.0
408552 129.2508 19.65834 0.12417 601.116 246.63945 90.27647 143.92757 84.42628 0.1003571 -1.72569 3 3 1.0
409436 251.74587 21.44681 0.1165 439.3545 184.96756 76.28279 112.26052 73.5800061 0.0923157 -0.89323 3 3 1.0
409457 158.15623 21.36333 0.11115 96.834 41.89508 85.68309 148.46464 75.2974286 0.1074223 -1.72691 3 3 1.0
409775 164.71921 32.61282 0.08118 249.192 111.86657 118.71544 240.36488 125.8769151 0.0355652 -1.68556 3 3 1.0
410017 174.40196 31.35108 0.10381 185.5692 92.7846 109.47908 224.96808 95.7752995 0.0892366 -0.52554 3 2 0.6666667
410358 133.29122 16.98835 0.11901 451.362 190.83018 111.84894 82.29466 101.1384441 0.0371645 -0.16358 3 3 1.0
410413 159.0693 31.8274 0.12243 630.2802 271.34141 109.99105 133.03379 93.0473044 0.074543 -0.73741 3 3 1.0
410498 18.89806 15.47484 0.13339 643.689 263.0446 108.57169 200.20055 85.4844595 0.1539049 -0.98362 3 3 1.0
410557 168.43272 23.49736 0.09214 121.527 49.61737 123.60792 128.01626 109.1021505 0.0316696 -1.30979 3 3 1.0
411392 155.30896 18.6305 0.11913 397.005 180.12925 104.4955 194.86194 99.8464953 0.0904475 -1.311 3 3 1.0
412128 155.88407 21.35868 0.1103 122.001 61.0005 40.32407 233.68827 36.4844134 0.7105742 -1.63938 3 2 0.6666667
412152 149.56568 20.88867 0.11091 100.3782 50.1891 109.67357 78.91337 94.4913034 0.0361199 -0.1881 3 2 0.6666667
413519 175.05897 24.08373 0.0885 317.6865 158.84325 91.46714 238.36222 85.6319513 0.0890457 -1.93191 3 2 0.6666667
414078 238.52533 18.90778 0.07032 91.305 45.6525 61.681 74.80253 58.7695333 0.0390709 -0.06977 3 2 0.6666667
414849 127.06701 17.69521 0.10023 110.523 45.21265 118.86453 147.31339 94.7805717 0.0560855 -0.98486 3 3 1.0
414868 126.9785 17.65052 0.10196 467.106 201.71898 84.34605 116.97821 71.6838687 0.0802436 -0.68731 3 3 1.0
416109 188.61954 32.89283 0.0876 246.42 123.21 55.49974 173.33597 53.4828038 0.1629744 -1.06796 3 2 0.6666667
416407 155.67393 23.17232 0.05325 241.6734 113.04496 75.50894 347.76242 65.3098398 0.0878062 -1.33151 3 3 1.0
416587 126.97672 17.49724 0.1115 216.2838 108.1419 99.14459 105.59649 97.7804963 0.0455556 -0.91961 3 2 0.6666667
416757 169.17658 24.44257 0.10342 283.944 127.96026 125.2714 142.8078 129.0600722 0.0309911 -1.68807 3 3 1.0
416768 171.19069 24.72376 0.06957 112.6332 56.3166 93.49004 183.27421 85.1078518 0.0447552 -1.74601 3 2 0.6666667
417477 189.68377 19.49809 0.05702 52.6572 22.81977 67.84306 129.11332 64.5126295 0.037966 -1.36101 3 3 1.0
417478 190.9252 19.32438 0.08761 166.6275 70.39026 25.92937 119.73777 22.8344352 0.6177973 -1.50399 3 3 1.0
417671 122.21915 14.17664 0.10838 393.7935 181.78512 107.50758 77.17035 99.8653253 0.0303692 -0.68018 3 3 1.0
417915 136.32082 17.90756 0.13044 205.965 102.9825 111.9452 90.61645 88.6460553 0.062362 -0.98064 3 2 0.6666667
418467 154.30208 29.62736 0.07814 139.0188 58.13782 72.61653 129.38707 69.1740372 0.0591491 -1.39934 3 3 1.0
418816 123.54714 15.28495 0.08911 97.26 40.32574 82.29026 85.43459 67.0301867 0.0527355 -1.54176 3 3 1.0
420125 163.85745 30.21786 0.10833 404.841 172.94753 147.59027 271.93271 128.4145701 0.064666 -0.83743 3 3 1.0
420586 194.54027 26.64006 0.0794 512.3112 209.35334 86.95663 98.84233 75.4555321 0.0390952 -0.51108 3 3 1.0
420660 219.96958 15.57239 0.14061 361.689 152.37248 114.68237 74.03602 106.6658608 0.0399666 -0.35088 3 3 1.0
422016 170.00754 25.35564 0.13302 108.513 46.36991 158.63821 146.73643 156.6550175 0.0334329 -1.20617 3 3 1.0
424210 152.58939 18.76323 0.12695 332.091 151.96669 65.15668 261.8436 55.5897032 0.4374812 -0.32084 3 3 1.0
424235 213.22864 21.29445 0.08574 99.2982 40.55696 46.6236 77.43494 41.6821119 0.1153305 -1.14335 3 3 1.0
425790 146.3651 24.98529 0.07205 55.743 25.51283 101.96272 144.46496 85.8931762 0.0369387 -0.63925 3 3 1.0
426343 189.51737 32.95305 0.14152 167.859 68.53795 128.34441 104.22298 121.7259022 0.0436762 -0.53831 3 3 1.0
426525 131.94655 15.321 0.0701 274.14 129.14226 84.50503 150.28573 76.1253595 0.0465166 -1.49227 3 3 1.0
426545 126.43725 13.78329 0.09507 231.6432 97.64695 87.15699 119.54673 79.8181447 0.0584283 -1.43406 3 3 1.0
426894 204.27151 29.20174 0.11193 371.9412 157.68266 122.86212 149.24777 113.5993337 0.0480222 -1.54674 3 3 1.0
426991 210.48788 18.40237 0.06465 169.218 84.609 28.08149 271.57608 25.4151902 0.6497065 -0.71968 3 2 0.6666667
427072 233.21734 13.11713 0.07398 290.289 127.31913 62.43455 86.1512 50.6508204 0.0664903 -0.74638 3 3 1.0
427369 153.84374 19.33388 0.06763 532.7085 221.73236 115.657 171.4543 94.8502348 0.0320044 -1.36124 3 3 1.0
428006 231.92056 22.02991 0.05023 103.6818 51.8409 92.68031 268.80727 92.4048066 0.0303812 -1.75534 3 2 0.6666667
428147 179.79908 28.16401 0.10176 59.958 29.979 55.22746 53.91422 43.3409267 0.1008238 -1.10783 3 2 0.6666667
428432 239.31961 15.62474 0.13621 62.979 31.4895 125.15298 117.3534 123.6431395 0.0446802 -1.22886 3 2 0.6666667
430720 231.21056 19.28503 0.12787 81.648 40.824 106.22687 65.52414 82.2545113 0.0506219 -0.8037 3 2 0.6666667
431650 134.48596 16.08143 0.09186 149.877 61.20122 97.93969 82.17045 82.6438748 0.0352335 -1.02086 3 3 1.0
431893 245.01713 9.38041 0.10801 562.152 238.29779 99.49585 103.8131 90.1149158 0.0498737 -1.64735 3 3 1.0
433299 247.7904 12.35674 0.09444 395.1372 168.30568 92.17382 134.16236 86.295889 0.0554383 -0.95372 3 3 1.0
433447 180.71782 24.34872 0.11056 387.414 159.96977 72.771 74.31249 66.7783433 0.0677296 -0.86625 3 3 1.0
433684 236.7519 14.63541 0.09706 764.49 315.25338 113.9097 237.57732 87.209488 0.1009065 -0.95834 3 3 1.0
434933 158.5598 29.97606 0.13298 181.839 90.9195 105.96694 125.66382 98.3472226 0.0726046 -0.50912 3 2 0.6666667
435255 153.73571 20.25032 0.11321 297.9795 122.14252 114.36655 118.19355 103.6693798 0.0465836 -0.56589 3 3 1.0
435468 356.86587 0.93758 0.09326 397.404 198.702 93.84356 121.46486 92.5733783 0.0426479 -1.15018 3 2 0.6666667
436212 164.5149 20.01305 0.08901 377.9883 174.31086 83.50582 126.19424 81.591387 0.0524616 -1.91215 3 3 1.0
436350 155.13211 20.52131 0.10699 75.0852 37.5426 105.15742 148.179 109.2978457 0.0475925 -1.70754 3 2 0.6666667
438834 194.77554 18.7488 0.06379 502.194 205.02069 98.55522 316.82427 84.5801908 0.0667742 -1.06146 3 3 1.0
439176 181.58971 24.94504 0.08912 160.7067 68.63711 78.24124 111.88728 70.4072539 0.0626065 -0.15685 3 3 1.0
439744 147.95677 25.67846 0.06944 211.1883 94.3629 119.55171 212.05176 105.9505855 0.0332999 -1.34405 3 3 1.0
439922 209.49922 18.46597 0.12481 417.708 177.82451 71.83163 459.69992 73.7771032 0.4234701 -1.90792 3 3 1.0
441769 187.2938 25.24796 0.12655 145.392 59.39942 88.8144 55.51421 85.8536819 0.0386733 -0.68704 3 3 1.0
442401 241.77898 18.56891 0.08253 463.587 208.25882 85.12796 103.66029 78.5639619 0.0405629 -0.94625 3 3 1.0
444529 15.35119 0.3831 0.0936 602.8218 247.08524 71.28625 181.06986 67.2779666 0.1211415 -0.66077 3 3 1.0
445082 238.05549 19.81863 0.09037 224.211 112.1055 96.90196 93.80258 84.8745368 0.0370326 -0.5596 3 2 0.6666667
445128 195.46794 19.01927 0.1064 319.386 159.693 117.5172 165.40538 98.5962585 0.0646597 -1.66681 3 2 0.6666667
445595 240.95322 17.9114 0.11318 110.313 55.1565 120.17913 138.44792 111.0733898 0.0475096 -1.97309 3 2 0.6666667
445906 205.93611 16.30288 0.07822 216.879 108.4395 67.41319 163.17007 62.1322942 0.0926282 -1.16443 3 2 0.6666667
446090 126.88235 12.91156 0.09489 290.1945 119.47778 74.92 86.56851 57.6445612 0.0808388 -0.43347 3 3 1.0
447011 209.30068 16.2971 0.06049 61.53 25.13265 75.35144 131.875 71.3177316 0.0354205 -1.29999 3 3 1.0
447026 207.81505 16.20265 0.12979 279.081 116.89667 112.01952 100.22267 91.8527101 0.0636966 -0.12241 3 3 1.0
447159 208.39666 16.88951 0.09408 223.4898 91.31585 34.09297 76.83648 27.7468617 0.3050023 -1.12786 3 3 1.0
448226 201.52817 18.51701 0.07337 49.6746 20.35909 92.63361 101.35245 73.5555042 0.0365307 -1.01451 3 3 1.0
448597 229.72504 11.73991 0.09844 328.731 164.3655 57.64128 230.78638 45.6855526 0.366292 -1.5587 3 2 0.6666667
449315 218.38871 20.83482 0.06104 335.616 158.1622 61.60994 279.38206 56.4993642 0.121599 -1.5269 3 3 1.0
449477 220.46401 13.86656 0.11683 142.1535 65.56516 66.58486 71.0617 62.9676975 0.0801771 -0.47917 3 3 1.0
450359 182.5939 36.3221 0.08289 162.606 67.73905 89.07911 178.59551 92.673317 0.0506259 -1.30305 3 3 1.0
450630 184.73734 22.3922 0.13128 207.276 103.638 63.52794 90.23532 61.8712574 0.1288809 -1.06309 3 2 0.6666667
450690 182.47696 22.29626 0.10768 102.4602 42.33887 85.98403 167.33399 72.9337315 0.1220814 -1.0123 3 3 1.0
451425 194.29408 20.79498 0.08558 401.763 172.8278 88.41998 146.14721 82.1916189 0.0557938 -0.7655 3 3 1.0
454402 246.51712 14.38625 0.08995 455.955 188.4282 70.21471 98.24189 54.9825172 0.0916585 -1.18499 3 3 1.0
454412 239.47897 17.67077 0.08248 172.494 86.247 83.85908 112.03781 76.8037019 0.0458244 -0.62784 3 2 0.6666667
454510 219.77627 14.80944 0.11998 214.56 88.27933 144.40281 152.14115 143.677063 0.0345264 -1.23402 3 3 1.0
454846 184.21745 23.62527 0.12131 525.507 229.90791 122.77761 146.66173 109.912376 0.0579626 -1.55722 3 3 1.0
455421 182.6002 37.47099 0.07949 239.4702 103.75292 58.5365 67.09778 47.0699466 0.0683471 -1.04709 3 3 1.0
455760 180.75535 23.63904 0.1071 242.6058 121.3029 113.57399 95.1553 102.3282182 0.0349318 -1.8858 3 2 0.6666667
456757 203.00013 32.77816 0.12253 278.8218 139.4109 129.57147 87.52877 113.6161356 0.0329377 -0.56002 3 2 0.6666667
457772 176.70703 24.13206 0.08652 74.667 37.3335 53.49369 128.55174 51.3765138 0.1281024 -1.64201 3 2 0.6666667
458576 175.89464 18.11719 0.08184 99.7035 41.11237 55.08902 145.56367 49.2399216 0.1428141 -1.07502 3 3 1.0
458683 152.25541 22.73425 0.07554 605.586 260.72483 99.32666 826.45333 82.5473405 0.2494435 -1.06551 3 3 1.0
459473 186.91317 16.37301 0.07013 9.036 4.518 61.3002 276.00916 55.3837967 0.161553 -1.77568 3 2 0.6666667
459578 233.30828 12.16796 0.09443 86.9688 36.45626 45.35463 108.44426 38.7133871 0.2226165 -1.10052 3 3 1.0
459899 182.29798 35.63231 0.09655 16.665 8.3325 70.53057 203.51396 72.4747596 0.1240133 -1.81122 3 2 0.6666667
460592 184.19501 18.34514 0.09737 74.5305 37.26525 105.06197 211.31234 100.4943757 0.067978 -1.01138 3 2 0.6666667
460705 183.57883 22.17599 0.09572 31.872 15.936 114.86749 316.05275 101.7617198 0.0961889 -1.82473 3 2 0.6666667
461515 222.26757 29.063 0.05283 65.7561 32.87805 91.08843 361.19322 79.3388248 0.0608833 -1.0014 3 2 0.6666667
462293 139.29358 15.31747 0.12302 177.414 88.707 60.85864 117.40213 59.3318958 0.1631313 -0.41809 3 2 0.6666667
465028 188.30507 17.30393 0.13221 186.78 93.39 42.85573 89.17463 35.2570042 0.3969677 -0.54677 3 2 0.6666667
465148 220.87648 13.20301 0.11978 695.439 286.02204 84.75846 132.80424 78.5131672 0.1006335 -0.71747 3 3 1.0
465698 241.56599 16.55013 0.0913 96.6 48.3 128.56701 119.74126 107.2261741 0.0301666 -0.85432 3 2 0.6666667
466694 180.31126 18.10086 0.05852 85.6818 42.8409 60.71357 101.76496 52.6497149 0.047156 -1.44077 3 2 0.6666667
466737 185.81603 16.97807 0.13431 37.203 18.6015 123.6371 71.44986 108.4817867 0.0345073 -1.07107 3 2 0.6666667
468193 169.82919 33.72407 0.12744 126.417 51.87034 143.5077 237.36212 129.3835582 0.0736914 -0.69958 3 3 1.0
468429 125.76725 10.2572 0.10152 393.21 164.50031 73.1232 243.13233 59.1261905 0.2432855 -0.88159 3 3 1.0
469841 132.62323 12.24861 0.06055 103.0626 42.07636 114.38535 279.46333 89.9631275 0.0472628 -1.93677 3 3 1.0
470404 210.25809 32.00984 0.07855 261.2805 109.14371 136.41488 221.97632 119.7993735 0.0341545 -1.77986 3 3 1.0
471377 162.63998 27.77865 0.14154 80.028 40.014 71.01873 115.31073 65.1462139 0.1687489 -1.02122 3 2 0.6666667
471450 165.16037 8.52831 0.06135 380.1162 156.71494 84.39149 124.7821 73.785329 0.0321432 -1.06377 3 3 1.0
472605 187.26601 23.37457 0.07298 90.0615 36.90394 72.9937 148.01716 74.6496052 0.051291 -0.64122 3 3 1.0
473114 211.71283 28.56996 0.11716 458.241 202.07399 104.36132 188.83325 99.7564477 0.0853157 -1.57326 3 3 1.0
473553 186.37881 19.44511 0.12875 239.013 107.51832 106.15499 62.64407 92.8659385 0.0384156 -0.39749 3 3 1.0
476470 177.57902 20.48941 0.06732 175.95 87.975 86.99216 228.00601 83.4498512 0.0545144 -1.55597 3 2 0.6666667
476594 235.93878 12.32158 0.10674 8.9382 4.4691 84.5752 62.64651 70.4975198 0.0481654 -0.5892 3 2 0.6666667
478805 179.39229 20.74871 0.06757 96.093 48.0465 94.2352 302.98687 77.4468351 0.08469 -1.82495 3 2 0.6666667
478910 127.52768 14.15953 0.13751 362.649 160.65104 116.62547 130.54812 112.1131589 0.0614343 -1.21658 3 3 1.0
479403 161.43408 17.97313 0.07235 174.4008 87.2004 84.41017 112.39979 69.3318453 0.0444439 -1.07857 3 2 0.6666667
480427 213.4748 29.97719 0.06672 184.713 92.3565 78.92006 180.6534 64.2876956 0.0715866 -0.70183 3 2 0.6666667
481097 186.63079 20.72818 0.12841 147.405 61.92585 82.99709 66.69642 70.1124979 0.0714297 -0.7282 3 3 1.0
481513 166.36011 18.14916 0.08935 105.1305 52.56525 95.37568 152.27297 75.7980474 0.0738671 -0.15908 3 2 0.6666667
485272 216.99237 18.91069 0.10169 139.602 69.801 84.86302 66.77608 66.7593812 0.0525728 -0.69076 3 2 0.6666667
485717 166.15424 28.7143 0.14437 133.569 66.7845 108.36324 88.56706 88.871417 0.0719965 -1.15395 3 2 0.6666667
487815 202.62692 30.95488 0.13724 278.334 139.167 92.63154 127.81171 79.8736695 0.1181017 -0.8204 3 2 0.6666667
488568 200.4472 23.07457 0.08862 184.2135 85.66535 100.04728 130.84431 76.804491 0.0609046 -1.21853 3 3 1.0
490460 174.65136 30.48006 0.06873 118.7118 48.49403 113.42358 296.95155 119.4560539 0.0359983 -0.97883 3 3 1.0
493946 188.07624 20.93909 0.10038 470.6142 209.18971 88.69433 98.49473 82.1033691 0.0501063 -1.20167 3 3 1.0
495568 231.73155 13.61146 0.07633 205.911 102.9555 130.46735 218.617 102.1683415 0.0439 -1.93836 3 2 0.6666667
495976 191.56565 5.04086 0.07416 91.356 42.07788 39.81052 170.20838 39.4301308 0.2177284 -1.55921 3 3 1.0
497236 121.39013 19.34167 0.12417 146.193 73.0965 62.67783 107.90044 50.006807 0.2144444 -0.92427 3 2 0.6666667
498538 208.12515 27.02577 0.09635 328.677 134.86569 96.74245 194.57846 102.3869305 0.0591862 -0.79794 3 3 1.0
499101 170.12411 29.94167 0.12336 446.613 201.90832 132.02021 128.83779 127.3110617 0.0390677 -0.99124 3 3 1.0
499183 175.7439 26.42295 0.07625 343.3608 149.63264 109.38189 262.32986 108.6471421 0.0464994 -1.89222 3 3 1.0
499252 136.67859 11.59293 0.09388 96.7305 41.21368 130.85789 289.42117 108.9664887 0.0742117 -1.98865 3 3 1.0
499765 172.87368 26.72823 0.08861 109.701 54.8505 43.92144 97.77849 48.7884065 0.1127884 -1.00127 3 2 0.6666667
500207 137.92832 15.73302 0.07268 265.5258 110.18264 87.53526 142.62761 83.6479603 0.0390748 -0.37443 3 3 1.0
500250 220.58064 18.32016 0.08739 172.545 70.6458 62.91638 95.20547 48.6486039 0.1077169 -0.90266 3 3 1.0
500931 145.83211 5.79094 0.09004 471.066 235.533 145.30129 315.9946 140.0131924 0.0455484 -1.3099 3 2 0.6666667
501022 220.89786 63.1031 0.11193 443.9883 194.31751 100.54687 116.38532 108.4456602 0.0410972 -1.32308 3 3 1.0
502752 180.20813 4.59759 0.13152 181.398 90.699 137.16961 88.40804 110.0926193 0.0400029 -1.5449 3 2 0.6666667
502852 167.40306 26.92211 0.07041 70.2 35.1 63.33907 196.23249 61.1485596 0.0949089 -1.89697 3 2 0.6666667
505449 191.48238 7.35544 0.06913 275.808 114.16532 67.00807 177.34606 55.2750557 0.1014785 -1.14106 3 3 1.0
505586 152.0398 15.83873 0.11728 184.5015 80.8408 159.51185 189.65496 151.4238285 0.0372511 -0.85957 3 3 1.0
505654 190.79922 8.16494 0.0852 150.621 75.3105 50.70103 83.23444 41.8235438 0.1217422 -1.71343 3 2 0.6666667
505899 142.41351 12.21737 0.08881 334.6212 156.84983 75.37716 99.64858 68.4536949 0.0586223 -0.77935 3 3 1.0
506299 212.38322 20.79155 0.06688 277.9995 121.38503 101.75407 297.53456 92.1135402 0.0576975 -1.30606 3 3 1.0
507152 206.06132 24.05813 0.131 399.711 199.8555 97.63776 116.23325 85.2924112 0.0870402 -1.36742 3 2 0.6666667
510145 208.03444 21.89057 0.11352 321.072 142.62025 126.71358 114.95501 105.6887022 0.0437967 -0.67711 3 3 1.0
510634 172.17885 16.69348 0.1429 343.752 142.07931 112.94417 172.44898 106.7494039 0.095507 -1.25519 3 3 1.0
513168 193.02129 17.5482 0.1114 320.685 142.40012 65.59601 39.17344 61.5959869 0.0425192 -0.50778 3 3 1.0
513583 171.11908 17.50772 0.14487 172.35 86.175 92.74395 64.34789 83.6107126 0.0594402 -1.45687 3 2 0.6666667
514212 165.59522 17.58521 0.11339 330.645 135.82591 125.22007 152.88437 110.4231508 0.0532556 -0.76079 3 3 1.0
514698 214.4797 17.04756 0.07113 356.4228 178.2114 62.54105 289.72862 61.6108024 0.1406371 -0.87882 3 2 0.6666667
515884 168.06755 17.31539 0.11256 145.377 64.09596 105.06441 80.08147 95.9206716 0.0364956 -1.57798 3 3 1.0
517099 173.65811 16.25545 0.07122 75.303 31.10771 50.90022 76.7507 45.3023309 0.0690643 -0.70783 3 3 1.0
517215 218.69265 25.3755 0.12954 162.867 71.24085 137.96976 121.07973 131.822551 0.0372382 -1.21608 3 3 1.0
518484 130.98233 10.85495 0.0674 252.7665 109.67799 82.32624 122.88353 77.9006347 0.0337925 -1.59711 3 3 1.0
520232 36.26827 0.90374 0.12882 178.545 73.63661 90.26402 137.41078 69.9985223 0.1484455 -0.92808 3 3 1.0
520586 213.60832 -0.19385 0.0534 205.5711 86.10782 27.93338 219.78977 22.3844794 0.4749602 -1.58897 3 3 1.0
522376 143.59486 14.48685 0.07289 116.7825 50.77336 46.30074 78.14189 37.7137987 0.1058602 -1.19987 3 3 1.0
522686 209.32884 25.20795 0.05812 71.4468 35.7234 66.28243 139.21499 55.4099906 0.0575044 -0.60694 3 2 0.6666667
523299 139.76069 13.73687 0.07794 87.861 43.9305 72.63547 83.60633 64.0267206 0.0444093 -0.70904 3 2 0.6666667
524004 177.7803 16.75988 0.12364 558.336 227.9398 98.97985 82.97535 94.6461485 0.0457036 -1.26468 3 3 1.0
525223 217.20275 17.38655 0.1038 101.6292 43.00826 95.25906 73.11262 89.2091374 0.0334214 -0.12309 3 3 1.0
526956 172.606 0.97575 0.13209 292.131 119.26763 143.52044 104.05897 134.5496074 0.0317561 -1.54987 3 3 1.0
527978 231.52556 18.42035 0.1267 83.145 41.5725 109.58492 147.26983 103.2079822 0.0711377 -0.91902 3 2 0.6666667
528570 193.53686 18.01288 0.11202 114.6552 47.35629 60.06528 101.73335 57.4353173 0.1282382 -1.42575 3 3 1.0
529019 143.05352 5.13839 0.10764 359.007 179.5035 88.25967 77.59063 68.2072928 0.0646798 -1.13433 3 2 0.6666667
529158 116.3786 32.77691 0.05536 123.8688 61.9344 55.24801 113.90943 63.7276585 0.0324798 -1.12148 3 2 0.6666667
529887 207.06972 25.92177 0.06266 96.5715 48.28575 74.53791 344.66072 71.748964 0.0976498 -1.28699 3 2 0.6666667
530217 193.67166 18.0833 0.11238 33.906 16.953 117.06697 129.48539 87.8947566 0.0700885 -1.02802 3 2 0.6666667
531330 216.70896 23.94011 0.07469 97.6503 48.82515 58.67175 97.06816 54.0635316 0.0669079 -0.79711 3 2 0.6666667
531481 173.61345 -3.28152 0.10504 147.042 73.521 110.56463 145.05215 97.4426449 0.0567533 -1.42509 3 2 0.6666667
531568 174.31008 -2.32094 0.11038 505.5228 214.08835 93.03201 76.68619 78.5543694 0.050361 -0.62879 3 3 1.0
532038 115.44684 31.78589 0.07554 53.577 22.80393 100.26543 183.15851 89.0590459 0.0475011 -0.65416 3 3 1.0
532892 175.86978 -2.84484 0.1075 170.97 73.55564 86.88584 71.41925 80.9980906 0.0421199 -0.30029 3 3 1.0
532901 173.79485 -3.10185 0.10441 293.1588 123.97396 165.13544 206.43783 148.8071237 0.034266 -1.64896 3 3 1.0
533327 214.27448 21.1655 0.12251 112.17 46.40691 117.30581 139.31531 110.8903986 0.0550206 -1.29708 3 3 1.0
534898 223.84819 19.4127 0.11554 277.92 119.72698 137.76026 217.3526 120.5156523 0.0656781 -1.50865 3 3 1.0
534951 228.36736 18.22078 0.13059 570.399 241.95429 88.31379 188.89676 72.5026876 0.1947192 -0.57717 3 3 1.0
535420 176.77585 2.23195 0.1068 72.7002 29.75155 89.54986 159.85409 77.6932424 0.1012954 -1.48419 3 3 1.0
536730 191.52573 0.71543 0.08907 201.6945 82.37126 131.5458 261.93644 114.2218576 0.0556336 -1.63428 3 3 1.0
537144 206.11556 -2.404 0.08612 138.387 56.54584 55.38388 116.83887 44.8527839 0.1514946 -0.84822 3 3 1.0
537226 212.42068 -0.88676 0.11486 248.9958 105.02117 104.52917 314.39825 79.7986784 0.2144639 -1.68751 3 3 1.0
537452 207.47895 -3.22758 0.083 354.3735 149.78153 117.15705 259.52787 108.3869434 0.053914 -0.69398 3 3 1.0
540722 206.56748 -2.61497 0.08928 14.7 7.35 125.92484 218.3074 96.6488415 0.0650435 -1.84706 3 2 0.6666667
541506 229.68512 14.71761 0.10534 496.1832 202.73654 142.06132 168.44744 138.8647595 0.0326161 -1.10864 3 3 1.0
543285 256.28795 62.85135 0.08769 189.6828 83.22634 119.27407 202.05236 119.3287298 0.0382316 -0.90932 3 3 1.0
543356 255.82673 63.06806 0.08292 799.926 327.39932 67.53638 115.57805 72.0628675 0.0542235 -0.85819 3 3 1.0
544381 171.238 17.5068 0.14442 588.15 245.68925 119.58161 184.34257 96.8548008 0.1262417 -1.03799 3 3 1.0
547171 204.19402 6.97158 0.13722 462.954 191.83316 77.31189 151.61214 67.475683 0.1962698 -1.00373 3 3 1.0
550120 175.93407 -1.8694 0.12519 174.684 76.93483 139.80859 149.47636 130.356862 0.0443379 -0.56975 3 3 1.0
550156 128.4161 9.2442 0.0764 127.6842 54.17121 133.42474 200.62887 114.7829676 0.0319761 -1.08116 3 3 1.0
550168 45.43647 -0.57161 0.12513 47.229 23.6145 150.526 153.08303 138.9773061 0.0399172 -1.12043 3 2 0.6666667
555250 220.0657 18.26382 0.11701 196.008 98.004 92.57376 157.51015 73.7658182 0.129847 -0.61688 3 2 0.6666667
555422 222.77376 18.12356 0.12148 174.6558 71.33591 116.84681 87.107 105.7560664 0.0372758 -0.87633 3 3 1.0
555540 166.66587 -0.76062 0.11237 182.067 91.0335 92.54466 109.90907 72.9531323 0.0863426 -0.24469 3 2 0.6666667
558075 222.78002 18.22293 0.06159 101.724 50.862 64.59925 180.14795 57.4636427 0.0770622 -1.35027 3 2 0.6666667
558120 220.09758 18.80434 0.10649 342.3342 153.65079 106.24983 72.71635 87.5643811 0.0360903 -0.84393 3 3 1.0
558153 222.31433 18.28627 0.11611 517.296 215.28264 115.33093 120.89376 89.8939982 0.0662121 -1.03599 3 3 1.0
560938 209.44139 23.86875 0.13546 340.449 142.61572 163.48996 244.22312 169.792391 0.0488517 -0.83299 3 3 1.0
561086 222.9841 19.93396 0.06778 225.0912 112.5456 111.80269 205.92656 104.2397755 0.0319573 -1.34381 3 2 0.6666667
561163 221.91921 20.16183 0.11618 369.7896 162.74512 76.82861 72.28811 63.4214119 0.0796341 -0.25219 3 3 1.0
562373 225.75974 20.07283 0.07407 75.8727 31.63248 123.71918 210.88409 113.5892086 0.0324302 -1.78101 3 3 1.0
565401 235.48422 4.65189 0.10655 341.769 139.52661 106.65303 163.60269 102.2961811 0.0595607 -1.03842 3 3 1.0
565545 203.99587 2.86356 0.09182 267.396 133.698 98.53257 100.15682 93.1475041 0.0337808 -1.07482 3 2 0.6666667
565576 255.07246 64.35365 0.10115 135.0 67.5 72.24992 144.68384 101.293773 0.0490108 -1.50655 3 2 0.6666667
565589 204.49495 2.72578 0.07974 234.942 101.95671 88.10659 122.03747 66.4787132 0.0626735 -1.61835 3 3 1.0
565786 204.84632 2.52453 0.11462 241.833 120.9165 86.15871 119.31713 64.7301456 0.1232411 -0.74089 3 2 0.6666667
567557 118.18742 43.74798 0.10524 314.0772 137.81452 99.34259 342.41449 108.0408801 0.1093487 -0.44207 3 3 1.0
568454 139.94894 2.2309 0.14261 38.736 18.03967 126.76583 81.84127 120.4599295 0.0354726 -0.56119 3 3 1.0
580112 203.34491 1.3451 0.07897 500.667 250.3335 100.17541 172.03015 93.4808671 0.0438933 -1.46668 3 2 0.6666667
581895 6.01868 -9.80702 0.13181 521.085 260.5425 138.03611 216.59563 135.5776848 0.0648638 -1.33322 3 2 0.6666667
581899 55.32637 -6.2387 0.13604 548.514 274.257 112.4569 122.01287 93.0512418 0.0818525 -0.38493 3 2 0.6666667
582854 346.47407 14.08579 0.112 868.113 434.0565 87.31769 88.55635 73.9367674 0.0673432 -1.31546 3 2 0.6666667
584161 142.63622 2.17814 0.11929 918.4812 459.2406 82.60754 174.23377 66.7091045 0.1816106 -0.84274 3 2 0.6666667
586405 121.14807 36.62628 0.08974 932.685 466.3425 70.61712 96.34447 54.4365436 0.0913133 -0.58485 3 2 0.6666667
597609 137.5951 46.97061 0.09464 512.964 256.482 40.70769 143.81185 47.4729242 0.1970798 -0.91824 3 2 0.6666667
603023 233.90412 43.69787 0.14375 502.503 251.2515 121.47702 114.18177 145.8108705 0.0342336 -0.60443 3 2 0.6666667
612484 204.06701 49.04309 0.09742 338.913 169.4565 128.40069 111.5408 108.3944854 0.030873 -0.94778 3 2 0.6666667
618111 152.91509 34.53273 0.13565 15.585 7.7925 149.45601 245.47712 138.4593817 0.0740112 -1.65545 3 2 0.6666667
621024 235.57441 33.43929 0.11558 102.2265 51.11325 98.02322 63.01313 84.8111853 0.0384655 -0.49628 3 2 0.6666667
632101 149.28957 35.60593 0.10002 621.8898 310.9449 50.76768 102.87406 49.7094996 0.1418589 -0.18696 3 2 0.6666667
634063 221.9512 29.03055 0.12622 31.095 15.5475 120.82751 124.96372 115.932559 0.0475309 -0.90939 3 2 0.6666667
634570 181.44757 34.95543 0.09941 555.477 277.7385 126.90627 224.1186 102.8269053 0.0714503 -1.75459 3 2 0.6666667
636589 241.89944 16.92278 0.13736 935.745 467.8725 119.74467 121.02046 106.9162613 0.0625066 -0.40127 3 2 0.6666667
638722 243.70702 14.36538 0.13274 638.001 319.0005 52.62204 95.31286 44.1417232 0.2725339 -1.14622 3 2 0.6666667
652500 152.19071 28.71816 0.12919 957.111 478.5555 101.47494 81.61854 81.7951407 0.0648933 -0.75879 3 2 0.6666667
657976 181.72337 30.22652 0.13845 502.08 251.04 17.84993 159.93234 17.7371681 3.0418329 -0.42942 3 2 0.6666667
659657 181.68833 26.10861 0.08953 757.65 378.825 28.08239 112.46574 27.6732242 0.4107256 -1.49261 3 2 0.6666667
660179 172.80028 24.49178 0.14508 525.075 262.5375 128.87419 65.75135 108.8881515 0.035898 -0.70277 3 2 0.6666667
661872 128.16254 13.21289 0.13443 224.361 112.1805 110.40111 68.19264 104.5144297 0.0355359 -0.90727 3 2 0.6666667
662677 169.64676 20.11971 0.13923 110.445 55.2225 135.25936 146.10989 135.0237077 0.0484114 -0.12175 3 2 0.6666667
662695 182.09072 20.75391 0.13886 162.876 81.438 136.61329 101.45699 135.2256377 0.0333658 -0.79884 3 2 0.6666667
662766 176.90108 20.87002 0.13001 781.11 390.555 84.55437 111.68061 80.5371861 0.0925918 -1.06306 3 2 0.6666667
663878 178.35214 19.92807 0.13163 540.492 270.246 111.81461 276.98804 109.4665128 0.1269555 -1.34204 3 2 0.6666667
681369 139.82526 12.21592 0.13218 828.153 414.0765 153.96998 251.64869 107.1890078 0.1211507 -1.31819 3 2 0.6666667
