%!PS-Adobe-3.0 EPSF-3.0
%%Title: /home/federico/anaconda/ws_40mpc_red.eps
%%Creator: matplotlib version 1.4.3, http://matplotlib.org/
%%CreationDate: Sat Sep 26 20:09:49 2015
%%Orientation: portrait
%%BoundingBox: -241 74 853 717
%%EndComments
%%BeginProlog
/mpldict 10 dict def
mpldict begin
/m { moveto } bind def
/l { lineto } bind def
/r { rlineto } bind def
/c { curveto } bind def
/cl { closepath } bind def
/box {
m
1 index 0 r
0 exch r
neg 0 r
cl
} bind def
/clipbox {
box
clip
newpath
} bind def
%!PS-Adobe-3.0 Resource-Font
%%Title: cmmi10
%%Copyright: Copyright (C) 1994, Basil K. Malyshev. All Rights Reserved.012BaKoMa Fonts Collection, Level-B.
%%Creator: Converted from TrueType to type 3 by PPR
25 dict begin
/_d{bind def}bind def
/_m{moveto}_d
/_l{lineto}_d
/_cl{closepath eofill}_d
/_c{curveto}_d
/_sc{7 -1 roll{setcachedevice}{pop pop pop pop pop pop}ifelse}_d
/_e{exec}_d
/FontName /Cmmi10 def
/PaintType 0 def
/FontMatrix[.001 0 0 .001 0 0]def
/FontBBox[-34 -250 1048 750]def
/FontType 3 def
/Encoding [ /sigma /omega ] def
/FontInfo 10 dict dup begin
/FamilyName (cmmi10) def
/FullName (cmmi10) def
/Notice (Copyright (C) 1994, Basil K. Malyshev. All Rights Reserved.012BaKoMa Fonts Collection, Level-B. ) def
/Weight (Regular) def
/Version (1.1/12-Nov-94) def
/ItalicAngle 0.0 def
/isFixedPitch false def
/UnderlinePosition -133 def
/UnderlineThickness 20 def
end readonly def
/CharStrings 2 dict dup begin
/sigma{{571 0 36 -10 568 431 _sc
187 -10 _m
157 -10 131 -3 108 10 _c
85 24 67 43 55 67 _c
42 91 36 118 36 147 _c
36 177 43 210 57 244 _c
71 278 90 310 114 338 _c
138 366 166 389 197 406 _c
227 422 259 431 291 431 _c
543 431 _l
549 431 555 428 560 424 _c
565 419 568 413 568 406 _c
568 396 564 387 557 380 _c
550 372 542 369 532 369 _c
410 369 _l
}_e{429 340 439 305 439 265 _c
439 231 432 198 419 166 _c
406 133 388 103 365 77 _c
342 50 315 29 284 13 _c
253 -2 221 -10 187 -10 _c
188 15 _m
224 15 257 29 285 58 _c
313 86 334 121 349 162 _c
364 203 372 241 372 277 _c
372 305 364 328 348 344 _c
332 360 310 369 282 369 _c
243 369 210 356 183 330 _c
156 304 136 271 122 232 _c
108 192 102 154 102 118 _c
}_e{102 89 109 65 124 45 _c
139 25 160 15 188 15 _c
_cl}_e}_d
/omega{{622 0 14 -10 605 443 _sc
121 -10 _m
83 -10 55 3 39 31 _c
22 58 14 92 14 132 _c
14 158 16 183 21 209 _c
25 234 32 260 42 286 _c
52 312 63 336 75 359 _c
87 381 101 403 117 425 _c
120 429 124 431 129 431 _c
133 431 136 429 139 427 _c
141 424 143 421 143 418 _c
143 414 142 411 140 408 _c
79 324 49 247 49 177 _c
49 146 56 120 70 98 _c
}_e{84 76 105 65 135 65 _c
159 65 182 72 204 87 _c
225 101 244 120 260 143 _c
260 155 262 173 266 198 _c
270 222 276 244 285 264 _c
293 283 304 293 316 293 _c
331 293 339 284 339 266 _c
339 255 336 242 332 226 _c
328 210 323 196 318 182 _c
312 168 306 153 298 136 _c
306 88 329 65 369 65 _c
392 65 415 71 439 85 _c
462 98 482 115 500 137 _c
}_e{518 159 532 182 542 207 _c
552 232 558 256 558 279 _c
558 299 554 314 548 326 _c
542 337 533 349 523 361 _c
513 373 508 383 508 391 _c
508 404 513 416 524 427 _c
535 437 547 443 560 443 _c
576 443 587 435 594 420 _c
601 405 605 388 605 370 _c
605 339 598 300 586 254 _c
574 208 560 169 545 138 _c
523 96 496 60 464 32 _c
432 4 395 -10 355 -10 _c
}_e{329 -10 308 -2 292 12 _c
276 27 266 48 262 75 _c
243 49 222 28 198 13 _c
174 -2 149 -10 121 -10 _c
_cl}_e}_d
end readonly def

/BuildGlyph
 {exch begin
 CharStrings exch
 2 copy known not{pop /.notdef}if
 true 3 1 roll get exec
 end}_d

/BuildChar {
 1 index /Encoding get exch get
 1 index /BuildGlyph get exec
}_d

FontName currentdict end definefont pop
%!PS-Adobe-3.0 Resource-Font
%%Title: cmr10
%%Copyright: Copyright (C) 1994, Basil K. Malyshev. All Rights Reserved.012BaKoMa Fonts Collection, Level-B.
%%Creator: Converted from TrueType to type 3 by PPR
25 dict begin
/_d{bind def}bind def
/_m{moveto}_d
/_l{lineto}_d
/_cl{closepath eofill}_d
/_c{curveto}_d
/_sc{7 -1 roll{setcachedevice}{pop pop pop pop pop pop}ifelse}_d
/_e{exec}_d
/FontName /Cmr10 def
/PaintType 0 def
/FontMatrix[.001 0 0 .001 0 0]def
/FontBBox[-44 -250 1009 750]def
/FontType 3 def
/Encoding [ /parenright /parenleft ] def
/FontInfo 10 dict dup begin
/FamilyName (cmr10) def
/FullName (cmr10) def
/Notice (Copyright (C) 1994, Basil K. Malyshev. All Rights Reserved.012BaKoMa Fonts Collection, Level-B. ) def
/Weight (Regular) def
/Version (1.1/12-Nov-94) def
/ItalicAngle 0.0 def
/isFixedPitch false def
/UnderlinePosition -133 def
/UnderlineThickness 20 def
end readonly def
/CharStrings 2 dict dup begin
/parenright{{388 0 56 -249 291 750 _sc
65 -249 _m
59 -249 56 -246 56 -240 _c
56 -237 56 -235 58 -234 _c
172 -122 229 38 229 250 _c
229 462 172 623 60 733 _c
57 734 56 737 56 741 _c
56 743 57 745 59 747 _c
61 749 63 750 65 750 _c
74 750 _l
76 750 77 749 79 748 _c
127 710 167 664 199 610 _c
231 556 254 498 269 437 _c
283 376 291 314 291 250 _c
291 202 287 156 279 110 _c
}_e{271 64 258 20 241 -24 _c
223 -68 201 -108 175 -146 _c
148 -184 116 -217 79 -247 _c
77 -248 76 -249 74 -249 _c
65 -249 _l
_cl}_e}_d
/parenleft{{388 0 97 -249 332 750 _sc
310 -247 _m
272 -217 240 -184 214 -146 _c
187 -108 165 -67 148 -25 _c
131 17 118 62 110 109 _c
101 155 97 202 97 250 _c
97 298 101 345 110 392 _c
118 438 131 483 149 527 _c
166 570 188 611 215 649 _c
242 687 274 720 310 748 _c
310 749 311 750 315 750 _c
324 750 _l
326 750 327 749 329 747 _c
331 745 332 743 332 741 _c
332 738 331 736 330 735 _c
}_e{297 703 270 668 248 632 _c
226 596 209 557 196 516 _c
183 474 174 432 168 388 _c
162 344 159 298 159 250 _c
159 38 215 -122 329 -232 _c
331 -234 332 -236 332 -240 _c
332 -242 331 -244 329 -246 _c
327 -248 326 -249 324 -249 _c
315 -249 _l
311 -249 310 -248 310 -247 _c
_cl}_e}_d
end readonly def

/BuildGlyph
 {exch begin
 CharStrings exch
 2 copy known not{pop /.notdef}if
 true 3 1 roll get exec
 end}_d

/BuildChar {
 1 index /Encoding get exch get
 1 index /BuildGlyph get exec
}_d

FontName currentdict end definefont pop
%!PS-Adobe-3.0 Resource-Font
%%Title: Bitstream Vera Sans
%%Copyright: Copyright (c) 2003 by Bitstream, Inc. All Rights Reserved.
%%Creator: Converted from TrueType to type 3 by PPR
25 dict begin
/_d{bind def}bind def
/_m{moveto}_d
/_l{lineto}_d
/_cl{closepath eofill}_d
/_c{curveto}_d
/_sc{7 -1 roll{setcachedevice}{pop pop pop pop pop pop}ifelse}_d
/_e{exec}_d
/FontName /BitstreamVeraSans-Roman def
/PaintType 0 def
/FontMatrix[.001 0 0 .001 0 0]def
/FontBBox[-183 -236 1287 928]def
/FontType 3 def
/Encoding [ /space /hyphen /zero /one /two /three /A /C /D /E /F /H /L /N /P /S /a /b /d /e /i /l /m /n /o /r /s /t /u /v /y /z ] def
/FontInfo 10 dict dup begin
/FamilyName (Bitstream Vera Sans) def
/FullName (Bitstream Vera Sans) def
/Notice (Copyright (c) 2003 by Bitstream, Inc. All Rights Reserved. Bitstream Vera is a trademark of Bitstream, Inc.) def
/Weight (Roman) def
/Version (Release 1.10) def
/ItalicAngle 0.0 def
/isFixedPitch false def
/UnderlinePosition -213 def
/UnderlineThickness 143 def
end readonly def
/CharStrings 32 dict dup begin
/space{318 0 0 0 0 0 _sc
}_d
/hyphen{361 0 49 234 312 314 _sc
49 314 _m
312 314 _l
312 234 _l
49 234 _l
49 314 _l
_cl}_d
/zero{636 0 66 -13 570 742 _sc
318 664 _m
267 664 229 639 203 589 _c
177 539 165 464 165 364 _c
165 264 177 189 203 139 _c
229 89 267 64 318 64 _c
369 64 407 89 433 139 _c
458 189 471 264 471 364 _c
471 464 458 539 433 589 _c
407 639 369 664 318 664 _c
318 742 _m
399 742 461 709 505 645 _c
548 580 570 486 570 364 _c
570 241 548 147 505 83 _c
461 19 399 -13 318 -13 _c
236 -13 173 19 130 83 _c
87 147 66 241 66 364 _c
66 486 87 580 130 645 _c
173 709 236 742 318 742 _c
_cl}_d
/one{636 0 110 0 544 729 _sc
124 83 _m
285 83 _l
285 639 _l
110 604 _l
110 694 _l
284 729 _l
383 729 _l
383 83 _l
544 83 _l
544 0 _l
124 0 _l
124 83 _l
_cl}_d
/two{{636 0 73 0 536 742 _sc
192 83 _m
536 83 _l
536 0 _l
73 0 _l
73 83 _l
110 121 161 173 226 239 _c
290 304 331 346 348 365 _c
380 400 402 430 414 455 _c
426 479 433 504 433 528 _c
433 566 419 598 392 622 _c
365 646 330 659 286 659 _c
255 659 222 653 188 643 _c
154 632 117 616 78 594 _c
78 694 _l
118 710 155 722 189 730 _c
223 738 255 742 284 742 _c
}_e{359 742 419 723 464 685 _c
509 647 532 597 532 534 _c
532 504 526 475 515 449 _c
504 422 484 390 454 354 _c
446 344 420 317 376 272 _c
332 227 271 164 192 83 _c
_cl}_e}_d
/three{{636 0 76 -13 556 742 _sc
406 393 _m
453 383 490 362 516 330 _c
542 298 556 258 556 212 _c
556 140 531 84 482 45 _c
432 6 362 -13 271 -13 _c
240 -13 208 -10 176 -4 _c
144 1 110 10 76 22 _c
76 117 _l
103 101 133 89 166 81 _c
198 73 232 69 268 69 _c
330 69 377 81 409 105 _c
441 129 458 165 458 212 _c
458 254 443 288 413 312 _c
383 336 341 349 287 349 _c
}_e{202 349 _l
202 430 _l
291 430 _l
339 430 376 439 402 459 _c
428 478 441 506 441 543 _c
441 580 427 609 401 629 _c
374 649 336 659 287 659 _c
260 659 231 656 200 650 _c
169 644 135 635 98 623 _c
98 711 _l
135 721 170 729 203 734 _c
235 739 266 742 296 742 _c
370 742 429 725 473 691 _c
517 657 539 611 539 553 _c
539 513 527 479 504 451 _c
481 423 448 403 406 393 _c
_cl}_e}_d
/A{684 0 8 0 676 729 _sc
342 632 _m
208 269 _l
476 269 _l
342 632 _l
286 729 _m
398 729 _l
676 0 _l
573 0 _l
507 187 _l
178 187 _l
112 0 _l
8 0 _l
286 729 _l
_cl}_d
/C{{698 0 56 -13 644 742 _sc
644 673 _m
644 569 _l
610 599 575 622 537 638 _c
499 653 460 661 418 661 _c
334 661 270 635 226 584 _c
182 533 160 460 160 364 _c
160 268 182 194 226 143 _c
270 92 334 67 418 67 _c
460 67 499 74 537 90 _c
575 105 610 128 644 159 _c
644 56 _l
609 32 572 15 534 4 _c
496 -7 455 -13 412 -13 _c
302 -13 215 20 151 87 _c
}_e{87 154 56 246 56 364 _c
56 481 87 573 151 641 _c
215 708 302 742 412 742 _c
456 742 497 736 535 725 _c
573 713 610 696 644 673 _c
_cl}_e}_d
/D{770 0 98 0 711 729 _sc
197 648 _m
197 81 _l
316 81 _l
416 81 490 103 537 149 _c
583 195 607 267 607 365 _c
607 463 583 534 537 580 _c
490 625 416 648 316 648 _c
197 648 _l
98 729 _m
301 729 _l
442 729 546 699 612 641 _c
678 582 711 490 711 365 _c
711 239 677 147 611 88 _c
545 29 441 0 301 0 _c
98 0 _l
98 729 _l
_cl}_d
/E{632 0 98 0 568 729 _sc
98 729 _m
559 729 _l
559 646 _l
197 646 _l
197 430 _l
544 430 _l
544 347 _l
197 347 _l
197 83 _l
568 83 _l
568 0 _l
98 0 _l
98 729 _l
_cl}_d
/F{575 0 98 0 517 729 _sc
98 729 _m
517 729 _l
517 646 _l
197 646 _l
197 431 _l
486 431 _l
486 348 _l
197 348 _l
197 0 _l
98 0 _l
98 729 _l
_cl}_d
/H{752 0 98 0 654 729 _sc
98 729 _m
197 729 _l
197 430 _l
555 430 _l
555 729 _l
654 729 _l
654 0 _l
555 0 _l
555 347 _l
197 347 _l
197 0 _l
98 0 _l
98 729 _l
_cl}_d
/L{557 0 98 0 552 729 _sc
98 729 _m
197 729 _l
197 83 _l
552 83 _l
552 0 _l
98 0 _l
98 729 _l
_cl}_d
/N{748 0 98 0 650 729 _sc
98 729 _m
231 729 _l
554 119 _l
554 729 _l
650 729 _l
650 0 _l
517 0 _l
194 610 _l
194 0 _l
98 0 _l
98 729 _l
_cl}_d
/P{603 0 98 0 569 729 _sc
197 648 _m
197 374 _l
321 374 _l
367 374 402 385 427 409 _c
452 433 465 467 465 511 _c
465 555 452 588 427 612 _c
402 636 367 648 321 648 _c
197 648 _l
98 729 _m
321 729 _l
402 729 464 710 506 673 _c
548 636 569 582 569 511 _c
569 439 548 384 506 348 _c
464 311 402 293 321 293 _c
197 293 _l
197 0 _l
98 0 _l
98 729 _l
_cl}_d
/S{{635 0 66 -13 579 742 _sc
535 705 _m
535 609 _l
497 627 462 640 429 649 _c
395 657 363 662 333 662 _c
279 662 237 651 208 631 _c
179 610 165 580 165 542 _c
165 510 174 485 194 469 _c
213 452 250 439 304 429 _c
364 417 _l
437 403 491 378 526 343 _c
561 307 579 260 579 201 _c
579 130 555 77 508 41 _c
460 5 391 -13 300 -13 _c
265 -13 228 -9 189 -2 _c
}_e{150 5 110 16 69 32 _c
69 134 _l
109 111 148 94 186 83 _c
224 71 262 66 300 66 _c
356 66 399 77 430 99 _c
460 121 476 152 476 194 _c
476 230 465 258 443 278 _c
421 298 385 313 335 323 _c
275 335 _l
201 349 148 372 115 404 _c
82 435 66 478 66 534 _c
66 598 88 649 134 686 _c
179 723 242 742 322 742 _c
356 742 390 739 426 733 _c
461 727 497 717 535 705 _c
}_e{_cl}_e}_d
/a{{613 0 60 -13 522 560 _sc
343 275 _m
270 275 220 266 192 250 _c
164 233 150 205 150 165 _c
150 133 160 107 181 89 _c
202 70 231 61 267 61 _c
317 61 357 78 387 114 _c
417 149 432 196 432 255 _c
432 275 _l
343 275 _l
522 312 _m
522 0 _l
432 0 _l
432 83 _l
411 49 385 25 355 10 _c
325 -5 287 -13 243 -13 _c
187 -13 142 2 109 33 _c
76 64 60 106 60 159 _c
}_e{60 220 80 266 122 298 _c
163 329 224 345 306 345 _c
432 345 _l
432 354 _l
432 395 418 427 391 450 _c
364 472 326 484 277 484 _c
245 484 215 480 185 472 _c
155 464 127 453 100 439 _c
100 522 _l
132 534 164 544 195 550 _c
226 556 256 560 286 560 _c
365 560 424 539 463 498 _c
502 457 522 395 522 312 _c
_cl}_e}_d
/b{{635 0 91 -13 580 760 _sc
487 273 _m
487 339 473 390 446 428 _c
418 466 381 485 334 485 _c
286 485 249 466 222 428 _c
194 390 181 339 181 273 _c
181 207 194 155 222 117 _c
249 79 286 61 334 61 _c
381 61 418 79 446 117 _c
473 155 487 207 487 273 _c
181 464 _m
199 496 223 520 252 536 _c
281 552 316 560 356 560 _c
422 560 476 533 518 481 _c
559 428 580 359 580 273 _c
}_e{580 187 559 117 518 65 _c
476 13 422 -13 356 -13 _c
316 -13 281 -5 252 10 _c
223 25 199 49 181 82 _c
181 0 _l
91 0 _l
91 760 _l
181 760 _l
181 464 _l
_cl}_e}_d
/d{{635 0 55 -13 544 760 _sc
454 464 _m
454 760 _l
544 760 _l
544 0 _l
454 0 _l
454 82 _l
435 49 411 25 382 10 _c
353 -5 319 -13 279 -13 _c
213 -13 159 13 117 65 _c
75 117 55 187 55 273 _c
55 359 75 428 117 481 _c
159 533 213 560 279 560 _c
319 560 353 552 382 536 _c
411 520 435 496 454 464 _c
148 273 _m
148 207 161 155 188 117 _c
215 79 253 61 301 61 _c
}_e{348 61 385 79 413 117 _c
440 155 454 207 454 273 _c
454 339 440 390 413 428 _c
385 466 348 485 301 485 _c
253 485 215 466 188 428 _c
161 390 148 339 148 273 _c
_cl}_e}_d
/e{{615 0 55 -13 562 560 _sc
562 296 _m
562 252 _l
149 252 _l
153 190 171 142 205 110 _c
238 78 284 62 344 62 _c
378 62 412 66 444 74 _c
476 82 509 95 541 113 _c
541 28 _l
509 14 476 3 442 -3 _c
408 -9 373 -13 339 -13 _c
251 -13 182 12 131 62 _c
80 112 55 181 55 268 _c
55 357 79 428 127 481 _c
175 533 241 560 323 560 _c
397 560 455 536 498 489 _c
}_e{540 441 562 377 562 296 _c
472 322 _m
471 371 457 410 431 440 _c
404 469 368 484 324 484 _c
274 484 234 469 204 441 _c
174 413 156 373 152 322 _c
472 322 _l
_cl}_e}_d
/i{278 0 94 0 184 760 _sc
94 547 _m
184 547 _l
184 0 _l
94 0 _l
94 547 _l
94 760 _m
184 760 _l
184 646 _l
94 646 _l
94 760 _l
_cl}_d
/l{278 0 94 0 184 760 _sc
94 760 _m
184 760 _l
184 0 _l
94 0 _l
94 760 _l
_cl}_d
/m{{974 0 91 0 889 560 _sc
520 442 _m
542 482 569 511 600 531 _c
631 550 668 560 711 560 _c
767 560 811 540 842 500 _c
873 460 889 403 889 330 _c
889 0 _l
799 0 _l
799 327 _l
799 379 789 418 771 444 _c
752 469 724 482 686 482 _c
639 482 602 466 575 435 _c
548 404 535 362 535 309 _c
535 0 _l
445 0 _l
445 327 _l
445 379 435 418 417 444 _c
398 469 369 482 331 482 _c
}_e{285 482 248 466 221 435 _c
194 404 181 362 181 309 _c
181 0 _l
91 0 _l
91 547 _l
181 547 _l
181 462 _l
201 495 226 520 255 536 _c
283 552 317 560 357 560 _c
397 560 430 550 458 530 _c
486 510 506 480 520 442 _c
_cl}_e}_d
/n{634 0 91 0 549 560 _sc
549 330 _m
549 0 _l
459 0 _l
459 327 _l
459 379 448 417 428 443 _c
408 469 378 482 338 482 _c
289 482 251 466 223 435 _c
195 404 181 362 181 309 _c
181 0 _l
91 0 _l
91 547 _l
181 547 _l
181 462 _l
202 494 227 519 257 535 _c
286 551 320 560 358 560 _c
420 560 468 540 500 501 _c
532 462 549 405 549 330 _c
_cl}_d
/o{612 0 55 -13 557 560 _sc
306 484 _m
258 484 220 465 192 427 _c
164 389 150 338 150 273 _c
150 207 163 156 191 118 _c
219 80 257 62 306 62 _c
354 62 392 80 420 118 _c
448 156 462 207 462 273 _c
462 337 448 389 420 427 _c
392 465 354 484 306 484 _c
306 560 _m
384 560 445 534 490 484 _c
534 433 557 363 557 273 _c
557 183 534 113 490 63 _c
445 12 384 -13 306 -13 _c
227 -13 165 12 121 63 _c
77 113 55 183 55 273 _c
55 363 77 433 121 484 _c
165 534 227 560 306 560 _c
_cl}_d
/r{411 0 91 0 411 560 _sc
411 463 _m
401 469 390 473 378 476 _c
366 478 353 480 339 480 _c
288 480 249 463 222 430 _c
194 397 181 350 181 288 _c
181 0 _l
91 0 _l
91 547 _l
181 547 _l
181 462 _l
199 495 224 520 254 536 _c
284 552 321 560 365 560 _c
371 560 378 559 386 559 _c
393 558 401 557 411 555 _c
411 463 _l
_cl}_d
/s{{521 0 54 -13 472 560 _sc
443 531 _m
443 446 _l
417 458 391 468 364 475 _c
336 481 308 485 279 485 _c
234 485 200 478 178 464 _c
156 450 145 430 145 403 _c
145 382 153 366 169 354 _c
185 342 217 330 265 320 _c
296 313 _l
360 299 405 279 432 255 _c
458 230 472 195 472 151 _c
472 100 452 60 412 31 _c
372 1 316 -13 246 -13 _c
216 -13 186 -10 154 -5 _c
}_e{122 0 89 8 54 20 _c
54 113 _l
87 95 120 82 152 74 _c
184 65 216 61 248 61 _c
290 61 323 68 346 82 _c
368 96 380 117 380 144 _c
380 168 371 187 355 200 _c
339 213 303 226 247 238 _c
216 245 _l
160 257 119 275 95 299 _c
70 323 58 356 58 399 _c
58 450 76 490 112 518 _c
148 546 200 560 268 560 _c
301 560 332 557 362 552 _c
391 547 418 540 443 531 _c
}_e{_cl}_e}_d
/t{392 0 27 0 368 702 _sc
183 702 _m
183 547 _l
368 547 _l
368 477 _l
183 477 _l
183 180 _l
183 135 189 106 201 94 _c
213 81 238 75 276 75 _c
368 75 _l
368 0 _l
276 0 _l
206 0 158 13 132 39 _c
106 65 93 112 93 180 _c
93 477 _l
27 477 _l
27 547 _l
93 547 _l
93 702 _l
183 702 _l
_cl}_d
/u{634 0 85 -13 543 547 _sc
85 216 _m
85 547 _l
175 547 _l
175 219 _l
175 167 185 129 205 103 _c
225 77 255 64 296 64 _c
344 64 383 79 411 110 _c
439 141 453 183 453 237 _c
453 547 _l
543 547 _l
543 0 _l
453 0 _l
453 84 _l
431 50 405 26 377 10 _c
348 -5 315 -13 277 -13 _c
214 -13 166 6 134 45 _c
101 83 85 140 85 216 _c
_cl}_d
/v{592 0 30 0 562 547 _sc
30 547 _m
125 547 _l
296 88 _l
467 547 _l
562 547 _l
357 0 _l
235 0 _l
30 547 _l
_cl}_d
/y{592 0 30 -207 562 547 _sc
322 -50 _m
296 -114 271 -157 247 -177 _c
223 -197 191 -207 151 -207 _c
79 -207 _l
79 -132 _l
132 -132 _l
156 -132 175 -126 189 -114 _c
203 -102 218 -75 235 -31 _c
251 9 _l
30 547 _l
125 547 _l
296 119 _l
467 547 _l
562 547 _l
322 -50 _l
_cl}_d
/z{525 0 43 0 482 547 _sc
55 547 _m
482 547 _l
482 465 _l
144 72 _l
482 72 _l
482 0 _l
43 0 _l
43 82 _l
381 475 _l
55 475 _l
55 547 _l
_cl}_d
end readonly def

/BuildGlyph
 {exch begin
 CharStrings exch
 2 copy known not{pop /.notdef}if
 true 3 1 roll get exec
 end}_d

/BuildChar {
 1 index /Encoding get exch get
 1 index /BuildGlyph get exec
}_d

FontName currentdict end definefont pop
end
%%EndProlog
mpldict begin
-241.65 74.7 translate
1095.3 642.6 0 0 clipbox
gsave
0 0 m
1095.3 0 l
1095.3 642.6 l
0 642.6 l
cl
1.000 setgray
fill
grestore
gsave
67.3147 55.89 m
1071.57 55.89 l
1071.57 611.14 l
67.3147 611.14 l
cl
1.000 setgray
fill
grestore
1.000 setlinewidth
1 setlinejoin
0 setlinecap
[] 0 setdash
0.000 setgray
gsave
1004 555.2 67.31 55.89 clipbox
/o {
gsave
newpath
translate
1.0 setlinewidth
1 setlinejoin
0 setlinecap
0 -2.5 m
0.663008 -2.5 1.29895 -2.23658 1.76777 -1.76777 c
2.23658 -1.29895 2.5 -0.663008 2.5 0 c
2.5 0.663008 2.23658 1.29895 1.76777 1.76777 c
1.29895 2.23658 0.663008 2.5 0 2.5 c
-0.663008 2.5 -1.29895 2.23658 -1.76777 1.76777 c
-2.23658 1.29895 -2.5 0.663008 -2.5 0 c
-2.5 -0.663008 -2.23658 -1.29895 -1.76777 -1.76777 c
-1.29895 -2.23658 -0.663008 -2.5 0 -2.5 c
cl
gsave
0.000 setgray
fill
grestore
stroke
grestore
} bind def
165.516 467.399 o
246.847 444.015 o
328.177 414.698 o
409.508 389.291 o
490.839 356.405 o
572.169 322.274 o
653.5 297.089 o
734.83 259.557 o
816.161 193.403 o
897.492 115.936 o
grestore
1.000 0.000 0.000 setrgbcolor
gsave
1004 555.2 67.31 55.89 clipbox
/o {
gsave
newpath
translate
1.0 setlinewidth
1 setlinejoin
0 setlinecap
0 -2.5 m
0.663008 -2.5 1.29895 -2.23658 1.76777 -1.76777 c
2.23658 -1.29895 2.5 -0.663008 2.5 0 c
2.5 0.663008 2.23658 1.29895 1.76777 1.76777 c
1.29895 2.23658 0.663008 2.5 0 2.5 c
-0.663008 2.5 -1.29895 2.23658 -1.76777 1.76777 c
-2.23658 1.29895 -2.5 0.663008 -2.5 0 c
-2.5 -0.663008 -2.23658 -1.29895 -1.76777 -1.76777 c
-1.29895 -2.23658 -0.663008 -2.5 0 -2.5 c
cl
gsave
1.000 0.000 0.000 setrgbcolor
fill
grestore
stroke
grestore
} bind def
165.516 473.47 o
246.847 446.79 o
328.177 420.809 o
409.508 388.107 o
490.839 349.273 o
572.169 317.319 o
653.5 292.323 o
734.83 262.031 o
816.161 218.152 o
897.492 183.98 o
grestore
0.000 0.000 1.000 setrgbcolor
gsave
1004 555.2 67.31 55.89 clipbox
/o {
gsave
newpath
translate
1.0 setlinewidth
1 setlinejoin
0 setlinecap
0 -2.5 m
0.663008 -2.5 1.29895 -2.23658 1.76777 -1.76777 c
2.23658 -1.29895 2.5 -0.663008 2.5 0 c
2.5 0.663008 2.23658 1.29895 1.76777 1.76777 c
1.29895 2.23658 0.663008 2.5 0 2.5 c
-0.663008 2.5 -1.29895 2.23658 -1.76777 1.76777 c
-2.23658 1.29895 -2.5 0.663008 -2.5 0 c
-2.5 -0.663008 -2.23658 -1.29895 -1.76777 -1.76777 c
-1.29895 -2.23658 -0.663008 -2.5 0 -2.5 c
cl
gsave
0.000 0.000 1.000 setrgbcolor
fill
grestore
stroke
grestore
} bind def
165.516 486.11 o
246.847 451.344 o
328.177 430.791 o
409.508 387.557 o
490.839 341.863 o
572.169 312.145 o
653.5 287.364 o
734.83 264.45 o
816.161 236.266 o
897.492 216.304 o
grestore
0.502 setgray
gsave
1004 555.2 67.31 55.89 clipbox
/o {
gsave
newpath
translate
1.0 setlinewidth
1 setlinejoin
0 setlinecap
0 -2.5 m
0.663008 -2.5 1.29895 -2.23658 1.76777 -1.76777 c
2.23658 -1.29895 2.5 -0.663008 2.5 0 c
2.5 0.663008 2.23658 1.29895 1.76777 1.76777 c
1.29895 2.23658 0.663008 2.5 0 2.5 c
-0.663008 2.5 -1.29895 2.23658 -1.76777 1.76777 c
-2.23658 1.29895 -2.5 0.663008 -2.5 0 c
-2.5 -0.663008 -2.23658 -1.29895 -1.76777 -1.76777 c
-1.29895 -2.23658 -0.663008 -2.5 0 -2.5 c
cl
gsave
0.502 setgray
fill
grestore
stroke
grestore
} bind def
165.516 461.491 o
246.847 442.073 o
328.177 413.493 o
409.508 386.486 o
490.839 350.256 o
572.169 315.471 o
653.5 290.007 o
734.83 263.75 o
816.161 232.507 o
897.492 212.066 o
grestore
0.000 setgray
gsave
1004 555.2 67.31 55.89 clipbox
165.516 467.399 m
165.516 467.399 l
stroke
grestore
gsave
1004 555.2 67.31 55.89 clipbox
246.847 444.015 m
246.847 444.015 l
stroke
grestore
gsave
1004 555.2 67.31 55.89 clipbox
328.177 414.698 m
328.177 414.698 l
stroke
grestore
gsave
1004 555.2 67.31 55.89 clipbox
409.508 389.291 m
409.508 389.291 l
stroke
grestore
gsave
1004 555.2 67.31 55.89 clipbox
490.839 356.405 m
490.839 356.405 l
stroke
grestore
gsave
1004 555.2 67.31 55.89 clipbox
572.169 322.274 m
572.169 322.274 l
stroke
grestore
gsave
1004 555.2 67.31 55.89 clipbox
653.5 297.089 m
653.5 297.089 l
stroke
grestore
gsave
1004 555.2 67.31 55.89 clipbox
734.83 259.557 m
734.83 259.557 l
stroke
grestore
gsave
1004 555.2 67.31 55.89 clipbox
816.161 193.403 m
816.161 193.403 l
stroke
grestore
gsave
1004 555.2 67.31 55.89 clipbox
897.492 115.936 m
897.492 115.936 l
stroke
grestore
1.000 0.000 0.000 setrgbcolor
gsave
1004 555.2 67.31 55.89 clipbox
165.516 473.47 m
165.516 473.47 l
stroke
grestore
gsave
1004 555.2 67.31 55.89 clipbox
246.847 446.79 m
246.847 446.79 l
stroke
grestore
gsave
1004 555.2 67.31 55.89 clipbox
328.177 420.809 m
328.177 420.809 l
stroke
grestore
gsave
1004 555.2 67.31 55.89 clipbox
409.508 388.107 m
409.508 388.107 l
stroke
grestore
gsave
1004 555.2 67.31 55.89 clipbox
490.839 349.273 m
490.839 349.273 l
stroke
grestore
gsave
1004 555.2 67.31 55.89 clipbox
572.169 317.319 m
572.169 317.319 l
stroke
grestore
gsave
1004 555.2 67.31 55.89 clipbox
653.5 292.323 m
653.5 292.323 l
stroke
grestore
gsave
1004 555.2 67.31 55.89 clipbox
734.83 262.031 m
734.83 262.031 l
stroke
grestore
gsave
1004 555.2 67.31 55.89 clipbox
816.161 218.152 m
816.161 218.152 l
stroke
grestore
gsave
1004 555.2 67.31 55.89 clipbox
897.492 183.98 m
897.492 183.98 l
stroke
grestore
0.000 0.000 1.000 setrgbcolor
gsave
1004 555.2 67.31 55.89 clipbox
165.516 486.11 m
165.516 486.11 l
stroke
grestore
gsave
1004 555.2 67.31 55.89 clipbox
246.847 451.344 m
246.847 451.344 l
stroke
grestore
gsave
1004 555.2 67.31 55.89 clipbox
328.177 430.791 m
328.177 430.791 l
stroke
grestore
gsave
1004 555.2 67.31 55.89 clipbox
409.508 387.557 m
409.508 387.557 l
stroke
grestore
gsave
1004 555.2 67.31 55.89 clipbox
490.839 341.863 m
490.839 341.863 l
stroke
grestore
gsave
1004 555.2 67.31 55.89 clipbox
572.169 312.145 m
572.169 312.145 l
stroke
grestore
gsave
1004 555.2 67.31 55.89 clipbox
653.5 287.364 m
653.5 287.364 l
stroke
grestore
gsave
1004 555.2 67.31 55.89 clipbox
734.83 264.45 m
734.83 264.45 l
stroke
grestore
gsave
1004 555.2 67.31 55.89 clipbox
816.161 236.266 m
816.161 236.266 l
stroke
grestore
gsave
1004 555.2 67.31 55.89 clipbox
897.492 216.304 m
897.492 216.304 l
stroke
grestore
0.502 setgray
gsave
1004 555.2 67.31 55.89 clipbox
165.516 461.491 m
165.516 461.491 l
stroke
grestore
gsave
1004 555.2 67.31 55.89 clipbox
246.847 442.073 m
246.847 442.073 l
stroke
grestore
gsave
1004 555.2 67.31 55.89 clipbox
328.177 413.493 m
328.177 413.493 l
stroke
grestore
gsave
1004 555.2 67.31 55.89 clipbox
409.508 386.486 m
409.508 386.486 l
stroke
grestore
gsave
1004 555.2 67.31 55.89 clipbox
490.839 350.256 m
490.839 350.256 l
stroke
grestore
gsave
1004 555.2 67.31 55.89 clipbox
572.169 315.471 m
572.169 315.471 l
stroke
grestore
gsave
1004 555.2 67.31 55.89 clipbox
653.5 290.007 m
653.5 290.007 l
stroke
grestore
gsave
1004 555.2 67.31 55.89 clipbox
734.83 263.75 m
734.83 263.75 l
stroke
grestore
gsave
1004 555.2 67.31 55.89 clipbox
816.161 232.507 m
816.161 232.507 l
stroke
grestore
gsave
1004 555.2 67.31 55.89 clipbox
897.492 212.066 m
897.492 212.066 l
stroke
grestore
0.500 setlinewidth
0.000 setgray
gsave
1004 555.2 67.31 55.89 clipbox
/o {
gsave
newpath
translate
0.5 setlinewidth
1 setlinejoin
0 setlinecap
3 -1.83691e-16 m
-3 1.83691e-16 l
gsave
0.000 setgray
fill
grestore
stroke
grestore
} bind def
165.516 467.399 o
246.847 444.015 o
328.177 414.698 o
409.508 389.291 o
490.839 356.405 o
572.169 322.274 o
653.5 297.089 o
734.83 259.557 o
816.161 193.403 o
897.492 115.936 o
grestore
gsave
1004 555.2 67.31 55.89 clipbox
/o {
gsave
newpath
translate
0.5 setlinewidth
1 setlinejoin
0 setlinecap
3 -1.83691e-16 m
-3 1.83691e-16 l
gsave
0.000 setgray
fill
grestore
stroke
grestore
} bind def
165.516 467.399 o
246.847 444.015 o
328.177 414.698 o
409.508 389.291 o
490.839 356.405 o
572.169 322.274 o
653.5 297.089 o
734.83 259.557 o
816.161 193.403 o
897.492 115.936 o
grestore
1.000 setlinewidth
2 setlinecap
gsave
1004 555.2 67.31 55.89 clipbox
165.516 467.399 m
246.847 444.015 l
328.177 414.698 l
409.508 389.291 l
490.839 356.405 l
572.169 322.274 l
653.5 297.089 l
734.83 259.557 l
816.161 193.403 l
897.492 115.936 l
stroke
grestore
0.500 setlinewidth
0 setlinecap
1.000 0.000 0.000 setrgbcolor
gsave
1004 555.2 67.31 55.89 clipbox
/o {
gsave
newpath
translate
0.5 setlinewidth
1 setlinejoin
0 setlinecap
3 -1.83691e-16 m
-3 1.83691e-16 l
gsave
1.000 0.000 0.000 setrgbcolor
fill
grestore
stroke
grestore
} bind def
165.516 473.47 o
246.847 446.79 o
328.177 420.809 o
409.508 388.107 o
490.839 349.273 o
572.169 317.319 o
653.5 292.323 o
734.83 262.031 o
816.161 218.152 o
897.492 183.98 o
grestore
gsave
1004 555.2 67.31 55.89 clipbox
/o {
gsave
newpath
translate
0.5 setlinewidth
1 setlinejoin
0 setlinecap
3 -1.83691e-16 m
-3 1.83691e-16 l
gsave
1.000 0.000 0.000 setrgbcolor
fill
grestore
stroke
grestore
} bind def
165.516 473.47 o
246.847 446.79 o
328.177 420.809 o
409.508 388.107 o
490.839 349.273 o
572.169 317.319 o
653.5 292.323 o
734.83 262.031 o
816.161 218.152 o
897.492 183.98 o
grestore
1.000 setlinewidth
2 setlinecap
gsave
1004 555.2 67.31 55.89 clipbox
165.516 473.47 m
246.847 446.79 l
328.177 420.809 l
409.508 388.107 l
490.839 349.273 l
572.169 317.319 l
653.5 292.323 l
734.83 262.031 l
816.161 218.152 l
897.492 183.98 l
stroke
grestore
0.500 setlinewidth
0 setlinecap
0.000 0.000 1.000 setrgbcolor
gsave
1004 555.2 67.31 55.89 clipbox
/o {
gsave
newpath
translate
0.5 setlinewidth
1 setlinejoin
0 setlinecap
3 -1.83691e-16 m
-3 1.83691e-16 l
gsave
0.000 0.000 1.000 setrgbcolor
fill
grestore
stroke
grestore
} bind def
165.516 486.11 o
246.847 451.344 o
328.177 430.791 o
409.508 387.557 o
490.839 341.863 o
572.169 312.145 o
653.5 287.364 o
734.83 264.45 o
816.161 236.266 o
897.492 216.304 o
grestore
gsave
1004 555.2 67.31 55.89 clipbox
/o {
gsave
newpath
translate
0.5 setlinewidth
1 setlinejoin
0 setlinecap
3 -1.83691e-16 m
-3 1.83691e-16 l
gsave
0.000 0.000 1.000 setrgbcolor
fill
grestore
stroke
grestore
} bind def
165.516 486.11 o
246.847 451.344 o
328.177 430.791 o
409.508 387.557 o
490.839 341.863 o
572.169 312.145 o
653.5 287.364 o
734.83 264.45 o
816.161 236.266 o
897.492 216.304 o
grestore
1.000 setlinewidth
2 setlinecap
gsave
1004 555.2 67.31 55.89 clipbox
165.516 486.11 m
246.847 451.344 l
328.177 430.791 l
409.508 387.557 l
490.839 341.863 l
572.169 312.145 l
653.5 287.364 l
734.83 264.45 l
816.161 236.266 l
897.492 216.304 l
stroke
grestore
0.500 setlinewidth
0 setlinecap
0.502 setgray
gsave
1004 555.2 67.31 55.89 clipbox
/o {
gsave
newpath
translate
0.5 setlinewidth
1 setlinejoin
0 setlinecap
3 -1.83691e-16 m
-3 1.83691e-16 l
gsave
0.502 setgray
fill
grestore
stroke
grestore
} bind def
165.516 461.491 o
246.847 442.073 o
328.177 413.493 o
409.508 386.486 o
490.839 350.256 o
572.169 315.471 o
653.5 290.007 o
734.83 263.75 o
816.161 232.507 o
897.492 212.066 o
grestore
gsave
1004 555.2 67.31 55.89 clipbox
/o {
gsave
newpath
translate
0.5 setlinewidth
1 setlinejoin
0 setlinecap
3 -1.83691e-16 m
-3 1.83691e-16 l
gsave
0.502 setgray
fill
grestore
stroke
grestore
} bind def
165.516 461.491 o
246.847 442.073 o
328.177 413.493 o
409.508 386.486 o
490.839 350.256 o
572.169 315.471 o
653.5 290.007 o
734.83 263.75 o
816.161 232.507 o
897.492 212.066 o
grestore
1.000 setlinewidth
2 setlinecap
gsave
1004 555.2 67.31 55.89 clipbox
165.516 461.491 m
246.847 442.073 l
328.177 413.493 l
409.508 386.486 l
490.839 350.256 l
572.169 315.471 l
653.5 290.007 l
734.83 263.75 l
816.161 232.507 l
897.492 212.066 l
stroke
grestore
0 setlinejoin
0.000 setgray
gsave
67.3147 611.14 m
1071.57 611.14 l
stroke
grestore
gsave
1071.57 55.89 m
1071.57 611.14 l
stroke
grestore
gsave
67.3147 55.89 m
1071.57 55.89 l
stroke
grestore
gsave
67.3147 55.89 m
67.3147 611.14 l
stroke
grestore
0.500 setlinewidth
1 setlinejoin
0 setlinecap
[1 3] 0 setdash
gsave
1004 555.2 67.31 55.89 clipbox
401.066 55.89 m
401.066 611.14 l
stroke
grestore
[] 0 setdash
gsave
/o {
gsave
newpath
translate
0.5 setlinewidth
1 setlinejoin
0 setlinecap
0 0 m
0 4 l
gsave
0.000 setgray
fill
grestore
stroke
grestore
} bind def
401.066 55.89 o
grestore
gsave
/o {
gsave
newpath
translate
0.5 setlinewidth
1 setlinejoin
0 setlinecap
0 0 m
0 -4 l
gsave
0.000 setgray
fill
grestore
stroke
grestore
} bind def
401.066 611.14 o
grestore
gsave
389.066249 40.390000 translate
0.000000 rotate
/BitstreamVeraSans-Roman findfont
12.0 scalefont
setfont
0.000000 0.465625 moveto
/one glyphshow

7.634766 0.465625 moveto
/zero glyphshow

/BitstreamVeraSans-Roman findfont
8.4 scalefont
setfont
15.269531 6.765625 moveto
/zero glyphshow


grestore
[1 3] 0 setdash
gsave
1004 555.2 67.31 55.89 clipbox
736.316 55.89 m
736.316 611.14 l
stroke
grestore
[] 0 setdash
gsave
/o {
gsave
newpath
translate
0.5 setlinewidth
1 setlinejoin
0 setlinecap
0 0 m
0 4 l
gsave
0.000 setgray
fill
grestore
stroke
grestore
} bind def
736.316 55.89 o
grestore
gsave
/o {
gsave
newpath
translate
0.5 setlinewidth
1 setlinejoin
0 setlinecap
0 0 m
0 -4 l
gsave
0.000 setgray
fill
grestore
stroke
grestore
} bind def
736.316 611.14 o
grestore
gsave
724.316391 40.390000 translate
0.000000 rotate
/BitstreamVeraSans-Roman findfont
12.0 scalefont
setfont
0.000000 0.575000 moveto
/one glyphshow

7.634766 0.575000 moveto
/zero glyphshow

/BitstreamVeraSans-Roman findfont
8.4 scalefont
setfont
15.269531 6.875000 moveto
/one glyphshow


grestore
[1 3] 0 setdash
gsave
1004 555.2 67.31 55.89 clipbox
1071.57 55.89 m
1071.57 611.14 l
stroke
grestore
[] 0 setdash
gsave
/o {
gsave
newpath
translate
0.5 setlinewidth
1 setlinejoin
0 setlinecap
0 0 m
0 4 l
gsave
0.000 setgray
fill
grestore
stroke
grestore
} bind def
1071.57 55.89 o
grestore
gsave
/o {
gsave
newpath
translate
0.5 setlinewidth
1 setlinejoin
0 setlinecap
0 0 m
0 -4 l
gsave
0.000 setgray
fill
grestore
stroke
grestore
} bind def
1071.57 611.14 o
grestore
gsave
1059.566532 40.390000 translate
0.000000 rotate
/BitstreamVeraSans-Roman findfont
12.0 scalefont
setfont
0.000000 0.465625 moveto
/one glyphshow

7.634766 0.465625 moveto
/zero glyphshow

/BitstreamVeraSans-Roman findfont
8.4 scalefont
setfont
15.269531 6.765625 moveto
/two glyphshow


grestore
gsave
/o {
gsave
newpath
translate
0.5 setlinewidth
1 setlinejoin
0 setlinecap
0 0 m
0 2 l
gsave
0.000 setgray
fill
grestore
stroke
grestore
} bind def
166.736 55.89 o
grestore
gsave
/o {
gsave
newpath
translate
0.5 setlinewidth
1 setlinejoin
0 setlinecap
0 0 m
0 -2 l
gsave
0.000 setgray
fill
grestore
stroke
grestore
} bind def
166.736 611.14 o
grestore
gsave
/o {
gsave
newpath
translate
0.5 setlinewidth
1 setlinejoin
0 setlinecap
0 0 m
0 2 l
gsave
0.000 setgray
fill
grestore
stroke
grestore
} bind def
225.771 55.89 o
grestore
gsave
/o {
gsave
newpath
translate
0.5 setlinewidth
1 setlinejoin
0 setlinecap
0 0 m
0 -2 l
gsave
0.000 setgray
fill
grestore
stroke
grestore
} bind def
225.771 611.14 o
grestore
gsave
/o {
gsave
newpath
translate
0.5 setlinewidth
1 setlinejoin
0 setlinecap
0 0 m
0 2 l
gsave
0.000 setgray
fill
grestore
stroke
grestore
} bind def
267.657 55.89 o
grestore
gsave
/o {
gsave
newpath
translate
0.5 setlinewidth
1 setlinejoin
0 setlinecap
0 0 m
0 -2 l
gsave
0.000 setgray
fill
grestore
stroke
grestore
} bind def
267.657 611.14 o
grestore
gsave
/o {
gsave
newpath
translate
0.5 setlinewidth
1 setlinejoin
0 setlinecap
0 0 m
0 2 l
gsave
0.000 setgray
fill
grestore
stroke
grestore
} bind def
300.146 55.89 o
grestore
gsave
/o {
gsave
newpath
translate
0.5 setlinewidth
1 setlinejoin
0 setlinecap
0 0 m
0 -2 l
gsave
0.000 setgray
fill
grestore
stroke
grestore
} bind def
300.146 611.14 o
grestore
gsave
/o {
gsave
newpath
translate
0.5 setlinewidth
1 setlinejoin
0 setlinecap
0 0 m
0 2 l
gsave
0.000 setgray
fill
grestore
stroke
grestore
} bind def
326.691 55.89 o
grestore
gsave
/o {
gsave
newpath
translate
0.5 setlinewidth
1 setlinejoin
0 setlinecap
0 0 m
0 -2 l
gsave
0.000 setgray
fill
grestore
stroke
grestore
} bind def
326.691 611.14 o
grestore
gsave
/o {
gsave
newpath
translate
0.5 setlinewidth
1 setlinejoin
0 setlinecap
0 0 m
0 2 l
gsave
0.000 setgray
fill
grestore
stroke
grestore
} bind def
349.135 55.89 o
grestore
gsave
/o {
gsave
newpath
translate
0.5 setlinewidth
1 setlinejoin
0 setlinecap
0 0 m
0 -2 l
gsave
0.000 setgray
fill
grestore
stroke
grestore
} bind def
349.135 611.14 o
grestore
gsave
/o {
gsave
newpath
translate
0.5 setlinewidth
1 setlinejoin
0 setlinecap
0 0 m
0 2 l
gsave
0.000 setgray
fill
grestore
stroke
grestore
} bind def
368.577 55.89 o
grestore
gsave
/o {
gsave
newpath
translate
0.5 setlinewidth
1 setlinejoin
0 setlinecap
0 0 m
0 -2 l
gsave
0.000 setgray
fill
grestore
stroke
grestore
} bind def
368.577 611.14 o
grestore
gsave
/o {
gsave
newpath
translate
0.5 setlinewidth
1 setlinejoin
0 setlinecap
0 0 m
0 2 l
gsave
0.000 setgray
fill
grestore
stroke
grestore
} bind def
385.726 55.89 o
grestore
gsave
/o {
gsave
newpath
translate
0.5 setlinewidth
1 setlinejoin
0 setlinecap
0 0 m
0 -2 l
gsave
0.000 setgray
fill
grestore
stroke
grestore
} bind def
385.726 611.14 o
grestore
gsave
/o {
gsave
newpath
translate
0.5 setlinewidth
1 setlinejoin
0 setlinecap
0 0 m
0 2 l
gsave
0.000 setgray
fill
grestore
stroke
grestore
} bind def
501.987 55.89 o
grestore
gsave
/o {
gsave
newpath
translate
0.5 setlinewidth
1 setlinejoin
0 setlinecap
0 0 m
0 -2 l
gsave
0.000 setgray
fill
grestore
stroke
grestore
} bind def
501.987 611.14 o
grestore
gsave
/o {
gsave
newpath
translate
0.5 setlinewidth
1 setlinejoin
0 setlinecap
0 0 m
0 2 l
gsave
0.000 setgray
fill
grestore
stroke
grestore
} bind def
561.021 55.89 o
grestore
gsave
/o {
gsave
newpath
translate
0.5 setlinewidth
1 setlinejoin
0 setlinecap
0 0 m
0 -2 l
gsave
0.000 setgray
fill
grestore
stroke
grestore
} bind def
561.021 611.14 o
grestore
gsave
/o {
gsave
newpath
translate
0.5 setlinewidth
1 setlinejoin
0 setlinecap
0 0 m
0 2 l
gsave
0.000 setgray
fill
grestore
stroke
grestore
} bind def
602.907 55.89 o
grestore
gsave
/o {
gsave
newpath
translate
0.5 setlinewidth
1 setlinejoin
0 setlinecap
0 0 m
0 -2 l
gsave
0.000 setgray
fill
grestore
stroke
grestore
} bind def
602.907 611.14 o
grestore
gsave
/o {
gsave
newpath
translate
0.5 setlinewidth
1 setlinejoin
0 setlinecap
0 0 m
0 2 l
gsave
0.000 setgray
fill
grestore
stroke
grestore
} bind def
635.396 55.89 o
grestore
gsave
/o {
gsave
newpath
translate
0.5 setlinewidth
1 setlinejoin
0 setlinecap
0 0 m
0 -2 l
gsave
0.000 setgray
fill
grestore
stroke
grestore
} bind def
635.396 611.14 o
grestore
gsave
/o {
gsave
newpath
translate
0.5 setlinewidth
1 setlinejoin
0 setlinecap
0 0 m
0 2 l
gsave
0.000 setgray
fill
grestore
stroke
grestore
} bind def
661.942 55.89 o
grestore
gsave
/o {
gsave
newpath
translate
0.5 setlinewidth
1 setlinejoin
0 setlinecap
0 0 m
0 -2 l
gsave
0.000 setgray
fill
grestore
stroke
grestore
} bind def
661.942 611.14 o
grestore
gsave
/o {
gsave
newpath
translate
0.5 setlinewidth
1 setlinejoin
0 setlinecap
0 0 m
0 2 l
gsave
0.000 setgray
fill
grestore
stroke
grestore
} bind def
684.385 55.89 o
grestore
gsave
/o {
gsave
newpath
translate
0.5 setlinewidth
1 setlinejoin
0 setlinecap
0 0 m
0 -2 l
gsave
0.000 setgray
fill
grestore
stroke
grestore
} bind def
684.385 611.14 o
grestore
gsave
/o {
gsave
newpath
translate
0.5 setlinewidth
1 setlinejoin
0 setlinecap
0 0 m
0 2 l
gsave
0.000 setgray
fill
grestore
stroke
grestore
} bind def
703.827 55.89 o
grestore
gsave
/o {
gsave
newpath
translate
0.5 setlinewidth
1 setlinejoin
0 setlinecap
0 0 m
0 -2 l
gsave
0.000 setgray
fill
grestore
stroke
grestore
} bind def
703.827 611.14 o
grestore
gsave
/o {
gsave
newpath
translate
0.5 setlinewidth
1 setlinejoin
0 setlinecap
0 0 m
0 2 l
gsave
0.000 setgray
fill
grestore
stroke
grestore
} bind def
720.976 55.89 o
grestore
gsave
/o {
gsave
newpath
translate
0.5 setlinewidth
1 setlinejoin
0 setlinecap
0 0 m
0 -2 l
gsave
0.000 setgray
fill
grestore
stroke
grestore
} bind def
720.976 611.14 o
grestore
gsave
/o {
gsave
newpath
translate
0.5 setlinewidth
1 setlinejoin
0 setlinecap
0 0 m
0 2 l
gsave
0.000 setgray
fill
grestore
stroke
grestore
} bind def
837.237 55.89 o
grestore
gsave
/o {
gsave
newpath
translate
0.5 setlinewidth
1 setlinejoin
0 setlinecap
0 0 m
0 -2 l
gsave
0.000 setgray
fill
grestore
stroke
grestore
} bind def
837.237 611.14 o
grestore
gsave
/o {
gsave
newpath
translate
0.5 setlinewidth
1 setlinejoin
0 setlinecap
0 0 m
0 2 l
gsave
0.000 setgray
fill
grestore
stroke
grestore
} bind def
896.271 55.89 o
grestore
gsave
/o {
gsave
newpath
translate
0.5 setlinewidth
1 setlinejoin
0 setlinecap
0 0 m
0 -2 l
gsave
0.000 setgray
fill
grestore
stroke
grestore
} bind def
896.271 611.14 o
grestore
gsave
/o {
gsave
newpath
translate
0.5 setlinewidth
1 setlinejoin
0 setlinecap
0 0 m
0 2 l
gsave
0.000 setgray
fill
grestore
stroke
grestore
} bind def
938.157 55.89 o
grestore
gsave
/o {
gsave
newpath
translate
0.5 setlinewidth
1 setlinejoin
0 setlinecap
0 0 m
0 -2 l
gsave
0.000 setgray
fill
grestore
stroke
grestore
} bind def
938.157 611.14 o
grestore
gsave
/o {
gsave
newpath
translate
0.5 setlinewidth
1 setlinejoin
0 setlinecap
0 0 m
0 2 l
gsave
0.000 setgray
fill
grestore
stroke
grestore
} bind def
970.646 55.89 o
grestore
gsave
/o {
gsave
newpath
translate
0.5 setlinewidth
1 setlinejoin
0 setlinecap
0 0 m
0 -2 l
gsave
0.000 setgray
fill
grestore
stroke
grestore
} bind def
970.646 611.14 o
grestore
gsave
/o {
gsave
newpath
translate
0.5 setlinewidth
1 setlinejoin
0 setlinecap
0 0 m
0 2 l
gsave
0.000 setgray
fill
grestore
stroke
grestore
} bind def
997.192 55.89 o
grestore
gsave
/o {
gsave
newpath
translate
0.5 setlinewidth
1 setlinejoin
0 setlinecap
0 0 m
0 -2 l
gsave
0.000 setgray
fill
grestore
stroke
grestore
} bind def
997.192 611.14 o
grestore
gsave
/o {
gsave
newpath
translate
0.5 setlinewidth
1 setlinejoin
0 setlinecap
0 0 m
0 2 l
gsave
0.000 setgray
fill
grestore
stroke
grestore
} bind def
1019.64 55.89 o
grestore
gsave
/o {
gsave
newpath
translate
0.5 setlinewidth
1 setlinejoin
0 setlinecap
0 0 m
0 -2 l
gsave
0.000 setgray
fill
grestore
stroke
grestore
} bind def
1019.64 611.14 o
grestore
gsave
/o {
gsave
newpath
translate
0.5 setlinewidth
1 setlinejoin
0 setlinecap
0 0 m
0 2 l
gsave
0.000 setgray
fill
grestore
stroke
grestore
} bind def
1039.08 55.89 o
grestore
gsave
/o {
gsave
newpath
translate
0.5 setlinewidth
1 setlinejoin
0 setlinecap
0 0 m
0 -2 l
gsave
0.000 setgray
fill
grestore
stroke
grestore
} bind def
1039.08 611.14 o
grestore
gsave
/o {
gsave
newpath
translate
0.5 setlinewidth
1 setlinejoin
0 setlinecap
0 0 m
0 2 l
gsave
0.000 setgray
fill
grestore
stroke
grestore
} bind def
1056.23 55.89 o
grestore
gsave
/o {
gsave
newpath
translate
0.5 setlinewidth
1 setlinejoin
0 setlinecap
0 0 m
0 -2 l
gsave
0.000 setgray
fill
grestore
stroke
grestore
} bind def
1056.23 611.14 o
grestore
gsave
564.440640 19.968125 translate
0.000000 rotate
/Cmmi10 findfont
17.28 scalefont
setfont
0.000000 0.562500 moveto
/sigma glyphshow


grestore
[1 3] 0 setdash
gsave
1004 555.2 67.31 55.89 clipbox
67.3147 55.89 m
1071.57 55.89 l
stroke
grestore
[] 0 setdash
gsave
/o {
gsave
newpath
translate
0.5 setlinewidth
1 setlinejoin
0 setlinecap
0 0 m
4 0 l
gsave
0.000 setgray
fill
grestore
stroke
grestore
} bind def
67.3147 55.89 o
grestore
gsave
/o {
gsave
newpath
translate
0.5 setlinewidth
1 setlinejoin
0 setlinecap
0 0 m
-4 0 l
gsave
0.000 setgray
fill
grestore
stroke
grestore
} bind def
1071.57 55.89 o
grestore
gsave
39.314749 51.390000 translate
0.000000 rotate
/BitstreamVeraSans-Roman findfont
12.0 scalefont
setfont
0.000000 0.465625 moveto
/one glyphshow

7.634766 0.465625 moveto
/zero glyphshow

/BitstreamVeraSans-Roman findfont
8.4 scalefont
setfont
15.269531 6.765625 moveto
/zero glyphshow


grestore
[1 3] 0 setdash
gsave
1004 555.2 67.31 55.89 clipbox
67.3147 194.938 m
1071.57 194.938 l
stroke
grestore
[] 0 setdash
gsave
/o {
gsave
newpath
translate
0.5 setlinewidth
1 setlinejoin
0 setlinecap
0 0 m
4 0 l
gsave
0.000 setgray
fill
grestore
stroke
grestore
} bind def
67.3147 194.938 o
grestore
gsave
/o {
gsave
newpath
translate
0.5 setlinewidth
1 setlinejoin
0 setlinecap
0 0 m
-4 0 l
gsave
0.000 setgray
fill
grestore
stroke
grestore
} bind def
1071.57 194.938 o
grestore
gsave
39.314749 190.437899 translate
0.000000 rotate
/BitstreamVeraSans-Roman findfont
12.0 scalefont
setfont
0.000000 0.575000 moveto
/one glyphshow

7.634766 0.575000 moveto
/zero glyphshow

/BitstreamVeraSans-Roman findfont
8.4 scalefont
setfont
15.269531 6.875000 moveto
/one glyphshow


grestore
[1 3] 0 setdash
gsave
1004 555.2 67.31 55.89 clipbox
67.3147 333.986 m
1071.57 333.986 l
stroke
grestore
[] 0 setdash
gsave
/o {
gsave
newpath
translate
0.5 setlinewidth
1 setlinejoin
0 setlinecap
0 0 m
4 0 l
gsave
0.000 setgray
fill
grestore
stroke
grestore
} bind def
67.3147 333.986 o
grestore
gsave
/o {
gsave
newpath
translate
0.5 setlinewidth
1 setlinejoin
0 setlinecap
0 0 m
-4 0 l
gsave
0.000 setgray
fill
grestore
stroke
grestore
} bind def
1071.57 333.986 o
grestore
gsave
39.314749 329.485797 translate
0.000000 rotate
/BitstreamVeraSans-Roman findfont
12.0 scalefont
setfont
0.000000 0.465625 moveto
/one glyphshow

7.634766 0.465625 moveto
/zero glyphshow

/BitstreamVeraSans-Roman findfont
8.4 scalefont
setfont
15.269531 6.765625 moveto
/two glyphshow


grestore
[1 3] 0 setdash
gsave
1004 555.2 67.31 55.89 clipbox
67.3147 473.034 m
1071.57 473.034 l
stroke
grestore
[] 0 setdash
gsave
/o {
gsave
newpath
translate
0.5 setlinewidth
1 setlinejoin
0 setlinecap
0 0 m
4 0 l
gsave
0.000 setgray
fill
grestore
stroke
grestore
} bind def
67.3147 473.034 o
grestore
gsave
/o {
gsave
newpath
translate
0.5 setlinewidth
1 setlinejoin
0 setlinecap
0 0 m
-4 0 l
gsave
0.000 setgray
fill
grestore
stroke
grestore
} bind def
1071.57 473.034 o
grestore
gsave
39.314749 468.533696 translate
0.000000 rotate
/BitstreamVeraSans-Roman findfont
12.0 scalefont
setfont
0.000000 0.465625 moveto
/one glyphshow

7.634766 0.465625 moveto
/zero glyphshow

/BitstreamVeraSans-Roman findfont
8.4 scalefont
setfont
15.269531 6.765625 moveto
/three glyphshow


grestore
gsave
/o {
gsave
newpath
translate
0.5 setlinewidth
1 setlinejoin
0 setlinecap
0 0 m
2 0 l
gsave
0.000 setgray
fill
grestore
stroke
grestore
} bind def
67.3147 97.7476 o
grestore
gsave
/o {
gsave
newpath
translate
0.5 setlinewidth
1 setlinejoin
0 setlinecap
0 0 m
-2 0 l
gsave
0.000 setgray
fill
grestore
stroke
grestore
} bind def
1071.57 97.7476 o
grestore
gsave
/o {
gsave
newpath
translate
0.5 setlinewidth
1 setlinejoin
0 setlinecap
0 0 m
2 0 l
gsave
0.000 setgray
fill
grestore
stroke
grestore
} bind def
67.3147 122.233 o
grestore
gsave
/o {
gsave
newpath
translate
0.5 setlinewidth
1 setlinejoin
0 setlinecap
0 0 m
-2 0 l
gsave
0.000 setgray
fill
grestore
stroke
grestore
} bind def
1071.57 122.233 o
grestore
gsave
/o {
gsave
newpath
translate
0.5 setlinewidth
1 setlinejoin
0 setlinecap
0 0 m
2 0 l
gsave
0.000 setgray
fill
grestore
stroke
grestore
} bind def
67.3147 139.605 o
grestore
gsave
/o {
gsave
newpath
translate
0.5 setlinewidth
1 setlinejoin
0 setlinecap
0 0 m
-2 0 l
gsave
0.000 setgray
fill
grestore
stroke
grestore
} bind def
1071.57 139.605 o
grestore
gsave
/o {
gsave
newpath
translate
0.5 setlinewidth
1 setlinejoin
0 setlinecap
0 0 m
2 0 l
gsave
0.000 setgray
fill
grestore
stroke
grestore
} bind def
67.3147 153.08 o
grestore
gsave
/o {
gsave
newpath
translate
0.5 setlinewidth
1 setlinejoin
0 setlinecap
0 0 m
-2 0 l
gsave
0.000 setgray
fill
grestore
stroke
grestore
} bind def
1071.57 153.08 o
grestore
gsave
/o {
gsave
newpath
translate
0.5 setlinewidth
1 setlinejoin
0 setlinecap
0 0 m
2 0 l
gsave
0.000 setgray
fill
grestore
stroke
grestore
} bind def
67.3147 164.09 o
grestore
gsave
/o {
gsave
newpath
translate
0.5 setlinewidth
1 setlinejoin
0 setlinecap
0 0 m
-2 0 l
gsave
0.000 setgray
fill
grestore
stroke
grestore
} bind def
1071.57 164.09 o
grestore
gsave
/o {
gsave
newpath
translate
0.5 setlinewidth
1 setlinejoin
0 setlinecap
0 0 m
2 0 l
gsave
0.000 setgray
fill
grestore
stroke
grestore
} bind def
67.3147 173.399 o
grestore
gsave
/o {
gsave
newpath
translate
0.5 setlinewidth
1 setlinejoin
0 setlinecap
0 0 m
-2 0 l
gsave
0.000 setgray
fill
grestore
stroke
grestore
} bind def
1071.57 173.399 o
grestore
gsave
/o {
gsave
newpath
translate
0.5 setlinewidth
1 setlinejoin
0 setlinecap
0 0 m
2 0 l
gsave
0.000 setgray
fill
grestore
stroke
grestore
} bind def
67.3147 181.463 o
grestore
gsave
/o {
gsave
newpath
translate
0.5 setlinewidth
1 setlinejoin
0 setlinecap
0 0 m
-2 0 l
gsave
0.000 setgray
fill
grestore
stroke
grestore
} bind def
1071.57 181.463 o
grestore
gsave
/o {
gsave
newpath
translate
0.5 setlinewidth
1 setlinejoin
0 setlinecap
0 0 m
2 0 l
gsave
0.000 setgray
fill
grestore
stroke
grestore
} bind def
67.3147 188.575 o
grestore
gsave
/o {
gsave
newpath
translate
0.5 setlinewidth
1 setlinejoin
0 setlinecap
0 0 m
-2 0 l
gsave
0.000 setgray
fill
grestore
stroke
grestore
} bind def
1071.57 188.575 o
grestore
gsave
/o {
gsave
newpath
translate
0.5 setlinewidth
1 setlinejoin
0 setlinecap
0 0 m
2 0 l
gsave
0.000 setgray
fill
grestore
stroke
grestore
} bind def
67.3147 236.795 o
grestore
gsave
/o {
gsave
newpath
translate
0.5 setlinewidth
1 setlinejoin
0 setlinecap
0 0 m
-2 0 l
gsave
0.000 setgray
fill
grestore
stroke
grestore
} bind def
1071.57 236.795 o
grestore
gsave
/o {
gsave
newpath
translate
0.5 setlinewidth
1 setlinejoin
0 setlinecap
0 0 m
2 0 l
gsave
0.000 setgray
fill
grestore
stroke
grestore
} bind def
67.3147 261.281 o
grestore
gsave
/o {
gsave
newpath
translate
0.5 setlinewidth
1 setlinejoin
0 setlinecap
0 0 m
-2 0 l
gsave
0.000 setgray
fill
grestore
stroke
grestore
} bind def
1071.57 261.281 o
grestore
gsave
/o {
gsave
newpath
translate
0.5 setlinewidth
1 setlinejoin
0 setlinecap
0 0 m
2 0 l
gsave
0.000 setgray
fill
grestore
stroke
grestore
} bind def
67.3147 278.653 o
grestore
gsave
/o {
gsave
newpath
translate
0.5 setlinewidth
1 setlinejoin
0 setlinecap
0 0 m
-2 0 l
gsave
0.000 setgray
fill
grestore
stroke
grestore
} bind def
1071.57 278.653 o
grestore
gsave
/o {
gsave
newpath
translate
0.5 setlinewidth
1 setlinejoin
0 setlinecap
0 0 m
2 0 l
gsave
0.000 setgray
fill
grestore
stroke
grestore
} bind def
67.3147 292.128 o
grestore
gsave
/o {
gsave
newpath
translate
0.5 setlinewidth
1 setlinejoin
0 setlinecap
0 0 m
-2 0 l
gsave
0.000 setgray
fill
grestore
stroke
grestore
} bind def
1071.57 292.128 o
grestore
gsave
/o {
gsave
newpath
translate
0.5 setlinewidth
1 setlinejoin
0 setlinecap
0 0 m
2 0 l
gsave
0.000 setgray
fill
grestore
stroke
grestore
} bind def
67.3147 303.138 o
grestore
gsave
/o {
gsave
newpath
translate
0.5 setlinewidth
1 setlinejoin
0 setlinecap
0 0 m
-2 0 l
gsave
0.000 setgray
fill
grestore
stroke
grestore
} bind def
1071.57 303.138 o
grestore
gsave
/o {
gsave
newpath
translate
0.5 setlinewidth
1 setlinejoin
0 setlinecap
0 0 m
2 0 l
gsave
0.000 setgray
fill
grestore
stroke
grestore
} bind def
67.3147 312.447 o
grestore
gsave
/o {
gsave
newpath
translate
0.5 setlinewidth
1 setlinejoin
0 setlinecap
0 0 m
-2 0 l
gsave
0.000 setgray
fill
grestore
stroke
grestore
} bind def
1071.57 312.447 o
grestore
gsave
/o {
gsave
newpath
translate
0.5 setlinewidth
1 setlinejoin
0 setlinecap
0 0 m
2 0 l
gsave
0.000 setgray
fill
grestore
stroke
grestore
} bind def
67.3147 320.511 o
grestore
gsave
/o {
gsave
newpath
translate
0.5 setlinewidth
1 setlinejoin
0 setlinecap
0 0 m
-2 0 l
gsave
0.000 setgray
fill
grestore
stroke
grestore
} bind def
1071.57 320.511 o
grestore
gsave
/o {
gsave
newpath
translate
0.5 setlinewidth
1 setlinejoin
0 setlinecap
0 0 m
2 0 l
gsave
0.000 setgray
fill
grestore
stroke
grestore
} bind def
67.3147 327.623 o
grestore
gsave
/o {
gsave
newpath
translate
0.5 setlinewidth
1 setlinejoin
0 setlinecap
0 0 m
-2 0 l
gsave
0.000 setgray
fill
grestore
stroke
grestore
} bind def
1071.57 327.623 o
grestore
gsave
/o {
gsave
newpath
translate
0.5 setlinewidth
1 setlinejoin
0 setlinecap
0 0 m
2 0 l
gsave
0.000 setgray
fill
grestore
stroke
grestore
} bind def
67.3147 375.843 o
grestore
gsave
/o {
gsave
newpath
translate
0.5 setlinewidth
1 setlinejoin
0 setlinecap
0 0 m
-2 0 l
gsave
0.000 setgray
fill
grestore
stroke
grestore
} bind def
1071.57 375.843 o
grestore
gsave
/o {
gsave
newpath
translate
0.5 setlinewidth
1 setlinejoin
0 setlinecap
0 0 m
2 0 l
gsave
0.000 setgray
fill
grestore
stroke
grestore
} bind def
67.3147 400.329 o
grestore
gsave
/o {
gsave
newpath
translate
0.5 setlinewidth
1 setlinejoin
0 setlinecap
0 0 m
-2 0 l
gsave
0.000 setgray
fill
grestore
stroke
grestore
} bind def
1071.57 400.329 o
grestore
gsave
/o {
gsave
newpath
translate
0.5 setlinewidth
1 setlinejoin
0 setlinecap
0 0 m
2 0 l
gsave
0.000 setgray
fill
grestore
stroke
grestore
} bind def
67.3147 417.701 o
grestore
gsave
/o {
gsave
newpath
translate
0.5 setlinewidth
1 setlinejoin
0 setlinecap
0 0 m
-2 0 l
gsave
0.000 setgray
fill
grestore
stroke
grestore
} bind def
1071.57 417.701 o
grestore
gsave
/o {
gsave
newpath
translate
0.5 setlinewidth
1 setlinejoin
0 setlinecap
0 0 m
2 0 l
gsave
0.000 setgray
fill
grestore
stroke
grestore
} bind def
67.3147 431.176 o
grestore
gsave
/o {
gsave
newpath
translate
0.5 setlinewidth
1 setlinejoin
0 setlinecap
0 0 m
-2 0 l
gsave
0.000 setgray
fill
grestore
stroke
grestore
} bind def
1071.57 431.176 o
grestore
gsave
/o {
gsave
newpath
translate
0.5 setlinewidth
1 setlinejoin
0 setlinecap
0 0 m
2 0 l
gsave
0.000 setgray
fill
grestore
stroke
grestore
} bind def
67.3147 442.186 o
grestore
gsave
/o {
gsave
newpath
translate
0.5 setlinewidth
1 setlinejoin
0 setlinecap
0 0 m
-2 0 l
gsave
0.000 setgray
fill
grestore
stroke
grestore
} bind def
1071.57 442.186 o
grestore
gsave
/o {
gsave
newpath
translate
0.5 setlinewidth
1 setlinejoin
0 setlinecap
0 0 m
2 0 l
gsave
0.000 setgray
fill
grestore
stroke
grestore
} bind def
67.3147 451.495 o
grestore
gsave
/o {
gsave
newpath
translate
0.5 setlinewidth
1 setlinejoin
0 setlinecap
0 0 m
-2 0 l
gsave
0.000 setgray
fill
grestore
stroke
grestore
} bind def
1071.57 451.495 o
grestore
gsave
/o {
gsave
newpath
translate
0.5 setlinewidth
1 setlinejoin
0 setlinecap
0 0 m
2 0 l
gsave
0.000 setgray
fill
grestore
stroke
grestore
} bind def
67.3147 459.559 o
grestore
gsave
/o {
gsave
newpath
translate
0.5 setlinewidth
1 setlinejoin
0 setlinecap
0 0 m
-2 0 l
gsave
0.000 setgray
fill
grestore
stroke
grestore
} bind def
1071.57 459.559 o
grestore
gsave
/o {
gsave
newpath
translate
0.5 setlinewidth
1 setlinejoin
0 setlinecap
0 0 m
2 0 l
gsave
0.000 setgray
fill
grestore
stroke
grestore
} bind def
67.3147 466.671 o
grestore
gsave
/o {
gsave
newpath
translate
0.5 setlinewidth
1 setlinejoin
0 setlinecap
0 0 m
-2 0 l
gsave
0.000 setgray
fill
grestore
stroke
grestore
} bind def
1071.57 466.671 o
grestore
gsave
/o {
gsave
newpath
translate
0.5 setlinewidth
1 setlinejoin
0 setlinecap
0 0 m
2 0 l
gsave
0.000 setgray
fill
grestore
stroke
grestore
} bind def
67.3147 514.891 o
grestore
gsave
/o {
gsave
newpath
translate
0.5 setlinewidth
1 setlinejoin
0 setlinecap
0 0 m
-2 0 l
gsave
0.000 setgray
fill
grestore
stroke
grestore
} bind def
1071.57 514.891 o
grestore
gsave
/o {
gsave
newpath
translate
0.5 setlinewidth
1 setlinejoin
0 setlinecap
0 0 m
2 0 l
gsave
0.000 setgray
fill
grestore
stroke
grestore
} bind def
67.3147 539.376 o
grestore
gsave
/o {
gsave
newpath
translate
0.5 setlinewidth
1 setlinejoin
0 setlinecap
0 0 m
-2 0 l
gsave
0.000 setgray
fill
grestore
stroke
grestore
} bind def
1071.57 539.376 o
grestore
gsave
/o {
gsave
newpath
translate
0.5 setlinewidth
1 setlinejoin
0 setlinecap
0 0 m
2 0 l
gsave
0.000 setgray
fill
grestore
stroke
grestore
} bind def
67.3147 556.749 o
grestore
gsave
/o {
gsave
newpath
translate
0.5 setlinewidth
1 setlinejoin
0 setlinecap
0 0 m
-2 0 l
gsave
0.000 setgray
fill
grestore
stroke
grestore
} bind def
1071.57 556.749 o
grestore
gsave
/o {
gsave
newpath
translate
0.5 setlinewidth
1 setlinejoin
0 setlinecap
0 0 m
2 0 l
gsave
0.000 setgray
fill
grestore
stroke
grestore
} bind def
67.3147 570.224 o
grestore
gsave
/o {
gsave
newpath
translate
0.5 setlinewidth
1 setlinejoin
0 setlinecap
0 0 m
-2 0 l
gsave
0.000 setgray
fill
grestore
stroke
grestore
} bind def
1071.57 570.224 o
grestore
gsave
/o {
gsave
newpath
translate
0.5 setlinewidth
1 setlinejoin
0 setlinecap
0 0 m
2 0 l
gsave
0.000 setgray
fill
grestore
stroke
grestore
} bind def
67.3147 581.234 o
grestore
gsave
/o {
gsave
newpath
translate
0.5 setlinewidth
1 setlinejoin
0 setlinecap
0 0 m
-2 0 l
gsave
0.000 setgray
fill
grestore
stroke
grestore
} bind def
1071.57 581.234 o
grestore
gsave
/o {
gsave
newpath
translate
0.5 setlinewidth
1 setlinejoin
0 setlinecap
0 0 m
2 0 l
gsave
0.000 setgray
fill
grestore
stroke
grestore
} bind def
67.3147 590.543 o
grestore
gsave
/o {
gsave
newpath
translate
0.5 setlinewidth
1 setlinejoin
0 setlinecap
0 0 m
-2 0 l
gsave
0.000 setgray
fill
grestore
stroke
grestore
} bind def
1071.57 590.543 o
grestore
gsave
/o {
gsave
newpath
translate
0.5 setlinewidth
1 setlinejoin
0 setlinecap
0 0 m
2 0 l
gsave
0.000 setgray
fill
grestore
stroke
grestore
} bind def
67.3147 598.606 o
grestore
gsave
/o {
gsave
newpath
translate
0.5 setlinewidth
1 setlinejoin
0 setlinecap
0 0 m
-2 0 l
gsave
0.000 setgray
fill
grestore
stroke
grestore
} bind def
1071.57 598.606 o
grestore
gsave
/o {
gsave
newpath
translate
0.5 setlinewidth
1 setlinejoin
0 setlinecap
0 0 m
2 0 l
gsave
0.000 setgray
fill
grestore
stroke
grestore
} bind def
67.3147 605.719 o
grestore
gsave
/o {
gsave
newpath
translate
0.5 setlinewidth
1 setlinejoin
0 setlinecap
0 0 m
-2 0 l
gsave
0.000 setgray
fill
grestore
stroke
grestore
} bind def
1071.57 605.719 o
grestore
gsave
28.314749 313.015000 translate
90.000000 rotate
/Cmmi10 findfont
20.736 scalefont
setfont
0.000000 0.453125 moveto
/omega glyphshow

/Cmr10 findfont
20.736 scalefont
setfont
12.898239 0.453125 moveto
/parenleft glyphshow

/Cmmi10 findfont
20.736 scalefont
setfont
20.946976 0.453125 moveto
/sigma glyphshow

/Cmr10 findfont
20.736 scalefont
setfont
32.782166 0.453125 moveto
/parenright glyphshow


grestore
/BitstreamVeraSans-Roman findfont
17.280 scalefont
setfont
gsave
479.331265 616.140000 translate
0.000000 rotate
0.000000 0.000000 m /C glyphshow
12.044678 0.000000 m /F glyphshow
21.966797 0.000000 m /hyphen glyphshow
28.191284 0.000000 m /r glyphshow
34.908325 0.000000 m /e glyphshow
45.521118 0.000000 m /d glyphshow
56.470825 0.000000 m /space glyphshow
61.954102 0.000000 m /A glyphshow
73.754517 0.000000 m /l glyphshow
78.547119 0.000000 m /l glyphshow
83.339722 0.000000 m /space glyphshow
88.822998 0.000000 m /E glyphshow
99.722168 0.000000 m /s glyphshow
108.709351 0.000000 m /t glyphshow
115.472900 0.000000 m /i glyphshow
120.265503 0.000000 m /m glyphshow
137.069092 0.000000 m /a glyphshow
147.639771 0.000000 m /t glyphshow
154.403320 0.000000 m /o glyphshow
164.957153 0.000000 m /r glyphshow
172.049194 0.000000 m /s glyphshow
grestore
1.000 setlinewidth
0 setlinejoin
0.300 setgray
gsave
858.879 475.702 m
1059.57 475.702 l
1062.23 475.702 1063.57 477.036 1063.57 479.702 c
1063.57 595.14 l
1063.57 597.807 1062.23 599.14 1059.57 599.14 c
858.879 599.14 l
856.212 599.14 854.879 597.807 854.879 595.14 c
854.879 479.702 l
854.879 477.036 856.212 475.702 858.879 475.702 c
cl
gsave
fill
grestore
stroke
grestore
0.000 setgray
gsave
856.879 477.702 m
1057.57 477.702 l
1060.23 477.702 1061.57 479.036 1061.57 481.702 c
1061.57 597.14 l
1061.57 599.807 1060.23 601.14 1057.57 601.14 c
856.879 601.14 l
854.212 601.14 852.879 599.807 852.879 597.14 c
852.879 481.702 l
852.879 479.036 854.212 477.702 856.879 477.702 c
cl
gsave
1.000 setgray
fill
grestore
stroke
grestore
1 setlinejoin
gsave
866.879 580.687 m
867.542 580.687 868.178 580.95 868.647 581.419 c
869.116 581.888 869.379 582.524 869.379 583.187 c
869.379 583.85 869.116 584.486 868.647 584.955 c
868.178 585.423 867.542 585.687 866.879 585.687 c
866.216 585.687 865.58 585.423 865.111 584.955 c
864.642 584.486 864.379 583.85 864.379 583.187 c
864.379 582.524 864.642 581.888 865.111 581.419 c
865.58 580.95 866.216 580.687 866.879 580.687 c
cl
gsave
fill
grestore
stroke
grestore
gsave
880.879 582.437 m
881.542 582.437 882.178 582.7 882.647 583.169 c
883.116 583.638 883.379 584.274 883.379 584.937 c
883.379 585.6 883.116 586.236 882.647 586.705 c
882.178 587.173 881.542 587.437 880.879 587.437 c
880.216 587.437 879.58 587.173 879.111 586.705 c
878.642 586.236 878.379 585.6 878.379 584.937 c
878.379 584.274 878.642 583.638 879.111 583.169 c
879.58 582.7 880.216 582.437 880.879 582.437 c
cl
gsave
fill
grestore
stroke
grestore
gsave
894.879 579.812 m
895.542 579.812 896.178 580.075 896.647 580.544 c
897.116 581.013 897.379 581.649 897.379 582.312 c
897.379 582.975 897.116 583.611 896.647 584.08 c
896.178 584.548 895.542 584.812 894.879 584.812 c
894.216 584.812 893.58 584.548 893.111 584.08 c
892.642 583.611 892.379 582.975 892.379 582.312 c
892.379 581.649 892.642 581.013 893.111 580.544 c
893.58 580.075 894.216 579.812 894.879 579.812 c
cl
gsave
fill
grestore
stroke
grestore
/BitstreamVeraSans-Roman findfont
20.000 scalefont
setfont
gsave
916.879032 577.936875 translate
0.000000 rotate
0.000000 0.000000 m /N glyphshow
14.960938 0.000000 m /a glyphshow
27.216797 0.000000 m /t glyphshow
35.058594 0.000000 m /u glyphshow
47.734375 0.000000 m /r glyphshow
55.957031 0.000000 m /a glyphshow
68.212891 0.000000 m /l glyphshow
grestore
1.000 0.000 0.000 setrgbcolor
gsave
866.879 551.327 m
867.542 551.327 868.178 551.591 868.647 552.06 c
869.116 552.529 869.379 553.164 869.379 553.827 c
869.379 554.491 869.116 555.126 868.647 555.595 c
868.178 556.064 867.542 556.327 866.879 556.327 c
866.216 556.327 865.58 556.064 865.111 555.595 c
864.642 555.126 864.379 554.491 864.379 553.827 c
864.379 553.164 864.642 552.529 865.111 552.06 c
865.58 551.591 866.216 551.327 866.879 551.327 c
cl
gsave
fill
grestore
stroke
grestore
gsave
880.879 553.077 m
881.542 553.077 882.178 553.341 882.647 553.81 c
883.116 554.279 883.379 554.914 883.379 555.577 c
883.379 556.241 883.116 556.876 882.647 557.345 c
882.178 557.814 881.542 558.077 880.879 558.077 c
880.216 558.077 879.58 557.814 879.111 557.345 c
878.642 556.876 878.379 556.241 878.379 555.577 c
878.379 554.914 878.642 554.279 879.111 553.81 c
879.58 553.341 880.216 553.077 880.879 553.077 c
cl
gsave
fill
grestore
stroke
grestore
gsave
894.879 550.452 m
895.542 550.452 896.178 550.716 896.647 551.185 c
897.116 551.654 897.379 552.289 897.379 552.952 c
897.379 553.616 897.116 554.251 896.647 554.72 c
896.178 555.189 895.542 555.452 894.879 555.452 c
894.216 555.452 893.58 555.189 893.111 554.72 c
892.642 554.251 892.379 553.616 892.379 552.952 c
892.379 552.289 892.642 551.654 893.111 551.185 c
893.58 550.716 894.216 550.452 894.879 550.452 c
cl
gsave
fill
grestore
stroke
grestore
0.000 setgray
gsave
916.879032 548.577500 translate
0.000000 rotate
0.000000 0.000000 m /D glyphshow
15.400391 0.000000 m /a glyphshow
27.656250 0.000000 m /v glyphshow
39.492188 0.000000 m /i glyphshow
45.048828 0.000000 m /s glyphshow
55.468750 0.000000 m /hyphen glyphshow
62.685547 0.000000 m /P glyphshow
73.996094 0.000000 m /e glyphshow
86.300781 0.000000 m /e glyphshow
98.605469 0.000000 m /b glyphshow
111.300781 0.000000 m /l glyphshow
116.857422 0.000000 m /e glyphshow
129.162109 0.000000 m /s glyphshow
grestore
0.000 0.000 1.000 setrgbcolor
gsave
866.879 521.968 m
867.542 521.968 868.178 522.232 868.647 522.7 c
869.116 523.169 869.379 523.805 869.379 524.468 c
869.379 525.131 869.116 525.767 868.647 526.236 c
868.178 526.705 867.542 526.968 866.879 526.968 c
866.216 526.968 865.58 526.705 865.111 526.236 c
864.642 525.767 864.379 525.131 864.379 524.468 c
864.379 523.805 864.642 523.169 865.111 522.7 c
865.58 522.232 866.216 521.968 866.879 521.968 c
cl
gsave
fill
grestore
stroke
grestore
gsave
880.879 523.718 m
881.542 523.718 882.178 523.982 882.647 524.45 c
883.116 524.919 883.379 525.555 883.379 526.218 c
883.379 526.881 883.116 527.517 882.647 527.986 c
882.178 528.455 881.542 528.718 880.879 528.718 c
880.216 528.718 879.58 528.455 879.111 527.986 c
878.642 527.517 878.379 526.881 878.379 526.218 c
878.379 525.555 878.642 524.919 879.111 524.45 c
879.58 523.982 880.216 523.718 880.879 523.718 c
cl
gsave
fill
grestore
stroke
grestore
gsave
894.879 521.093 m
895.542 521.093 896.178 521.357 896.647 521.825 c
897.116 522.294 897.379 522.93 897.379 523.593 c
897.379 524.256 897.116 524.892 896.647 525.361 c
896.178 525.83 895.542 526.093 894.879 526.093 c
894.216 526.093 893.58 525.83 893.111 525.361 c
892.642 524.892 892.379 524.256 892.379 523.593 c
892.379 522.93 892.642 522.294 893.111 521.825 c
893.58 521.357 894.216 521.093 894.879 521.093 c
cl
gsave
fill
grestore
stroke
grestore
0.000 setgray
gsave
916.879032 519.218125 translate
0.000000 rotate
0.000000 0.000000 m /H glyphshow
15.039062 0.000000 m /a glyphshow
27.294922 0.000000 m /m glyphshow
46.777344 0.000000 m /i glyphshow
52.333984 0.000000 m /l glyphshow
57.890625 0.000000 m /t glyphshow
65.732422 0.000000 m /o glyphshow
77.968750 0.000000 m /n glyphshow
grestore
0.502 setgray
gsave
866.879 492.609 m
867.542 492.609 868.178 492.872 868.647 493.341 c
869.116 493.81 869.379 494.446 869.379 495.109 c
869.379 495.772 869.116 496.408 868.647 496.877 c
868.178 497.345 867.542 497.609 866.879 497.609 c
866.216 497.609 865.58 497.345 865.111 496.877 c
864.642 496.408 864.379 495.772 864.379 495.109 c
864.379 494.446 864.642 493.81 865.111 493.341 c
865.58 492.872 866.216 492.609 866.879 492.609 c
cl
gsave
fill
grestore
stroke
grestore
gsave
880.879 494.359 m
881.542 494.359 882.178 494.622 882.647 495.091 c
883.116 495.56 883.379 496.196 883.379 496.859 c
883.379 497.522 883.116 498.158 882.647 498.627 c
882.178 499.095 881.542 499.359 880.879 499.359 c
880.216 499.359 879.58 499.095 879.111 498.627 c
878.642 498.158 878.379 497.522 878.379 496.859 c
878.379 496.196 878.642 495.56 879.111 495.091 c
879.58 494.622 880.216 494.359 880.879 494.359 c
cl
gsave
fill
grestore
stroke
grestore
gsave
894.879 491.734 m
895.542 491.734 896.178 491.997 896.647 492.466 c
897.116 492.935 897.379 493.571 897.379 494.234 c
897.379 494.897 897.116 495.533 896.647 496.002 c
896.178 496.47 895.542 496.734 894.879 496.734 c
894.216 496.734 893.58 496.47 893.111 496.002 c
892.642 495.533 892.379 494.897 892.379 494.234 c
892.379 493.571 892.642 492.935 893.111 492.466 c
893.58 491.997 894.216 491.734 894.879 491.734 c
cl
gsave
fill
grestore
stroke
grestore
0.000 setgray
gsave
916.879032 489.858750 translate
0.000000 rotate
0.000000 0.000000 m /L glyphshow
11.142578 0.000000 m /a glyphshow
23.398438 0.000000 m /n glyphshow
36.074219 0.000000 m /d glyphshow
48.769531 0.000000 m /i glyphshow
54.326172 0.000000 m /hyphen glyphshow
61.542969 0.000000 m /S glyphshow
74.238281 0.000000 m /z glyphshow
84.736328 0.000000 m /a glyphshow
96.992188 0.000000 m /l glyphshow
102.548828 0.000000 m /a glyphshow
114.804688 0.000000 m /y glyphshow
grestore

end
showpage
