%!PS-Adobe-3.0 EPSF-3.0
%%Title: /home/federico/anaconda/ws_40mpc_blue.eps
%%Creator: matplotlib version 1.4.3, http://matplotlib.org/
%%CreationDate: Sat Sep 26 21:35:54 2015
%%Orientation: portrait
%%BoundingBox: -241 74 853 717
%%EndComments
%%BeginProlog
/mpldict 10 dict def
mpldict begin
/m { moveto } bind def
/l { lineto } bind def
/r { rlineto } bind def
/c { curveto } bind def
/cl { closepath } bind def
/box {
m
1 index 0 r
0 exch r
neg 0 r
cl
} bind def
/clipbox {
box
clip
newpath
} bind def
%!PS-Adobe-3.0 Resource-Font
%%Title: cmmi10
%%Copyright: Copyright (C) 1994, Basil K. Malyshev. All Rights Reserved.012BaKoMa Fonts Collection, Level-B.
%%Creator: Converted from TrueType to type 3 by PPR
25 dict begin
/_d{bind def}bind def
/_m{moveto}_d
/_l{lineto}_d
/_cl{closepath eofill}_d
/_c{curveto}_d
/_sc{7 -1 roll{setcachedevice}{pop pop pop pop pop pop}ifelse}_d
/_e{exec}_d
/FontName /Cmmi10 def
/PaintType 0 def
/FontMatrix[.001 0 0 .001 0 0]def
/FontBBox[-34 -250 1048 750]def
/FontType 3 def
/Encoding [ /sigma /omega ] def
/FontInfo 10 dict dup begin
/FamilyName (cmmi10) def
/FullName (cmmi10) def
/Notice (Copyright (C) 1994, Basil K. Malyshev. All Rights Reserved.012BaKoMa Fonts Collection, Level-B. ) def
/Weight (Regular) def
/Version (1.1/12-Nov-94) def
/ItalicAngle 0.0 def
/isFixedPitch false def
/UnderlinePosition -133 def
/UnderlineThickness 20 def
end readonly def
/CharStrings 2 dict dup begin
/sigma{{571 0 36 -10 568 431 _sc
187 -10 _m
157 -10 131 -3 108 10 _c
85 24 67 43 55 67 _c
42 91 36 118 36 147 _c
36 177 43 210 57 244 _c
71 278 90 310 114 338 _c
138 366 166 389 197 406 _c
227 422 259 431 291 431 _c
543 431 _l
549 431 555 428 560 424 _c
565 419 568 413 568 406 _c
568 396 564 387 557 380 _c
550 372 542 369 532 369 _c
410 369 _l
}_e{429 340 439 305 439 265 _c
439 231 432 198 419 166 _c
406 133 388 103 365 77 _c
342 50 315 29 284 13 _c
253 -2 221 -10 187 -10 _c
188 15 _m
224 15 257 29 285 58 _c
313 86 334 121 349 162 _c
364 203 372 241 372 277 _c
372 305 364 328 348 344 _c
332 360 310 369 282 369 _c
243 369 210 356 183 330 _c
156 304 136 271 122 232 _c
108 192 102 154 102 118 _c
}_e{102 89 109 65 124 45 _c
139 25 160 15 188 15 _c
_cl}_e}_d
/omega{{622 0 14 -10 605 443 _sc
121 -10 _m
83 -10 55 3 39 31 _c
22 58 14 92 14 132 _c
14 158 16 183 21 209 _c
25 234 32 260 42 286 _c
52 312 63 336 75 359 _c
87 381 101 403 117 425 _c
120 429 124 431 129 431 _c
133 431 136 429 139 427 _c
141 424 143 421 143 418 _c
143 414 142 411 140 408 _c
79 324 49 247 49 177 _c
49 146 56 120 70 98 _c
}_e{84 76 105 65 135 65 _c
159 65 182 72 204 87 _c
225 101 244 120 260 143 _c
260 155 262 173 266 198 _c
270 222 276 244 285 264 _c
293 283 304 293 316 293 _c
331 293 339 284 339 266 _c
339 255 336 242 332 226 _c
328 210 323 196 318 182 _c
312 168 306 153 298 136 _c
306 88 329 65 369 65 _c
392 65 415 71 439 85 _c
462 98 482 115 500 137 _c
}_e{518 159 532 182 542 207 _c
552 232 558 256 558 279 _c
558 299 554 314 548 326 _c
542 337 533 349 523 361 _c
513 373 508 383 508 391 _c
508 404 513 416 524 427 _c
535 437 547 443 560 443 _c
576 443 587 435 594 420 _c
601 405 605 388 605 370 _c
605 339 598 300 586 254 _c
574 208 560 169 545 138 _c
523 96 496 60 464 32 _c
432 4 395 -10 355 -10 _c
}_e{329 -10 308 -2 292 12 _c
276 27 266 48 262 75 _c
243 49 222 28 198 13 _c
174 -2 149 -10 121 -10 _c
_cl}_e}_d
end readonly def

/BuildGlyph
 {exch begin
 CharStrings exch
 2 copy known not{pop /.notdef}if
 true 3 1 roll get exec
 end}_d

/BuildChar {
 1 index /Encoding get exch get
 1 index /BuildGlyph get exec
}_d

FontName currentdict end definefont pop
%!PS-Adobe-3.0 Resource-Font
%%Title: cmr10
%%Copyright: Copyright (C) 1994, Basil K. Malyshev. All Rights Reserved.012BaKoMa Fonts Collection, Level-B.
%%Creator: Converted from TrueType to type 3 by PPR
25 dict begin
/_d{bind def}bind def
/_m{moveto}_d
/_l{lineto}_d
/_cl{closepath eofill}_d
/_c{curveto}_d
/_sc{7 -1 roll{setcachedevice}{pop pop pop pop pop pop}ifelse}_d
/_e{exec}_d
/FontName /Cmr10 def
/PaintType 0 def
/FontMatrix[.001 0 0 .001 0 0]def
/FontBBox[-44 -250 1009 750]def
/FontType 3 def
/Encoding [ /parenright /parenleft ] def
/FontInfo 10 dict dup begin
/FamilyName (cmr10) def
/FullName (cmr10) def
/Notice (Copyright (C) 1994, Basil K. Malyshev. All Rights Reserved.012BaKoMa Fonts Collection, Level-B. ) def
/Weight (Regular) def
/Version (1.1/12-Nov-94) def
/ItalicAngle 0.0 def
/isFixedPitch false def
/UnderlinePosition -133 def
/UnderlineThickness 20 def
end readonly def
/CharStrings 2 dict dup begin
/parenright{{388 0 56 -249 291 750 _sc
65 -249 _m
59 -249 56 -246 56 -240 _c
56 -237 56 -235 58 -234 _c
172 -122 229 38 229 250 _c
229 462 172 623 60 733 _c
57 734 56 737 56 741 _c
56 743 57 745 59 747 _c
61 749 63 750 65 750 _c
74 750 _l
76 750 77 749 79 748 _c
127 710 167 664 199 610 _c
231 556 254 498 269 437 _c
283 376 291 314 291 250 _c
291 202 287 156 279 110 _c
}_e{271 64 258 20 241 -24 _c
223 -68 201 -108 175 -146 _c
148 -184 116 -217 79 -247 _c
77 -248 76 -249 74 -249 _c
65 -249 _l
_cl}_e}_d
/parenleft{{388 0 97 -249 332 750 _sc
310 -247 _m
272 -217 240 -184 214 -146 _c
187 -108 165 -67 148 -25 _c
131 17 118 62 110 109 _c
101 155 97 202 97 250 _c
97 298 101 345 110 392 _c
118 438 131 483 149 527 _c
166 570 188 611 215 649 _c
242 687 274 720 310 748 _c
310 749 311 750 315 750 _c
324 750 _l
326 750 327 749 329 747 _c
331 745 332 743 332 741 _c
332 738 331 736 330 735 _c
}_e{297 703 270 668 248 632 _c
226 596 209 557 196 516 _c
183 474 174 432 168 388 _c
162 344 159 298 159 250 _c
159 38 215 -122 329 -232 _c
331 -234 332 -236 332 -240 _c
332 -242 331 -244 329 -246 _c
327 -248 326 -249 324 -249 _c
315 -249 _l
311 -249 310 -248 310 -247 _c
_cl}_e}_d
end readonly def

/BuildGlyph
 {exch begin
 CharStrings exch
 2 copy known not{pop /.notdef}if
 true 3 1 roll get exec
 end}_d

/BuildChar {
 1 index /Encoding get exch get
 1 index /BuildGlyph get exec
}_d

FontName currentdict end definefont pop
%!PS-Adobe-3.0 Resource-Font
%%Title: Bitstream Vera Sans
%%Copyright: Copyright (c) 2003 by Bitstream, Inc. All Rights Reserved.
%%Creator: Converted from TrueType to type 3 by PPR
25 dict begin
/_d{bind def}bind def
/_m{moveto}_d
/_l{lineto}_d
/_cl{closepath eofill}_d
/_c{curveto}_d
/_sc{7 -1 roll{setcachedevice}{pop pop pop pop pop pop}ifelse}_d
/_e{exec}_d
/FontName /BitstreamVeraSans-Roman def
/PaintType 0 def
/FontMatrix[.001 0 0 .001 0 0]def
/FontBBox[-183 -236 1287 928]def
/FontType 3 def
/Encoding [ /space /hyphen /zero /one /two /A /C /D /E /F /H /L /N /P /S /a /b /d /e /i /l /m /n /o /r /s /t /u /v /y /z ] def
/FontInfo 10 dict dup begin
/FamilyName (Bitstream Vera Sans) def
/FullName (Bitstream Vera Sans) def
/Notice (Copyright (c) 2003 by Bitstream, Inc. All Rights Reserved. Bitstream Vera is a trademark of Bitstream, Inc.) def
/Weight (Roman) def
/Version (Release 1.10) def
/ItalicAngle 0.0 def
/isFixedPitch false def
/UnderlinePosition -213 def
/UnderlineThickness 143 def
end readonly def
/CharStrings 31 dict dup begin
/space{318 0 0 0 0 0 _sc
}_d
/hyphen{361 0 49 234 312 314 _sc
49 314 _m
312 314 _l
312 234 _l
49 234 _l
49 314 _l
_cl}_d
/zero{636 0 66 -13 570 742 _sc
318 664 _m
267 664 229 639 203 589 _c
177 539 165 464 165 364 _c
165 264 177 189 203 139 _c
229 89 267 64 318 64 _c
369 64 407 89 433 139 _c
458 189 471 264 471 364 _c
471 464 458 539 433 589 _c
407 639 369 664 318 664 _c
318 742 _m
399 742 461 709 505 645 _c
548 580 570 486 570 364 _c
570 241 548 147 505 83 _c
461 19 399 -13 318 -13 _c
236 -13 173 19 130 83 _c
87 147 66 241 66 364 _c
66 486 87 580 130 645 _c
173 709 236 742 318 742 _c
_cl}_d
/one{636 0 110 0 544 729 _sc
124 83 _m
285 83 _l
285 639 _l
110 604 _l
110 694 _l
284 729 _l
383 729 _l
383 83 _l
544 83 _l
544 0 _l
124 0 _l
124 83 _l
_cl}_d
/two{{636 0 73 0 536 742 _sc
192 83 _m
536 83 _l
536 0 _l
73 0 _l
73 83 _l
110 121 161 173 226 239 _c
290 304 331 346 348 365 _c
380 400 402 430 414 455 _c
426 479 433 504 433 528 _c
433 566 419 598 392 622 _c
365 646 330 659 286 659 _c
255 659 222 653 188 643 _c
154 632 117 616 78 594 _c
78 694 _l
118 710 155 722 189 730 _c
223 738 255 742 284 742 _c
}_e{359 742 419 723 464 685 _c
509 647 532 597 532 534 _c
532 504 526 475 515 449 _c
504 422 484 390 454 354 _c
446 344 420 317 376 272 _c
332 227 271 164 192 83 _c
_cl}_e}_d
/A{684 0 8 0 676 729 _sc
342 632 _m
208 269 _l
476 269 _l
342 632 _l
286 729 _m
398 729 _l
676 0 _l
573 0 _l
507 187 _l
178 187 _l
112 0 _l
8 0 _l
286 729 _l
_cl}_d
/C{{698 0 56 -13 644 742 _sc
644 673 _m
644 569 _l
610 599 575 622 537 638 _c
499 653 460 661 418 661 _c
334 661 270 635 226 584 _c
182 533 160 460 160 364 _c
160 268 182 194 226 143 _c
270 92 334 67 418 67 _c
460 67 499 74 537 90 _c
575 105 610 128 644 159 _c
644 56 _l
609 32 572 15 534 4 _c
496 -7 455 -13 412 -13 _c
302 -13 215 20 151 87 _c
}_e{87 154 56 246 56 364 _c
56 481 87 573 151 641 _c
215 708 302 742 412 742 _c
456 742 497 736 535 725 _c
573 713 610 696 644 673 _c
_cl}_e}_d
/D{770 0 98 0 711 729 _sc
197 648 _m
197 81 _l
316 81 _l
416 81 490 103 537 149 _c
583 195 607 267 607 365 _c
607 463 583 534 537 580 _c
490 625 416 648 316 648 _c
197 648 _l
98 729 _m
301 729 _l
442 729 546 699 612 641 _c
678 582 711 490 711 365 _c
711 239 677 147 611 88 _c
545 29 441 0 301 0 _c
98 0 _l
98 729 _l
_cl}_d
/E{632 0 98 0 568 729 _sc
98 729 _m
559 729 _l
559 646 _l
197 646 _l
197 430 _l
544 430 _l
544 347 _l
197 347 _l
197 83 _l
568 83 _l
568 0 _l
98 0 _l
98 729 _l
_cl}_d
/F{575 0 98 0 517 729 _sc
98 729 _m
517 729 _l
517 646 _l
197 646 _l
197 431 _l
486 431 _l
486 348 _l
197 348 _l
197 0 _l
98 0 _l
98 729 _l
_cl}_d
/H{752 0 98 0 654 729 _sc
98 729 _m
197 729 _l
197 430 _l
555 430 _l
555 729 _l
654 729 _l
654 0 _l
555 0 _l
555 347 _l
197 347 _l
197 0 _l
98 0 _l
98 729 _l
_cl}_d
/L{557 0 98 0 552 729 _sc
98 729 _m
197 729 _l
197 83 _l
552 83 _l
552 0 _l
98 0 _l
98 729 _l
_cl}_d
/N{748 0 98 0 650 729 _sc
98 729 _m
231 729 _l
554 119 _l
554 729 _l
650 729 _l
650 0 _l
517 0 _l
194 610 _l
194 0 _l
98 0 _l
98 729 _l
_cl}_d
/P{603 0 98 0 569 729 _sc
197 648 _m
197 374 _l
321 374 _l
367 374 402 385 427 409 _c
452 433 465 467 465 511 _c
465 555 452 588 427 612 _c
402 636 367 648 321 648 _c
197 648 _l
98 729 _m
321 729 _l
402 729 464 710 506 673 _c
548 636 569 582 569 511 _c
569 439 548 384 506 348 _c
464 311 402 293 321 293 _c
197 293 _l
197 0 _l
98 0 _l
98 729 _l
_cl}_d
/S{{635 0 66 -13 579 742 _sc
535 705 _m
535 609 _l
497 627 462 640 429 649 _c
395 657 363 662 333 662 _c
279 662 237 651 208 631 _c
179 610 165 580 165 542 _c
165 510 174 485 194 469 _c
213 452 250 439 304 429 _c
364 417 _l
437 403 491 378 526 343 _c
561 307 579 260 579 201 _c
579 130 555 77 508 41 _c
460 5 391 -13 300 -13 _c
265 -13 228 -9 189 -2 _c
}_e{150 5 110 16 69 32 _c
69 134 _l
109 111 148 94 186 83 _c
224 71 262 66 300 66 _c
356 66 399 77 430 99 _c
460 121 476 152 476 194 _c
476 230 465 258 443 278 _c
421 298 385 313 335 323 _c
275 335 _l
201 349 148 372 115 404 _c
82 435 66 478 66 534 _c
66 598 88 649 134 686 _c
179 723 242 742 322 742 _c
356 742 390 739 426 733 _c
461 727 497 717 535 705 _c
}_e{_cl}_e}_d
/a{{613 0 60 -13 522 560 _sc
343 275 _m
270 275 220 266 192 250 _c
164 233 150 205 150 165 _c
150 133 160 107 181 89 _c
202 70 231 61 267 61 _c
317 61 357 78 387 114 _c
417 149 432 196 432 255 _c
432 275 _l
343 275 _l
522 312 _m
522 0 _l
432 0 _l
432 83 _l
411 49 385 25 355 10 _c
325 -5 287 -13 243 -13 _c
187 -13 142 2 109 33 _c
76 64 60 106 60 159 _c
}_e{60 220 80 266 122 298 _c
163 329 224 345 306 345 _c
432 345 _l
432 354 _l
432 395 418 427 391 450 _c
364 472 326 484 277 484 _c
245 484 215 480 185 472 _c
155 464 127 453 100 439 _c
100 522 _l
132 534 164 544 195 550 _c
226 556 256 560 286 560 _c
365 560 424 539 463 498 _c
502 457 522 395 522 312 _c
_cl}_e}_d
/b{{635 0 91 -13 580 760 _sc
487 273 _m
487 339 473 390 446 428 _c
418 466 381 485 334 485 _c
286 485 249 466 222 428 _c
194 390 181 339 181 273 _c
181 207 194 155 222 117 _c
249 79 286 61 334 61 _c
381 61 418 79 446 117 _c
473 155 487 207 487 273 _c
181 464 _m
199 496 223 520 252 536 _c
281 552 316 560 356 560 _c
422 560 476 533 518 481 _c
559 428 580 359 580 273 _c
}_e{580 187 559 117 518 65 _c
476 13 422 -13 356 -13 _c
316 -13 281 -5 252 10 _c
223 25 199 49 181 82 _c
181 0 _l
91 0 _l
91 760 _l
181 760 _l
181 464 _l
_cl}_e}_d
/d{{635 0 55 -13 544 760 _sc
454 464 _m
454 760 _l
544 760 _l
544 0 _l
454 0 _l
454 82 _l
435 49 411 25 382 10 _c
353 -5 319 -13 279 -13 _c
213 -13 159 13 117 65 _c
75 117 55 187 55 273 _c
55 359 75 428 117 481 _c
159 533 213 560 279 560 _c
319 560 353 552 382 536 _c
411 520 435 496 454 464 _c
148 273 _m
148 207 161 155 188 117 _c
215 79 253 61 301 61 _c
}_e{348 61 385 79 413 117 _c
440 155 454 207 454 273 _c
454 339 440 390 413 428 _c
385 466 348 485 301 485 _c
253 485 215 466 188 428 _c
161 390 148 339 148 273 _c
_cl}_e}_d
/e{{615 0 55 -13 562 560 _sc
562 296 _m
562 252 _l
149 252 _l
153 190 171 142 205 110 _c
238 78 284 62 344 62 _c
378 62 412 66 444 74 _c
476 82 509 95 541 113 _c
541 28 _l
509 14 476 3 442 -3 _c
408 -9 373 -13 339 -13 _c
251 -13 182 12 131 62 _c
80 112 55 181 55 268 _c
55 357 79 428 127 481 _c
175 533 241 560 323 560 _c
397 560 455 536 498 489 _c
}_e{540 441 562 377 562 296 _c
472 322 _m
471 371 457 410 431 440 _c
404 469 368 484 324 484 _c
274 484 234 469 204 441 _c
174 413 156 373 152 322 _c
472 322 _l
_cl}_e}_d
/i{278 0 94 0 184 760 _sc
94 547 _m
184 547 _l
184 0 _l
94 0 _l
94 547 _l
94 760 _m
184 760 _l
184 646 _l
94 646 _l
94 760 _l
_cl}_d
/l{278 0 94 0 184 760 _sc
94 760 _m
184 760 _l
184 0 _l
94 0 _l
94 760 _l
_cl}_d
/m{{974 0 91 0 889 560 _sc
520 442 _m
542 482 569 511 600 531 _c
631 550 668 560 711 560 _c
767 560 811 540 842 500 _c
873 460 889 403 889 330 _c
889 0 _l
799 0 _l
799 327 _l
799 379 789 418 771 444 _c
752 469 724 482 686 482 _c
639 482 602 466 575 435 _c
548 404 535 362 535 309 _c
535 0 _l
445 0 _l
445 327 _l
445 379 435 418 417 444 _c
398 469 369 482 331 482 _c
}_e{285 482 248 466 221 435 _c
194 404 181 362 181 309 _c
181 0 _l
91 0 _l
91 547 _l
181 547 _l
181 462 _l
201 495 226 520 255 536 _c
283 552 317 560 357 560 _c
397 560 430 550 458 530 _c
486 510 506 480 520 442 _c
_cl}_e}_d
/n{634 0 91 0 549 560 _sc
549 330 _m
549 0 _l
459 0 _l
459 327 _l
459 379 448 417 428 443 _c
408 469 378 482 338 482 _c
289 482 251 466 223 435 _c
195 404 181 362 181 309 _c
181 0 _l
91 0 _l
91 547 _l
181 547 _l
181 462 _l
202 494 227 519 257 535 _c
286 551 320 560 358 560 _c
420 560 468 540 500 501 _c
532 462 549 405 549 330 _c
_cl}_d
/o{612 0 55 -13 557 560 _sc
306 484 _m
258 484 220 465 192 427 _c
164 389 150 338 150 273 _c
150 207 163 156 191 118 _c
219 80 257 62 306 62 _c
354 62 392 80 420 118 _c
448 156 462 207 462 273 _c
462 337 448 389 420 427 _c
392 465 354 484 306 484 _c
306 560 _m
384 560 445 534 490 484 _c
534 433 557 363 557 273 _c
557 183 534 113 490 63 _c
445 12 384 -13 306 -13 _c
227 -13 165 12 121 63 _c
77 113 55 183 55 273 _c
55 363 77 433 121 484 _c
165 534 227 560 306 560 _c
_cl}_d
/r{411 0 91 0 411 560 _sc
411 463 _m
401 469 390 473 378 476 _c
366 478 353 480 339 480 _c
288 480 249 463 222 430 _c
194 397 181 350 181 288 _c
181 0 _l
91 0 _l
91 547 _l
181 547 _l
181 462 _l
199 495 224 520 254 536 _c
284 552 321 560 365 560 _c
371 560 378 559 386 559 _c
393 558 401 557 411 555 _c
411 463 _l
_cl}_d
/s{{521 0 54 -13 472 560 _sc
443 531 _m
443 446 _l
417 458 391 468 364 475 _c
336 481 308 485 279 485 _c
234 485 200 478 178 464 _c
156 450 145 430 145 403 _c
145 382 153 366 169 354 _c
185 342 217 330 265 320 _c
296 313 _l
360 299 405 279 432 255 _c
458 230 472 195 472 151 _c
472 100 452 60 412 31 _c
372 1 316 -13 246 -13 _c
216 -13 186 -10 154 -5 _c
}_e{122 0 89 8 54 20 _c
54 113 _l
87 95 120 82 152 74 _c
184 65 216 61 248 61 _c
290 61 323 68 346 82 _c
368 96 380 117 380 144 _c
380 168 371 187 355 200 _c
339 213 303 226 247 238 _c
216 245 _l
160 257 119 275 95 299 _c
70 323 58 356 58 399 _c
58 450 76 490 112 518 _c
148 546 200 560 268 560 _c
301 560 332 557 362 552 _c
391 547 418 540 443 531 _c
}_e{_cl}_e}_d
/t{392 0 27 0 368 702 _sc
183 702 _m
183 547 _l
368 547 _l
368 477 _l
183 477 _l
183 180 _l
183 135 189 106 201 94 _c
213 81 238 75 276 75 _c
368 75 _l
368 0 _l
276 0 _l
206 0 158 13 132 39 _c
106 65 93 112 93 180 _c
93 477 _l
27 477 _l
27 547 _l
93 547 _l
93 702 _l
183 702 _l
_cl}_d
/u{634 0 85 -13 543 547 _sc
85 216 _m
85 547 _l
175 547 _l
175 219 _l
175 167 185 129 205 103 _c
225 77 255 64 296 64 _c
344 64 383 79 411 110 _c
439 141 453 183 453 237 _c
453 547 _l
543 547 _l
543 0 _l
453 0 _l
453 84 _l
431 50 405 26 377 10 _c
348 -5 315 -13 277 -13 _c
214 -13 166 6 134 45 _c
101 83 85 140 85 216 _c
_cl}_d
/v{592 0 30 0 562 547 _sc
30 547 _m
125 547 _l
296 88 _l
467 547 _l
562 547 _l
357 0 _l
235 0 _l
30 547 _l
_cl}_d
/y{592 0 30 -207 562 547 _sc
322 -50 _m
296 -114 271 -157 247 -177 _c
223 -197 191 -207 151 -207 _c
79 -207 _l
79 -132 _l
132 -132 _l
156 -132 175 -126 189 -114 _c
203 -102 218 -75 235 -31 _c
251 9 _l
30 547 _l
125 547 _l
296 119 _l
467 547 _l
562 547 _l
322 -50 _l
_cl}_d
/z{525 0 43 0 482 547 _sc
55 547 _m
482 547 _l
482 465 _l
144 72 _l
482 72 _l
482 0 _l
43 0 _l
43 82 _l
381 475 _l
55 475 _l
55 547 _l
_cl}_d
end readonly def

/BuildGlyph
 {exch begin
 CharStrings exch
 2 copy known not{pop /.notdef}if
 true 3 1 roll get exec
 end}_d

/BuildChar {
 1 index /Encoding get exch get
 1 index /BuildGlyph get exec
}_d

FontName currentdict end definefont pop
end
%%EndProlog
mpldict begin
-241.65 74.7 translate
1095.3 642.6 0 0 clipbox
gsave
0 0 m
1095.3 0 l
1095.3 642.6 l
0 642.6 l
cl
1.000 setgray
fill
grestore
gsave
68.2684 49.8818 m
1071.23 49.8818 l
1071.23 614.522 l
68.2684 614.522 l
cl
1.000 setgray
fill
grestore
1.000 setlinewidth
1 setlinejoin
0 setlinecap
[] 0 setdash
0.000 setgray
gsave
1003 564.6 68.27 49.88 clipbox
/o {
gsave
newpath
translate
1.0 setlinewidth
1 setlinejoin
0 setlinecap
0 -2.5 m
0.663008 -2.5 1.29895 -2.23658 1.76777 -1.76777 c
2.23658 -1.29895 2.5 -0.663008 2.5 0 c
2.5 0.663008 2.23658 1.29895 1.76777 1.76777 c
1.29895 2.23658 0.663008 2.5 0 2.5 c
-0.663008 2.5 -1.29895 2.23658 -1.76777 1.76777 c
-2.23658 1.29895 -2.5 0.663008 -2.5 0 c
-2.5 -0.663008 -2.23658 -1.29895 -1.76777 -1.76777 c
-1.29895 -2.23658 -0.663008 -2.5 0 -2.5 c
cl
gsave
0.000 setgray
fill
grestore
stroke
grestore
} bind def
169.385 505.233 o
250.338 467.832 o
331.292 438.707 o
412.245 414.615 o
493.198 382.044 o
574.151 364.651 o
655.104 339.996 o
736.057 315.766 o
817.01 277.29 o
897.964 249.529 o
grestore
1.000 0.000 0.000 setrgbcolor
gsave
1003 564.6 68.27 49.88 clipbox
/o {
gsave
newpath
translate
1.0 setlinewidth
1 setlinejoin
0 setlinecap
0 -2.5 m
0.663008 -2.5 1.29895 -2.23658 1.76777 -1.76777 c
2.23658 -1.29895 2.5 -0.663008 2.5 0 c
2.5 0.663008 2.23658 1.29895 1.76777 1.76777 c
1.29895 2.23658 0.663008 2.5 0 2.5 c
-0.663008 2.5 -1.29895 2.23658 -1.76777 1.76777 c
-2.23658 1.29895 -2.5 0.663008 -2.5 0 c
-2.5 -0.663008 -2.23658 -1.29895 -1.76777 -1.76777 c
-1.29895 -2.23658 -0.663008 -2.5 0 -2.5 c
cl
gsave
1.000 0.000 0.000 setrgbcolor
fill
grestore
stroke
grestore
} bind def
169.385 511.739 o
250.338 454.641 o
331.292 432.045 o
412.245 411.143 o
493.198 376.765 o
574.151 363.132 o
655.104 338.286 o
736.057 314.04 o
817.01 271.585 o
897.964 240.437 o
grestore
0.000 0.000 1.000 setrgbcolor
gsave
1003 564.6 68.27 49.88 clipbox
/o {
gsave
newpath
translate
1.0 setlinewidth
1 setlinejoin
0 setlinecap
0 -2.5 m
0.663008 -2.5 1.29895 -2.23658 1.76777 -1.76777 c
2.23658 -1.29895 2.5 -0.663008 2.5 0 c
2.5 0.663008 2.23658 1.29895 1.76777 1.76777 c
1.29895 2.23658 0.663008 2.5 0 2.5 c
-0.663008 2.5 -1.29895 2.23658 -1.76777 1.76777 c
-2.23658 1.29895 -2.5 0.663008 -2.5 0 c
-2.5 -0.663008 -2.23658 -1.29895 -1.76777 -1.76777 c
-1.29895 -2.23658 -0.663008 -2.5 0 -2.5 c
cl
gsave
0.000 0.000 1.000 setrgbcolor
fill
grestore
stroke
grestore
} bind def
169.385 526.542 o
250.338 449.126 o
331.292 427.876 o
412.245 408.672 o
493.198 371.441 o
574.151 361.805 o
655.104 336.596 o
736.057 312.301 o
817.01 265.524 o
897.964 230.32 o
grestore
0.502 setgray
gsave
1003 564.6 68.27 49.88 clipbox
/o {
gsave
newpath
translate
1.0 setlinewidth
1 setlinejoin
0 setlinecap
0 -2.5 m
0.663008 -2.5 1.29895 -2.23658 1.76777 -1.76777 c
2.23658 -1.29895 2.5 -0.663008 2.5 0 c
2.5 0.663008 2.23658 1.29895 1.76777 1.76777 c
1.29895 2.23658 0.663008 2.5 0 2.5 c
-0.663008 2.5 -1.29895 2.23658 -1.76777 1.76777 c
-2.23658 1.29895 -2.5 0.663008 -2.5 0 c
-2.5 -0.663008 -2.23658 -1.29895 -1.76777 -1.76777 c
-1.29895 -2.23658 -0.663008 -2.5 0 -2.5 c
cl
gsave
0.502 setgray
fill
grestore
stroke
grestore
} bind def
169.385 494.422 o
250.338 461.516 o
331.292 433.016 o
412.245 407.563 o
493.198 375.318 o
574.151 362.63 o
655.104 337.163 o
736.057 312.529 o
817.01 267.131 o
897.964 231.886 o
grestore
0.000 setgray
gsave
1003 564.6 68.27 49.88 clipbox
169.385 505.233 m
169.385 505.233 l
stroke
grestore
gsave
1003 564.6 68.27 49.88 clipbox
250.338 467.832 m
250.338 467.832 l
stroke
grestore
gsave
1003 564.6 68.27 49.88 clipbox
331.292 438.707 m
331.292 438.707 l
stroke
grestore
gsave
1003 564.6 68.27 49.88 clipbox
412.245 414.615 m
412.245 414.615 l
stroke
grestore
gsave
1003 564.6 68.27 49.88 clipbox
493.198 382.044 m
493.198 382.044 l
stroke
grestore
gsave
1003 564.6 68.27 49.88 clipbox
574.151 364.651 m
574.151 364.651 l
stroke
grestore
gsave
1003 564.6 68.27 49.88 clipbox
655.104 339.996 m
655.104 339.996 l
stroke
grestore
gsave
1003 564.6 68.27 49.88 clipbox
736.057 315.766 m
736.057 315.766 l
stroke
grestore
gsave
1003 564.6 68.27 49.88 clipbox
817.01 277.29 m
817.01 277.29 l
stroke
grestore
gsave
1003 564.6 68.27 49.88 clipbox
897.964 249.529 m
897.964 249.529 l
stroke
grestore
1.000 0.000 0.000 setrgbcolor
gsave
1003 564.6 68.27 49.88 clipbox
169.385 511.739 m
169.385 511.739 l
stroke
grestore
gsave
1003 564.6 68.27 49.88 clipbox
250.338 454.641 m
250.338 454.641 l
stroke
grestore
gsave
1003 564.6 68.27 49.88 clipbox
331.292 432.045 m
331.292 432.045 l
stroke
grestore
gsave
1003 564.6 68.27 49.88 clipbox
412.245 411.143 m
412.245 411.143 l
stroke
grestore
gsave
1003 564.6 68.27 49.88 clipbox
493.198 376.765 m
493.198 376.765 l
stroke
grestore
gsave
1003 564.6 68.27 49.88 clipbox
574.151 363.132 m
574.151 363.132 l
stroke
grestore
gsave
1003 564.6 68.27 49.88 clipbox
655.104 338.286 m
655.104 338.286 l
stroke
grestore
gsave
1003 564.6 68.27 49.88 clipbox
736.057 314.04 m
736.057 314.04 l
stroke
grestore
gsave
1003 564.6 68.27 49.88 clipbox
817.01 271.585 m
817.01 271.585 l
stroke
grestore
gsave
1003 564.6 68.27 49.88 clipbox
897.964 240.437 m
897.964 240.437 l
stroke
grestore
0.000 0.000 1.000 setrgbcolor
gsave
1003 564.6 68.27 49.88 clipbox
169.385 526.542 m
169.385 526.542 l
stroke
grestore
gsave
1003 564.6 68.27 49.88 clipbox
250.338 449.126 m
250.338 449.126 l
stroke
grestore
gsave
1003 564.6 68.27 49.88 clipbox
331.292 427.876 m
331.292 427.876 l
stroke
grestore
gsave
1003 564.6 68.27 49.88 clipbox
412.245 408.672 m
412.245 408.672 l
stroke
grestore
gsave
1003 564.6 68.27 49.88 clipbox
493.198 371.441 m
493.198 371.441 l
stroke
grestore
gsave
1003 564.6 68.27 49.88 clipbox
574.151 361.805 m
574.151 361.805 l
stroke
grestore
gsave
1003 564.6 68.27 49.88 clipbox
655.104 336.596 m
655.104 336.596 l
stroke
grestore
gsave
1003 564.6 68.27 49.88 clipbox
736.057 312.301 m
736.057 312.301 l
stroke
grestore
gsave
1003 564.6 68.27 49.88 clipbox
817.01 265.524 m
817.01 265.524 l
stroke
grestore
gsave
1003 564.6 68.27 49.88 clipbox
897.964 230.32 m
897.964 230.32 l
stroke
grestore
0.502 setgray
gsave
1003 564.6 68.27 49.88 clipbox
169.385 494.422 m
169.385 494.422 l
stroke
grestore
gsave
1003 564.6 68.27 49.88 clipbox
250.338 461.516 m
250.338 461.516 l
stroke
grestore
gsave
1003 564.6 68.27 49.88 clipbox
331.292 433.016 m
331.292 433.016 l
stroke
grestore
gsave
1003 564.6 68.27 49.88 clipbox
412.245 407.563 m
412.245 407.563 l
stroke
grestore
gsave
1003 564.6 68.27 49.88 clipbox
493.198 375.318 m
493.198 375.318 l
stroke
grestore
gsave
1003 564.6 68.27 49.88 clipbox
574.151 362.63 m
574.151 362.63 l
stroke
grestore
gsave
1003 564.6 68.27 49.88 clipbox
655.104 337.163 m
655.104 337.163 l
stroke
grestore
gsave
1003 564.6 68.27 49.88 clipbox
736.057 312.529 m
736.057 312.529 l
stroke
grestore
gsave
1003 564.6 68.27 49.88 clipbox
817.01 267.131 m
817.01 267.131 l
stroke
grestore
gsave
1003 564.6 68.27 49.88 clipbox
897.964 231.886 m
897.964 231.886 l
stroke
grestore
0.500 setlinewidth
0.000 setgray
gsave
1003 564.6 68.27 49.88 clipbox
/o {
gsave
newpath
translate
0.5 setlinewidth
1 setlinejoin
0 setlinecap
3 -1.83691e-16 m
-3 1.83691e-16 l
gsave
0.000 setgray
fill
grestore
stroke
grestore
} bind def
169.385 505.233 o
250.338 467.832 o
331.292 438.707 o
412.245 414.615 o
493.198 382.044 o
574.151 364.651 o
655.104 339.996 o
736.057 315.766 o
817.01 277.29 o
897.964 249.529 o
grestore
gsave
1003 564.6 68.27 49.88 clipbox
/o {
gsave
newpath
translate
0.5 setlinewidth
1 setlinejoin
0 setlinecap
3 -1.83691e-16 m
-3 1.83691e-16 l
gsave
0.000 setgray
fill
grestore
stroke
grestore
} bind def
169.385 505.233 o
250.338 467.832 o
331.292 438.707 o
412.245 414.615 o
493.198 382.044 o
574.151 364.651 o
655.104 339.996 o
736.057 315.766 o
817.01 277.29 o
897.964 249.529 o
grestore
1.000 setlinewidth
2 setlinecap
gsave
1003 564.6 68.27 49.88 clipbox
169.385 505.233 m
250.338 467.832 l
331.292 438.707 l
412.245 414.615 l
493.198 382.044 l
574.151 364.651 l
655.104 339.996 l
736.057 315.766 l
817.01 277.29 l
897.964 249.529 l
stroke
grestore
0.500 setlinewidth
0 setlinecap
1.000 0.000 0.000 setrgbcolor
gsave
1003 564.6 68.27 49.88 clipbox
/o {
gsave
newpath
translate
0.5 setlinewidth
1 setlinejoin
0 setlinecap
3 -1.83691e-16 m
-3 1.83691e-16 l
gsave
1.000 0.000 0.000 setrgbcolor
fill
grestore
stroke
grestore
} bind def
169.385 511.739 o
250.338 454.641 o
331.292 432.045 o
412.245 411.143 o
493.198 376.765 o
574.151 363.132 o
655.104 338.286 o
736.057 314.04 o
817.01 271.585 o
897.964 240.437 o
grestore
gsave
1003 564.6 68.27 49.88 clipbox
/o {
gsave
newpath
translate
0.5 setlinewidth
1 setlinejoin
0 setlinecap
3 -1.83691e-16 m
-3 1.83691e-16 l
gsave
1.000 0.000 0.000 setrgbcolor
fill
grestore
stroke
grestore
} bind def
169.385 511.739 o
250.338 454.641 o
331.292 432.045 o
412.245 411.143 o
493.198 376.765 o
574.151 363.132 o
655.104 338.286 o
736.057 314.04 o
817.01 271.585 o
897.964 240.437 o
grestore
1.000 setlinewidth
2 setlinecap
gsave
1003 564.6 68.27 49.88 clipbox
169.385 511.739 m
250.338 454.641 l
331.292 432.045 l
412.245 411.143 l
493.198 376.765 l
574.151 363.132 l
655.104 338.286 l
736.057 314.04 l
817.01 271.585 l
897.964 240.437 l
stroke
grestore
0.500 setlinewidth
0 setlinecap
0.000 0.000 1.000 setrgbcolor
gsave
1003 564.6 68.27 49.88 clipbox
/o {
gsave
newpath
translate
0.5 setlinewidth
1 setlinejoin
0 setlinecap
3 -1.83691e-16 m
-3 1.83691e-16 l
gsave
0.000 0.000 1.000 setrgbcolor
fill
grestore
stroke
grestore
} bind def
169.385 526.542 o
250.338 449.126 o
331.292 427.876 o
412.245 408.672 o
493.198 371.441 o
574.151 361.805 o
655.104 336.596 o
736.057 312.301 o
817.01 265.524 o
897.964 230.32 o
grestore
gsave
1003 564.6 68.27 49.88 clipbox
/o {
gsave
newpath
translate
0.5 setlinewidth
1 setlinejoin
0 setlinecap
3 -1.83691e-16 m
-3 1.83691e-16 l
gsave
0.000 0.000 1.000 setrgbcolor
fill
grestore
stroke
grestore
} bind def
169.385 526.542 o
250.338 449.126 o
331.292 427.876 o
412.245 408.672 o
493.198 371.441 o
574.151 361.805 o
655.104 336.596 o
736.057 312.301 o
817.01 265.524 o
897.964 230.32 o
grestore
1.000 setlinewidth
2 setlinecap
gsave
1003 564.6 68.27 49.88 clipbox
169.385 526.542 m
250.338 449.126 l
331.292 427.876 l
412.245 408.672 l
493.198 371.441 l
574.151 361.805 l
655.104 336.596 l
736.057 312.301 l
817.01 265.524 l
897.964 230.32 l
stroke
grestore
0.500 setlinewidth
0 setlinecap
0.502 setgray
gsave
1003 564.6 68.27 49.88 clipbox
/o {
gsave
newpath
translate
0.5 setlinewidth
1 setlinejoin
0 setlinecap
3 -1.83691e-16 m
-3 1.83691e-16 l
gsave
0.502 setgray
fill
grestore
stroke
grestore
} bind def
169.385 494.422 o
250.338 461.516 o
331.292 433.016 o
412.245 407.563 o
493.198 375.318 o
574.151 362.63 o
655.104 337.163 o
736.057 312.529 o
817.01 267.131 o
897.964 231.886 o
grestore
gsave
1003 564.6 68.27 49.88 clipbox
/o {
gsave
newpath
translate
0.5 setlinewidth
1 setlinejoin
0 setlinecap
3 -1.83691e-16 m
-3 1.83691e-16 l
gsave
0.502 setgray
fill
grestore
stroke
grestore
} bind def
169.385 494.422 o
250.338 461.516 o
331.292 433.016 o
412.245 407.563 o
493.198 375.318 o
574.151 362.63 o
655.104 337.163 o
736.057 312.529 o
817.01 267.131 o
897.964 231.886 o
grestore
1.000 setlinewidth
2 setlinecap
gsave
1003 564.6 68.27 49.88 clipbox
169.385 494.422 m
250.338 461.516 l
331.292 433.016 l
412.245 407.563 l
493.198 375.318 l
574.151 362.63 l
655.104 337.163 l
736.057 312.529 l
817.01 267.131 l
897.964 231.886 l
stroke
grestore
0 setlinejoin
0.000 setgray
gsave
68.2684 614.522 m
1071.23 614.522 l
stroke
grestore
gsave
1071.23 49.8818 m
1071.23 614.522 l
stroke
grestore
gsave
68.2684 49.8818 m
1071.23 49.8818 l
stroke
grestore
gsave
68.2684 49.8818 m
68.2684 614.522 l
stroke
grestore
0.500 setlinewidth
1 setlinejoin
0 setlinecap
[1 3] 0 setdash
gsave
1003 564.6 68.27 49.88 clipbox
70.1481 49.8818 m
70.1481 614.522 l
stroke
grestore
[] 0 setdash
gsave
/o {
gsave
newpath
translate
0.5 setlinewidth
1 setlinejoin
0 setlinecap
0 0 m
0 4 l
gsave
0.000 setgray
fill
grestore
stroke
grestore
} bind def
70.1481 49.8818 o
grestore
gsave
/o {
gsave
newpath
translate
0.5 setlinewidth
1 setlinejoin
0 setlinecap
0 0 m
0 -4 l
gsave
0.000 setgray
fill
grestore
stroke
grestore
} bind def
70.1481 614.522 o
grestore
gsave
56.648137 34.381825 translate
0.000000 rotate
/BitstreamVeraSans-Roman findfont
12.0 scalefont
setfont
0.000000 0.575000 moveto
/one glyphshow

7.634766 0.575000 moveto
/zero glyphshow

/BitstreamVeraSans-Roman findfont
8.4 scalefont
setfont
15.269531 6.875000 moveto
/hyphen glyphshow

18.300586 6.875000 moveto
/one glyphshow


grestore
[1 3] 0 setdash
gsave
1003 564.6 68.27 49.88 clipbox
403.842 49.8818 m
403.842 614.522 l
stroke
grestore
[] 0 setdash
gsave
/o {
gsave
newpath
translate
0.5 setlinewidth
1 setlinejoin
0 setlinecap
0 0 m
0 4 l
gsave
0.000 setgray
fill
grestore
stroke
grestore
} bind def
403.842 49.8818 o
grestore
gsave
/o {
gsave
newpath
translate
0.5 setlinewidth
1 setlinejoin
0 setlinecap
0 0 m
0 -4 l
gsave
0.000 setgray
fill
grestore
stroke
grestore
} bind def
403.842 614.522 o
grestore
gsave
391.842194 34.381825 translate
0.000000 rotate
/BitstreamVeraSans-Roman findfont
12.0 scalefont
setfont
0.000000 0.465625 moveto
/one glyphshow

7.634766 0.465625 moveto
/zero glyphshow

/BitstreamVeraSans-Roman findfont
8.4 scalefont
setfont
15.269531 6.765625 moveto
/zero glyphshow


grestore
[1 3] 0 setdash
gsave
1003 564.6 68.27 49.88 clipbox
737.536 49.8818 m
737.536 614.522 l
stroke
grestore
[] 0 setdash
gsave
/o {
gsave
newpath
translate
0.5 setlinewidth
1 setlinejoin
0 setlinecap
0 0 m
0 4 l
gsave
0.000 setgray
fill
grestore
stroke
grestore
} bind def
737.536 49.8818 o
grestore
gsave
/o {
gsave
newpath
translate
0.5 setlinewidth
1 setlinejoin
0 setlinecap
0 0 m
0 -4 l
gsave
0.000 setgray
fill
grestore
stroke
grestore
} bind def
737.536 614.522 o
grestore
gsave
725.536251 34.381825 translate
0.000000 rotate
/BitstreamVeraSans-Roman findfont
12.0 scalefont
setfont
0.000000 0.575000 moveto
/one glyphshow

7.634766 0.575000 moveto
/zero glyphshow

/BitstreamVeraSans-Roman findfont
8.4 scalefont
setfont
15.269531 6.875000 moveto
/one glyphshow


grestore
[1 3] 0 setdash
gsave
1003 564.6 68.27 49.88 clipbox
1071.23 49.8818 m
1071.23 614.522 l
stroke
grestore
[] 0 setdash
gsave
/o {
gsave
newpath
translate
0.5 setlinewidth
1 setlinejoin
0 setlinecap
0 0 m
0 4 l
gsave
0.000 setgray
fill
grestore
stroke
grestore
} bind def
1071.23 49.8818 o
grestore
gsave
/o {
gsave
newpath
translate
0.5 setlinewidth
1 setlinejoin
0 setlinecap
0 0 m
0 -4 l
gsave
0.000 setgray
fill
grestore
stroke
grestore
} bind def
1071.23 614.522 o
grestore
gsave
1059.230308 34.381825 translate
0.000000 rotate
/BitstreamVeraSans-Roman findfont
12.0 scalefont
setfont
0.000000 0.465625 moveto
/one glyphshow

7.634766 0.465625 moveto
/zero glyphshow

/BitstreamVeraSans-Roman findfont
8.4 scalefont
setfont
15.269531 6.765625 moveto
/two glyphshow


grestore
gsave
/o {
gsave
newpath
translate
0.5 setlinewidth
1 setlinejoin
0 setlinecap
0 0 m
0 2 l
gsave
0.000 setgray
fill
grestore
stroke
grestore
} bind def
170.6 49.8818 o
grestore
gsave
/o {
gsave
newpath
translate
0.5 setlinewidth
1 setlinejoin
0 setlinecap
0 0 m
0 -2 l
gsave
0.000 setgray
fill
grestore
stroke
grestore
} bind def
170.6 614.522 o
grestore
gsave
/o {
gsave
newpath
translate
0.5 setlinewidth
1 setlinejoin
0 setlinecap
0 0 m
0 2 l
gsave
0.000 setgray
fill
grestore
stroke
grestore
} bind def
229.361 49.8818 o
grestore
gsave
/o {
gsave
newpath
translate
0.5 setlinewidth
1 setlinejoin
0 setlinecap
0 0 m
0 -2 l
gsave
0.000 setgray
fill
grestore
stroke
grestore
} bind def
229.361 614.522 o
grestore
gsave
/o {
gsave
newpath
translate
0.5 setlinewidth
1 setlinejoin
0 setlinecap
0 0 m
0 2 l
gsave
0.000 setgray
fill
grestore
stroke
grestore
} bind def
271.052 49.8818 o
grestore
gsave
/o {
gsave
newpath
translate
0.5 setlinewidth
1 setlinejoin
0 setlinecap
0 0 m
0 -2 l
gsave
0.000 setgray
fill
grestore
stroke
grestore
} bind def
271.052 614.522 o
grestore
gsave
/o {
gsave
newpath
translate
0.5 setlinewidth
1 setlinejoin
0 setlinecap
0 0 m
0 2 l
gsave
0.000 setgray
fill
grestore
stroke
grestore
} bind def
303.39 49.8818 o
grestore
gsave
/o {
gsave
newpath
translate
0.5 setlinewidth
1 setlinejoin
0 setlinecap
0 0 m
0 -2 l
gsave
0.000 setgray
fill
grestore
stroke
grestore
} bind def
303.39 614.522 o
grestore
gsave
/o {
gsave
newpath
translate
0.5 setlinewidth
1 setlinejoin
0 setlinecap
0 0 m
0 2 l
gsave
0.000 setgray
fill
grestore
stroke
grestore
} bind def
329.813 49.8818 o
grestore
gsave
/o {
gsave
newpath
translate
0.5 setlinewidth
1 setlinejoin
0 setlinecap
0 0 m
0 -2 l
gsave
0.000 setgray
fill
grestore
stroke
grestore
} bind def
329.813 614.522 o
grestore
gsave
/o {
gsave
newpath
translate
0.5 setlinewidth
1 setlinejoin
0 setlinecap
0 0 m
0 2 l
gsave
0.000 setgray
fill
grestore
stroke
grestore
} bind def
352.152 49.8818 o
grestore
gsave
/o {
gsave
newpath
translate
0.5 setlinewidth
1 setlinejoin
0 setlinecap
0 0 m
0 -2 l
gsave
0.000 setgray
fill
grestore
stroke
grestore
} bind def
352.152 614.522 o
grestore
gsave
/o {
gsave
newpath
translate
0.5 setlinewidth
1 setlinejoin
0 setlinecap
0 0 m
0 2 l
gsave
0.000 setgray
fill
grestore
stroke
grestore
} bind def
371.504 49.8818 o
grestore
gsave
/o {
gsave
newpath
translate
0.5 setlinewidth
1 setlinejoin
0 setlinecap
0 0 m
0 -2 l
gsave
0.000 setgray
fill
grestore
stroke
grestore
} bind def
371.504 614.522 o
grestore
gsave
/o {
gsave
newpath
translate
0.5 setlinewidth
1 setlinejoin
0 setlinecap
0 0 m
0 2 l
gsave
0.000 setgray
fill
grestore
stroke
grestore
} bind def
388.573 49.8818 o
grestore
gsave
/o {
gsave
newpath
translate
0.5 setlinewidth
1 setlinejoin
0 setlinecap
0 0 m
0 -2 l
gsave
0.000 setgray
fill
grestore
stroke
grestore
} bind def
388.573 614.522 o
grestore
gsave
/o {
gsave
newpath
translate
0.5 setlinewidth
1 setlinejoin
0 setlinecap
0 0 m
0 2 l
gsave
0.000 setgray
fill
grestore
stroke
grestore
} bind def
504.294 49.8818 o
grestore
gsave
/o {
gsave
newpath
translate
0.5 setlinewidth
1 setlinejoin
0 setlinecap
0 0 m
0 -2 l
gsave
0.000 setgray
fill
grestore
stroke
grestore
} bind def
504.294 614.522 o
grestore
gsave
/o {
gsave
newpath
translate
0.5 setlinewidth
1 setlinejoin
0 setlinecap
0 0 m
0 2 l
gsave
0.000 setgray
fill
grestore
stroke
grestore
} bind def
563.055 49.8818 o
grestore
gsave
/o {
gsave
newpath
translate
0.5 setlinewidth
1 setlinejoin
0 setlinecap
0 0 m
0 -2 l
gsave
0.000 setgray
fill
grestore
stroke
grestore
} bind def
563.055 614.522 o
grestore
gsave
/o {
gsave
newpath
translate
0.5 setlinewidth
1 setlinejoin
0 setlinecap
0 0 m
0 2 l
gsave
0.000 setgray
fill
grestore
stroke
grestore
} bind def
604.746 49.8818 o
grestore
gsave
/o {
gsave
newpath
translate
0.5 setlinewidth
1 setlinejoin
0 setlinecap
0 0 m
0 -2 l
gsave
0.000 setgray
fill
grestore
stroke
grestore
} bind def
604.746 614.522 o
grestore
gsave
/o {
gsave
newpath
translate
0.5 setlinewidth
1 setlinejoin
0 setlinecap
0 0 m
0 2 l
gsave
0.000 setgray
fill
grestore
stroke
grestore
} bind def
637.084 49.8818 o
grestore
gsave
/o {
gsave
newpath
translate
0.5 setlinewidth
1 setlinejoin
0 setlinecap
0 0 m
0 -2 l
gsave
0.000 setgray
fill
grestore
stroke
grestore
} bind def
637.084 614.522 o
grestore
gsave
/o {
gsave
newpath
translate
0.5 setlinewidth
1 setlinejoin
0 setlinecap
0 0 m
0 2 l
gsave
0.000 setgray
fill
grestore
stroke
grestore
} bind def
663.507 49.8818 o
grestore
gsave
/o {
gsave
newpath
translate
0.5 setlinewidth
1 setlinejoin
0 setlinecap
0 0 m
0 -2 l
gsave
0.000 setgray
fill
grestore
stroke
grestore
} bind def
663.507 614.522 o
grestore
gsave
/o {
gsave
newpath
translate
0.5 setlinewidth
1 setlinejoin
0 setlinecap
0 0 m
0 2 l
gsave
0.000 setgray
fill
grestore
stroke
grestore
} bind def
685.846 49.8818 o
grestore
gsave
/o {
gsave
newpath
translate
0.5 setlinewidth
1 setlinejoin
0 setlinecap
0 0 m
0 -2 l
gsave
0.000 setgray
fill
grestore
stroke
grestore
} bind def
685.846 614.522 o
grestore
gsave
/o {
gsave
newpath
translate
0.5 setlinewidth
1 setlinejoin
0 setlinecap
0 0 m
0 2 l
gsave
0.000 setgray
fill
grestore
stroke
grestore
} bind def
705.198 49.8818 o
grestore
gsave
/o {
gsave
newpath
translate
0.5 setlinewidth
1 setlinejoin
0 setlinecap
0 0 m
0 -2 l
gsave
0.000 setgray
fill
grestore
stroke
grestore
} bind def
705.198 614.522 o
grestore
gsave
/o {
gsave
newpath
translate
0.5 setlinewidth
1 setlinejoin
0 setlinecap
0 0 m
0 2 l
gsave
0.000 setgray
fill
grestore
stroke
grestore
} bind def
722.267 49.8818 o
grestore
gsave
/o {
gsave
newpath
translate
0.5 setlinewidth
1 setlinejoin
0 setlinecap
0 0 m
0 -2 l
gsave
0.000 setgray
fill
grestore
stroke
grestore
} bind def
722.267 614.522 o
grestore
gsave
/o {
gsave
newpath
translate
0.5 setlinewidth
1 setlinejoin
0 setlinecap
0 0 m
0 2 l
gsave
0.000 setgray
fill
grestore
stroke
grestore
} bind def
837.988 49.8818 o
grestore
gsave
/o {
gsave
newpath
translate
0.5 setlinewidth
1 setlinejoin
0 setlinecap
0 0 m
0 -2 l
gsave
0.000 setgray
fill
grestore
stroke
grestore
} bind def
837.988 614.522 o
grestore
gsave
/o {
gsave
newpath
translate
0.5 setlinewidth
1 setlinejoin
0 setlinecap
0 0 m
0 2 l
gsave
0.000 setgray
fill
grestore
stroke
grestore
} bind def
896.749 49.8818 o
grestore
gsave
/o {
gsave
newpath
translate
0.5 setlinewidth
1 setlinejoin
0 setlinecap
0 0 m
0 -2 l
gsave
0.000 setgray
fill
grestore
stroke
grestore
} bind def
896.749 614.522 o
grestore
gsave
/o {
gsave
newpath
translate
0.5 setlinewidth
1 setlinejoin
0 setlinecap
0 0 m
0 2 l
gsave
0.000 setgray
fill
grestore
stroke
grestore
} bind def
938.44 49.8818 o
grestore
gsave
/o {
gsave
newpath
translate
0.5 setlinewidth
1 setlinejoin
0 setlinecap
0 0 m
0 -2 l
gsave
0.000 setgray
fill
grestore
stroke
grestore
} bind def
938.44 614.522 o
grestore
gsave
/o {
gsave
newpath
translate
0.5 setlinewidth
1 setlinejoin
0 setlinecap
0 0 m
0 2 l
gsave
0.000 setgray
fill
grestore
stroke
grestore
} bind def
970.778 49.8818 o
grestore
gsave
/o {
gsave
newpath
translate
0.5 setlinewidth
1 setlinejoin
0 setlinecap
0 0 m
0 -2 l
gsave
0.000 setgray
fill
grestore
stroke
grestore
} bind def
970.778 614.522 o
grestore
gsave
/o {
gsave
newpath
translate
0.5 setlinewidth
1 setlinejoin
0 setlinecap
0 0 m
0 2 l
gsave
0.000 setgray
fill
grestore
stroke
grestore
} bind def
997.201 49.8818 o
grestore
gsave
/o {
gsave
newpath
translate
0.5 setlinewidth
1 setlinejoin
0 setlinecap
0 0 m
0 -2 l
gsave
0.000 setgray
fill
grestore
stroke
grestore
} bind def
997.201 614.522 o
grestore
gsave
/o {
gsave
newpath
translate
0.5 setlinewidth
1 setlinejoin
0 setlinecap
0 0 m
0 2 l
gsave
0.000 setgray
fill
grestore
stroke
grestore
} bind def
1019.54 49.8818 o
grestore
gsave
/o {
gsave
newpath
translate
0.5 setlinewidth
1 setlinejoin
0 setlinecap
0 0 m
0 -2 l
gsave
0.000 setgray
fill
grestore
stroke
grestore
} bind def
1019.54 614.522 o
grestore
gsave
/o {
gsave
newpath
translate
0.5 setlinewidth
1 setlinejoin
0 setlinecap
0 0 m
0 2 l
gsave
0.000 setgray
fill
grestore
stroke
grestore
} bind def
1038.89 49.8818 o
grestore
gsave
/o {
gsave
newpath
translate
0.5 setlinewidth
1 setlinejoin
0 setlinecap
0 0 m
0 -2 l
gsave
0.000 setgray
fill
grestore
stroke
grestore
} bind def
1038.89 614.522 o
grestore
gsave
/o {
gsave
newpath
translate
0.5 setlinewidth
1 setlinejoin
0 setlinecap
0 0 m
0 2 l
gsave
0.000 setgray
fill
grestore
stroke
grestore
} bind def
1055.96 49.8818 o
grestore
gsave
/o {
gsave
newpath
translate
0.5 setlinewidth
1 setlinejoin
0 setlinecap
0 0 m
0 -2 l
gsave
0.000 setgray
fill
grestore
stroke
grestore
} bind def
1055.96 614.522 o
grestore
gsave
564.749341 13.959950 translate
0.000000 rotate
/Cmmi10 findfont
17.28 scalefont
setfont
0.000000 0.562500 moveto
/sigma glyphshow


grestore
[1 3] 0 setdash
gsave
1003 564.6 68.27 49.88 clipbox
68.2684 49.8818 m
1071.23 49.8818 l
stroke
grestore
[] 0 setdash
gsave
/o {
gsave
newpath
translate
0.5 setlinewidth
1 setlinejoin
0 setlinecap
0 0 m
4 0 l
gsave
0.000 setgray
fill
grestore
stroke
grestore
} bind def
68.2684 49.8818 o
grestore
gsave
/o {
gsave
newpath
translate
0.5 setlinewidth
1 setlinejoin
0 setlinecap
0 0 m
-4 0 l
gsave
0.000 setgray
fill
grestore
stroke
grestore
} bind def
1071.23 49.8818 o
grestore
gsave
40.268374 45.381825 translate
0.000000 rotate
/BitstreamVeraSans-Roman findfont
12.0 scalefont
setfont
0.000000 0.465625 moveto
/one glyphshow

7.634766 0.465625 moveto
/zero glyphshow

/BitstreamVeraSans-Roman findfont
8.4 scalefont
setfont
15.269531 6.765625 moveto
/zero glyphshow


grestore
[1 3] 0 setdash
gsave
1003 564.6 68.27 49.88 clipbox
68.2684 239.79 m
1071.23 239.79 l
stroke
grestore
[] 0 setdash
gsave
/o {
gsave
newpath
translate
0.5 setlinewidth
1 setlinejoin
0 setlinecap
0 0 m
4 0 l
gsave
0.000 setgray
fill
grestore
stroke
grestore
} bind def
68.2684 239.79 o
grestore
gsave
/o {
gsave
newpath
translate
0.5 setlinewidth
1 setlinejoin
0 setlinecap
0 0 m
-4 0 l
gsave
0.000 setgray
fill
grestore
stroke
grestore
} bind def
1071.23 239.79 o
grestore
gsave
40.268374 235.289779 translate
0.000000 rotate
/BitstreamVeraSans-Roman findfont
12.0 scalefont
setfont
0.000000 0.575000 moveto
/one glyphshow

7.634766 0.575000 moveto
/zero glyphshow

/BitstreamVeraSans-Roman findfont
8.4 scalefont
setfont
15.269531 6.875000 moveto
/one glyphshow


grestore
[1 3] 0 setdash
gsave
1003 564.6 68.27 49.88 clipbox
68.2684 429.698 m
1071.23 429.698 l
stroke
grestore
[] 0 setdash
gsave
/o {
gsave
newpath
translate
0.5 setlinewidth
1 setlinejoin
0 setlinecap
0 0 m
4 0 l
gsave
0.000 setgray
fill
grestore
stroke
grestore
} bind def
68.2684 429.698 o
grestore
gsave
/o {
gsave
newpath
translate
0.5 setlinewidth
1 setlinejoin
0 setlinecap
0 0 m
-4 0 l
gsave
0.000 setgray
fill
grestore
stroke
grestore
} bind def
1071.23 429.698 o
grestore
gsave
40.268374 425.197733 translate
0.000000 rotate
/BitstreamVeraSans-Roman findfont
12.0 scalefont
setfont
0.000000 0.465625 moveto
/one glyphshow

7.634766 0.465625 moveto
/zero glyphshow

/BitstreamVeraSans-Roman findfont
8.4 scalefont
setfont
15.269531 6.765625 moveto
/two glyphshow


grestore
gsave
/o {
gsave
newpath
translate
0.5 setlinewidth
1 setlinejoin
0 setlinecap
0 0 m
2 0 l
gsave
0.000 setgray
fill
grestore
stroke
grestore
} bind def
68.2684 107.05 o
grestore
gsave
/o {
gsave
newpath
translate
0.5 setlinewidth
1 setlinejoin
0 setlinecap
0 0 m
-2 0 l
gsave
0.000 setgray
fill
grestore
stroke
grestore
} bind def
1071.23 107.05 o
grestore
gsave
/o {
gsave
newpath
translate
0.5 setlinewidth
1 setlinejoin
0 setlinecap
0 0 m
2 0 l
gsave
0.000 setgray
fill
grestore
stroke
grestore
} bind def
68.2684 140.491 o
grestore
gsave
/o {
gsave
newpath
translate
0.5 setlinewidth
1 setlinejoin
0 setlinecap
0 0 m
-2 0 l
gsave
0.000 setgray
fill
grestore
stroke
grestore
} bind def
1071.23 140.491 o
grestore
gsave
/o {
gsave
newpath
translate
0.5 setlinewidth
1 setlinejoin
0 setlinecap
0 0 m
2 0 l
gsave
0.000 setgray
fill
grestore
stroke
grestore
} bind def
68.2684 164.218 o
grestore
gsave
/o {
gsave
newpath
translate
0.5 setlinewidth
1 setlinejoin
0 setlinecap
0 0 m
-2 0 l
gsave
0.000 setgray
fill
grestore
stroke
grestore
} bind def
1071.23 164.218 o
grestore
gsave
/o {
gsave
newpath
translate
0.5 setlinewidth
1 setlinejoin
0 setlinecap
0 0 m
2 0 l
gsave
0.000 setgray
fill
grestore
stroke
grestore
} bind def
68.2684 182.622 o
grestore
gsave
/o {
gsave
newpath
translate
0.5 setlinewidth
1 setlinejoin
0 setlinecap
0 0 m
-2 0 l
gsave
0.000 setgray
fill
grestore
stroke
grestore
} bind def
1071.23 182.622 o
grestore
gsave
/o {
gsave
newpath
translate
0.5 setlinewidth
1 setlinejoin
0 setlinecap
0 0 m
2 0 l
gsave
0.000 setgray
fill
grestore
stroke
grestore
} bind def
68.2684 197.659 o
grestore
gsave
/o {
gsave
newpath
translate
0.5 setlinewidth
1 setlinejoin
0 setlinecap
0 0 m
-2 0 l
gsave
0.000 setgray
fill
grestore
stroke
grestore
} bind def
1071.23 197.659 o
grestore
gsave
/o {
gsave
newpath
translate
0.5 setlinewidth
1 setlinejoin
0 setlinecap
0 0 m
2 0 l
gsave
0.000 setgray
fill
grestore
stroke
grestore
} bind def
68.2684 210.373 o
grestore
gsave
/o {
gsave
newpath
translate
0.5 setlinewidth
1 setlinejoin
0 setlinecap
0 0 m
-2 0 l
gsave
0.000 setgray
fill
grestore
stroke
grestore
} bind def
1071.23 210.373 o
grestore
gsave
/o {
gsave
newpath
translate
0.5 setlinewidth
1 setlinejoin
0 setlinecap
0 0 m
2 0 l
gsave
0.000 setgray
fill
grestore
stroke
grestore
} bind def
68.2684 221.386 o
grestore
gsave
/o {
gsave
newpath
translate
0.5 setlinewidth
1 setlinejoin
0 setlinecap
0 0 m
-2 0 l
gsave
0.000 setgray
fill
grestore
stroke
grestore
} bind def
1071.23 221.386 o
grestore
gsave
/o {
gsave
newpath
translate
0.5 setlinewidth
1 setlinejoin
0 setlinecap
0 0 m
2 0 l
gsave
0.000 setgray
fill
grestore
stroke
grestore
} bind def
68.2684 231.1 o
grestore
gsave
/o {
gsave
newpath
translate
0.5 setlinewidth
1 setlinejoin
0 setlinecap
0 0 m
-2 0 l
gsave
0.000 setgray
fill
grestore
stroke
grestore
} bind def
1071.23 231.1 o
grestore
gsave
/o {
gsave
newpath
translate
0.5 setlinewidth
1 setlinejoin
0 setlinecap
0 0 m
2 0 l
gsave
0.000 setgray
fill
grestore
stroke
grestore
} bind def
68.2684 296.958 o
grestore
gsave
/o {
gsave
newpath
translate
0.5 setlinewidth
1 setlinejoin
0 setlinecap
0 0 m
-2 0 l
gsave
0.000 setgray
fill
grestore
stroke
grestore
} bind def
1071.23 296.958 o
grestore
gsave
/o {
gsave
newpath
translate
0.5 setlinewidth
1 setlinejoin
0 setlinecap
0 0 m
2 0 l
gsave
0.000 setgray
fill
grestore
stroke
grestore
} bind def
68.2684 330.399 o
grestore
gsave
/o {
gsave
newpath
translate
0.5 setlinewidth
1 setlinejoin
0 setlinecap
0 0 m
-2 0 l
gsave
0.000 setgray
fill
grestore
stroke
grestore
} bind def
1071.23 330.399 o
grestore
gsave
/o {
gsave
newpath
translate
0.5 setlinewidth
1 setlinejoin
0 setlinecap
0 0 m
2 0 l
gsave
0.000 setgray
fill
grestore
stroke
grestore
} bind def
68.2684 354.126 o
grestore
gsave
/o {
gsave
newpath
translate
0.5 setlinewidth
1 setlinejoin
0 setlinecap
0 0 m
-2 0 l
gsave
0.000 setgray
fill
grestore
stroke
grestore
} bind def
1071.23 354.126 o
grestore
gsave
/o {
gsave
newpath
translate
0.5 setlinewidth
1 setlinejoin
0 setlinecap
0 0 m
2 0 l
gsave
0.000 setgray
fill
grestore
stroke
grestore
} bind def
68.2684 372.53 o
grestore
gsave
/o {
gsave
newpath
translate
0.5 setlinewidth
1 setlinejoin
0 setlinecap
0 0 m
-2 0 l
gsave
0.000 setgray
fill
grestore
stroke
grestore
} bind def
1071.23 372.53 o
grestore
gsave
/o {
gsave
newpath
translate
0.5 setlinewidth
1 setlinejoin
0 setlinecap
0 0 m
2 0 l
gsave
0.000 setgray
fill
grestore
stroke
grestore
} bind def
68.2684 387.567 o
grestore
gsave
/o {
gsave
newpath
translate
0.5 setlinewidth
1 setlinejoin
0 setlinecap
0 0 m
-2 0 l
gsave
0.000 setgray
fill
grestore
stroke
grestore
} bind def
1071.23 387.567 o
grestore
gsave
/o {
gsave
newpath
translate
0.5 setlinewidth
1 setlinejoin
0 setlinecap
0 0 m
2 0 l
gsave
0.000 setgray
fill
grestore
stroke
grestore
} bind def
68.2684 400.281 o
grestore
gsave
/o {
gsave
newpath
translate
0.5 setlinewidth
1 setlinejoin
0 setlinecap
0 0 m
-2 0 l
gsave
0.000 setgray
fill
grestore
stroke
grestore
} bind def
1071.23 400.281 o
grestore
gsave
/o {
gsave
newpath
translate
0.5 setlinewidth
1 setlinejoin
0 setlinecap
0 0 m
2 0 l
gsave
0.000 setgray
fill
grestore
stroke
grestore
} bind def
68.2684 411.294 o
grestore
gsave
/o {
gsave
newpath
translate
0.5 setlinewidth
1 setlinejoin
0 setlinecap
0 0 m
-2 0 l
gsave
0.000 setgray
fill
grestore
stroke
grestore
} bind def
1071.23 411.294 o
grestore
gsave
/o {
gsave
newpath
translate
0.5 setlinewidth
1 setlinejoin
0 setlinecap
0 0 m
2 0 l
gsave
0.000 setgray
fill
grestore
stroke
grestore
} bind def
68.2684 421.008 o
grestore
gsave
/o {
gsave
newpath
translate
0.5 setlinewidth
1 setlinejoin
0 setlinecap
0 0 m
-2 0 l
gsave
0.000 setgray
fill
grestore
stroke
grestore
} bind def
1071.23 421.008 o
grestore
gsave
/o {
gsave
newpath
translate
0.5 setlinewidth
1 setlinejoin
0 setlinecap
0 0 m
2 0 l
gsave
0.000 setgray
fill
grestore
stroke
grestore
} bind def
68.2684 486.866 o
grestore
gsave
/o {
gsave
newpath
translate
0.5 setlinewidth
1 setlinejoin
0 setlinecap
0 0 m
-2 0 l
gsave
0.000 setgray
fill
grestore
stroke
grestore
} bind def
1071.23 486.866 o
grestore
gsave
/o {
gsave
newpath
translate
0.5 setlinewidth
1 setlinejoin
0 setlinecap
0 0 m
2 0 l
gsave
0.000 setgray
fill
grestore
stroke
grestore
} bind def
68.2684 520.307 o
grestore
gsave
/o {
gsave
newpath
translate
0.5 setlinewidth
1 setlinejoin
0 setlinecap
0 0 m
-2 0 l
gsave
0.000 setgray
fill
grestore
stroke
grestore
} bind def
1071.23 520.307 o
grestore
gsave
/o {
gsave
newpath
translate
0.5 setlinewidth
1 setlinejoin
0 setlinecap
0 0 m
2 0 l
gsave
0.000 setgray
fill
grestore
stroke
grestore
} bind def
68.2684 544.034 o
grestore
gsave
/o {
gsave
newpath
translate
0.5 setlinewidth
1 setlinejoin
0 setlinecap
0 0 m
-2 0 l
gsave
0.000 setgray
fill
grestore
stroke
grestore
} bind def
1071.23 544.034 o
grestore
gsave
/o {
gsave
newpath
translate
0.5 setlinewidth
1 setlinejoin
0 setlinecap
0 0 m
2 0 l
gsave
0.000 setgray
fill
grestore
stroke
grestore
} bind def
68.2684 562.438 o
grestore
gsave
/o {
gsave
newpath
translate
0.5 setlinewidth
1 setlinejoin
0 setlinecap
0 0 m
-2 0 l
gsave
0.000 setgray
fill
grestore
stroke
grestore
} bind def
1071.23 562.438 o
grestore
gsave
/o {
gsave
newpath
translate
0.5 setlinewidth
1 setlinejoin
0 setlinecap
0 0 m
2 0 l
gsave
0.000 setgray
fill
grestore
stroke
grestore
} bind def
68.2684 577.475 o
grestore
gsave
/o {
gsave
newpath
translate
0.5 setlinewidth
1 setlinejoin
0 setlinecap
0 0 m
-2 0 l
gsave
0.000 setgray
fill
grestore
stroke
grestore
} bind def
1071.23 577.475 o
grestore
gsave
/o {
gsave
newpath
translate
0.5 setlinewidth
1 setlinejoin
0 setlinecap
0 0 m
2 0 l
gsave
0.000 setgray
fill
grestore
stroke
grestore
} bind def
68.2684 590.189 o
grestore
gsave
/o {
gsave
newpath
translate
0.5 setlinewidth
1 setlinejoin
0 setlinecap
0 0 m
-2 0 l
gsave
0.000 setgray
fill
grestore
stroke
grestore
} bind def
1071.23 590.189 o
grestore
gsave
/o {
gsave
newpath
translate
0.5 setlinewidth
1 setlinejoin
0 setlinecap
0 0 m
2 0 l
gsave
0.000 setgray
fill
grestore
stroke
grestore
} bind def
68.2684 601.202 o
grestore
gsave
/o {
gsave
newpath
translate
0.5 setlinewidth
1 setlinejoin
0 setlinecap
0 0 m
-2 0 l
gsave
0.000 setgray
fill
grestore
stroke
grestore
} bind def
1071.23 601.202 o
grestore
gsave
/o {
gsave
newpath
translate
0.5 setlinewidth
1 setlinejoin
0 setlinecap
0 0 m
2 0 l
gsave
0.000 setgray
fill
grestore
stroke
grestore
} bind def
68.2684 610.916 o
grestore
gsave
/o {
gsave
newpath
translate
0.5 setlinewidth
1 setlinejoin
0 setlinecap
0 0 m
-2 0 l
gsave
0.000 setgray
fill
grestore
stroke
grestore
} bind def
1071.23 610.916 o
grestore
gsave
29.268374 311.701887 translate
90.000000 rotate
/Cmmi10 findfont
20.736 scalefont
setfont
0.000000 0.453125 moveto
/omega glyphshow

/Cmr10 findfont
20.736 scalefont
setfont
12.898239 0.453125 moveto
/parenleft glyphshow

/Cmmi10 findfont
20.736 scalefont
setfont
20.946976 0.453125 moveto
/sigma glyphshow

/Cmr10 findfont
20.736 scalefont
setfont
32.782166 0.453125 moveto
/parenright glyphshow


grestore
/BitstreamVeraSans-Roman findfont
17.280 scalefont
setfont
gsave
475.132153 619.521950 translate
0.000000 rotate
0.000000 0.000000 m /C glyphshow
12.044678 0.000000 m /F glyphshow
21.966797 0.000000 m /hyphen glyphshow
28.191284 0.000000 m /b glyphshow
39.140991 0.000000 m /l glyphshow
43.933594 0.000000 m /u glyphshow
54.866455 0.000000 m /e glyphshow
65.479248 0.000000 m /space glyphshow
70.962524 0.000000 m /A glyphshow
82.762939 0.000000 m /l glyphshow
87.555542 0.000000 m /l glyphshow
92.348145 0.000000 m /space glyphshow
97.831421 0.000000 m /E glyphshow
108.730591 0.000000 m /s glyphshow
117.717773 0.000000 m /t glyphshow
124.481323 0.000000 m /i glyphshow
129.273926 0.000000 m /m glyphshow
146.077515 0.000000 m /a glyphshow
156.648193 0.000000 m /t glyphshow
163.411743 0.000000 m /o glyphshow
173.965576 0.000000 m /r glyphshow
181.057617 0.000000 m /s glyphshow
grestore
1.000 setlinewidth
0 setlinejoin
0.300 setgray
gsave
858.543 479.084 m
1059.23 479.084 l
1061.9 479.084 1063.23 480.418 1063.23 483.084 c
1063.23 598.522 l
1063.23 601.189 1061.9 602.522 1059.23 602.522 c
858.543 602.522 l
855.876 602.522 854.543 601.189 854.543 598.522 c
854.543 483.084 l
854.543 480.418 855.876 479.084 858.543 479.084 c
cl
gsave
fill
grestore
stroke
grestore
0.000 setgray
gsave
856.543 481.084 m
1057.23 481.084 l
1059.9 481.084 1061.23 482.418 1061.23 485.084 c
1061.23 600.522 l
1061.23 603.189 1059.9 604.522 1057.23 604.522 c
856.543 604.522 l
853.876 604.522 852.543 603.189 852.543 600.522 c
852.543 485.084 l
852.543 482.418 853.876 481.084 856.543 481.084 c
cl
gsave
1.000 setgray
fill
grestore
stroke
grestore
1 setlinejoin
gsave
866.543 584.069 m
867.206 584.069 867.842 584.332 868.311 584.801 c
868.779 585.27 869.043 585.906 869.043 586.569 c
869.043 587.232 868.779 587.868 868.311 588.337 c
867.842 588.805 867.206 589.069 866.543 589.069 c
865.88 589.069 865.244 588.805 864.775 588.337 c
864.306 587.868 864.043 587.232 864.043 586.569 c
864.043 585.906 864.306 585.27 864.775 584.801 c
865.244 584.332 865.88 584.069 866.543 584.069 c
cl
gsave
fill
grestore
stroke
grestore
gsave
880.543 585.819 m
881.206 585.819 881.842 586.082 882.311 586.551 c
882.779 587.02 883.043 587.656 883.043 588.319 c
883.043 588.982 882.779 589.618 882.311 590.087 c
881.842 590.555 881.206 590.819 880.543 590.819 c
879.88 590.819 879.244 590.555 878.775 590.087 c
878.306 589.618 878.043 588.982 878.043 588.319 c
878.043 587.656 878.306 587.02 878.775 586.551 c
879.244 586.082 879.88 585.819 880.543 585.819 c
cl
gsave
fill
grestore
stroke
grestore
gsave
894.543 583.194 m
895.206 583.194 895.842 583.457 896.311 583.926 c
896.779 584.395 897.043 585.031 897.043 585.694 c
897.043 586.357 896.779 586.993 896.311 587.462 c
895.842 587.93 895.206 588.194 894.543 588.194 c
893.88 588.194 893.244 587.93 892.775 587.462 c
892.306 586.993 892.043 586.357 892.043 585.694 c
892.043 585.031 892.306 584.395 892.775 583.926 c
893.244 583.457 893.88 583.194 894.543 583.194 c
cl
gsave
fill
grestore
stroke
grestore
/BitstreamVeraSans-Roman findfont
20.000 scalefont
setfont
gsave
916.542808 581.318825 translate
0.000000 rotate
0.000000 0.000000 m /N glyphshow
14.960938 0.000000 m /a glyphshow
27.216797 0.000000 m /t glyphshow
35.058594 0.000000 m /u glyphshow
47.734375 0.000000 m /r glyphshow
55.957031 0.000000 m /a glyphshow
68.212891 0.000000 m /l glyphshow
grestore
1.000 0.000 0.000 setrgbcolor
gsave
866.543 554.709 m
867.206 554.709 867.842 554.973 868.311 555.442 c
868.779 555.911 869.043 556.546 869.043 557.209 c
869.043 557.872 868.779 558.508 868.311 558.977 c
867.842 559.446 867.206 559.709 866.543 559.709 c
865.88 559.709 865.244 559.446 864.775 558.977 c
864.306 558.508 864.043 557.872 864.043 557.209 c
864.043 556.546 864.306 555.911 864.775 555.442 c
865.244 554.973 865.88 554.709 866.543 554.709 c
cl
gsave
fill
grestore
stroke
grestore
gsave
880.543 556.459 m
881.206 556.459 881.842 556.723 882.311 557.192 c
882.779 557.661 883.043 558.296 883.043 558.959 c
883.043 559.622 882.779 560.258 882.311 560.727 c
881.842 561.196 881.206 561.459 880.543 561.459 c
879.88 561.459 879.244 561.196 878.775 560.727 c
878.306 560.258 878.043 559.622 878.043 558.959 c
878.043 558.296 878.306 557.661 878.775 557.192 c
879.244 556.723 879.88 556.459 880.543 556.459 c
cl
gsave
fill
grestore
stroke
grestore
gsave
894.543 553.834 m
895.206 553.834 895.842 554.098 896.311 554.567 c
896.779 555.036 897.043 555.671 897.043 556.334 c
897.043 556.997 896.779 557.633 896.311 558.102 c
895.842 558.571 895.206 558.834 894.543 558.834 c
893.88 558.834 893.244 558.571 892.775 558.102 c
892.306 557.633 892.043 556.997 892.043 556.334 c
892.043 555.671 892.306 555.036 892.775 554.567 c
893.244 554.098 893.88 553.834 894.543 553.834 c
cl
gsave
fill
grestore
stroke
grestore
0.000 setgray
gsave
916.542808 551.959450 translate
0.000000 rotate
0.000000 0.000000 m /D glyphshow
15.400391 0.000000 m /a glyphshow
27.656250 0.000000 m /v glyphshow
39.492188 0.000000 m /i glyphshow
45.048828 0.000000 m /s glyphshow
55.468750 0.000000 m /hyphen glyphshow
62.685547 0.000000 m /P glyphshow
73.996094 0.000000 m /e glyphshow
86.300781 0.000000 m /e glyphshow
98.605469 0.000000 m /b glyphshow
111.300781 0.000000 m /l glyphshow
116.857422 0.000000 m /e glyphshow
129.162109 0.000000 m /s glyphshow
grestore
0.000 0.000 1.000 setrgbcolor
gsave
866.543 525.35 m
867.206 525.35 867.842 525.613 868.311 526.082 c
868.779 526.551 869.043 527.187 869.043 527.85 c
869.043 528.513 868.779 529.149 868.311 529.618 c
867.842 530.087 867.206 530.35 866.543 530.35 c
865.88 530.35 865.244 530.087 864.775 529.618 c
864.306 529.149 864.043 528.513 864.043 527.85 c
864.043 527.187 864.306 526.551 864.775 526.082 c
865.244 525.613 865.88 525.35 866.543 525.35 c
cl
gsave
fill
grestore
stroke
grestore
gsave
880.543 527.1 m
881.206 527.1 881.842 527.363 882.311 527.832 c
882.779 528.301 883.043 528.937 883.043 529.6 c
883.043 530.263 882.779 530.899 882.311 531.368 c
881.842 531.837 881.206 532.1 880.543 532.1 c
879.88 532.1 879.244 531.837 878.775 531.368 c
878.306 530.899 878.043 530.263 878.043 529.6 c
878.043 528.937 878.306 528.301 878.775 527.832 c
879.244 527.363 879.88 527.1 880.543 527.1 c
cl
gsave
fill
grestore
stroke
grestore
gsave
894.543 524.475 m
895.206 524.475 895.842 524.738 896.311 525.207 c
896.779 525.676 897.043 526.312 897.043 526.975 c
897.043 527.638 896.779 528.274 896.311 528.743 c
895.842 529.212 895.206 529.475 894.543 529.475 c
893.88 529.475 893.244 529.212 892.775 528.743 c
892.306 528.274 892.043 527.638 892.043 526.975 c
892.043 526.312 892.306 525.676 892.775 525.207 c
893.244 524.738 893.88 524.475 894.543 524.475 c
cl
gsave
fill
grestore
stroke
grestore
0.000 setgray
gsave
916.542808 522.600075 translate
0.000000 rotate
0.000000 0.000000 m /H glyphshow
15.039062 0.000000 m /a glyphshow
27.294922 0.000000 m /m glyphshow
46.777344 0.000000 m /i glyphshow
52.333984 0.000000 m /l glyphshow
57.890625 0.000000 m /t glyphshow
65.732422 0.000000 m /o glyphshow
77.968750 0.000000 m /n glyphshow
grestore
0.502 setgray
gsave
866.543 495.991 m
867.206 495.991 867.842 496.254 868.311 496.723 c
868.779 497.192 869.043 497.828 869.043 498.491 c
869.043 499.154 868.779 499.79 868.311 500.258 c
867.842 500.727 867.206 500.991 866.543 500.991 c
865.88 500.991 865.244 500.727 864.775 500.258 c
864.306 499.79 864.043 499.154 864.043 498.491 c
864.043 497.828 864.306 497.192 864.775 496.723 c
865.244 496.254 865.88 495.991 866.543 495.991 c
cl
gsave
fill
grestore
stroke
grestore
gsave
880.543 497.741 m
881.206 497.741 881.842 498.004 882.311 498.473 c
882.779 498.942 883.043 499.578 883.043 500.241 c
883.043 500.904 882.779 501.54 882.311 502.008 c
881.842 502.477 881.206 502.741 880.543 502.741 c
879.88 502.741 879.244 502.477 878.775 502.008 c
878.306 501.54 878.043 500.904 878.043 500.241 c
878.043 499.578 878.306 498.942 878.775 498.473 c
879.244 498.004 879.88 497.741 880.543 497.741 c
cl
gsave
fill
grestore
stroke
grestore
gsave
894.543 495.116 m
895.206 495.116 895.842 495.379 896.311 495.848 c
896.779 496.317 897.043 496.953 897.043 497.616 c
897.043 498.279 896.779 498.915 896.311 499.383 c
895.842 499.852 895.206 500.116 894.543 500.116 c
893.88 500.116 893.244 499.852 892.775 499.383 c
892.306 498.915 892.043 498.279 892.043 497.616 c
892.043 496.953 892.306 496.317 892.775 495.848 c
893.244 495.379 893.88 495.116 894.543 495.116 c
cl
gsave
fill
grestore
stroke
grestore
0.000 setgray
gsave
916.542808 493.240700 translate
0.000000 rotate
0.000000 0.000000 m /L glyphshow
11.142578 0.000000 m /a glyphshow
23.398438 0.000000 m /n glyphshow
36.074219 0.000000 m /d glyphshow
48.769531 0.000000 m /i glyphshow
54.326172 0.000000 m /hyphen glyphshow
61.542969 0.000000 m /S glyphshow
74.238281 0.000000 m /z glyphshow
84.736328 0.000000 m /a glyphshow
96.992188 0.000000 m /l glyphshow
102.548828 0.000000 m /a glyphshow
114.804688 0.000000 m /y glyphshow
grestore

end
showpage
