{
  "arch": "x86_64", 
  "build": "py27_0", 
  "build_number": 0, 
  "channel": "https://repo.continuum.io/pkgs/free/linux-64/", 
  "date": "2016-01-28", 
  "depends": [
    "python 2.7*"
  ], 
  "files": [
    "lib/python2.7/site-packages/alabaster-0.7.7-py2.7.egg-info/PKG-INFO", 
    "lib/python2.7/site-packages/alabaster-0.7.7-py2.7.egg-info/SOURCES.txt", 
    "lib/python2.7/site-packages/alabaster-0.7.7-py2.7.egg-info/dependency_links.txt", 
    "lib/python2.7/site-packages/alabaster-0.7.7-py2.7.egg-info/not-zip-safe", 
    "lib/python2.7/site-packages/alabaster-0.7.7-py2.7.egg-info/pbr.json", 
    "lib/python2.7/site-packages/alabaster-0.7.7-py2.7.egg-info/top_level.txt", 
    "lib/python2.7/site-packages/alabaster/__init__.py", 
    "lib/python2.7/site-packages/alabaster/__init__.pyc", 
    "lib/python2.7/site-packages/alabaster/_version.py", 
    "lib/python2.7/site-packages/alabaster/_version.pyc", 
    "lib/python2.7/site-packages/alabaster/about.html", 
    "lib/python2.7/site-packages/alabaster/donate.html", 
    "lib/python2.7/site-packages/alabaster/layout.html", 
    "lib/python2.7/site-packages/alabaster/navigation.html", 
    "lib/python2.7/site-packages/alabaster/relations.html", 
    "lib/python2.7/site-packages/alabaster/static/alabaster.css_t", 
    "lib/python2.7/site-packages/alabaster/support.py", 
    "lib/python2.7/site-packages/alabaster/support.pyc", 
    "lib/python2.7/site-packages/alabaster/theme.conf"
  ], 
  "license": "BSD", 
  "link": {
    "source": "/opt/anaconda/2/4.0.0/pkgs/alabaster-0.7.7-py27_0", 
    "type": "soft-link"
  }, 
  "md5": "4490e23347574dd0fc9aaa1f35c2eca0", 
  "name": "alabaster", 
  "platform": "linux", 
  "requires": [], 
  "size": 15756, 
  "subdir": "linux-64", 
  "url": "https://repo.continuum.io/pkgs/free/linux-64/alabaster-0.7.7-py27_0.tar.bz2", 
  "version": "0.7.7"
}