{
  "arch": "x86_64", 
  "build": "py27_0", 
  "build_number": 0, 
  "channel": "https://repo.continuum.io/pkgs/free/linux-64/", 
  "date": "2014-09-03", 
  "depends": [
    "python 2.7*", 
    "six"
  ], 
  "files": [
    "lib/python2.7/site-packages/_version.py", 
    "lib/python2.7/site-packages/_version.pyc", 
    "lib/python2.7/site-packages/configobj-5.0.6-py2.7.egg-info", 
    "lib/python2.7/site-packages/configobj.py", 
    "lib/python2.7/site-packages/configobj.pyc", 
    "lib/python2.7/site-packages/validate.py", 
    "lib/python2.7/site-packages/validate.pyc"
  ], 
  "license": "BSD", 
  "link": {
    "source": "/opt/anaconda/2/4.0.0/pkgs/configobj-5.0.6-py27_0", 
    "type": "soft-link"
  }, 
  "md5": "058ebcb6414921a0d67a4914356768ec", 
  "name": "configobj", 
  "platform": "linux", 
  "requires": [], 
  "size": 50956, 
  "ucs": 4, 
  "url": "https://repo.continuum.io/pkgs/free/linux-64/configobj-5.0.6-py27_0.tar.bz2", 
  "version": "5.0.6"
}