{
  "arch": "x86_64", 
  "build": "py27_0", 
  "build_number": 0, 
  "channel": "https://repo.continuum.io/pkgs/free/linux-64/", 
  "date": "2015-10-12", 
  "depends": [
    "python 2.7*"
  ], 
  "files": [
    "bin/cygdb", 
    "bin/cython", 
    "bin/cythonize", 
    "lib/python2.7/site-packages/Cython-0.23.4-py2.7.egg-info", 
    "lib/python2.7/site-packages/Cython/Build/BuildExecutable.py", 
    "lib/python2.7/site-packages/Cython/Build/BuildExecutable.pyc", 
    "lib/python2.7/site-packages/Cython/Build/Cythonize.py", 
    "lib/python2.7/site-packages/Cython/Build/Cythonize.pyc", 
    "lib/python2.7/site-packages/Cython/Build/Dependencies.py", 
    "lib/python2.7/site-packages/Cython/Build/Dependencies.pyc", 
    "lib/python2.7/site-packages/Cython/Build/Inline.py", 
    "lib/python2.7/site-packages/Cython/Build/Inline.pyc", 
    "lib/python2.7/site-packages/Cython/Build/IpythonMagic.py", 
    "lib/python2.7/site-packages/Cython/Build/IpythonMagic.pyc", 
    "lib/python2.7/site-packages/Cython/Build/Tests/TestInline.py", 
    "lib/python2.7/site-packages/Cython/Build/Tests/TestInline.pyc", 
    "lib/python2.7/site-packages/Cython/Build/Tests/TestIpythonMagic.py", 
    "lib/python2.7/site-packages/Cython/Build/Tests/TestIpythonMagic.pyc", 
    "lib/python2.7/site-packages/Cython/Build/Tests/TestStripLiterals.py", 
    "lib/python2.7/site-packages/Cython/Build/Tests/TestStripLiterals.pyc", 
    "lib/python2.7/site-packages/Cython/Build/Tests/__init__.py", 
    "lib/python2.7/site-packages/Cython/Build/Tests/__init__.pyc", 
    "lib/python2.7/site-packages/Cython/Build/__init__.py", 
    "lib/python2.7/site-packages/Cython/Build/__init__.pyc", 
    "lib/python2.7/site-packages/Cython/CodeWriter.py", 
    "lib/python2.7/site-packages/Cython/CodeWriter.pyc", 
    "lib/python2.7/site-packages/Cython/Compiler/AnalysedTreeTransforms.py", 
    "lib/python2.7/site-packages/Cython/Compiler/AnalysedTreeTransforms.pyc", 
    "lib/python2.7/site-packages/Cython/Compiler/Annotate.py", 
    "lib/python2.7/site-packages/Cython/Compiler/Annotate.pyc", 
    "lib/python2.7/site-packages/Cython/Compiler/AutoDocTransforms.py", 
    "lib/python2.7/site-packages/Cython/Compiler/AutoDocTransforms.pyc", 
    "lib/python2.7/site-packages/Cython/Compiler/Buffer.py", 
    "lib/python2.7/site-packages/Cython/Compiler/Buffer.pyc", 
    "lib/python2.7/site-packages/Cython/Compiler/Builtin.py", 
    "lib/python2.7/site-packages/Cython/Compiler/Builtin.pyc", 
    "lib/python2.7/site-packages/Cython/Compiler/CmdLine.py", 
    "lib/python2.7/site-packages/Cython/Compiler/CmdLine.pyc", 
    "lib/python2.7/site-packages/Cython/Compiler/Code.pxd", 
    "lib/python2.7/site-packages/Cython/Compiler/Code.so", 
    "lib/python2.7/site-packages/Cython/Compiler/CodeGeneration.py", 
    "lib/python2.7/site-packages/Cython/Compiler/CodeGeneration.pyc", 
    "lib/python2.7/site-packages/Cython/Compiler/CythonScope.py", 
    "lib/python2.7/site-packages/Cython/Compiler/CythonScope.pyc", 
    "lib/python2.7/site-packages/Cython/Compiler/DebugFlags.py", 
    "lib/python2.7/site-packages/Cython/Compiler/DebugFlags.pyc", 
    "lib/python2.7/site-packages/Cython/Compiler/Errors.py", 
    "lib/python2.7/site-packages/Cython/Compiler/Errors.pyc", 
    "lib/python2.7/site-packages/Cython/Compiler/ExprNodes.py", 
    "lib/python2.7/site-packages/Cython/Compiler/ExprNodes.pyc", 
    "lib/python2.7/site-packages/Cython/Compiler/FlowControl.pxd", 
    "lib/python2.7/site-packages/Cython/Compiler/FlowControl.so", 
    "lib/python2.7/site-packages/Cython/Compiler/FusedNode.py", 
    "lib/python2.7/site-packages/Cython/Compiler/FusedNode.pyc", 
    "lib/python2.7/site-packages/Cython/Compiler/Future.py", 
    "lib/python2.7/site-packages/Cython/Compiler/Future.pyc", 
    "lib/python2.7/site-packages/Cython/Compiler/Interpreter.py", 
    "lib/python2.7/site-packages/Cython/Compiler/Interpreter.pyc", 
    "lib/python2.7/site-packages/Cython/Compiler/Lexicon.so", 
    "lib/python2.7/site-packages/Cython/Compiler/Main.py", 
    "lib/python2.7/site-packages/Cython/Compiler/Main.pyc", 
    "lib/python2.7/site-packages/Cython/Compiler/MemoryView.py", 
    "lib/python2.7/site-packages/Cython/Compiler/MemoryView.pyc", 
    "lib/python2.7/site-packages/Cython/Compiler/ModuleNode.py", 
    "lib/python2.7/site-packages/Cython/Compiler/ModuleNode.pyc", 
    "lib/python2.7/site-packages/Cython/Compiler/Naming.py", 
    "lib/python2.7/site-packages/Cython/Compiler/Naming.pyc", 
    "lib/python2.7/site-packages/Cython/Compiler/Nodes.py", 
    "lib/python2.7/site-packages/Cython/Compiler/Nodes.pyc", 
    "lib/python2.7/site-packages/Cython/Compiler/Optimize.py", 
    "lib/python2.7/site-packages/Cython/Compiler/Optimize.pyc", 
    "lib/python2.7/site-packages/Cython/Compiler/Options.py", 
    "lib/python2.7/site-packages/Cython/Compiler/Options.pyc", 
    "lib/python2.7/site-packages/Cython/Compiler/ParseTreeTransforms.pxd", 
    "lib/python2.7/site-packages/Cython/Compiler/ParseTreeTransforms.py", 
    "lib/python2.7/site-packages/Cython/Compiler/ParseTreeTransforms.pyc", 
    "lib/python2.7/site-packages/Cython/Compiler/Parsing.pxd", 
    "lib/python2.7/site-packages/Cython/Compiler/Parsing.so", 
    "lib/python2.7/site-packages/Cython/Compiler/Pipeline.py", 
    "lib/python2.7/site-packages/Cython/Compiler/Pipeline.pyc", 
    "lib/python2.7/site-packages/Cython/Compiler/PyrexTypes.py", 
    "lib/python2.7/site-packages/Cython/Compiler/PyrexTypes.pyc", 
    "lib/python2.7/site-packages/Cython/Compiler/Scanning.pxd", 
    "lib/python2.7/site-packages/Cython/Compiler/Scanning.so", 
    "lib/python2.7/site-packages/Cython/Compiler/StringEncoding.py", 
    "lib/python2.7/site-packages/Cython/Compiler/StringEncoding.pyc", 
    "lib/python2.7/site-packages/Cython/Compiler/Symtab.py", 
    "lib/python2.7/site-packages/Cython/Compiler/Symtab.pyc", 
    "lib/python2.7/site-packages/Cython/Compiler/Tests/TestBuffer.py", 
    "lib/python2.7/site-packages/Cython/Compiler/Tests/TestBuffer.pyc", 
    "lib/python2.7/site-packages/Cython/Compiler/Tests/TestCmdLine.py", 
    "lib/python2.7/site-packages/Cython/Compiler/Tests/TestCmdLine.pyc", 
    "lib/python2.7/site-packages/Cython/Compiler/Tests/TestMemView.py", 
    "lib/python2.7/site-packages/Cython/Compiler/Tests/TestMemView.pyc", 
    "lib/python2.7/site-packages/Cython/Compiler/Tests/TestParseTreeTransforms.py", 
    "lib/python2.7/site-packages/Cython/Compiler/Tests/TestParseTreeTransforms.pyc", 
    "lib/python2.7/site-packages/Cython/Compiler/Tests/TestSignatureMatching.py", 
    "lib/python2.7/site-packages/Cython/Compiler/Tests/TestSignatureMatching.pyc", 
    "lib/python2.7/site-packages/Cython/Compiler/Tests/TestTreeFragment.py", 
    "lib/python2.7/site-packages/Cython/Compiler/Tests/TestTreeFragment.pyc", 
    "lib/python2.7/site-packages/Cython/Compiler/Tests/TestTreePath.py", 
    "lib/python2.7/site-packages/Cython/Compiler/Tests/TestTreePath.pyc", 
    "lib/python2.7/site-packages/Cython/Compiler/Tests/TestUtilityLoad.py", 
    "lib/python2.7/site-packages/Cython/Compiler/Tests/TestUtilityLoad.pyc", 
    "lib/python2.7/site-packages/Cython/Compiler/Tests/TestVisitor.py", 
    "lib/python2.7/site-packages/Cython/Compiler/Tests/TestVisitor.pyc", 
    "lib/python2.7/site-packages/Cython/Compiler/Tests/__init__.py", 
    "lib/python2.7/site-packages/Cython/Compiler/Tests/__init__.pyc", 
    "lib/python2.7/site-packages/Cython/Compiler/TreeFragment.py", 
    "lib/python2.7/site-packages/Cython/Compiler/TreeFragment.pyc", 
    "lib/python2.7/site-packages/Cython/Compiler/TreePath.py", 
    "lib/python2.7/site-packages/Cython/Compiler/TreePath.pyc", 
    "lib/python2.7/site-packages/Cython/Compiler/TypeInference.py", 
    "lib/python2.7/site-packages/Cython/Compiler/TypeInference.pyc", 
    "lib/python2.7/site-packages/Cython/Compiler/TypeSlots.py", 
    "lib/python2.7/site-packages/Cython/Compiler/TypeSlots.pyc", 
    "lib/python2.7/site-packages/Cython/Compiler/UtilNodes.py", 
    "lib/python2.7/site-packages/Cython/Compiler/UtilNodes.pyc", 
    "lib/python2.7/site-packages/Cython/Compiler/UtilityCode.py", 
    "lib/python2.7/site-packages/Cython/Compiler/UtilityCode.pyc", 
    "lib/python2.7/site-packages/Cython/Compiler/Version.py", 
    "lib/python2.7/site-packages/Cython/Compiler/Version.pyc", 
    "lib/python2.7/site-packages/Cython/Compiler/Visitor.pxd", 
    "lib/python2.7/site-packages/Cython/Compiler/Visitor.so", 
    "lib/python2.7/site-packages/Cython/Compiler/__init__.py", 
    "lib/python2.7/site-packages/Cython/Compiler/__init__.pyc", 
    "lib/python2.7/site-packages/Cython/Coverage.py", 
    "lib/python2.7/site-packages/Cython/Coverage.pyc", 
    "lib/python2.7/site-packages/Cython/Debugger/Cygdb.py", 
    "lib/python2.7/site-packages/Cython/Debugger/Cygdb.pyc", 
    "lib/python2.7/site-packages/Cython/Debugger/DebugWriter.py", 
    "lib/python2.7/site-packages/Cython/Debugger/DebugWriter.pyc", 
    "lib/python2.7/site-packages/Cython/Debugger/Tests/TestLibCython.py", 
    "lib/python2.7/site-packages/Cython/Debugger/Tests/TestLibCython.pyc", 
    "lib/python2.7/site-packages/Cython/Debugger/Tests/__init__.py", 
    "lib/python2.7/site-packages/Cython/Debugger/Tests/__init__.pyc", 
    "lib/python2.7/site-packages/Cython/Debugger/Tests/cfuncs.c", 
    "lib/python2.7/site-packages/Cython/Debugger/Tests/codefile", 
    "lib/python2.7/site-packages/Cython/Debugger/Tests/test_libcython_in_gdb.py", 
    "lib/python2.7/site-packages/Cython/Debugger/Tests/test_libcython_in_gdb.pyc", 
    "lib/python2.7/site-packages/Cython/Debugger/Tests/test_libpython_in_gdb.py", 
    "lib/python2.7/site-packages/Cython/Debugger/Tests/test_libpython_in_gdb.pyc", 
    "lib/python2.7/site-packages/Cython/Debugger/__init__.py", 
    "lib/python2.7/site-packages/Cython/Debugger/__init__.pyc", 
    "lib/python2.7/site-packages/Cython/Debugger/libcython.py", 
    "lib/python2.7/site-packages/Cython/Debugger/libcython.pyc", 
    "lib/python2.7/site-packages/Cython/Debugger/libpython.py", 
    "lib/python2.7/site-packages/Cython/Debugger/libpython.pyc", 
    "lib/python2.7/site-packages/Cython/Debugging.py", 
    "lib/python2.7/site-packages/Cython/Debugging.pyc", 
    "lib/python2.7/site-packages/Cython/Distutils/__init__.py", 
    "lib/python2.7/site-packages/Cython/Distutils/__init__.pyc", 
    "lib/python2.7/site-packages/Cython/Distutils/build_ext.py", 
    "lib/python2.7/site-packages/Cython/Distutils/build_ext.pyc", 
    "lib/python2.7/site-packages/Cython/Distutils/extension.py", 
    "lib/python2.7/site-packages/Cython/Distutils/extension.pyc", 
    "lib/python2.7/site-packages/Cython/Includes/Deprecated/python.pxd", 
    "lib/python2.7/site-packages/Cython/Includes/Deprecated/python2.5.pxd", 
    "lib/python2.7/site-packages/Cython/Includes/Deprecated/python_bool.pxd", 
    "lib/python2.7/site-packages/Cython/Includes/Deprecated/python_buffer.pxd", 
    "lib/python2.7/site-packages/Cython/Includes/Deprecated/python_bytes.pxd", 
    "lib/python2.7/site-packages/Cython/Includes/Deprecated/python_cobject.pxd", 
    "lib/python2.7/site-packages/Cython/Includes/Deprecated/python_complex.pxd", 
    "lib/python2.7/site-packages/Cython/Includes/Deprecated/python_dict.pxd", 
    "lib/python2.7/site-packages/Cython/Includes/Deprecated/python_exc.pxd", 
    "lib/python2.7/site-packages/Cython/Includes/Deprecated/python_float.pxd", 
    "lib/python2.7/site-packages/Cython/Includes/Deprecated/python_function.pxd", 
    "lib/python2.7/site-packages/Cython/Includes/Deprecated/python_getargs.pxd", 
    "lib/python2.7/site-packages/Cython/Includes/Deprecated/python_instance.pxd", 
    "lib/python2.7/site-packages/Cython/Includes/Deprecated/python_int.pxd", 
    "lib/python2.7/site-packages/Cython/Includes/Deprecated/python_iterator.pxd", 
    "lib/python2.7/site-packages/Cython/Includes/Deprecated/python_list.pxd", 
    "lib/python2.7/site-packages/Cython/Includes/Deprecated/python_long.pxd", 
    "lib/python2.7/site-packages/Cython/Includes/Deprecated/python_mapping.pxd", 
    "lib/python2.7/site-packages/Cython/Includes/Deprecated/python_mem.pxd", 
    "lib/python2.7/site-packages/Cython/Includes/Deprecated/python_method.pxd", 
    "lib/python2.7/site-packages/Cython/Includes/Deprecated/python_module.pxd", 
    "lib/python2.7/site-packages/Cython/Includes/Deprecated/python_number.pxd", 
    "lib/python2.7/site-packages/Cython/Includes/Deprecated/python_object.pxd", 
    "lib/python2.7/site-packages/Cython/Includes/Deprecated/python_oldbuffer.pxd", 
    "lib/python2.7/site-packages/Cython/Includes/Deprecated/python_pycapsule.pxd", 
    "lib/python2.7/site-packages/Cython/Includes/Deprecated/python_ref.pxd", 
    "lib/python2.7/site-packages/Cython/Includes/Deprecated/python_sequence.pxd", 
    "lib/python2.7/site-packages/Cython/Includes/Deprecated/python_set.pxd", 
    "lib/python2.7/site-packages/Cython/Includes/Deprecated/python_string.pxd", 
    "lib/python2.7/site-packages/Cython/Includes/Deprecated/python_tuple.pxd", 
    "lib/python2.7/site-packages/Cython/Includes/Deprecated/python_type.pxd", 
    "lib/python2.7/site-packages/Cython/Includes/Deprecated/python_unicode.pxd", 
    "lib/python2.7/site-packages/Cython/Includes/Deprecated/python_version.pxd", 
    "lib/python2.7/site-packages/Cython/Includes/Deprecated/python_weakref.pxd", 
    "lib/python2.7/site-packages/Cython/Includes/Deprecated/stdio.pxd", 
    "lib/python2.7/site-packages/Cython/Includes/Deprecated/stdlib.pxd", 
    "lib/python2.7/site-packages/Cython/Includes/Deprecated/stl.pxd", 
    "lib/python2.7/site-packages/Cython/Includes/cpython/__init__.pxd", 
    "lib/python2.7/site-packages/Cython/Includes/cpython/array.pxd", 
    "lib/python2.7/site-packages/Cython/Includes/cpython/bool.pxd", 
    "lib/python2.7/site-packages/Cython/Includes/cpython/buffer.pxd", 
    "lib/python2.7/site-packages/Cython/Includes/cpython/bytes.pxd", 
    "lib/python2.7/site-packages/Cython/Includes/cpython/cobject.pxd", 
    "lib/python2.7/site-packages/Cython/Includes/cpython/complex.pxd", 
    "lib/python2.7/site-packages/Cython/Includes/cpython/datetime.pxd", 
    "lib/python2.7/site-packages/Cython/Includes/cpython/dict.pxd", 
    "lib/python2.7/site-packages/Cython/Includes/cpython/exc.pxd", 
    "lib/python2.7/site-packages/Cython/Includes/cpython/float.pxd", 
    "lib/python2.7/site-packages/Cython/Includes/cpython/function.pxd", 
    "lib/python2.7/site-packages/Cython/Includes/cpython/getargs.pxd", 
    "lib/python2.7/site-packages/Cython/Includes/cpython/instance.pxd", 
    "lib/python2.7/site-packages/Cython/Includes/cpython/int.pxd", 
    "lib/python2.7/site-packages/Cython/Includes/cpython/iterator.pxd", 
    "lib/python2.7/site-packages/Cython/Includes/cpython/list.pxd", 
    "lib/python2.7/site-packages/Cython/Includes/cpython/long.pxd", 
    "lib/python2.7/site-packages/Cython/Includes/cpython/mapping.pxd", 
    "lib/python2.7/site-packages/Cython/Includes/cpython/mem.pxd", 
    "lib/python2.7/site-packages/Cython/Includes/cpython/method.pxd", 
    "lib/python2.7/site-packages/Cython/Includes/cpython/module.pxd", 
    "lib/python2.7/site-packages/Cython/Includes/cpython/number.pxd", 
    "lib/python2.7/site-packages/Cython/Includes/cpython/object.pxd", 
    "lib/python2.7/site-packages/Cython/Includes/cpython/oldbuffer.pxd", 
    "lib/python2.7/site-packages/Cython/Includes/cpython/pycapsule.pxd", 
    "lib/python2.7/site-packages/Cython/Includes/cpython/pystate.pxd", 
    "lib/python2.7/site-packages/Cython/Includes/cpython/pythread.pxd", 
    "lib/python2.7/site-packages/Cython/Includes/cpython/ref.pxd", 
    "lib/python2.7/site-packages/Cython/Includes/cpython/sequence.pxd", 
    "lib/python2.7/site-packages/Cython/Includes/cpython/set.pxd", 
    "lib/python2.7/site-packages/Cython/Includes/cpython/slice.pxd", 
    "lib/python2.7/site-packages/Cython/Includes/cpython/string.pxd", 
    "lib/python2.7/site-packages/Cython/Includes/cpython/tuple.pxd", 
    "lib/python2.7/site-packages/Cython/Includes/cpython/type.pxd", 
    "lib/python2.7/site-packages/Cython/Includes/cpython/unicode.pxd", 
    "lib/python2.7/site-packages/Cython/Includes/cpython/version.pxd", 
    "lib/python2.7/site-packages/Cython/Includes/cpython/weakref.pxd", 
    "lib/python2.7/site-packages/Cython/Includes/libc/__init__.pxd", 
    "lib/python2.7/site-packages/Cython/Includes/libc/errno.pxd", 
    "lib/python2.7/site-packages/Cython/Includes/libc/float.pxd", 
    "lib/python2.7/site-packages/Cython/Includes/libc/limits.pxd", 
    "lib/python2.7/site-packages/Cython/Includes/libc/locale.pxd", 
    "lib/python2.7/site-packages/Cython/Includes/libc/math.pxd", 
    "lib/python2.7/site-packages/Cython/Includes/libc/setjmp.pxd", 
    "lib/python2.7/site-packages/Cython/Includes/libc/signal.pxd", 
    "lib/python2.7/site-packages/Cython/Includes/libc/stddef.pxd", 
    "lib/python2.7/site-packages/Cython/Includes/libc/stdint.pxd", 
    "lib/python2.7/site-packages/Cython/Includes/libc/stdio.pxd", 
    "lib/python2.7/site-packages/Cython/Includes/libc/stdlib.pxd", 
    "lib/python2.7/site-packages/Cython/Includes/libc/string.pxd", 
    "lib/python2.7/site-packages/Cython/Includes/libc/time.pxd", 
    "lib/python2.7/site-packages/Cython/Includes/libcpp/__init__.pxd", 
    "lib/python2.7/site-packages/Cython/Includes/libcpp/algorithm.pxd", 
    "lib/python2.7/site-packages/Cython/Includes/libcpp/cast.pxd", 
    "lib/python2.7/site-packages/Cython/Includes/libcpp/complex.pxd", 
    "lib/python2.7/site-packages/Cython/Includes/libcpp/deque.pxd", 
    "lib/python2.7/site-packages/Cython/Includes/libcpp/list.pxd", 
    "lib/python2.7/site-packages/Cython/Includes/libcpp/map.pxd", 
    "lib/python2.7/site-packages/Cython/Includes/libcpp/memory.pxd", 
    "lib/python2.7/site-packages/Cython/Includes/libcpp/pair.pxd", 
    "lib/python2.7/site-packages/Cython/Includes/libcpp/queue.pxd", 
    "lib/python2.7/site-packages/Cython/Includes/libcpp/set.pxd", 
    "lib/python2.7/site-packages/Cython/Includes/libcpp/stack.pxd", 
    "lib/python2.7/site-packages/Cython/Includes/libcpp/string.pxd", 
    "lib/python2.7/site-packages/Cython/Includes/libcpp/unordered_map.pxd", 
    "lib/python2.7/site-packages/Cython/Includes/libcpp/unordered_set.pxd", 
    "lib/python2.7/site-packages/Cython/Includes/libcpp/utility.pxd", 
    "lib/python2.7/site-packages/Cython/Includes/libcpp/vector.pxd", 
    "lib/python2.7/site-packages/Cython/Includes/numpy/__init__.pxd", 
    "lib/python2.7/site-packages/Cython/Includes/numpy/math.pxd", 
    "lib/python2.7/site-packages/Cython/Includes/openmp.pxd", 
    "lib/python2.7/site-packages/Cython/Includes/posix/__init__.pxd", 
    "lib/python2.7/site-packages/Cython/Includes/posix/fcntl.pxd", 
    "lib/python2.7/site-packages/Cython/Includes/posix/ioctl.pxd", 
    "lib/python2.7/site-packages/Cython/Includes/posix/mman.pxd", 
    "lib/python2.7/site-packages/Cython/Includes/posix/resource.pxd", 
    "lib/python2.7/site-packages/Cython/Includes/posix/signal.pxd", 
    "lib/python2.7/site-packages/Cython/Includes/posix/stat.pxd", 
    "lib/python2.7/site-packages/Cython/Includes/posix/stdlib.pxd", 
    "lib/python2.7/site-packages/Cython/Includes/posix/strings.pxd", 
    "lib/python2.7/site-packages/Cython/Includes/posix/time.pxd", 
    "lib/python2.7/site-packages/Cython/Includes/posix/types.pxd", 
    "lib/python2.7/site-packages/Cython/Includes/posix/unistd.pxd", 
    "lib/python2.7/site-packages/Cython/Includes/posix/wait.pxd", 
    "lib/python2.7/site-packages/Cython/Plex/Actions.pxd", 
    "lib/python2.7/site-packages/Cython/Plex/Actions.so", 
    "lib/python2.7/site-packages/Cython/Plex/DFA.py", 
    "lib/python2.7/site-packages/Cython/Plex/DFA.pyc", 
    "lib/python2.7/site-packages/Cython/Plex/Errors.py", 
    "lib/python2.7/site-packages/Cython/Plex/Errors.pyc", 
    "lib/python2.7/site-packages/Cython/Plex/Lexicons.py", 
    "lib/python2.7/site-packages/Cython/Plex/Lexicons.pyc", 
    "lib/python2.7/site-packages/Cython/Plex/Machines.py", 
    "lib/python2.7/site-packages/Cython/Plex/Machines.pyc", 
    "lib/python2.7/site-packages/Cython/Plex/Regexps.py", 
    "lib/python2.7/site-packages/Cython/Plex/Regexps.pyc", 
    "lib/python2.7/site-packages/Cython/Plex/Scanners.pxd", 
    "lib/python2.7/site-packages/Cython/Plex/Scanners.so", 
    "lib/python2.7/site-packages/Cython/Plex/Timing.py", 
    "lib/python2.7/site-packages/Cython/Plex/Timing.pyc", 
    "lib/python2.7/site-packages/Cython/Plex/Traditional.py", 
    "lib/python2.7/site-packages/Cython/Plex/Traditional.pyc", 
    "lib/python2.7/site-packages/Cython/Plex/Transitions.py", 
    "lib/python2.7/site-packages/Cython/Plex/Transitions.pyc", 
    "lib/python2.7/site-packages/Cython/Plex/__init__.py", 
    "lib/python2.7/site-packages/Cython/Plex/__init__.pyc", 
    "lib/python2.7/site-packages/Cython/Runtime/__init__.py", 
    "lib/python2.7/site-packages/Cython/Runtime/__init__.pyc", 
    "lib/python2.7/site-packages/Cython/Runtime/refnanny.pyx", 
    "lib/python2.7/site-packages/Cython/Runtime/refnanny.so", 
    "lib/python2.7/site-packages/Cython/Shadow.py", 
    "lib/python2.7/site-packages/Cython/Shadow.pyc", 
    "lib/python2.7/site-packages/Cython/StringIOTree.py", 
    "lib/python2.7/site-packages/Cython/StringIOTree.pyc", 
    "lib/python2.7/site-packages/Cython/Tempita/__init__.py", 
    "lib/python2.7/site-packages/Cython/Tempita/__init__.pyc", 
    "lib/python2.7/site-packages/Cython/Tempita/_looper.py", 
    "lib/python2.7/site-packages/Cython/Tempita/_looper.pyc", 
    "lib/python2.7/site-packages/Cython/Tempita/_tempita.so", 
    "lib/python2.7/site-packages/Cython/Tempita/compat3.py", 
    "lib/python2.7/site-packages/Cython/Tempita/compat3.pyc", 
    "lib/python2.7/site-packages/Cython/TestUtils.py", 
    "lib/python2.7/site-packages/Cython/TestUtils.pyc", 
    "lib/python2.7/site-packages/Cython/Tests/TestCodeWriter.py", 
    "lib/python2.7/site-packages/Cython/Tests/TestCodeWriter.pyc", 
    "lib/python2.7/site-packages/Cython/Tests/TestJediTyper.py", 
    "lib/python2.7/site-packages/Cython/Tests/TestJediTyper.pyc", 
    "lib/python2.7/site-packages/Cython/Tests/TestStringIOTree.py", 
    "lib/python2.7/site-packages/Cython/Tests/TestStringIOTree.pyc", 
    "lib/python2.7/site-packages/Cython/Tests/__init__.py", 
    "lib/python2.7/site-packages/Cython/Tests/__init__.pyc", 
    "lib/python2.7/site-packages/Cython/Tests/xmlrunner.py", 
    "lib/python2.7/site-packages/Cython/Tests/xmlrunner.pyc", 
    "lib/python2.7/site-packages/Cython/Utility/Buffer.c", 
    "lib/python2.7/site-packages/Cython/Utility/Builtins.c", 
    "lib/python2.7/site-packages/Cython/Utility/CConvert.pyx", 
    "lib/python2.7/site-packages/Cython/Utility/CMath.c", 
    "lib/python2.7/site-packages/Cython/Utility/Capsule.c", 
    "lib/python2.7/site-packages/Cython/Utility/CommonTypes.c", 
    "lib/python2.7/site-packages/Cython/Utility/Coroutine.c", 
    "lib/python2.7/site-packages/Cython/Utility/CppConvert.pyx", 
    "lib/python2.7/site-packages/Cython/Utility/CppSupport.cpp", 
    "lib/python2.7/site-packages/Cython/Utility/CythonFunction.c", 
    "lib/python2.7/site-packages/Cython/Utility/Embed.c", 
    "lib/python2.7/site-packages/Cython/Utility/Exceptions.c", 
    "lib/python2.7/site-packages/Cython/Utility/ExtensionTypes.c", 
    "lib/python2.7/site-packages/Cython/Utility/FunctionArguments.c", 
    "lib/python2.7/site-packages/Cython/Utility/ImportExport.c", 
    "lib/python2.7/site-packages/Cython/Utility/MemoryView.pyx", 
    "lib/python2.7/site-packages/Cython/Utility/MemoryView_C.c", 
    "lib/python2.7/site-packages/Cython/Utility/ModuleSetupCode.c", 
    "lib/python2.7/site-packages/Cython/Utility/ObjectHandling.c", 
    "lib/python2.7/site-packages/Cython/Utility/Optimize.c", 
    "lib/python2.7/site-packages/Cython/Utility/Overflow.c", 
    "lib/python2.7/site-packages/Cython/Utility/Printing.c", 
    "lib/python2.7/site-packages/Cython/Utility/Profile.c", 
    "lib/python2.7/site-packages/Cython/Utility/StringTools.c", 
    "lib/python2.7/site-packages/Cython/Utility/TestCyUtilityLoader.pyx", 
    "lib/python2.7/site-packages/Cython/Utility/TestCythonScope.pyx", 
    "lib/python2.7/site-packages/Cython/Utility/TestUtilityLoader.c", 
    "lib/python2.7/site-packages/Cython/Utility/TypeConversion.c", 
    "lib/python2.7/site-packages/Cython/Utility/__init__.py", 
    "lib/python2.7/site-packages/Cython/Utility/__init__.pyc", 
    "lib/python2.7/site-packages/Cython/Utility/arrayarray.h", 
    "lib/python2.7/site-packages/Cython/Utils.py", 
    "lib/python2.7/site-packages/Cython/Utils.pyc", 
    "lib/python2.7/site-packages/Cython/__init__.py", 
    "lib/python2.7/site-packages/Cython/__init__.pyc", 
    "lib/python2.7/site-packages/cython.py", 
    "lib/python2.7/site-packages/cython.pyc", 
    "lib/python2.7/site-packages/pyximport/__init__.py", 
    "lib/python2.7/site-packages/pyximport/__init__.pyc", 
    "lib/python2.7/site-packages/pyximport/pyxbuild.py", 
    "lib/python2.7/site-packages/pyximport/pyxbuild.pyc", 
    "lib/python2.7/site-packages/pyximport/pyximport.py", 
    "lib/python2.7/site-packages/pyximport/pyximport.pyc"
  ], 
  "license": "Apache", 
  "link": {
    "source": "/opt/anaconda/2/4.0.0/pkgs/cython-0.23.4-py27_0", 
    "type": "soft-link"
  }, 
  "md5": "2b91e715003c5f6b10764e3416d75995", 
  "name": "cython", 
  "platform": "linux", 
  "requires": [], 
  "size": 5755316, 
  "subdir": "linux-64", 
  "url": "https://repo.continuum.io/pkgs/free/linux-64/cython-0.23.4-py27_0.tar.bz2", 
  "version": "0.23.4"
}