{
  "arch": "x86_64", 
  "build": "py27_0", 
  "build_number": 0, 
  "channel": "https://repo.continuum.io/pkgs/free/linux-64/", 
  "date": "2016-02-05", 
  "depends": [
    "multipledispatch >=0.4.7", 
    "numpy >=1.7", 
    "python 2.7*", 
    "python-dateutil"
  ], 
  "files": [
    "lib/python2.7/site-packages/datashape-0.5.1-py2.7.egg-info/PKG-INFO", 
    "lib/python2.7/site-packages/datashape-0.5.1-py2.7.egg-info/SOURCES.txt", 
    "lib/python2.7/site-packages/datashape-0.5.1-py2.7.egg-info/dependency_links.txt", 
    "lib/python2.7/site-packages/datashape-0.5.1-py2.7.egg-info/not-zip-safe", 
    "lib/python2.7/site-packages/datashape-0.5.1-py2.7.egg-info/requires.txt", 
    "lib/python2.7/site-packages/datashape-0.5.1-py2.7.egg-info/top_level.txt", 
    "lib/python2.7/site-packages/datashape/__init__.py", 
    "lib/python2.7/site-packages/datashape/__init__.pyc", 
    "lib/python2.7/site-packages/datashape/_version.py", 
    "lib/python2.7/site-packages/datashape/_version.pyc", 
    "lib/python2.7/site-packages/datashape/coretypes.py", 
    "lib/python2.7/site-packages/datashape/coretypes.pyc", 
    "lib/python2.7/site-packages/datashape/discovery.py", 
    "lib/python2.7/site-packages/datashape/discovery.pyc", 
    "lib/python2.7/site-packages/datashape/dispatch.py", 
    "lib/python2.7/site-packages/datashape/dispatch.pyc", 
    "lib/python2.7/site-packages/datashape/error.py", 
    "lib/python2.7/site-packages/datashape/error.pyc", 
    "lib/python2.7/site-packages/datashape/internal_utils.py", 
    "lib/python2.7/site-packages/datashape/internal_utils.pyc", 
    "lib/python2.7/site-packages/datashape/lexer.py", 
    "lib/python2.7/site-packages/datashape/lexer.pyc", 
    "lib/python2.7/site-packages/datashape/parser.py", 
    "lib/python2.7/site-packages/datashape/parser.pyc", 
    "lib/python2.7/site-packages/datashape/predicates.py", 
    "lib/python2.7/site-packages/datashape/predicates.pyc", 
    "lib/python2.7/site-packages/datashape/promote.py", 
    "lib/python2.7/site-packages/datashape/promote.pyc", 
    "lib/python2.7/site-packages/datashape/py2help.py", 
    "lib/python2.7/site-packages/datashape/py2help.pyc", 
    "lib/python2.7/site-packages/datashape/tests/__init__.py", 
    "lib/python2.7/site-packages/datashape/tests/__init__.pyc", 
    "lib/python2.7/site-packages/datashape/tests/test_coretypes.py", 
    "lib/python2.7/site-packages/datashape/tests/test_coretypes.pyc", 
    "lib/python2.7/site-packages/datashape/tests/test_creation.py", 
    "lib/python2.7/site-packages/datashape/tests/test_creation.pyc", 
    "lib/python2.7/site-packages/datashape/tests/test_discovery.py", 
    "lib/python2.7/site-packages/datashape/tests/test_discovery.pyc", 
    "lib/python2.7/site-packages/datashape/tests/test_lexer.py", 
    "lib/python2.7/site-packages/datashape/tests/test_lexer.pyc", 
    "lib/python2.7/site-packages/datashape/tests/test_operations.py", 
    "lib/python2.7/site-packages/datashape/tests/test_operations.pyc", 
    "lib/python2.7/site-packages/datashape/tests/test_parser.py", 
    "lib/python2.7/site-packages/datashape/tests/test_parser.pyc", 
    "lib/python2.7/site-packages/datashape/tests/test_predicates.py", 
    "lib/python2.7/site-packages/datashape/tests/test_predicates.pyc", 
    "lib/python2.7/site-packages/datashape/tests/test_promote.py", 
    "lib/python2.7/site-packages/datashape/tests/test_promote.pyc", 
    "lib/python2.7/site-packages/datashape/tests/test_str.py", 
    "lib/python2.7/site-packages/datashape/tests/test_str.pyc", 
    "lib/python2.7/site-packages/datashape/tests/test_typeset.py", 
    "lib/python2.7/site-packages/datashape/tests/test_typeset.pyc", 
    "lib/python2.7/site-packages/datashape/tests/test_user.py", 
    "lib/python2.7/site-packages/datashape/tests/test_user.pyc", 
    "lib/python2.7/site-packages/datashape/tests/test_util.py", 
    "lib/python2.7/site-packages/datashape/tests/test_util.pyc", 
    "lib/python2.7/site-packages/datashape/tests/test_version.py", 
    "lib/python2.7/site-packages/datashape/tests/test_version.pyc", 
    "lib/python2.7/site-packages/datashape/type_symbol_table.py", 
    "lib/python2.7/site-packages/datashape/type_symbol_table.pyc", 
    "lib/python2.7/site-packages/datashape/typesets.py", 
    "lib/python2.7/site-packages/datashape/typesets.pyc", 
    "lib/python2.7/site-packages/datashape/user.py", 
    "lib/python2.7/site-packages/datashape/user.pyc", 
    "lib/python2.7/site-packages/datashape/util/__init__.py", 
    "lib/python2.7/site-packages/datashape/util/__init__.pyc", 
    "lib/python2.7/site-packages/datashape/util/testing.py", 
    "lib/python2.7/site-packages/datashape/util/testing.pyc", 
    "lib/python2.7/site-packages/datashape/validation.py", 
    "lib/python2.7/site-packages/datashape/validation.pyc"
  ], 
  "license": "BSD", 
  "link": {
    "source": "/opt/anaconda/2/4.0.0/pkgs/datashape-0.5.1-py27_0", 
    "type": "soft-link"
  }, 
  "md5": "bd0be3cd5f8c7fa9cc04ac7b9c3a1f99", 
  "name": "datashape", 
  "platform": "linux", 
  "requires": [], 
  "size": 90694, 
  "subdir": "linux-64", 
  "url": "https://repo.continuum.io/pkgs/free/linux-64/datashape-0.5.1-py27_0.tar.bz2", 
  "version": "0.5.1"
}