{
  "arch": "x86_64", 
  "build": "py27_0", 
  "build_number": 0, 
  "channel": "https://repo.continuum.io/pkgs/free/linux-64/", 
  "date": "2015-04-22", 
  "depends": [
    "python 2.7*"
  ], 
  "files": [
    "lib/python2.7/site-packages/HeapDict-1.0.0-py2.7.egg-info", 
    "lib/python2.7/site-packages/heapdict.py", 
    "lib/python2.7/site-packages/heapdict.pyc"
  ], 
  "license": "BSD", 
  "link": {
    "source": "/opt/anaconda/2/4.0.0/pkgs/heapdict-1.0.0-py27_0", 
    "type": "soft-link"
  }, 
  "md5": "2436318eaa70e6dae523ecd129a8bbf2", 
  "name": "heapdict", 
  "platform": "linux", 
  "requires": [], 
  "size": 4071, 
  "ucs": 4, 
  "url": "https://repo.continuum.io/pkgs/free/linux-64/heapdict-1.0.0-py27_0.tar.bz2", 
  "version": "1.0.0"
}