{
  "arch": "x86_64", 
  "build": "py27_0", 
  "build_number": 0, 
  "channel": "https://repo.continuum.io/pkgs/free/linux-64/", 
  "date": "2015-08-12", 
  "depends": [
    "python 2.7*"
  ], 
  "files": [
    "lib/python2.7/site-packages/ipython_genutils-0.1.0-py2.7.egg-info", 
    "lib/python2.7/site-packages/ipython_genutils/__init__.py", 
    "lib/python2.7/site-packages/ipython_genutils/__init__.pyc", 
    "lib/python2.7/site-packages/ipython_genutils/_version.py", 
    "lib/python2.7/site-packages/ipython_genutils/_version.pyc", 
    "lib/python2.7/site-packages/ipython_genutils/encoding.py", 
    "lib/python2.7/site-packages/ipython_genutils/encoding.pyc", 
    "lib/python2.7/site-packages/ipython_genutils/importstring.py", 
    "lib/python2.7/site-packages/ipython_genutils/importstring.pyc", 
    "lib/python2.7/site-packages/ipython_genutils/ipstruct.py", 
    "lib/python2.7/site-packages/ipython_genutils/ipstruct.pyc", 
    "lib/python2.7/site-packages/ipython_genutils/path.py", 
    "lib/python2.7/site-packages/ipython_genutils/path.pyc", 
    "lib/python2.7/site-packages/ipython_genutils/py3compat.py", 
    "lib/python2.7/site-packages/ipython_genutils/py3compat.pyc", 
    "lib/python2.7/site-packages/ipython_genutils/tempdir.py", 
    "lib/python2.7/site-packages/ipython_genutils/tempdir.pyc", 
    "lib/python2.7/site-packages/ipython_genutils/testing/__init__.py", 
    "lib/python2.7/site-packages/ipython_genutils/testing/__init__.pyc", 
    "lib/python2.7/site-packages/ipython_genutils/testing/decorators.py", 
    "lib/python2.7/site-packages/ipython_genutils/testing/decorators.pyc", 
    "lib/python2.7/site-packages/ipython_genutils/tests/__init__.py", 
    "lib/python2.7/site-packages/ipython_genutils/tests/__init__.pyc", 
    "lib/python2.7/site-packages/ipython_genutils/tests/test_importstring.py", 
    "lib/python2.7/site-packages/ipython_genutils/tests/test_importstring.pyc", 
    "lib/python2.7/site-packages/ipython_genutils/tests/test_path.py", 
    "lib/python2.7/site-packages/ipython_genutils/tests/test_path.pyc", 
    "lib/python2.7/site-packages/ipython_genutils/tests/test_tempdir.py", 
    "lib/python2.7/site-packages/ipython_genutils/tests/test_tempdir.pyc", 
    "lib/python2.7/site-packages/ipython_genutils/tests/test_text.py", 
    "lib/python2.7/site-packages/ipython_genutils/tests/test_text.pyc", 
    "lib/python2.7/site-packages/ipython_genutils/text.py", 
    "lib/python2.7/site-packages/ipython_genutils/text.pyc"
  ], 
  "license": "BSD", 
  "link": {
    "source": "/opt/anaconda/2/4.0.0/pkgs/ipython_genutils-0.1.0-py27_0", 
    "type": "soft-link"
  }, 
  "md5": "631fa79f4747effcfc95acbfff2fa4bd", 
  "name": "ipython_genutils", 
  "platform": "linux", 
  "requires": [], 
  "size": 33104, 
  "subdir": "linux-64", 
  "ucs": 4, 
  "url": "https://repo.continuum.io/pkgs/free/linux-64/ipython_genutils-0.1.0-py27_0.tar.bz2", 
  "version": "0.1.0"
}