{
  "arch": "x86_64", 
  "build": "py27_0", 
  "build_number": 0, 
  "channel": "https://repo.continuum.io/pkgs/free/linux-64/", 
  "date": "2016-03-08", 
  "depends": [
    "python 2.7*", 
    "traitlets"
  ], 
  "files": [
    "bin/jupyter", 
    "bin/jupyter-migrate", 
    "lib/python2.7/site-packages/jupyter.py", 
    "lib/python2.7/site-packages/jupyter.pyc", 
    "lib/python2.7/site-packages/jupyter_core-4.1.0-py2.7.egg-info", 
    "lib/python2.7/site-packages/jupyter_core/__init__.py", 
    "lib/python2.7/site-packages/jupyter_core/__init__.pyc", 
    "lib/python2.7/site-packages/jupyter_core/__main__.py", 
    "lib/python2.7/site-packages/jupyter_core/__main__.pyc", 
    "lib/python2.7/site-packages/jupyter_core/application.py", 
    "lib/python2.7/site-packages/jupyter_core/application.pyc", 
    "lib/python2.7/site-packages/jupyter_core/command.py", 
    "lib/python2.7/site-packages/jupyter_core/command.pyc", 
    "lib/python2.7/site-packages/jupyter_core/migrate.py", 
    "lib/python2.7/site-packages/jupyter_core/migrate.pyc", 
    "lib/python2.7/site-packages/jupyter_core/paths.py", 
    "lib/python2.7/site-packages/jupyter_core/paths.pyc", 
    "lib/python2.7/site-packages/jupyter_core/tests/__init__.py", 
    "lib/python2.7/site-packages/jupyter_core/tests/__init__.pyc", 
    "lib/python2.7/site-packages/jupyter_core/tests/dotipython/nbextensions/myext.js", 
    "lib/python2.7/site-packages/jupyter_core/tests/dotipython/profile_default/ipython_config.py", 
    "lib/python2.7/site-packages/jupyter_core/tests/dotipython/profile_default/ipython_config.pyc", 
    "lib/python2.7/site-packages/jupyter_core/tests/dotipython/profile_default/ipython_console_config.py", 
    "lib/python2.7/site-packages/jupyter_core/tests/dotipython/profile_default/ipython_console_config.pyc", 
    "lib/python2.7/site-packages/jupyter_core/tests/dotipython/profile_default/ipython_kernel_config.py", 
    "lib/python2.7/site-packages/jupyter_core/tests/dotipython/profile_default/ipython_kernel_config.pyc", 
    "lib/python2.7/site-packages/jupyter_core/tests/dotipython/profile_default/ipython_nbconvert_config.py", 
    "lib/python2.7/site-packages/jupyter_core/tests/dotipython/profile_default/ipython_nbconvert_config.pyc", 
    "lib/python2.7/site-packages/jupyter_core/tests/dotipython/profile_default/ipython_notebook_config.py", 
    "lib/python2.7/site-packages/jupyter_core/tests/dotipython/profile_default/ipython_notebook_config.pyc", 
    "lib/python2.7/site-packages/jupyter_core/tests/dotipython/profile_default/static/custom/custom.css", 
    "lib/python2.7/site-packages/jupyter_core/tests/dotipython/profile_default/static/custom/custom.js", 
    "lib/python2.7/site-packages/jupyter_core/tests/dotipython_empty/profile_default/ipython_config.py", 
    "lib/python2.7/site-packages/jupyter_core/tests/dotipython_empty/profile_default/ipython_config.pyc", 
    "lib/python2.7/site-packages/jupyter_core/tests/dotipython_empty/profile_default/ipython_console_config.py", 
    "lib/python2.7/site-packages/jupyter_core/tests/dotipython_empty/profile_default/ipython_console_config.pyc", 
    "lib/python2.7/site-packages/jupyter_core/tests/dotipython_empty/profile_default/ipython_kernel_config.py", 
    "lib/python2.7/site-packages/jupyter_core/tests/dotipython_empty/profile_default/ipython_kernel_config.pyc", 
    "lib/python2.7/site-packages/jupyter_core/tests/dotipython_empty/profile_default/ipython_nbconvert_config.py", 
    "lib/python2.7/site-packages/jupyter_core/tests/dotipython_empty/profile_default/ipython_nbconvert_config.pyc", 
    "lib/python2.7/site-packages/jupyter_core/tests/dotipython_empty/profile_default/ipython_notebook_config.py", 
    "lib/python2.7/site-packages/jupyter_core/tests/dotipython_empty/profile_default/ipython_notebook_config.pyc", 
    "lib/python2.7/site-packages/jupyter_core/tests/dotipython_empty/profile_default/static/custom/custom.css", 
    "lib/python2.7/site-packages/jupyter_core/tests/dotipython_empty/profile_default/static/custom/custom.js", 
    "lib/python2.7/site-packages/jupyter_core/tests/mocking.py", 
    "lib/python2.7/site-packages/jupyter_core/tests/mocking.pyc", 
    "lib/python2.7/site-packages/jupyter_core/tests/test_application.py", 
    "lib/python2.7/site-packages/jupyter_core/tests/test_application.pyc", 
    "lib/python2.7/site-packages/jupyter_core/tests/test_command.py", 
    "lib/python2.7/site-packages/jupyter_core/tests/test_command.pyc", 
    "lib/python2.7/site-packages/jupyter_core/tests/test_migrate.py", 
    "lib/python2.7/site-packages/jupyter_core/tests/test_migrate.pyc", 
    "lib/python2.7/site-packages/jupyter_core/tests/test_paths.py", 
    "lib/python2.7/site-packages/jupyter_core/tests/test_paths.pyc", 
    "lib/python2.7/site-packages/jupyter_core/troubleshoot.py", 
    "lib/python2.7/site-packages/jupyter_core/troubleshoot.pyc", 
    "lib/python2.7/site-packages/jupyter_core/utils/__init__.py", 
    "lib/python2.7/site-packages/jupyter_core/utils/__init__.pyc", 
    "lib/python2.7/site-packages/jupyter_core/utils/shutil_which.py", 
    "lib/python2.7/site-packages/jupyter_core/utils/shutil_which.pyc", 
    "lib/python2.7/site-packages/jupyter_core/version.py", 
    "lib/python2.7/site-packages/jupyter_core/version.pyc"
  ], 
  "license": "BSD", 
  "link": {
    "source": "/opt/anaconda/2/4.0.0/pkgs/jupyter_core-4.1.0-py27_0", 
    "type": "soft-link"
  }, 
  "md5": "06f88ce6fc0283decf22d0d7d1fc6731", 
  "name": "jupyter_core", 
  "platform": "linux", 
  "requires": [], 
  "size": 51970, 
  "subdir": "linux-64", 
  "url": "https://repo.continuum.io/pkgs/free/linux-64/jupyter_core-4.1.0-py27_0.tar.bz2", 
  "version": "4.1.0"
}