{
  "arch": "x86_64", 
  "build": "0", 
  "build_number": 0, 
  "channel": "https://repo.continuum.io/pkgs/free/linux-64/", 
  "date": "2015-10-19", 
  "depends": [], 
  "files": [
    "include/sodium.h", 
    "include/sodium/core.h", 
    "include/sodium/crypto_aead_chacha20poly1305.h", 
    "include/sodium/crypto_auth.h", 
    "include/sodium/crypto_auth_hmacsha256.h", 
    "include/sodium/crypto_auth_hmacsha512.h", 
    "include/sodium/crypto_auth_hmacsha512256.h", 
    "include/sodium/crypto_box.h", 
    "include/sodium/crypto_box_curve25519xsalsa20poly1305.h", 
    "include/sodium/crypto_core_hsalsa20.h", 
    "include/sodium/crypto_core_salsa20.h", 
    "include/sodium/crypto_core_salsa2012.h", 
    "include/sodium/crypto_core_salsa208.h", 
    "include/sodium/crypto_generichash.h", 
    "include/sodium/crypto_generichash_blake2b.h", 
    "include/sodium/crypto_hash.h", 
    "include/sodium/crypto_hash_sha256.h", 
    "include/sodium/crypto_hash_sha512.h", 
    "include/sodium/crypto_int32.h", 
    "include/sodium/crypto_int64.h", 
    "include/sodium/crypto_onetimeauth.h", 
    "include/sodium/crypto_onetimeauth_poly1305.h", 
    "include/sodium/crypto_pwhash_scryptsalsa208sha256.h", 
    "include/sodium/crypto_scalarmult.h", 
    "include/sodium/crypto_scalarmult_curve25519.h", 
    "include/sodium/crypto_secretbox.h", 
    "include/sodium/crypto_secretbox_xsalsa20poly1305.h", 
    "include/sodium/crypto_shorthash.h", 
    "include/sodium/crypto_shorthash_siphash24.h", 
    "include/sodium/crypto_sign.h", 
    "include/sodium/crypto_sign_ed25519.h", 
    "include/sodium/crypto_sign_edwards25519sha512batch.h", 
    "include/sodium/crypto_stream.h", 
    "include/sodium/crypto_stream_aes128ctr.h", 
    "include/sodium/crypto_stream_chacha20.h", 
    "include/sodium/crypto_stream_salsa20.h", 
    "include/sodium/crypto_stream_salsa2012.h", 
    "include/sodium/crypto_stream_salsa208.h", 
    "include/sodium/crypto_stream_xsalsa20.h", 
    "include/sodium/crypto_uint16.h", 
    "include/sodium/crypto_uint32.h", 
    "include/sodium/crypto_uint64.h", 
    "include/sodium/crypto_uint8.h", 
    "include/sodium/crypto_verify_16.h", 
    "include/sodium/crypto_verify_32.h", 
    "include/sodium/crypto_verify_64.h", 
    "include/sodium/export.h", 
    "include/sodium/randombytes.h", 
    "include/sodium/randombytes_salsa20_random.h", 
    "include/sodium/randombytes_sysrandom.h", 
    "include/sodium/runtime.h", 
    "include/sodium/utils.h", 
    "include/sodium/version.h", 
    "lib/libsodium.a", 
    "lib/libsodium.la", 
    "lib/libsodium.so", 
    "lib/libsodium.so.13", 
    "lib/libsodium.so.13.2.0", 
    "lib/pkgconfig/libsodium.pc"
  ], 
  "license": "ISC", 
  "license_family": "Other", 
  "link": {
    "source": "/opt/anaconda/2/4.0.0/pkgs/libsodium-1.0.3-0", 
    "type": "soft-link"
  }, 
  "md5": "7fbb290afdcd89c7033443a273ef5d28", 
  "name": "libsodium", 
  "platform": "linux", 
  "requires": [], 
  "size": 792638, 
  "subdir": "linux-64", 
  "url": "https://repo.continuum.io/pkgs/free/linux-64/libsodium-1.0.3-0.tar.bz2", 
  "version": "1.0.3"
}