{
  "arch": "x86_64", 
  "build": "py27_0", 
  "build_number": 0, 
  "channel": "https://repo.continuum.io/pkgs/free/linux-64/", 
  "date": "2015-06-30", 
  "depends": [
    "python 2.7*"
  ], 
  "files": [
    "lib/python2.7/site-packages/locket-0.2.0-py2.7.egg-info", 
    "lib/python2.7/site-packages/locket/__init__.py", 
    "lib/python2.7/site-packages/locket/__init__.pyc"
  ], 
  "license": "BSD", 
  "link": {
    "source": "/opt/anaconda/2/4.0.0/pkgs/locket-0.2.0-py27_0", 
    "type": "soft-link"
  }, 
  "md5": "ba393ddd30cf88a0eba6e6e2c6978dc6", 
  "name": "locket", 
  "platform": "linux", 
  "requires": [], 
  "size": 4617, 
  "ucs": 4, 
  "url": "https://repo.continuum.io/pkgs/free/linux-64/locket-0.2.0-py27_0.tar.bz2", 
  "version": "0.2.0"
}