{
  "arch": "x86_64", 
  "build": "py27_0", 
  "build_number": 0, 
  "channel": "https://repo.continuum.io/pkgs/free/linux-64/", 
  "date": "2015-10-09", 
  "depends": [
    "ipython_genutils", 
    "jsonschema", 
    "jupyter_core", 
    "python 2.7*", 
    "traitlets"
  ], 
  "files": [
    "bin/jupyter-trust", 
    "lib/python2.7/site-packages/nbformat-4.0.1-py2.7.egg-info", 
    "lib/python2.7/site-packages/nbformat/__init__.py", 
    "lib/python2.7/site-packages/nbformat/__init__.pyc", 
    "lib/python2.7/site-packages/nbformat/_version.py", 
    "lib/python2.7/site-packages/nbformat/_version.pyc", 
    "lib/python2.7/site-packages/nbformat/converter.py", 
    "lib/python2.7/site-packages/nbformat/converter.pyc", 
    "lib/python2.7/site-packages/nbformat/current.py", 
    "lib/python2.7/site-packages/nbformat/current.pyc", 
    "lib/python2.7/site-packages/nbformat/notebooknode.py", 
    "lib/python2.7/site-packages/nbformat/notebooknode.pyc", 
    "lib/python2.7/site-packages/nbformat/reader.py", 
    "lib/python2.7/site-packages/nbformat/reader.pyc", 
    "lib/python2.7/site-packages/nbformat/sentinel.py", 
    "lib/python2.7/site-packages/nbformat/sentinel.pyc", 
    "lib/python2.7/site-packages/nbformat/sign.py", 
    "lib/python2.7/site-packages/nbformat/sign.pyc", 
    "lib/python2.7/site-packages/nbformat/tests/__init__.py", 
    "lib/python2.7/site-packages/nbformat/tests/__init__.pyc", 
    "lib/python2.7/site-packages/nbformat/tests/base.py", 
    "lib/python2.7/site-packages/nbformat/tests/base.pyc", 
    "lib/python2.7/site-packages/nbformat/tests/invalid.ipynb", 
    "lib/python2.7/site-packages/nbformat/tests/test2.ipynb", 
    "lib/python2.7/site-packages/nbformat/tests/test3.ipynb", 
    "lib/python2.7/site-packages/nbformat/tests/test4.ipynb", 
    "lib/python2.7/site-packages/nbformat/tests/test4plus.ipynb", 
    "lib/python2.7/site-packages/nbformat/tests/test_api.py", 
    "lib/python2.7/site-packages/nbformat/tests/test_api.pyc", 
    "lib/python2.7/site-packages/nbformat/tests/test_convert.py", 
    "lib/python2.7/site-packages/nbformat/tests/test_convert.pyc", 
    "lib/python2.7/site-packages/nbformat/tests/test_reader.py", 
    "lib/python2.7/site-packages/nbformat/tests/test_reader.pyc", 
    "lib/python2.7/site-packages/nbformat/tests/test_sign.py", 
    "lib/python2.7/site-packages/nbformat/tests/test_sign.pyc", 
    "lib/python2.7/site-packages/nbformat/tests/test_validator.py", 
    "lib/python2.7/site-packages/nbformat/tests/test_validator.pyc", 
    "lib/python2.7/site-packages/nbformat/v1/__init__.py", 
    "lib/python2.7/site-packages/nbformat/v1/__init__.pyc", 
    "lib/python2.7/site-packages/nbformat/v1/convert.py", 
    "lib/python2.7/site-packages/nbformat/v1/convert.pyc", 
    "lib/python2.7/site-packages/nbformat/v1/nbbase.py", 
    "lib/python2.7/site-packages/nbformat/v1/nbbase.pyc", 
    "lib/python2.7/site-packages/nbformat/v1/nbjson.py", 
    "lib/python2.7/site-packages/nbformat/v1/nbjson.pyc", 
    "lib/python2.7/site-packages/nbformat/v1/rwbase.py", 
    "lib/python2.7/site-packages/nbformat/v1/rwbase.pyc", 
    "lib/python2.7/site-packages/nbformat/v1/tests/__init__.py", 
    "lib/python2.7/site-packages/nbformat/v1/tests/__init__.pyc", 
    "lib/python2.7/site-packages/nbformat/v1/tests/nbexamples.py", 
    "lib/python2.7/site-packages/nbformat/v1/tests/nbexamples.pyc", 
    "lib/python2.7/site-packages/nbformat/v1/tests/test_json.py", 
    "lib/python2.7/site-packages/nbformat/v1/tests/test_json.pyc", 
    "lib/python2.7/site-packages/nbformat/v1/tests/test_nbbase.py", 
    "lib/python2.7/site-packages/nbformat/v1/tests/test_nbbase.pyc", 
    "lib/python2.7/site-packages/nbformat/v2/__init__.py", 
    "lib/python2.7/site-packages/nbformat/v2/__init__.pyc", 
    "lib/python2.7/site-packages/nbformat/v2/convert.py", 
    "lib/python2.7/site-packages/nbformat/v2/convert.pyc", 
    "lib/python2.7/site-packages/nbformat/v2/nbbase.py", 
    "lib/python2.7/site-packages/nbformat/v2/nbbase.pyc", 
    "lib/python2.7/site-packages/nbformat/v2/nbjson.py", 
    "lib/python2.7/site-packages/nbformat/v2/nbjson.pyc", 
    "lib/python2.7/site-packages/nbformat/v2/nbpy.py", 
    "lib/python2.7/site-packages/nbformat/v2/nbpy.pyc", 
    "lib/python2.7/site-packages/nbformat/v2/nbxml.py", 
    "lib/python2.7/site-packages/nbformat/v2/nbxml.pyc", 
    "lib/python2.7/site-packages/nbformat/v2/rwbase.py", 
    "lib/python2.7/site-packages/nbformat/v2/rwbase.pyc", 
    "lib/python2.7/site-packages/nbformat/v2/tests/__init__.py", 
    "lib/python2.7/site-packages/nbformat/v2/tests/__init__.pyc", 
    "lib/python2.7/site-packages/nbformat/v2/tests/nbexamples.py", 
    "lib/python2.7/site-packages/nbformat/v2/tests/nbexamples.pyc", 
    "lib/python2.7/site-packages/nbformat/v2/tests/test_json.py", 
    "lib/python2.7/site-packages/nbformat/v2/tests/test_json.pyc", 
    "lib/python2.7/site-packages/nbformat/v2/tests/test_nbbase.py", 
    "lib/python2.7/site-packages/nbformat/v2/tests/test_nbbase.pyc", 
    "lib/python2.7/site-packages/nbformat/v2/tests/test_nbpy.py", 
    "lib/python2.7/site-packages/nbformat/v2/tests/test_nbpy.pyc", 
    "lib/python2.7/site-packages/nbformat/v3/__init__.py", 
    "lib/python2.7/site-packages/nbformat/v3/__init__.pyc", 
    "lib/python2.7/site-packages/nbformat/v3/convert.py", 
    "lib/python2.7/site-packages/nbformat/v3/convert.pyc", 
    "lib/python2.7/site-packages/nbformat/v3/nbbase.py", 
    "lib/python2.7/site-packages/nbformat/v3/nbbase.pyc", 
    "lib/python2.7/site-packages/nbformat/v3/nbformat.v3.schema.json", 
    "lib/python2.7/site-packages/nbformat/v3/nbjson.py", 
    "lib/python2.7/site-packages/nbformat/v3/nbjson.pyc", 
    "lib/python2.7/site-packages/nbformat/v3/nbpy.py", 
    "lib/python2.7/site-packages/nbformat/v3/nbpy.pyc", 
    "lib/python2.7/site-packages/nbformat/v3/rwbase.py", 
    "lib/python2.7/site-packages/nbformat/v3/rwbase.pyc", 
    "lib/python2.7/site-packages/nbformat/v3/tests/__init__.py", 
    "lib/python2.7/site-packages/nbformat/v3/tests/__init__.pyc", 
    "lib/python2.7/site-packages/nbformat/v3/tests/formattest.py", 
    "lib/python2.7/site-packages/nbformat/v3/tests/formattest.pyc", 
    "lib/python2.7/site-packages/nbformat/v3/tests/nbexamples.py", 
    "lib/python2.7/site-packages/nbformat/v3/tests/nbexamples.pyc", 
    "lib/python2.7/site-packages/nbformat/v3/tests/test_json.py", 
    "lib/python2.7/site-packages/nbformat/v3/tests/test_json.pyc", 
    "lib/python2.7/site-packages/nbformat/v3/tests/test_misc.py", 
    "lib/python2.7/site-packages/nbformat/v3/tests/test_misc.pyc", 
    "lib/python2.7/site-packages/nbformat/v3/tests/test_nbbase.py", 
    "lib/python2.7/site-packages/nbformat/v3/tests/test_nbbase.pyc", 
    "lib/python2.7/site-packages/nbformat/v3/tests/test_nbpy.py", 
    "lib/python2.7/site-packages/nbformat/v3/tests/test_nbpy.pyc", 
    "lib/python2.7/site-packages/nbformat/v4/__init__.py", 
    "lib/python2.7/site-packages/nbformat/v4/__init__.pyc", 
    "lib/python2.7/site-packages/nbformat/v4/convert.py", 
    "lib/python2.7/site-packages/nbformat/v4/convert.pyc", 
    "lib/python2.7/site-packages/nbformat/v4/nbbase.py", 
    "lib/python2.7/site-packages/nbformat/v4/nbbase.pyc", 
    "lib/python2.7/site-packages/nbformat/v4/nbformat.v4.schema.json", 
    "lib/python2.7/site-packages/nbformat/v4/nbjson.py", 
    "lib/python2.7/site-packages/nbformat/v4/nbjson.pyc", 
    "lib/python2.7/site-packages/nbformat/v4/rwbase.py", 
    "lib/python2.7/site-packages/nbformat/v4/rwbase.pyc", 
    "lib/python2.7/site-packages/nbformat/v4/tests/__init__.py", 
    "lib/python2.7/site-packages/nbformat/v4/tests/__init__.pyc", 
    "lib/python2.7/site-packages/nbformat/v4/tests/formattest.py", 
    "lib/python2.7/site-packages/nbformat/v4/tests/formattest.pyc", 
    "lib/python2.7/site-packages/nbformat/v4/tests/nbexamples.py", 
    "lib/python2.7/site-packages/nbformat/v4/tests/nbexamples.pyc", 
    "lib/python2.7/site-packages/nbformat/v4/tests/test_convert.py", 
    "lib/python2.7/site-packages/nbformat/v4/tests/test_convert.pyc", 
    "lib/python2.7/site-packages/nbformat/v4/tests/test_json.py", 
    "lib/python2.7/site-packages/nbformat/v4/tests/test_json.pyc", 
    "lib/python2.7/site-packages/nbformat/v4/tests/test_nbbase.py", 
    "lib/python2.7/site-packages/nbformat/v4/tests/test_nbbase.pyc", 
    "lib/python2.7/site-packages/nbformat/v4/tests/test_validate.py", 
    "lib/python2.7/site-packages/nbformat/v4/tests/test_validate.pyc", 
    "lib/python2.7/site-packages/nbformat/validator.py", 
    "lib/python2.7/site-packages/nbformat/validator.pyc"
  ], 
  "license": "BSD", 
  "link": {
    "source": "/opt/anaconda/2/4.0.0/pkgs/nbformat-4.0.1-py27_0", 
    "type": "soft-link"
  }, 
  "md5": "2f8e6b3315e49055b8a54e66acbd72c3", 
  "name": "nbformat", 
  "platform": "linux", 
  "requires": [], 
  "size": 114630, 
  "subdir": "linux-64", 
  "url": "https://repo.continuum.io/pkgs/free/linux-64/nbformat-4.0.1-py27_0.tar.bz2", 
  "version": "4.0.1"
}