{
  "arch": "x86_64", 
  "build": "py27_0", 
  "build_number": 0, 
  "channel": "https://repo.continuum.io/pkgs/free/linux-64/", 
  "date": "2014-04-28", 
  "depends": [
    "python 2.7*"
  ], 
  "files": [
    "lib/python2.7/site-packages/pycosat-0.6.1-py2.7.egg-info", 
    "lib/python2.7/site-packages/pycosat.so", 
    "lib/python2.7/site-packages/test_pycosat.py", 
    "lib/python2.7/site-packages/test_pycosat.pyc"
  ], 
  "license": "MIT", 
  "link": {
    "source": "/opt/anaconda/2/4.0.0/pkgs/pycosat-0.6.1-py27_0", 
    "type": "soft-link"
  }, 
  "md5": "d3134c2384f1272e19dc0ef161166935", 
  "name": "pycosat", 
  "platform": "linux", 
  "requires": [], 
  "size": 154913, 
  "ucs": 4, 
  "url": "https://repo.continuum.io/pkgs/free/linux-64/pycosat-0.6.1-py27_0.tar.bz2", 
  "version": "0.6.1"
}