{
  "arch": "x86_64", 
  "build": "py27_0", 
  "build_number": 0, 
  "channel": "https://repo.continuum.io/pkgs/free/linux-64/", 
  "date": "2016-03-21", 
  "depends": [
    "python 2.7*"
  ], 
  "files": [
    "lib/python2.7/site-packages/pytz-2016.2-py2.7.egg-info", 
    "lib/python2.7/site-packages/pytz/__init__.py", 
    "lib/python2.7/site-packages/pytz/__init__.pyc", 
    "lib/python2.7/site-packages/pytz/exceptions.py", 
    "lib/python2.7/site-packages/pytz/exceptions.pyc", 
    "lib/python2.7/site-packages/pytz/lazy.py", 
    "lib/python2.7/site-packages/pytz/lazy.pyc", 
    "lib/python2.7/site-packages/pytz/reference.py", 
    "lib/python2.7/site-packages/pytz/reference.pyc", 
    "lib/python2.7/site-packages/pytz/tzfile.py", 
    "lib/python2.7/site-packages/pytz/tzfile.pyc", 
    "lib/python2.7/site-packages/pytz/tzinfo.py", 
    "lib/python2.7/site-packages/pytz/tzinfo.pyc", 
    "lib/python2.7/site-packages/pytz/zoneinfo/Africa/Abidjan", 
    "lib/python2.7/site-packages/pytz/zoneinfo/Africa/Accra", 
    "lib/python2.7/site-packages/pytz/zoneinfo/Africa/Addis_Ababa", 
    "lib/python2.7/site-packages/pytz/zoneinfo/Africa/Algiers", 
    "lib/python2.7/site-packages/pytz/zoneinfo/Africa/Asmara", 
    "lib/python2.7/site-packages/pytz/zoneinfo/Africa/Asmera", 
    "lib/python2.7/site-packages/pytz/zoneinfo/Africa/Bamako", 
    "lib/python2.7/site-packages/pytz/zoneinfo/Africa/Bangui", 
    "lib/python2.7/site-packages/pytz/zoneinfo/Africa/Banjul", 
    "lib/python2.7/site-packages/pytz/zoneinfo/Africa/Bissau", 
    "lib/python2.7/site-packages/pytz/zoneinfo/Africa/Blantyre", 
    "lib/python2.7/site-packages/pytz/zoneinfo/Africa/Brazzaville", 
    "lib/python2.7/site-packages/pytz/zoneinfo/Africa/Bujumbura", 
    "lib/python2.7/site-packages/pytz/zoneinfo/Africa/Cairo", 
    "lib/python2.7/site-packages/pytz/zoneinfo/Africa/Casablanca", 
    "lib/python2.7/site-packages/pytz/zoneinfo/Africa/Ceuta", 
    "lib/python2.7/site-packages/pytz/zoneinfo/Africa/Conakry", 
    "lib/python2.7/site-packages/pytz/zoneinfo/Africa/Dakar", 
    "lib/python2.7/site-packages/pytz/zoneinfo/Africa/Dar_es_Salaam", 
    "lib/python2.7/site-packages/pytz/zoneinfo/Africa/Djibouti", 
    "lib/python2.7/site-packages/pytz/zoneinfo/Africa/Douala", 
    "lib/python2.7/site-packages/pytz/zoneinfo/Africa/El_Aaiun", 
    "lib/python2.7/site-packages/pytz/zoneinfo/Africa/Freetown", 
    "lib/python2.7/site-packages/pytz/zoneinfo/Africa/Gaborone", 
    "lib/python2.7/site-packages/pytz/zoneinfo/Africa/Harare", 
    "lib/python2.7/site-packages/pytz/zoneinfo/Africa/Johannesburg", 
    "lib/python2.7/site-packages/pytz/zoneinfo/Africa/Juba", 
    "lib/python2.7/site-packages/pytz/zoneinfo/Africa/Kampala", 
    "lib/python2.7/site-packages/pytz/zoneinfo/Africa/Khartoum", 
    "lib/python2.7/site-packages/pytz/zoneinfo/Africa/Kigali", 
    "lib/python2.7/site-packages/pytz/zoneinfo/Africa/Kinshasa", 
    "lib/python2.7/site-packages/pytz/zoneinfo/Africa/Lagos", 
    "lib/python2.7/site-packages/pytz/zoneinfo/Africa/Libreville", 
    "lib/python2.7/site-packages/pytz/zoneinfo/Africa/Lome", 
    "lib/python2.7/site-packages/pytz/zoneinfo/Africa/Luanda", 
    "lib/python2.7/site-packages/pytz/zoneinfo/Africa/Lubumbashi", 
    "lib/python2.7/site-packages/pytz/zoneinfo/Africa/Lusaka", 
    "lib/python2.7/site-packages/pytz/zoneinfo/Africa/Malabo", 
    "lib/python2.7/site-packages/pytz/zoneinfo/Africa/Maputo", 
    "lib/python2.7/site-packages/pytz/zoneinfo/Africa/Maseru", 
    "lib/python2.7/site-packages/pytz/zoneinfo/Africa/Mbabane", 
    "lib/python2.7/site-packages/pytz/zoneinfo/Africa/Mogadishu", 
    "lib/python2.7/site-packages/pytz/zoneinfo/Africa/Monrovia", 
    "lib/python2.7/site-packages/pytz/zoneinfo/Africa/Nairobi", 
    "lib/python2.7/site-packages/pytz/zoneinfo/Africa/Ndjamena", 
    "lib/python2.7/site-packages/pytz/zoneinfo/Africa/Niamey", 
    "lib/python2.7/site-packages/pytz/zoneinfo/Africa/Nouakchott", 
    "lib/python2.7/site-packages/pytz/zoneinfo/Africa/Ouagadougou", 
    "lib/python2.7/site-packages/pytz/zoneinfo/Africa/Porto-Novo", 
    "lib/python2.7/site-packages/pytz/zoneinfo/Africa/Sao_Tome", 
    "lib/python2.7/site-packages/pytz/zoneinfo/Africa/Timbuktu", 
    "lib/python2.7/site-packages/pytz/zoneinfo/Africa/Tripoli", 
    "lib/python2.7/site-packages/pytz/zoneinfo/Africa/Tunis", 
    "lib/python2.7/site-packages/pytz/zoneinfo/Africa/Windhoek", 
    "lib/python2.7/site-packages/pytz/zoneinfo/America/Adak", 
    "lib/python2.7/site-packages/pytz/zoneinfo/America/Anchorage", 
    "lib/python2.7/site-packages/pytz/zoneinfo/America/Anguilla", 
    "lib/python2.7/site-packages/pytz/zoneinfo/America/Antigua", 
    "lib/python2.7/site-packages/pytz/zoneinfo/America/Araguaina", 
    "lib/python2.7/site-packages/pytz/zoneinfo/America/Argentina/Buenos_Aires", 
    "lib/python2.7/site-packages/pytz/zoneinfo/America/Argentina/Catamarca", 
    "lib/python2.7/site-packages/pytz/zoneinfo/America/Argentina/ComodRivadavia", 
    "lib/python2.7/site-packages/pytz/zoneinfo/America/Argentina/Cordoba", 
    "lib/python2.7/site-packages/pytz/zoneinfo/America/Argentina/Jujuy", 
    "lib/python2.7/site-packages/pytz/zoneinfo/America/Argentina/La_Rioja", 
    "lib/python2.7/site-packages/pytz/zoneinfo/America/Argentina/Mendoza", 
    "lib/python2.7/site-packages/pytz/zoneinfo/America/Argentina/Rio_Gallegos", 
    "lib/python2.7/site-packages/pytz/zoneinfo/America/Argentina/Salta", 
    "lib/python2.7/site-packages/pytz/zoneinfo/America/Argentina/San_Juan", 
    "lib/python2.7/site-packages/pytz/zoneinfo/America/Argentina/San_Luis", 
    "lib/python2.7/site-packages/pytz/zoneinfo/America/Argentina/Tucuman", 
    "lib/python2.7/site-packages/pytz/zoneinfo/America/Argentina/Ushuaia", 
    "lib/python2.7/site-packages/pytz/zoneinfo/America/Aruba", 
    "lib/python2.7/site-packages/pytz/zoneinfo/America/Asuncion", 
    "lib/python2.7/site-packages/pytz/zoneinfo/America/Atikokan", 
    "lib/python2.7/site-packages/pytz/zoneinfo/America/Atka", 
    "lib/python2.7/site-packages/pytz/zoneinfo/America/Bahia", 
    "lib/python2.7/site-packages/pytz/zoneinfo/America/Bahia_Banderas", 
    "lib/python2.7/site-packages/pytz/zoneinfo/America/Barbados", 
    "lib/python2.7/site-packages/pytz/zoneinfo/America/Belem", 
    "lib/python2.7/site-packages/pytz/zoneinfo/America/Belize", 
    "lib/python2.7/site-packages/pytz/zoneinfo/America/Blanc-Sablon", 
    "lib/python2.7/site-packages/pytz/zoneinfo/America/Boa_Vista", 
    "lib/python2.7/site-packages/pytz/zoneinfo/America/Bogota", 
    "lib/python2.7/site-packages/pytz/zoneinfo/America/Boise", 
    "lib/python2.7/site-packages/pytz/zoneinfo/America/Buenos_Aires", 
    "lib/python2.7/site-packages/pytz/zoneinfo/America/Cambridge_Bay", 
    "lib/python2.7/site-packages/pytz/zoneinfo/America/Campo_Grande", 
    "lib/python2.7/site-packages/pytz/zoneinfo/America/Cancun", 
    "lib/python2.7/site-packages/pytz/zoneinfo/America/Caracas", 
    "lib/python2.7/site-packages/pytz/zoneinfo/America/Catamarca", 
    "lib/python2.7/site-packages/pytz/zoneinfo/America/Cayenne", 
    "lib/python2.7/site-packages/pytz/zoneinfo/America/Cayman", 
    "lib/python2.7/site-packages/pytz/zoneinfo/America/Chicago", 
    "lib/python2.7/site-packages/pytz/zoneinfo/America/Chihuahua", 
    "lib/python2.7/site-packages/pytz/zoneinfo/America/Coral_Harbour", 
    "lib/python2.7/site-packages/pytz/zoneinfo/America/Cordoba", 
    "lib/python2.7/site-packages/pytz/zoneinfo/America/Costa_Rica", 
    "lib/python2.7/site-packages/pytz/zoneinfo/America/Creston", 
    "lib/python2.7/site-packages/pytz/zoneinfo/America/Cuiaba", 
    "lib/python2.7/site-packages/pytz/zoneinfo/America/Curacao", 
    "lib/python2.7/site-packages/pytz/zoneinfo/America/Danmarkshavn", 
    "lib/python2.7/site-packages/pytz/zoneinfo/America/Dawson", 
    "lib/python2.7/site-packages/pytz/zoneinfo/America/Dawson_Creek", 
    "lib/python2.7/site-packages/pytz/zoneinfo/America/Denver", 
    "lib/python2.7/site-packages/pytz/zoneinfo/America/Detroit", 
    "lib/python2.7/site-packages/pytz/zoneinfo/America/Dominica", 
    "lib/python2.7/site-packages/pytz/zoneinfo/America/Edmonton", 
    "lib/python2.7/site-packages/pytz/zoneinfo/America/Eirunepe", 
    "lib/python2.7/site-packages/pytz/zoneinfo/America/El_Salvador", 
    "lib/python2.7/site-packages/pytz/zoneinfo/America/Ensenada", 
    "lib/python2.7/site-packages/pytz/zoneinfo/America/Fort_Nelson", 
    "lib/python2.7/site-packages/pytz/zoneinfo/America/Fort_Wayne", 
    "lib/python2.7/site-packages/pytz/zoneinfo/America/Fortaleza", 
    "lib/python2.7/site-packages/pytz/zoneinfo/America/Glace_Bay", 
    "lib/python2.7/site-packages/pytz/zoneinfo/America/Godthab", 
    "lib/python2.7/site-packages/pytz/zoneinfo/America/Goose_Bay", 
    "lib/python2.7/site-packages/pytz/zoneinfo/America/Grand_Turk", 
    "lib/python2.7/site-packages/pytz/zoneinfo/America/Grenada", 
    "lib/python2.7/site-packages/pytz/zoneinfo/America/Guadeloupe", 
    "lib/python2.7/site-packages/pytz/zoneinfo/America/Guatemala", 
    "lib/python2.7/site-packages/pytz/zoneinfo/America/Guayaquil", 
    "lib/python2.7/site-packages/pytz/zoneinfo/America/Guyana", 
    "lib/python2.7/site-packages/pytz/zoneinfo/America/Halifax", 
    "lib/python2.7/site-packages/pytz/zoneinfo/America/Havana", 
    "lib/python2.7/site-packages/pytz/zoneinfo/America/Hermosillo", 
    "lib/python2.7/site-packages/pytz/zoneinfo/America/Indiana/Indianapolis", 
    "lib/python2.7/site-packages/pytz/zoneinfo/America/Indiana/Knox", 
    "lib/python2.7/site-packages/pytz/zoneinfo/America/Indiana/Marengo", 
    "lib/python2.7/site-packages/pytz/zoneinfo/America/Indiana/Petersburg", 
    "lib/python2.7/site-packages/pytz/zoneinfo/America/Indiana/Tell_City", 
    "lib/python2.7/site-packages/pytz/zoneinfo/America/Indiana/Vevay", 
    "lib/python2.7/site-packages/pytz/zoneinfo/America/Indiana/Vincennes", 
    "lib/python2.7/site-packages/pytz/zoneinfo/America/Indiana/Winamac", 
    "lib/python2.7/site-packages/pytz/zoneinfo/America/Indianapolis", 
    "lib/python2.7/site-packages/pytz/zoneinfo/America/Inuvik", 
    "lib/python2.7/site-packages/pytz/zoneinfo/America/Iqaluit", 
    "lib/python2.7/site-packages/pytz/zoneinfo/America/Jamaica", 
    "lib/python2.7/site-packages/pytz/zoneinfo/America/Jujuy", 
    "lib/python2.7/site-packages/pytz/zoneinfo/America/Juneau", 
    "lib/python2.7/site-packages/pytz/zoneinfo/America/Kentucky/Louisville", 
    "lib/python2.7/site-packages/pytz/zoneinfo/America/Kentucky/Monticello", 
    "lib/python2.7/site-packages/pytz/zoneinfo/America/Knox_IN", 
    "lib/python2.7/site-packages/pytz/zoneinfo/America/Kralendijk", 
    "lib/python2.7/site-packages/pytz/zoneinfo/America/La_Paz", 
    "lib/python2.7/site-packages/pytz/zoneinfo/America/Lima", 
    "lib/python2.7/site-packages/pytz/zoneinfo/America/Los_Angeles", 
    "lib/python2.7/site-packages/pytz/zoneinfo/America/Louisville", 
    "lib/python2.7/site-packages/pytz/zoneinfo/America/Lower_Princes", 
    "lib/python2.7/site-packages/pytz/zoneinfo/America/Maceio", 
    "lib/python2.7/site-packages/pytz/zoneinfo/America/Managua", 
    "lib/python2.7/site-packages/pytz/zoneinfo/America/Manaus", 
    "lib/python2.7/site-packages/pytz/zoneinfo/America/Marigot", 
    "lib/python2.7/site-packages/pytz/zoneinfo/America/Martinique", 
    "lib/python2.7/site-packages/pytz/zoneinfo/America/Matamoros", 
    "lib/python2.7/site-packages/pytz/zoneinfo/America/Mazatlan", 
    "lib/python2.7/site-packages/pytz/zoneinfo/America/Mendoza", 
    "lib/python2.7/site-packages/pytz/zoneinfo/America/Menominee", 
    "lib/python2.7/site-packages/pytz/zoneinfo/America/Merida", 
    "lib/python2.7/site-packages/pytz/zoneinfo/America/Metlakatla", 
    "lib/python2.7/site-packages/pytz/zoneinfo/America/Mexico_City", 
    "lib/python2.7/site-packages/pytz/zoneinfo/America/Miquelon", 
    "lib/python2.7/site-packages/pytz/zoneinfo/America/Moncton", 
    "lib/python2.7/site-packages/pytz/zoneinfo/America/Monterrey", 
    "lib/python2.7/site-packages/pytz/zoneinfo/America/Montevideo", 
    "lib/python2.7/site-packages/pytz/zoneinfo/America/Montreal", 
    "lib/python2.7/site-packages/pytz/zoneinfo/America/Montserrat", 
    "lib/python2.7/site-packages/pytz/zoneinfo/America/Nassau", 
    "lib/python2.7/site-packages/pytz/zoneinfo/America/New_York", 
    "lib/python2.7/site-packages/pytz/zoneinfo/America/Nipigon", 
    "lib/python2.7/site-packages/pytz/zoneinfo/America/Nome", 
    "lib/python2.7/site-packages/pytz/zoneinfo/America/Noronha", 
    "lib/python2.7/site-packages/pytz/zoneinfo/America/North_Dakota/Beulah", 
    "lib/python2.7/site-packages/pytz/zoneinfo/America/North_Dakota/Center", 
    "lib/python2.7/site-packages/pytz/zoneinfo/America/North_Dakota/New_Salem", 
    "lib/python2.7/site-packages/pytz/zoneinfo/America/Ojinaga", 
    "lib/python2.7/site-packages/pytz/zoneinfo/America/Panama", 
    "lib/python2.7/site-packages/pytz/zoneinfo/America/Pangnirtung", 
    "lib/python2.7/site-packages/pytz/zoneinfo/America/Paramaribo", 
    "lib/python2.7/site-packages/pytz/zoneinfo/America/Phoenix", 
    "lib/python2.7/site-packages/pytz/zoneinfo/America/Port-au-Prince", 
    "lib/python2.7/site-packages/pytz/zoneinfo/America/Port_of_Spain", 
    "lib/python2.7/site-packages/pytz/zoneinfo/America/Porto_Acre", 
    "lib/python2.7/site-packages/pytz/zoneinfo/America/Porto_Velho", 
    "lib/python2.7/site-packages/pytz/zoneinfo/America/Puerto_Rico", 
    "lib/python2.7/site-packages/pytz/zoneinfo/America/Rainy_River", 
    "lib/python2.7/site-packages/pytz/zoneinfo/America/Rankin_Inlet", 
    "lib/python2.7/site-packages/pytz/zoneinfo/America/Recife", 
    "lib/python2.7/site-packages/pytz/zoneinfo/America/Regina", 
    "lib/python2.7/site-packages/pytz/zoneinfo/America/Resolute", 
    "lib/python2.7/site-packages/pytz/zoneinfo/America/Rio_Branco", 
    "lib/python2.7/site-packages/pytz/zoneinfo/America/Rosario", 
    "lib/python2.7/site-packages/pytz/zoneinfo/America/Santa_Isabel", 
    "lib/python2.7/site-packages/pytz/zoneinfo/America/Santarem", 
    "lib/python2.7/site-packages/pytz/zoneinfo/America/Santiago", 
    "lib/python2.7/site-packages/pytz/zoneinfo/America/Santo_Domingo", 
    "lib/python2.7/site-packages/pytz/zoneinfo/America/Sao_Paulo", 
    "lib/python2.7/site-packages/pytz/zoneinfo/America/Scoresbysund", 
    "lib/python2.7/site-packages/pytz/zoneinfo/America/Shiprock", 
    "lib/python2.7/site-packages/pytz/zoneinfo/America/Sitka", 
    "lib/python2.7/site-packages/pytz/zoneinfo/America/St_Barthelemy", 
    "lib/python2.7/site-packages/pytz/zoneinfo/America/St_Johns", 
    "lib/python2.7/site-packages/pytz/zoneinfo/America/St_Kitts", 
    "lib/python2.7/site-packages/pytz/zoneinfo/America/St_Lucia", 
    "lib/python2.7/site-packages/pytz/zoneinfo/America/St_Thomas", 
    "lib/python2.7/site-packages/pytz/zoneinfo/America/St_Vincent", 
    "lib/python2.7/site-packages/pytz/zoneinfo/America/Swift_Current", 
    "lib/python2.7/site-packages/pytz/zoneinfo/America/Tegucigalpa", 
    "lib/python2.7/site-packages/pytz/zoneinfo/America/Thule", 
    "lib/python2.7/site-packages/pytz/zoneinfo/America/Thunder_Bay", 
    "lib/python2.7/site-packages/pytz/zoneinfo/America/Tijuana", 
    "lib/python2.7/site-packages/pytz/zoneinfo/America/Toronto", 
    "lib/python2.7/site-packages/pytz/zoneinfo/America/Tortola", 
    "lib/python2.7/site-packages/pytz/zoneinfo/America/Vancouver", 
    "lib/python2.7/site-packages/pytz/zoneinfo/America/Virgin", 
    "lib/python2.7/site-packages/pytz/zoneinfo/America/Whitehorse", 
    "lib/python2.7/site-packages/pytz/zoneinfo/America/Winnipeg", 
    "lib/python2.7/site-packages/pytz/zoneinfo/America/Yakutat", 
    "lib/python2.7/site-packages/pytz/zoneinfo/America/Yellowknife", 
    "lib/python2.7/site-packages/pytz/zoneinfo/Antarctica/Casey", 
    "lib/python2.7/site-packages/pytz/zoneinfo/Antarctica/Davis", 
    "lib/python2.7/site-packages/pytz/zoneinfo/Antarctica/DumontDUrville", 
    "lib/python2.7/site-packages/pytz/zoneinfo/Antarctica/Macquarie", 
    "lib/python2.7/site-packages/pytz/zoneinfo/Antarctica/Mawson", 
    "lib/python2.7/site-packages/pytz/zoneinfo/Antarctica/McMurdo", 
    "lib/python2.7/site-packages/pytz/zoneinfo/Antarctica/Palmer", 
    "lib/python2.7/site-packages/pytz/zoneinfo/Antarctica/Rothera", 
    "lib/python2.7/site-packages/pytz/zoneinfo/Antarctica/South_Pole", 
    "lib/python2.7/site-packages/pytz/zoneinfo/Antarctica/Syowa", 
    "lib/python2.7/site-packages/pytz/zoneinfo/Antarctica/Troll", 
    "lib/python2.7/site-packages/pytz/zoneinfo/Antarctica/Vostok", 
    "lib/python2.7/site-packages/pytz/zoneinfo/Arctic/Longyearbyen", 
    "lib/python2.7/site-packages/pytz/zoneinfo/Asia/Aden", 
    "lib/python2.7/site-packages/pytz/zoneinfo/Asia/Almaty", 
    "lib/python2.7/site-packages/pytz/zoneinfo/Asia/Amman", 
    "lib/python2.7/site-packages/pytz/zoneinfo/Asia/Anadyr", 
    "lib/python2.7/site-packages/pytz/zoneinfo/Asia/Aqtau", 
    "lib/python2.7/site-packages/pytz/zoneinfo/Asia/Aqtobe", 
    "lib/python2.7/site-packages/pytz/zoneinfo/Asia/Ashgabat", 
    "lib/python2.7/site-packages/pytz/zoneinfo/Asia/Ashkhabad", 
    "lib/python2.7/site-packages/pytz/zoneinfo/Asia/Baghdad", 
    "lib/python2.7/site-packages/pytz/zoneinfo/Asia/Bahrain", 
    "lib/python2.7/site-packages/pytz/zoneinfo/Asia/Baku", 
    "lib/python2.7/site-packages/pytz/zoneinfo/Asia/Bangkok", 
    "lib/python2.7/site-packages/pytz/zoneinfo/Asia/Barnaul", 
    "lib/python2.7/site-packages/pytz/zoneinfo/Asia/Beirut", 
    "lib/python2.7/site-packages/pytz/zoneinfo/Asia/Bishkek", 
    "lib/python2.7/site-packages/pytz/zoneinfo/Asia/Brunei", 
    "lib/python2.7/site-packages/pytz/zoneinfo/Asia/Calcutta", 
    "lib/python2.7/site-packages/pytz/zoneinfo/Asia/Chita", 
    "lib/python2.7/site-packages/pytz/zoneinfo/Asia/Choibalsan", 
    "lib/python2.7/site-packages/pytz/zoneinfo/Asia/Chongqing", 
    "lib/python2.7/site-packages/pytz/zoneinfo/Asia/Chungking", 
    "lib/python2.7/site-packages/pytz/zoneinfo/Asia/Colombo", 
    "lib/python2.7/site-packages/pytz/zoneinfo/Asia/Dacca", 
    "lib/python2.7/site-packages/pytz/zoneinfo/Asia/Damascus", 
    "lib/python2.7/site-packages/pytz/zoneinfo/Asia/Dhaka", 
    "lib/python2.7/site-packages/pytz/zoneinfo/Asia/Dili", 
    "lib/python2.7/site-packages/pytz/zoneinfo/Asia/Dubai", 
    "lib/python2.7/site-packages/pytz/zoneinfo/Asia/Dushanbe", 
    "lib/python2.7/site-packages/pytz/zoneinfo/Asia/Gaza", 
    "lib/python2.7/site-packages/pytz/zoneinfo/Asia/Harbin", 
    "lib/python2.7/site-packages/pytz/zoneinfo/Asia/Hebron", 
    "lib/python2.7/site-packages/pytz/zoneinfo/Asia/Ho_Chi_Minh", 
    "lib/python2.7/site-packages/pytz/zoneinfo/Asia/Hong_Kong", 
    "lib/python2.7/site-packages/pytz/zoneinfo/Asia/Hovd", 
    "lib/python2.7/site-packages/pytz/zoneinfo/Asia/Irkutsk", 
    "lib/python2.7/site-packages/pytz/zoneinfo/Asia/Istanbul", 
    "lib/python2.7/site-packages/pytz/zoneinfo/Asia/Jakarta", 
    "lib/python2.7/site-packages/pytz/zoneinfo/Asia/Jayapura", 
    "lib/python2.7/site-packages/pytz/zoneinfo/Asia/Jerusalem", 
    "lib/python2.7/site-packages/pytz/zoneinfo/Asia/Kabul", 
    "lib/python2.7/site-packages/pytz/zoneinfo/Asia/Kamchatka", 
    "lib/python2.7/site-packages/pytz/zoneinfo/Asia/Karachi", 
    "lib/python2.7/site-packages/pytz/zoneinfo/Asia/Kashgar", 
    "lib/python2.7/site-packages/pytz/zoneinfo/Asia/Kathmandu", 
    "lib/python2.7/site-packages/pytz/zoneinfo/Asia/Katmandu", 
    "lib/python2.7/site-packages/pytz/zoneinfo/Asia/Khandyga", 
    "lib/python2.7/site-packages/pytz/zoneinfo/Asia/Kolkata", 
    "lib/python2.7/site-packages/pytz/zoneinfo/Asia/Krasnoyarsk", 
    "lib/python2.7/site-packages/pytz/zoneinfo/Asia/Kuala_Lumpur", 
    "lib/python2.7/site-packages/pytz/zoneinfo/Asia/Kuching", 
    "lib/python2.7/site-packages/pytz/zoneinfo/Asia/Kuwait", 
    "lib/python2.7/site-packages/pytz/zoneinfo/Asia/Macao", 
    "lib/python2.7/site-packages/pytz/zoneinfo/Asia/Macau", 
    "lib/python2.7/site-packages/pytz/zoneinfo/Asia/Magadan", 
    "lib/python2.7/site-packages/pytz/zoneinfo/Asia/Makassar", 
    "lib/python2.7/site-packages/pytz/zoneinfo/Asia/Manila", 
    "lib/python2.7/site-packages/pytz/zoneinfo/Asia/Muscat", 
    "lib/python2.7/site-packages/pytz/zoneinfo/Asia/Nicosia", 
    "lib/python2.7/site-packages/pytz/zoneinfo/Asia/Novokuznetsk", 
    "lib/python2.7/site-packages/pytz/zoneinfo/Asia/Novosibirsk", 
    "lib/python2.7/site-packages/pytz/zoneinfo/Asia/Omsk", 
    "lib/python2.7/site-packages/pytz/zoneinfo/Asia/Oral", 
    "lib/python2.7/site-packages/pytz/zoneinfo/Asia/Phnom_Penh", 
    "lib/python2.7/site-packages/pytz/zoneinfo/Asia/Pontianak", 
    "lib/python2.7/site-packages/pytz/zoneinfo/Asia/Pyongyang", 
    "lib/python2.7/site-packages/pytz/zoneinfo/Asia/Qatar", 
    "lib/python2.7/site-packages/pytz/zoneinfo/Asia/Qyzylorda", 
    "lib/python2.7/site-packages/pytz/zoneinfo/Asia/Rangoon", 
    "lib/python2.7/site-packages/pytz/zoneinfo/Asia/Riyadh", 
    "lib/python2.7/site-packages/pytz/zoneinfo/Asia/Saigon", 
    "lib/python2.7/site-packages/pytz/zoneinfo/Asia/Sakhalin", 
    "lib/python2.7/site-packages/pytz/zoneinfo/Asia/Samarkand", 
    "lib/python2.7/site-packages/pytz/zoneinfo/Asia/Seoul", 
    "lib/python2.7/site-packages/pytz/zoneinfo/Asia/Shanghai", 
    "lib/python2.7/site-packages/pytz/zoneinfo/Asia/Singapore", 
    "lib/python2.7/site-packages/pytz/zoneinfo/Asia/Srednekolymsk", 
    "lib/python2.7/site-packages/pytz/zoneinfo/Asia/Taipei", 
    "lib/python2.7/site-packages/pytz/zoneinfo/Asia/Tashkent", 
    "lib/python2.7/site-packages/pytz/zoneinfo/Asia/Tbilisi", 
    "lib/python2.7/site-packages/pytz/zoneinfo/Asia/Tehran", 
    "lib/python2.7/site-packages/pytz/zoneinfo/Asia/Tel_Aviv", 
    "lib/python2.7/site-packages/pytz/zoneinfo/Asia/Thimbu", 
    "lib/python2.7/site-packages/pytz/zoneinfo/Asia/Thimphu", 
    "lib/python2.7/site-packages/pytz/zoneinfo/Asia/Tokyo", 
    "lib/python2.7/site-packages/pytz/zoneinfo/Asia/Ujung_Pandang", 
    "lib/python2.7/site-packages/pytz/zoneinfo/Asia/Ulaanbaatar", 
    "lib/python2.7/site-packages/pytz/zoneinfo/Asia/Ulan_Bator", 
    "lib/python2.7/site-packages/pytz/zoneinfo/Asia/Urumqi", 
    "lib/python2.7/site-packages/pytz/zoneinfo/Asia/Ust-Nera", 
    "lib/python2.7/site-packages/pytz/zoneinfo/Asia/Vientiane", 
    "lib/python2.7/site-packages/pytz/zoneinfo/Asia/Vladivostok", 
    "lib/python2.7/site-packages/pytz/zoneinfo/Asia/Yakutsk", 
    "lib/python2.7/site-packages/pytz/zoneinfo/Asia/Yekaterinburg", 
    "lib/python2.7/site-packages/pytz/zoneinfo/Asia/Yerevan", 
    "lib/python2.7/site-packages/pytz/zoneinfo/Atlantic/Azores", 
    "lib/python2.7/site-packages/pytz/zoneinfo/Atlantic/Bermuda", 
    "lib/python2.7/site-packages/pytz/zoneinfo/Atlantic/Canary", 
    "lib/python2.7/site-packages/pytz/zoneinfo/Atlantic/Cape_Verde", 
    "lib/python2.7/site-packages/pytz/zoneinfo/Atlantic/Faeroe", 
    "lib/python2.7/site-packages/pytz/zoneinfo/Atlantic/Faroe", 
    "lib/python2.7/site-packages/pytz/zoneinfo/Atlantic/Jan_Mayen", 
    "lib/python2.7/site-packages/pytz/zoneinfo/Atlantic/Madeira", 
    "lib/python2.7/site-packages/pytz/zoneinfo/Atlantic/Reykjavik", 
    "lib/python2.7/site-packages/pytz/zoneinfo/Atlantic/South_Georgia", 
    "lib/python2.7/site-packages/pytz/zoneinfo/Atlantic/St_Helena", 
    "lib/python2.7/site-packages/pytz/zoneinfo/Atlantic/Stanley", 
    "lib/python2.7/site-packages/pytz/zoneinfo/Australia/ACT", 
    "lib/python2.7/site-packages/pytz/zoneinfo/Australia/Adelaide", 
    "lib/python2.7/site-packages/pytz/zoneinfo/Australia/Brisbane", 
    "lib/python2.7/site-packages/pytz/zoneinfo/Australia/Broken_Hill", 
    "lib/python2.7/site-packages/pytz/zoneinfo/Australia/Canberra", 
    "lib/python2.7/site-packages/pytz/zoneinfo/Australia/Currie", 
    "lib/python2.7/site-packages/pytz/zoneinfo/Australia/Darwin", 
    "lib/python2.7/site-packages/pytz/zoneinfo/Australia/Eucla", 
    "lib/python2.7/site-packages/pytz/zoneinfo/Australia/Hobart", 
    "lib/python2.7/site-packages/pytz/zoneinfo/Australia/LHI", 
    "lib/python2.7/site-packages/pytz/zoneinfo/Australia/Lindeman", 
    "lib/python2.7/site-packages/pytz/zoneinfo/Australia/Lord_Howe", 
    "lib/python2.7/site-packages/pytz/zoneinfo/Australia/Melbourne", 
    "lib/python2.7/site-packages/pytz/zoneinfo/Australia/NSW", 
    "lib/python2.7/site-packages/pytz/zoneinfo/Australia/North", 
    "lib/python2.7/site-packages/pytz/zoneinfo/Australia/Perth", 
    "lib/python2.7/site-packages/pytz/zoneinfo/Australia/Queensland", 
    "lib/python2.7/site-packages/pytz/zoneinfo/Australia/South", 
    "lib/python2.7/site-packages/pytz/zoneinfo/Australia/Sydney", 
    "lib/python2.7/site-packages/pytz/zoneinfo/Australia/Tasmania", 
    "lib/python2.7/site-packages/pytz/zoneinfo/Australia/Victoria", 
    "lib/python2.7/site-packages/pytz/zoneinfo/Australia/West", 
    "lib/python2.7/site-packages/pytz/zoneinfo/Australia/Yancowinna", 
    "lib/python2.7/site-packages/pytz/zoneinfo/Brazil/Acre", 
    "lib/python2.7/site-packages/pytz/zoneinfo/Brazil/DeNoronha", 
    "lib/python2.7/site-packages/pytz/zoneinfo/Brazil/East", 
    "lib/python2.7/site-packages/pytz/zoneinfo/Brazil/West", 
    "lib/python2.7/site-packages/pytz/zoneinfo/CET", 
    "lib/python2.7/site-packages/pytz/zoneinfo/CST6CDT", 
    "lib/python2.7/site-packages/pytz/zoneinfo/Canada/Atlantic", 
    "lib/python2.7/site-packages/pytz/zoneinfo/Canada/Central", 
    "lib/python2.7/site-packages/pytz/zoneinfo/Canada/East-Saskatchewan", 
    "lib/python2.7/site-packages/pytz/zoneinfo/Canada/Eastern", 
    "lib/python2.7/site-packages/pytz/zoneinfo/Canada/Mountain", 
    "lib/python2.7/site-packages/pytz/zoneinfo/Canada/Newfoundland", 
    "lib/python2.7/site-packages/pytz/zoneinfo/Canada/Pacific", 
    "lib/python2.7/site-packages/pytz/zoneinfo/Canada/Saskatchewan", 
    "lib/python2.7/site-packages/pytz/zoneinfo/Canada/Yukon", 
    "lib/python2.7/site-packages/pytz/zoneinfo/Chile/Continental", 
    "lib/python2.7/site-packages/pytz/zoneinfo/Chile/EasterIsland", 
    "lib/python2.7/site-packages/pytz/zoneinfo/Cuba", 
    "lib/python2.7/site-packages/pytz/zoneinfo/EET", 
    "lib/python2.7/site-packages/pytz/zoneinfo/EST", 
    "lib/python2.7/site-packages/pytz/zoneinfo/EST5EDT", 
    "lib/python2.7/site-packages/pytz/zoneinfo/Egypt", 
    "lib/python2.7/site-packages/pytz/zoneinfo/Eire", 
    "lib/python2.7/site-packages/pytz/zoneinfo/Etc/GMT", 
    "lib/python2.7/site-packages/pytz/zoneinfo/Etc/GMT+0", 
    "lib/python2.7/site-packages/pytz/zoneinfo/Etc/GMT+1", 
    "lib/python2.7/site-packages/pytz/zoneinfo/Etc/GMT+10", 
    "lib/python2.7/site-packages/pytz/zoneinfo/Etc/GMT+11", 
    "lib/python2.7/site-packages/pytz/zoneinfo/Etc/GMT+12", 
    "lib/python2.7/site-packages/pytz/zoneinfo/Etc/GMT+2", 
    "lib/python2.7/site-packages/pytz/zoneinfo/Etc/GMT+3", 
    "lib/python2.7/site-packages/pytz/zoneinfo/Etc/GMT+4", 
    "lib/python2.7/site-packages/pytz/zoneinfo/Etc/GMT+5", 
    "lib/python2.7/site-packages/pytz/zoneinfo/Etc/GMT+6", 
    "lib/python2.7/site-packages/pytz/zoneinfo/Etc/GMT+7", 
    "lib/python2.7/site-packages/pytz/zoneinfo/Etc/GMT+8", 
    "lib/python2.7/site-packages/pytz/zoneinfo/Etc/GMT+9", 
    "lib/python2.7/site-packages/pytz/zoneinfo/Etc/GMT-0", 
    "lib/python2.7/site-packages/pytz/zoneinfo/Etc/GMT-1", 
    "lib/python2.7/site-packages/pytz/zoneinfo/Etc/GMT-10", 
    "lib/python2.7/site-packages/pytz/zoneinfo/Etc/GMT-11", 
    "lib/python2.7/site-packages/pytz/zoneinfo/Etc/GMT-12", 
    "lib/python2.7/site-packages/pytz/zoneinfo/Etc/GMT-13", 
    "lib/python2.7/site-packages/pytz/zoneinfo/Etc/GMT-14", 
    "lib/python2.7/site-packages/pytz/zoneinfo/Etc/GMT-2", 
    "lib/python2.7/site-packages/pytz/zoneinfo/Etc/GMT-3", 
    "lib/python2.7/site-packages/pytz/zoneinfo/Etc/GMT-4", 
    "lib/python2.7/site-packages/pytz/zoneinfo/Etc/GMT-5", 
    "lib/python2.7/site-packages/pytz/zoneinfo/Etc/GMT-6", 
    "lib/python2.7/site-packages/pytz/zoneinfo/Etc/GMT-7", 
    "lib/python2.7/site-packages/pytz/zoneinfo/Etc/GMT-8", 
    "lib/python2.7/site-packages/pytz/zoneinfo/Etc/GMT-9", 
    "lib/python2.7/site-packages/pytz/zoneinfo/Etc/GMT0", 
    "lib/python2.7/site-packages/pytz/zoneinfo/Etc/Greenwich", 
    "lib/python2.7/site-packages/pytz/zoneinfo/Etc/UCT", 
    "lib/python2.7/site-packages/pytz/zoneinfo/Etc/UTC", 
    "lib/python2.7/site-packages/pytz/zoneinfo/Etc/Universal", 
    "lib/python2.7/site-packages/pytz/zoneinfo/Etc/Zulu", 
    "lib/python2.7/site-packages/pytz/zoneinfo/Europe/Amsterdam", 
    "lib/python2.7/site-packages/pytz/zoneinfo/Europe/Andorra", 
    "lib/python2.7/site-packages/pytz/zoneinfo/Europe/Astrakhan", 
    "lib/python2.7/site-packages/pytz/zoneinfo/Europe/Athens", 
    "lib/python2.7/site-packages/pytz/zoneinfo/Europe/Belfast", 
    "lib/python2.7/site-packages/pytz/zoneinfo/Europe/Belgrade", 
    "lib/python2.7/site-packages/pytz/zoneinfo/Europe/Berlin", 
    "lib/python2.7/site-packages/pytz/zoneinfo/Europe/Bratislava", 
    "lib/python2.7/site-packages/pytz/zoneinfo/Europe/Brussels", 
    "lib/python2.7/site-packages/pytz/zoneinfo/Europe/Bucharest", 
    "lib/python2.7/site-packages/pytz/zoneinfo/Europe/Budapest", 
    "lib/python2.7/site-packages/pytz/zoneinfo/Europe/Busingen", 
    "lib/python2.7/site-packages/pytz/zoneinfo/Europe/Chisinau", 
    "lib/python2.7/site-packages/pytz/zoneinfo/Europe/Copenhagen", 
    "lib/python2.7/site-packages/pytz/zoneinfo/Europe/Dublin", 
    "lib/python2.7/site-packages/pytz/zoneinfo/Europe/Gibraltar", 
    "lib/python2.7/site-packages/pytz/zoneinfo/Europe/Guernsey", 
    "lib/python2.7/site-packages/pytz/zoneinfo/Europe/Helsinki", 
    "lib/python2.7/site-packages/pytz/zoneinfo/Europe/Isle_of_Man", 
    "lib/python2.7/site-packages/pytz/zoneinfo/Europe/Istanbul", 
    "lib/python2.7/site-packages/pytz/zoneinfo/Europe/Jersey", 
    "lib/python2.7/site-packages/pytz/zoneinfo/Europe/Kaliningrad", 
    "lib/python2.7/site-packages/pytz/zoneinfo/Europe/Kiev", 
    "lib/python2.7/site-packages/pytz/zoneinfo/Europe/Lisbon", 
    "lib/python2.7/site-packages/pytz/zoneinfo/Europe/Ljubljana", 
    "lib/python2.7/site-packages/pytz/zoneinfo/Europe/London", 
    "lib/python2.7/site-packages/pytz/zoneinfo/Europe/Luxembourg", 
    "lib/python2.7/site-packages/pytz/zoneinfo/Europe/Madrid", 
    "lib/python2.7/site-packages/pytz/zoneinfo/Europe/Malta", 
    "lib/python2.7/site-packages/pytz/zoneinfo/Europe/Mariehamn", 
    "lib/python2.7/site-packages/pytz/zoneinfo/Europe/Minsk", 
    "lib/python2.7/site-packages/pytz/zoneinfo/Europe/Monaco", 
    "lib/python2.7/site-packages/pytz/zoneinfo/Europe/Moscow", 
    "lib/python2.7/site-packages/pytz/zoneinfo/Europe/Nicosia", 
    "lib/python2.7/site-packages/pytz/zoneinfo/Europe/Oslo", 
    "lib/python2.7/site-packages/pytz/zoneinfo/Europe/Paris", 
    "lib/python2.7/site-packages/pytz/zoneinfo/Europe/Podgorica", 
    "lib/python2.7/site-packages/pytz/zoneinfo/Europe/Prague", 
    "lib/python2.7/site-packages/pytz/zoneinfo/Europe/Riga", 
    "lib/python2.7/site-packages/pytz/zoneinfo/Europe/Rome", 
    "lib/python2.7/site-packages/pytz/zoneinfo/Europe/Samara", 
    "lib/python2.7/site-packages/pytz/zoneinfo/Europe/San_Marino", 
    "lib/python2.7/site-packages/pytz/zoneinfo/Europe/Sarajevo", 
    "lib/python2.7/site-packages/pytz/zoneinfo/Europe/Simferopol", 
    "lib/python2.7/site-packages/pytz/zoneinfo/Europe/Skopje", 
    "lib/python2.7/site-packages/pytz/zoneinfo/Europe/Sofia", 
    "lib/python2.7/site-packages/pytz/zoneinfo/Europe/Stockholm", 
    "lib/python2.7/site-packages/pytz/zoneinfo/Europe/Tallinn", 
    "lib/python2.7/site-packages/pytz/zoneinfo/Europe/Tirane", 
    "lib/python2.7/site-packages/pytz/zoneinfo/Europe/Tiraspol", 
    "lib/python2.7/site-packages/pytz/zoneinfo/Europe/Ulyanovsk", 
    "lib/python2.7/site-packages/pytz/zoneinfo/Europe/Uzhgorod", 
    "lib/python2.7/site-packages/pytz/zoneinfo/Europe/Vaduz", 
    "lib/python2.7/site-packages/pytz/zoneinfo/Europe/Vatican", 
    "lib/python2.7/site-packages/pytz/zoneinfo/Europe/Vienna", 
    "lib/python2.7/site-packages/pytz/zoneinfo/Europe/Vilnius", 
    "lib/python2.7/site-packages/pytz/zoneinfo/Europe/Volgograd", 
    "lib/python2.7/site-packages/pytz/zoneinfo/Europe/Warsaw", 
    "lib/python2.7/site-packages/pytz/zoneinfo/Europe/Zagreb", 
    "lib/python2.7/site-packages/pytz/zoneinfo/Europe/Zaporozhye", 
    "lib/python2.7/site-packages/pytz/zoneinfo/Europe/Zurich", 
    "lib/python2.7/site-packages/pytz/zoneinfo/Factory", 
    "lib/python2.7/site-packages/pytz/zoneinfo/GB", 
    "lib/python2.7/site-packages/pytz/zoneinfo/GB-Eire", 
    "lib/python2.7/site-packages/pytz/zoneinfo/GMT", 
    "lib/python2.7/site-packages/pytz/zoneinfo/GMT+0", 
    "lib/python2.7/site-packages/pytz/zoneinfo/GMT-0", 
    "lib/python2.7/site-packages/pytz/zoneinfo/GMT0", 
    "lib/python2.7/site-packages/pytz/zoneinfo/Greenwich", 
    "lib/python2.7/site-packages/pytz/zoneinfo/HST", 
    "lib/python2.7/site-packages/pytz/zoneinfo/Hongkong", 
    "lib/python2.7/site-packages/pytz/zoneinfo/Iceland", 
    "lib/python2.7/site-packages/pytz/zoneinfo/Indian/Antananarivo", 
    "lib/python2.7/site-packages/pytz/zoneinfo/Indian/Chagos", 
    "lib/python2.7/site-packages/pytz/zoneinfo/Indian/Christmas", 
    "lib/python2.7/site-packages/pytz/zoneinfo/Indian/Cocos", 
    "lib/python2.7/site-packages/pytz/zoneinfo/Indian/Comoro", 
    "lib/python2.7/site-packages/pytz/zoneinfo/Indian/Kerguelen", 
    "lib/python2.7/site-packages/pytz/zoneinfo/Indian/Mahe", 
    "lib/python2.7/site-packages/pytz/zoneinfo/Indian/Maldives", 
    "lib/python2.7/site-packages/pytz/zoneinfo/Indian/Mauritius", 
    "lib/python2.7/site-packages/pytz/zoneinfo/Indian/Mayotte", 
    "lib/python2.7/site-packages/pytz/zoneinfo/Indian/Reunion", 
    "lib/python2.7/site-packages/pytz/zoneinfo/Iran", 
    "lib/python2.7/site-packages/pytz/zoneinfo/Israel", 
    "lib/python2.7/site-packages/pytz/zoneinfo/Jamaica", 
    "lib/python2.7/site-packages/pytz/zoneinfo/Japan", 
    "lib/python2.7/site-packages/pytz/zoneinfo/Kwajalein", 
    "lib/python2.7/site-packages/pytz/zoneinfo/Libya", 
    "lib/python2.7/site-packages/pytz/zoneinfo/MET", 
    "lib/python2.7/site-packages/pytz/zoneinfo/MST", 
    "lib/python2.7/site-packages/pytz/zoneinfo/MST7MDT", 
    "lib/python2.7/site-packages/pytz/zoneinfo/Mexico/BajaNorte", 
    "lib/python2.7/site-packages/pytz/zoneinfo/Mexico/BajaSur", 
    "lib/python2.7/site-packages/pytz/zoneinfo/Mexico/General", 
    "lib/python2.7/site-packages/pytz/zoneinfo/NZ", 
    "lib/python2.7/site-packages/pytz/zoneinfo/NZ-CHAT", 
    "lib/python2.7/site-packages/pytz/zoneinfo/Navajo", 
    "lib/python2.7/site-packages/pytz/zoneinfo/PRC", 
    "lib/python2.7/site-packages/pytz/zoneinfo/PST8PDT", 
    "lib/python2.7/site-packages/pytz/zoneinfo/Pacific/Apia", 
    "lib/python2.7/site-packages/pytz/zoneinfo/Pacific/Auckland", 
    "lib/python2.7/site-packages/pytz/zoneinfo/Pacific/Bougainville", 
    "lib/python2.7/site-packages/pytz/zoneinfo/Pacific/Chatham", 
    "lib/python2.7/site-packages/pytz/zoneinfo/Pacific/Chuuk", 
    "lib/python2.7/site-packages/pytz/zoneinfo/Pacific/Easter", 
    "lib/python2.7/site-packages/pytz/zoneinfo/Pacific/Efate", 
    "lib/python2.7/site-packages/pytz/zoneinfo/Pacific/Enderbury", 
    "lib/python2.7/site-packages/pytz/zoneinfo/Pacific/Fakaofo", 
    "lib/python2.7/site-packages/pytz/zoneinfo/Pacific/Fiji", 
    "lib/python2.7/site-packages/pytz/zoneinfo/Pacific/Funafuti", 
    "lib/python2.7/site-packages/pytz/zoneinfo/Pacific/Galapagos", 
    "lib/python2.7/site-packages/pytz/zoneinfo/Pacific/Gambier", 
    "lib/python2.7/site-packages/pytz/zoneinfo/Pacific/Guadalcanal", 
    "lib/python2.7/site-packages/pytz/zoneinfo/Pacific/Guam", 
    "lib/python2.7/site-packages/pytz/zoneinfo/Pacific/Honolulu", 
    "lib/python2.7/site-packages/pytz/zoneinfo/Pacific/Johnston", 
    "lib/python2.7/site-packages/pytz/zoneinfo/Pacific/Kiritimati", 
    "lib/python2.7/site-packages/pytz/zoneinfo/Pacific/Kosrae", 
    "lib/python2.7/site-packages/pytz/zoneinfo/Pacific/Kwajalein", 
    "lib/python2.7/site-packages/pytz/zoneinfo/Pacific/Majuro", 
    "lib/python2.7/site-packages/pytz/zoneinfo/Pacific/Marquesas", 
    "lib/python2.7/site-packages/pytz/zoneinfo/Pacific/Midway", 
    "lib/python2.7/site-packages/pytz/zoneinfo/Pacific/Nauru", 
    "lib/python2.7/site-packages/pytz/zoneinfo/Pacific/Niue", 
    "lib/python2.7/site-packages/pytz/zoneinfo/Pacific/Norfolk", 
    "lib/python2.7/site-packages/pytz/zoneinfo/Pacific/Noumea", 
    "lib/python2.7/site-packages/pytz/zoneinfo/Pacific/Pago_Pago", 
    "lib/python2.7/site-packages/pytz/zoneinfo/Pacific/Palau", 
    "lib/python2.7/site-packages/pytz/zoneinfo/Pacific/Pitcairn", 
    "lib/python2.7/site-packages/pytz/zoneinfo/Pacific/Pohnpei", 
    "lib/python2.7/site-packages/pytz/zoneinfo/Pacific/Ponape", 
    "lib/python2.7/site-packages/pytz/zoneinfo/Pacific/Port_Moresby", 
    "lib/python2.7/site-packages/pytz/zoneinfo/Pacific/Rarotonga", 
    "lib/python2.7/site-packages/pytz/zoneinfo/Pacific/Saipan", 
    "lib/python2.7/site-packages/pytz/zoneinfo/Pacific/Samoa", 
    "lib/python2.7/site-packages/pytz/zoneinfo/Pacific/Tahiti", 
    "lib/python2.7/site-packages/pytz/zoneinfo/Pacific/Tarawa", 
    "lib/python2.7/site-packages/pytz/zoneinfo/Pacific/Tongatapu", 
    "lib/python2.7/site-packages/pytz/zoneinfo/Pacific/Truk", 
    "lib/python2.7/site-packages/pytz/zoneinfo/Pacific/Wake", 
    "lib/python2.7/site-packages/pytz/zoneinfo/Pacific/Wallis", 
    "lib/python2.7/site-packages/pytz/zoneinfo/Pacific/Yap", 
    "lib/python2.7/site-packages/pytz/zoneinfo/Poland", 
    "lib/python2.7/site-packages/pytz/zoneinfo/Portugal", 
    "lib/python2.7/site-packages/pytz/zoneinfo/ROC", 
    "lib/python2.7/site-packages/pytz/zoneinfo/ROK", 
    "lib/python2.7/site-packages/pytz/zoneinfo/Singapore", 
    "lib/python2.7/site-packages/pytz/zoneinfo/Turkey", 
    "lib/python2.7/site-packages/pytz/zoneinfo/UCT", 
    "lib/python2.7/site-packages/pytz/zoneinfo/US/Alaska", 
    "lib/python2.7/site-packages/pytz/zoneinfo/US/Aleutian", 
    "lib/python2.7/site-packages/pytz/zoneinfo/US/Arizona", 
    "lib/python2.7/site-packages/pytz/zoneinfo/US/Central", 
    "lib/python2.7/site-packages/pytz/zoneinfo/US/East-Indiana", 
    "lib/python2.7/site-packages/pytz/zoneinfo/US/Eastern", 
    "lib/python2.7/site-packages/pytz/zoneinfo/US/Hawaii", 
    "lib/python2.7/site-packages/pytz/zoneinfo/US/Indiana-Starke", 
    "lib/python2.7/site-packages/pytz/zoneinfo/US/Michigan", 
    "lib/python2.7/site-packages/pytz/zoneinfo/US/Mountain", 
    "lib/python2.7/site-packages/pytz/zoneinfo/US/Pacific", 
    "lib/python2.7/site-packages/pytz/zoneinfo/US/Pacific-New", 
    "lib/python2.7/site-packages/pytz/zoneinfo/US/Samoa", 
    "lib/python2.7/site-packages/pytz/zoneinfo/UTC", 
    "lib/python2.7/site-packages/pytz/zoneinfo/Universal", 
    "lib/python2.7/site-packages/pytz/zoneinfo/W-SU", 
    "lib/python2.7/site-packages/pytz/zoneinfo/WET", 
    "lib/python2.7/site-packages/pytz/zoneinfo/Zulu", 
    "lib/python2.7/site-packages/pytz/zoneinfo/iso3166.tab", 
    "lib/python2.7/site-packages/pytz/zoneinfo/localtime", 
    "lib/python2.7/site-packages/pytz/zoneinfo/posixrules", 
    "lib/python2.7/site-packages/pytz/zoneinfo/zone.tab", 
    "lib/python2.7/site-packages/pytz/zoneinfo/zone1970.tab"
  ], 
  "license": "MIT", 
  "link": {
    "source": "/opt/anaconda/2/4.0.0/pkgs/pytz-2016.2-py27_0", 
    "type": "soft-link"
  }, 
  "md5": "c0390204e78adf5e9e6383476000c12f", 
  "name": "pytz", 
  "platform": "linux", 
  "requires": [], 
  "size": 180605, 
  "subdir": "linux-64", 
  "url": "https://repo.continuum.io/pkgs/free/linux-64/pytz-2016.2-py27_0.tar.bz2", 
  "version": "2016.2"
}