{
  "arch": "x86_64", 
  "build": "2", 
  "build_number": 2, 
  "channel": "https://repo.continuum.io/pkgs/free/linux-64/", 
  "date": "2014-01-03", 
  "depends": [], 
  "files": [
    "include/readline/chardefs.h", 
    "include/readline/history.h", 
    "include/readline/keymaps.h", 
    "include/readline/readline.h", 
    "include/readline/rlconf.h", 
    "include/readline/rlstdc.h", 
    "include/readline/rltypedefs.h", 
    "include/readline/tilde.h", 
    "lib/libhistory.a", 
    "lib/libhistory.so", 
    "lib/libhistory.so.6", 
    "lib/libhistory.so.6.2", 
    "lib/libreadline.a", 
    "lib/libreadline.so", 
    "lib/libreadline.so.6", 
    "lib/libreadline.so.6.2", 
    "share/info/history.info", 
    "share/info/readline.info", 
    "share/info/rluserman.info"
  ], 
  "license": "GPL3", 
  "link": {
    "source": "/opt/anaconda/2/4.0.0/pkgs/readline-6.2-2", 
    "type": "soft-link"
  }, 
  "md5": "d050607fb2934282470d06872e0e6cce", 
  "name": "readline", 
  "platform": "linux", 
  "requires": [], 
  "size": 620292, 
  "url": "https://repo.continuum.io/pkgs/free/linux-64/readline-6.2-2.tar.bz2", 
  "version": "6.2"
}