{
  "arch": "x86_64", 
  "build": "py27_0", 
  "build_number": 0, 
  "channel": "https://repo.continuum.io/pkgs/free/linux-64/", 
  "date": "2016-03-21", 
  "depends": [
    "decorator", 
    "ipython_genutils", 
    "python 2.7*"
  ], 
  "files": [
    "lib/python2.7/site-packages/traitlets-4.2.1-py2.7.egg-info", 
    "lib/python2.7/site-packages/traitlets/__init__.py", 
    "lib/python2.7/site-packages/traitlets/__init__.pyc", 
    "lib/python2.7/site-packages/traitlets/_version.py", 
    "lib/python2.7/site-packages/traitlets/_version.pyc", 
    "lib/python2.7/site-packages/traitlets/config/__init__.py", 
    "lib/python2.7/site-packages/traitlets/config/__init__.pyc", 
    "lib/python2.7/site-packages/traitlets/config/application.py", 
    "lib/python2.7/site-packages/traitlets/config/application.pyc", 
    "lib/python2.7/site-packages/traitlets/config/configurable.py", 
    "lib/python2.7/site-packages/traitlets/config/configurable.pyc", 
    "lib/python2.7/site-packages/traitlets/config/loader.py", 
    "lib/python2.7/site-packages/traitlets/config/loader.pyc", 
    "lib/python2.7/site-packages/traitlets/config/manager.py", 
    "lib/python2.7/site-packages/traitlets/config/manager.pyc", 
    "lib/python2.7/site-packages/traitlets/config/tests/__init__.py", 
    "lib/python2.7/site-packages/traitlets/config/tests/__init__.pyc", 
    "lib/python2.7/site-packages/traitlets/config/tests/test_application.py", 
    "lib/python2.7/site-packages/traitlets/config/tests/test_application.pyc", 
    "lib/python2.7/site-packages/traitlets/config/tests/test_configurable.py", 
    "lib/python2.7/site-packages/traitlets/config/tests/test_configurable.pyc", 
    "lib/python2.7/site-packages/traitlets/config/tests/test_loader.py", 
    "lib/python2.7/site-packages/traitlets/config/tests/test_loader.pyc", 
    "lib/python2.7/site-packages/traitlets/log.py", 
    "lib/python2.7/site-packages/traitlets/log.pyc", 
    "lib/python2.7/site-packages/traitlets/tests/__init__.py", 
    "lib/python2.7/site-packages/traitlets/tests/__init__.pyc", 
    "lib/python2.7/site-packages/traitlets/tests/_warnings.py", 
    "lib/python2.7/site-packages/traitlets/tests/_warnings.pyc", 
    "lib/python2.7/site-packages/traitlets/tests/test_traitlets.py", 
    "lib/python2.7/site-packages/traitlets/tests/test_traitlets.pyc", 
    "lib/python2.7/site-packages/traitlets/tests/utils.py", 
    "lib/python2.7/site-packages/traitlets/tests/utils.pyc", 
    "lib/python2.7/site-packages/traitlets/traitlets.py", 
    "lib/python2.7/site-packages/traitlets/traitlets.pyc", 
    "lib/python2.7/site-packages/traitlets/utils/__init__.py", 
    "lib/python2.7/site-packages/traitlets/utils/__init__.pyc", 
    "lib/python2.7/site-packages/traitlets/utils/getargspec.py", 
    "lib/python2.7/site-packages/traitlets/utils/getargspec.pyc", 
    "lib/python2.7/site-packages/traitlets/utils/importstring.py", 
    "lib/python2.7/site-packages/traitlets/utils/importstring.pyc", 
    "lib/python2.7/site-packages/traitlets/utils/sentinel.py", 
    "lib/python2.7/site-packages/traitlets/utils/sentinel.pyc", 
    "lib/python2.7/site-packages/traitlets/utils/tests/__init__.py", 
    "lib/python2.7/site-packages/traitlets/utils/tests/__init__.pyc", 
    "lib/python2.7/site-packages/traitlets/utils/tests/test_importstring.py", 
    "lib/python2.7/site-packages/traitlets/utils/tests/test_importstring.pyc"
  ], 
  "license": "BSD", 
  "link": {
    "source": "/opt/anaconda/2/4.0.0/pkgs/traitlets-4.2.1-py27_0", 
    "type": "soft-link"
  }, 
  "md5": "01baec7dce482f6390e39bef77242015", 
  "name": "traitlets", 
  "platform": "linux", 
  "requires": [], 
  "size": 110186, 
  "subdir": "linux-64", 
  "url": "https://repo.continuum.io/pkgs/free/linux-64/traitlets-4.2.1-py27_0.tar.bz2", 
  "version": "4.2.1"
}